{
    "derivation": "de dérivation incertaine ;",
    "frequency": 2,
    "kjv_def": "nord",
    "lemma": "βοῤῥᾶς",
    "outline": "<ol><li> Boreas, le vent du nord-nord-est</li><li> le nord</li></ol>",
    "pron": "bor-hras'",
    "strongs_def": " le nord (proprement, le vent)",
    "xlit": "borrhâs"
}