{
    "derivation": "d'origine hébraïque (H01162) ;",
    "frequency": 3,
    "kjv_def": "Booz",
    "lemma": "Βοόζ",
    "outline": "<span class=\"literal-meaning\">Boaz = \"en lui est la force\"</span><ol><li> un parent de Ruth, puis son second mari</li></ol>",
    "pron": "bo-oz'",
    "strongs_def": " Booz, (c'est-à-dire Boaz), un Israélite",
    "xlit": "Boóz"
}