{
    "derivation": "de G906 (βολή) ;",
    "frequency": 1,
    "kjv_def": "moulage",
    "lemma": "βολή",
    "outline": "<ol><li> un jet</li></ol>",
    "pron": "bol-ay'",
    "strongs_def": " un lancer (comme mesure de la distance)",
    "xlit": "bolḗ"
}