{
    "derivation": "de G1021 (βραδύνω) ;",
    "frequency": 2,
    "kjv_def": "se relâcher, s'attarder",
    "lemma": "βραδύνω",
    "outline": "<ol><li> retarder, être lent<ol><li> rendre lentement, retarder</li><li> être long, s'attarder, flâner</li></ol></li></ol>",
    "pron": "brad-oo'-no",
    "strongs_def": " pour retarder",
    "xlit": "bradýnō"
}