{
    "derivation": "d'une affinité incertaine ;",
    "frequency": 7,
    "kjv_def": "peu de mots, peu (d'espace, de temps)",
    "lemma": "βραχύς",
    "outline": "<ol><li> court, petit, peu<ol><li> de lieu, une courte distance, un peu</li><li> de temps, un court moment, pour un petit moment</li></ol></li></ol>",
    "pron": "brakh-ooce'",
    "strongs_def": " court (de temps, de lieu, de quantité ou de nombre)",
    "xlit": "brachýs"
}