{
    "derivation": "de G1021 (βραδύτης) ;",
    "frequency": 1,
    "kjv_def": "relâchement",
    "lemma": "βραδύτης",
    "outline": "<ol><li> lenteur, retard</li></ol>",
    "pron": "brad-oo'-tace",
    "strongs_def": " retards",
    "xlit": "bradýtēs"
}