{
    "derivation": "apparenté à (rugir) ;",
    "frequency": 12,
    "kjv_def": "tonnerre(-ing)",
    "lemma": "βροντή",
    "outline": "<ol><li> tonnerre</li></ol>",
    "pron": "bron-tay'",
    "strongs_def": " tonnerre",
    "xlit": "brontḗ"
}