{
    "derivation": "d'une affinité incertaine ;",
    "frequency": 8,
    "kjv_def": "bébé, (jeune) enfant, nourrisson",
    "lemma": "βρέφος",
    "outline": "<ol><li> un enfant à naître, un embryon, un fœtus</li><li> un nouveau-né, un nourrisson, un bébé</li></ol>",
    "pron": "bref'-os",
    "strongs_def": " un nourrisson (proprement, à naître) au sens propre ou figuré",
    "xlit": "bréphos"
}