{
    "derivation": "de G1031 (βρυγμός) ;",
    "frequency": 7,
    "kjv_def": "grincement de dents",
    "lemma": "βρυγμός",
    "outline": "<ol><li> un grincement de dents<ol><li> utilisé pour désigner l'angoisse extrême et le désespoir total des hommes condamnés à un châtiment éternel en enfer</li></ol><li> grogner, gronder : dans le sens de mordre</li></ol>",
    "pron": "broog-mos'",
    "strongs_def": " un grincement (des dents)",
    "xlit": "brygmós"
}