{
    "derivation": "de G1035 (βρώσιμος) ;",
    "frequency": 1,
    "kjv_def": "viande",
    "lemma": "βρώσιμος",
    "outline": "<ol><li> mangeable</li></ol>",
    "pron": "bro'-sim-os",
    "strongs_def": " mangeable",
    "xlit": "brṓsimos"
}