{
    "derivation": "d'origine hébraïque (H01410) ;",
    "frequency": 1,
    "kjv_def": "Gad",
    "lemma": "Γάδ",
    "outline": "<span class=\"literal-meaning\">Gad = &quot;une troupe&quot;</span><ol><li> le septième fils du patriarche Jacob, par Zilpa, la servante de Léa</li></ol>",
    "pron": "gad",
    "strongs_def": " Gad, une tribu d'Israélites",
    "xlit": "Gád"
}