{
    "derivation": "d'origine étrangère ;",
    "frequency": 1,
    "kjv_def": "trésor",
    "lemma": "γάζα",
    "outline": "<ol><li> le trésor royal, le trésor, les richesses</li></ol>",
    "pron": "gad'-zah",
    "strongs_def": " un trésor",
    "xlit": "gáza"
}