{
    "derivation": "d'origine latine ;",
    "frequency": 3,
    "kjv_def": "Gallio",
    "lemma": "Γαλλίων",
    "outline": "<span class=\"literal-meaning\">Gallio = &quot;celui qui vit de lait&quot;.</span><ol><li> Junius Annaeus Gallio, proconsul romain d'Achaïe lorsque Paul était à Corinthe, en 53 après J.-C., sous l'empereur Claude. Actes 18:12. Il était le frère de Jucius Annaeus Seneca, le philosophe. Jérôme, dans la Chronique d'Eusèbe, dit qu'il s'est suicidé en 65 après J.-C. Winer pense qu'il a été mis à mort par Néron.</li></ol>",
    "pron": "gal-lee'-own",
    "strongs_def": " Gallion (c'est-à-dire Gallio), officier romain",
    "xlit": "Gallíōn"
}