{
    "derivation": "d'origine hébraïque (H01439) ;",
    "frequency": 1,
    "kjv_def": "Gédéon (dans la version du roi Jacques)",
    "lemma": "Γεδεών",
    "outline": "<span class=\"literal-meaning\">Gédéon = &quot; l'abatteur &quot;.</span><ol><li> a du juge d'Israël qui les a délivrés des Madianites</li></ol>",
    "pron": "ghed-eh-own'",
    "strongs_def": " Gédéon (c'est-à-dire Gid(e)on), un Israélite",
    "xlit": "Gedeṓn"
}