{
    "derivation": "de G1070 (γέλως) ;",
    "frequency": 1,
    "kjv_def": "rires",
    "lemma": "γέλως",
    "outline": "<ol><li> rires</li></ol>",
    "pron": "ghel'-os",
    "strongs_def": " le rire (comme marque de gratification)",
    "xlit": "gélōs"
}