{
    "derivation": "de G1074 (γενεαλογέω) et G3056 (γενεαλογέω) ;",
    "frequency": 1,
    "kjv_def": "compter par descendance",
    "lemma": "γενεαλογέω",
    "outline": "<ol><li> raconter l'origine et la lignée d'une famille, retracer l'ascendance</li><li> dessiner son origine, dériver son pedigree</li></ol>",
    "pron": "ghen-eh-al-og-eh'-o",
    "strongs_def": " compter par générations, c'est-à-dire tracer en généalogie",
    "xlit": "genealogéō"
}