{
    "derivation": "du même que G1074 (γένεσις) ;",
    "frequency": 5,
    "kjv_def": "génération, nature(-ral)",
    "lemma": "γένεσις",
    "outline": "<ol><li> source, origine<ol><li> livre de la lignée d'une personne, c'est-à-dire dans lequel ses ancêtres ou sa progéniture sont énumérés</li></ol><li> utilisé pour la naissance, la nativité</li><li> de ce qui suit l'origine, c'est-à-dire l'existence, la vie<ol><li> la roue de la vie (Jc 3,6), d'autres l'expliquent, la roue de l'origine humaine qui dès que les hommes naissent commence à tourner, c'est-à-dire son cours de vie</li></ol></li></ol>",
    "pron": "ghen'-es-is",
    "strongs_def": " nativité ; au sens figuré, nature",
    "xlit": "génesis"
}