{
    "derivation": "transitif de G1073 (γεμίζω) ;",
    "frequency": 9,
    "kjv_def": "remplir (être) plein",
    "lemma": "γεμίζω",
    "outline": "<ol><li> remplir, remplir plein</li></ol>",
    "pron": "ghem-id'-zo",
    "strongs_def": " à remplir entièrement",
    "xlit": "gemízō"
}