{
    "derivation": "de G1094 (γηράσκω) ;",
    "frequency": 2,
    "kjv_def": "être (cirer) vieux",
    "lemma": "γηράσκω",
    "outline": "<ol><li> vieillir</li><li> des choses et des institutions : tomber en désuétude, être obsolète</li></ol>",
    "pron": "ghay-ras'-ko",
    "strongs_def": " être sénescent",
    "xlit": "gēráskō"
}