{
    "derivation": "de G1097 (γνώστης) ;",
    "frequency": 1,
    "kjv_def": "expert",
    "lemma": "γνώστης",
    "outline": "<ol><li> un expert, un connaisseur</li></ol>",
    "pron": "gnoce'-tace",
    "strongs_def": " un connaisseur",
    "xlit": "gnṓstēs"
}