{
    "derivation": "de G1 (ἀθέμιτος) (adverbe de négation) et un dérivé de (statut ;",
    "frequency": 2,
    "kjv_def": "chose abominable, illégale",
    "lemma": "ἀθέμιτος",
    "outline": "<ol><li> contraire à la loi et à la justice, interdit par la loi, illicite, criminel</li></ol>",
    "pron": "ath-em'-ee-tos",
    "strongs_def": " de la base de G5087 (ἀθέμιτος)) ; illégal ; par implication, flagorneur",
    "xlit": "athémitos"
}