{
    "derivation": "de la base du G1096 (γονεύς) ;",
    "frequency": 18,
    "kjv_def": "parent",
    "lemma": "γονεύς",
    "outline": "<ol><li> pères, parents, les parents</li></ol>",
    "pron": "gon-yooce'",
    "strongs_def": " un parent",
    "xlit": "goneús"
}