{
    "derivation": "de G1111 (γογγυστής) ;",
    "frequency": 1,
    "kjv_def": "murmure",
    "lemma": "γογγυστής",
    "outline": "<ol><li> un murmureur, celui qui se plaint avec mécontentement (contre Dieu)</li></ol>",
    "pron": "gong-goos-tace'",
    "strongs_def": " un râleur",
    "xlit": "gongystḗs"
}