{
    "derivation": "probablement apparenté à G1119 (γωνία) ;",
    "frequency": 9,
    "kjv_def": "coin, quart",
    "lemma": "γωνία",
    "outline": "<ol><li> angle<ol><li> un angle extérieur, un coin</li><li> angle interne, c'est-à-dire un endroit secret</li></ol></li></ol>",
    "pron": "go-nee'-ah",
    "strongs_def": " un angle",
    "xlit": "gōnía"
}