{
    "derivation": "de G1140 (δαιμονιώδης) et G1142 (δαιμονιώδης) ;",
    "frequency": 1,
    "kjv_def": "diabolique",
    "lemma": "δαιμονιώδης",
    "outline": "<ol><li> ressemblant à un mauvais esprit ou provenant d'un mauvais esprit, ressemblant à un démon</li></ol>",
    "pron": "dahee-mon-ee-o'-dace",
    "strongs_def": " dæmon-like",
    "xlit": "daimoniṓdēs"
}