{
    "derivation": "de (pour distribuer les fortunes) ;",
    "frequency": 1,
    "kjv_def": "diable",
    "lemma": "δαίμων",
    "outline": "<ol><li> un dieu, une déesse<ol><li> une divinité inférieure, qu'elle soit bonne ou mauvaise</li></ol><li> dans le NT, un esprit maléfique</li></ol>",
    "pron": "dah'-ee-mown",
    "strongs_def": " un dæmon ou un esprit surnaturel (de mauvaise nature)",
    "xlit": "daímōn"
}