{
    "derivation": "une variation d'un primaire obsolète de même sens ;",
    "frequency": 4,
    "kjv_def": "apprivoiser",
    "lemma": "δαμάζω",
    "outline": "<ol><li> dompter</li><li> limiter, restreindre</li></ol>",
    "pron": "dam-ad'-zo",
    "strongs_def": " à apprivoiser",
    "xlit": "damázō"
}