{
    "derivation": "de G1154 (Δαμασκηνός) ;",
    "frequency": 0,
    "kjv_def": "Damascène",
    "lemma": "Δαμασκηνός",
    "outline": "<ol><li> de Damas</li></ol>",
    "pron": "dam-as-kay-nos'",
    "strongs_def": " un Damascène ou un habitant de Damas",
    "xlit": "Damaskēnós"
}