{
    "derivation": "une particule primaire (adversatif ou continuatif) ;",
    "frequency": 2918,
    "kjv_def": "also, and, but, moreover, now (souvent non exprimé en anglais)",
    "lemma": "δέ",
    "outline": "<ol><li> mais, en outre, et, etc.</li></ol>",
    "pron": "deh",
    "strongs_def": " mais, et, etc.",
    "xlit": "dé"
}