{
    "derivation": "de G1176 (δεκαδύο) et G1417 (δεκαδύο) ;",
    "frequency": 0,
    "kjv_def": "douze",
    "lemma": "δεκαδύο",
    "outline": "<ol><li> douze</li></ol>",
    "pron": "dek-ad-oo'-o",
    "strongs_def": " deux et dix, c'est-à-dire douze",
    "xlit": "dekadýo"
}