{
    "derivation": "de G1181 (δεκατόω) ;",
    "frequency": 2,
    "kjv_def": "payer (recevoir) la dîme",
    "lemma": "δεκατόω",
    "outline": "<ol><li> exiger ou recevoir la dixième partie</li><li> payer la dîme</li></ol>",
    "pron": "dek-at-o'-o",
    "strongs_def": " la dîme, c'est-à-dire donner ou prendre un dixième",
    "xlit": "dekatóō"
}