{
    "derivation": "de G1209 (δεξιός) ;",
    "frequency": 53,
    "kjv_def": "droite (main, côté)",
    "lemma": "δεξιός",
    "outline": "<ol><li> la droite, la main droite</li><li> métaph.<ol><li> une place d'honneur ou d'autorité</li></ol></li></ol>",
    "pron": "dex-ee-os'",
    "strongs_def": " le côté droit ou la main (féminine) (comme celle qui prend habituellement)",
    "xlit": "dexiós"
}