{
    "derivation": "de G1199 (δεσμέω) ;",
    "frequency": 0,
    "kjv_def": "lier",
    "lemma": "δεσμέω",
    "outline": "<ol><li> lier, attacher</li></ol>",
    "pron": "des-meh'-o",
    "strongs_def": " pour attacher, c'est à dire la manille",
    "xlit": "desméō"
}