{
    "derivation": "de G118 (ἄθλησις) ;",
    "frequency": 1,
    "kjv_def": "lutte contre",
    "lemma": "ἄθλησις",
    "outline": "<ol><li> contester, combattre, lutter, lutter, épreuve difficile</li></ol>",
    "pron": "ath'-lay-sis",
    "strongs_def": " une lutte (au sens figuré)",
    "xlit": "áthlēsis"
}