{
    "derivation": "à partir d'un composé de G1 (ἀθυμέω) (adverbe de négation) et G2372 (ἀθυμέω) ;",
    "frequency": 1,
    "kjv_def": "être consterné",
    "lemma": "ἀθυμέω",
    "outline": "<ol><li> être découragé, découragé, brisé dans son esprit</li></ol>",
    "pron": "ath-oo-meh'-o",
    "strongs_def": " être sans esprit, c'est-à-dire découragé",
    "xlit": "athyméō"
}