{
    "derivation": "de G1 (ἄθωος) (adverbe de négation) et probablement un dérivé de G5087 (ἄθωος) (signifiant une sanction) ;",
    "frequency": 2,
    "kjv_def": "innocent",
    "lemma": "ἄθωος",
    "outline": "<ol><li> non coupable, innocent, impuni</li></ol>",
    "pron": "ath'-o-os",
    "strongs_def": " non coupable",
    "xlit": "áthōos"
}