{
    "derivation": "probablement pour G1216 (Δημᾶς) ;",
    "frequency": 3,
    "kjv_def": "Demas",
    "lemma": "Δημᾶς",
    "outline": "<span class=\"literal-meaning\">Démas = &quot;gouverneur du peuple&quot;.</span><ol><li> compagnon de Paul, qui abandonna l'apôtre lorsqu'il fut prisonnier à Rome et retourna à Thessalonique</li></ol>",
    "pron": "day-mas'",
    "strongs_def": " Démas, un chrétien",
    "xlit": "Dēmâs"
}