{
    "derivation": "de G1223 (διαβάλλω) et G906 (διαβάλλω) ;",
    "frequency": 1,
    "kjv_def": "accuser",
    "lemma": "διαβάλλω",
    "outline": "<ol><li> jeter par-dessus ou à travers, envoyer par-dessus</li><li> traduire, calomnier, calomnier, accuser, diffamer</li></ol>",
    "pron": "dee-ab-al'-lo",
    "strongs_def": " (au sens figuré) traduire",
    "xlit": "diabállō"
}