{
    "derivation": "de G1223 (διαβαίνω) et la base de G939 (διαβαίνω) ;",
    "frequency": 3,
    "kjv_def": "venir, passer (à travers)",
    "lemma": "διαβαίνω",
    "outline": "<ol><li> passer à travers, traverser</li></ol>",
    "pron": "dee-ab-ah'-ee-no",
    "strongs_def": " pour traverser",
    "xlit": "diabaínō"
}