{
    "derivation": "de G1231 (διάγνωσις) ;",
    "frequency": 1,
    "kjv_def": "audition",
    "lemma": "διάγνωσις",
    "outline": "<ol><li> distinguer</li><li> dans un sens juridique, examen, opinion, décision</li></ol>",
    "pron": "dee-ag'-no-sis",
    "strongs_def": " examen (magistral) (\"diagnostic\")",
    "xlit": "diágnōsis"
}