{
    "derivation": "de G1223 (διαδίδωμι) et G1325 (διαδίδωμι) ;",
    "frequency": 3,
    "kjv_def": "(faire) distribuer(-ion), diviser, donner",
    "lemma": "διαδίδωμι",
    "outline": "<ol><li> distribuer, diviser entre plusieurs</li><li> remettre, livrer</li></ol>",
    "pron": "dee-ad-id'-o-mee",
    "strongs_def": " distribuer dans une foule, c'est-à-dire distribuer ; également remettre (à un successeur)",
    "xlit": "diadídōmi"
}