{
    "derivation": "de G1237 (διάδοχος) ;",
    "frequency": 1,
    "kjv_def": "chambre",
    "lemma": "διάδοχος",
    "outline": "<ol><li> succédant, un successeur</li></ol>",
    "pron": "dee-ad'-okh-os",
    "strongs_def": " un successeur en fonction",
    "xlit": "diádochos"
}