{
    "derivation": "de G1223 (διαλαλέω) et G2980 (διαλαλέω) ;",
    "frequency": 2,
    "kjv_def": "commune, bruit à l'étranger",
    "lemma": "διαλαλέω",
    "outline": "<ol><li> converser ensemble, parler avec</li></ol>",
    "pron": "dee-al-al-eh'-o",
    "strongs_def": " parler dans une entreprise, c'est-à-dire converser ou (cas génitif) publier",
    "xlit": "dialaléō"
}