{
    "derivation": "de G1252 (διάκρισις) ;",
    "frequency": 4,
    "kjv_def": "discerner(-ing), disputer",
    "lemma": "διάκρισις",
    "outline": "<ol><li> a distinguer, discerner, juger</li></ol>",
    "pron": "dee-ak'-ree-sis",
    "strongs_def": " estimation judiciaire",
    "xlit": "diákrisis"
}