{
    "derivation": "de G1223 (διαλλάσσω) et G236 (διαλλάσσω) ;",
    "frequency": 1,
    "kjv_def": "réconcilier",
    "lemma": "διαλλάσσω",
    "outline": "<ol><li> changer</li><li> changer l'avis de quelqu'un, se réconcilier</li><li> se réconcilier, renouer des liens d'amitié avec quelqu'un</li></ol>",
    "pron": "dee-al-las'-so",
    "strongs_def": " changer en profondeur, c'est à dire (mentalement) se concilier",
    "xlit": "diallássō"
}