{
    "derivation": "de G1223 (διαλύω) et G3089 (διαλύω) ;",
    "frequency": 1,
    "kjv_def": "se disperser",
    "lemma": "διαλύω",
    "outline": "<ol><li> dissoudre</li></ol>",
    "pron": "dee-al-oo'-o",
    "strongs_def": " se dissoudre complètement",
    "xlit": "dialýō"
}