{
    "derivation": "de G1223 (διανυκτερεύω) et un dérivé de G3571 (διανυκτερεύω) ;",
    "frequency": 1,
    "kjv_def": "continuer toute la nuit",
    "lemma": "διανυκτερεύω",
    "outline": "<ol><li> pour passer la nuit, pour passer toute la nuit</li></ol>",
    "pron": "dee-an-ook-ter-yoo'-o",
    "strongs_def": " pour rester debout toute la nuit",
    "xlit": "dianyktereúō"
}