{
    "derivation": "à partir d'un composé de G1223 (διανόημα) et G3539 (διανόημα) ;",
    "frequency": 1,
    "kjv_def": "pensée",
    "lemma": "διανόημα",
    "outline": "<ol><li> une pensée</li></ol>",
    "pron": "dee-an-o'-ay-mah",
    "strongs_def": " quelque chose de réfléchi, c'est-à-dire un sentiment",
    "xlit": "dianóēma"
}