{
    "derivation": "de (roussir) et (le visage, de G3700 (Αἰθίοψ)) ;",
    "frequency": 2,
    "kjv_def": "Éthiopie",
    "lemma": "Αἰθίοψ",
    "outline": "<span class=\"literal-meaning\">Ethiopien = &quot;noir&quot;.</span><ol><li> un Éthiopien</li></ol>",
    "pron": "ahee-thee'-ops",
    "strongs_def": " un Æthiopien (comme un blackamoor)",
    "xlit": "Aithíops"
}