{
    "derivation": "de G1299 (διαταγή) ;",
    "frequency": 2,
    "kjv_def": "instrumentalité",
    "lemma": "διαταγή",
    "outline": "<ol><li> une disposition, un arrangement, une ordonnance</li></ol>",
    "pron": "dee-at-ag-ay'",
    "strongs_def": " l'arrangement, c'est-à-dire l'institution",
    "xlit": "diatagḗ"
}