{
    "derivation": "de G1223 (διαστρέφω) et G4762 (διαστρέφω) ;",
    "frequency": 7,
    "kjv_def": "pervers (-rt), se détourner",
    "lemma": "διαστρέφω",
    "outline": "<ol><li> déformer, se détourner<ol><li> s'opposer, comploter contre les desseins et les plans salvateurs de Dieu</li></ol><li> détourner du droit chemin, pervertir, corrompre</li></ol>",
    "pron": "dee-as-tref'-o",
    "strongs_def": " déformer, c'est-à-dire (au sens figuré) mal interpréter, ou (moralement) corrompre",
    "xlit": "diastréphō"
}