{
    "derivation": "de G1223 (διαταράσσω) et G5015 (διαταράσσω) ;",
    "frequency": 1,
    "kjv_def": "problème",
    "lemma": "διαταράσσω",
    "outline": "<ol><li> agiter fortement, troubler fortement</li></ol>",
    "pron": "dee-at-ar-as'-so",
    "strongs_def": " perturber totalement, c'est-à-dire agiter (avec alarme)",
    "xlit": "diatarássō"
}