{
    "derivation": "de G1289 (διασπορά) ;",
    "frequency": 3,
    "kjv_def": "(qui sont) dispersés (à l'étranger)",
    "lemma": "διασπορά",
    "outline": "<ol><li> un éparpillement, une dispersion<ol><li> des Israélites dispersés parmi les nations étrangères</li><li> des chrétiens dispersés parmi les païens</li></ol></li></ol>",
    "pron": "dee-as-por-ah'",
    "strongs_def": " la dispersion, c'est-à-dire (spécialement et concrètement) l'Israélite (converti) résidant dans les pays païens",
    "xlit": "diasporá"
}