{
    "derivation": "de G1318 (διδακτικός) ;",
    "frequency": 2,
    "kjv_def": "apte à enseigner",
    "lemma": "διδακτικός",
    "outline": "<ol><li> apte et habile à enseigner</li></ol>",
    "pron": "did-ak-tik-os'",
    "strongs_def": " instructif (\"didactique\")",
    "xlit": "didaktikós"
}