{
    "derivation": "de G1223 (διερμηνεύω) et G2059 (διερμηνεύω) ;",
    "frequency": 10,
    "kjv_def": "expliquer, interpréter (-ation)",
    "lemma": "διερμηνεύω",
    "outline": "<ol><li> dévoiler le sens de ce qui est dit, expliquer, exposer</li><li> traduire dans sa langue maternelle</li></ol>",
    "pron": "dee-er-main-yoo'-o",
    "strongs_def": " expliquer en profondeur, par implication, traduire",
    "xlit": "diermēneúō"
}