{
    "derivation": "de G1364 (διετής) et G2094 (διετής) ;",
    "frequency": 1,
    "kjv_def": "deux ans",
    "lemma": "διετής",
    "outline": "<ol><li> de deux ans, de deux ans</li></ol>",
    "pron": "dee-et-ace'",
    "strongs_def": " de deux ans (en âge)",
    "xlit": "dietḗs"
}