{
    "derivation": "de G1223 (διΐστημι) et G2476 (διΐστημι) ;",
    "frequency": 3,
    "kjv_def": "aller plus loin, être séparés, après l'espace de",
    "lemma": "διΐστημι",
    "outline": "<ol><li> mettre à part, séparer, disjoindre</li><li> se tenir à l'écart, se séparer, partir</li></ol>",
    "pron": "dee-is'-tay-mee",
    "strongs_def": " se tenir à l'écart, c'est-à-dire (par réflexe) enlever, intervenir",
    "xlit": "diḯstēmi"
}