{
    "derivation": "de G1342 (δικαιοκρισία) et G2920 (δικαιοκρισία) ;",
    "frequency": 1,
    "kjv_def": "jugement juste",
    "lemma": "δικαιοκρισία",
    "outline": "<ol><li> jugement juste</li></ol>",
    "pron": "dik-ah-yok-ris-ee'-ah",
    "strongs_def": " une sentence juste",
    "xlit": "dikaiokrisía"
}