{
    "derivation": "de G1349 (δίκαιος) ;",
    "frequency": 79,
    "kjv_def": "juste, rencontrer, droit (-eous)",
    "lemma": "δίκαιος",
    "outline": "<ol><li> juste, observant les lois divines<ol><li> dans un sens large, droit, juste, vertueux, gardant les commandements de Dieu<ol><li> de ceux qui se croient justes, qui s'enorgueillissent de l'être, qui s'enorgueillissent de leurs vertus, réelles ou imaginaires</li><li> innocent, sans défaut, sans culpabilité</li><li> se dit de celui dont la manière de penser, de sentir et d'agir est entièrement conforme à la volonté de Dieu, et qui n'a donc besoin d'aucune rectification dans le cœur ou dans la vie<ol><li> seul le Christ est vraiment</li></ol><li> approuvé par Dieu ou acceptable par lui</li></ol><li> dans un sens plus étroit, rendre à chacun son dû et, dans un sens judiciaire, porter sur les autres un jugement juste, exprimé en paroles ou manifesté par la manière de les traiter</li></ol></li></ol>",
    "pron": "dik'-ah-yos",
    "strongs_def": " équitable (en caractère ou en acte) ; par implication, innocent, saint (absolument ou relativement)",
    "xlit": "díkaios"
}