{
    "derivation": "de G1344 (δικαίωσις) ;",
    "frequency": 2,
    "kjv_def": "justification",
    "lemma": "δικαίωσις",
    "outline": "<ol><li> l'acte de Dieu déclarant les hommes libres de toute culpabilité et acceptables pour lui</li><li> abjurer pour être juste, justification</li></ol>",
    "pron": "dik-ah'-yo-sis",
    "strongs_def": " aquittal (pour l'amour du Christ)",
    "xlit": "dikaíōsis"
}