{
    "derivation": "de G1223 (διό) et G3739 (διό) ;",
    "frequency": 46,
    "kjv_def": "pour quelle cause, donc, pourquoi",
    "lemma": "διό",
    "outline": "<ol><li> c'est pourquoi, à cause de</li></ol>",
    "pron": "dee-o'",
    "strongs_def": " par laquelle chose, c'est-à-dire par conséquent",
    "xlit": "dió"
}