{
    "derivation": "de G1364 (διστάζω) ;",
    "frequency": 2,
    "kjv_def": "doute",
    "lemma": "διστάζω",
    "outline": "<ol><li> de douter, de renoncer</li></ol>",
    "pron": "dis-tad'-zo",
    "strongs_def": " proprement, se dédoubler, c'est-à-dire (mentalement) vaciller (dans l'opinion)",
    "xlit": "distázō"
}