{
    "derivation": "apparemment un mot premier ;",
    "frequency": 2,
    "kjv_def": "louanges",
    "lemma": "αἶνος",
    "outline": "<ol><li> un dicton, un proverbe</li><li> éloge, discours élogieux</li></ol>",
    "pron": "ah'-ee-nos",
    "strongs_def": " proprement, un récit, mais utilisé au sens de G1868 (αἶνος) ; louange (de Dieu)",
    "xlit": "aînos"
}