{
    "derivation": "d'un dérivé de G1364 (διχάζω) ;",
    "frequency": 1,
    "kjv_def": "fixé à l'écart",
    "lemma": "διχάζω",
    "outline": "<ol><li> couper en deux parties, trancher, séparer</li></ol>",
    "pron": "dee-khad'-zo",
    "strongs_def": " séparer, c'est-à-dire séparer (au sens figuré, aliéner)",
    "xlit": "dicházō"
}