{
    "derivation": "d'une variation de G1373 (διψάω) ;",
    "frequency": 17,
    "kjv_def": "(être, être a-)soif(-y)",
    "lemma": "διψάω",
    "outline": "<ol><li> souffrir de la soif, souffrir de la soif<ol><li> au sens figuré, ceux dont on dit qu'ils ont soif, qui ressentent douloureusement leur manque et désirent ardemment les choses par lesquelles l'âme est rafraîchie, soutenue, fortifiée</li></ol></li></ol>",
    "pron": "dip-sah'-o",
    "strongs_def": " avoir soif (au sens propre ou figuré)",
    "xlit": "dipsáō"
}