{
    "derivation": "d'origine hébraïque (un dérivé de G5869 (Αἰνών), lieu des sources) ;",
    "frequency": 1,
    "kjv_def": "Ænon",
    "lemma": "Αἰνών",
    "outline": "<span class=\"literal-meaning\">Aenon qui signifie &quot;sources&quot;.</span><ol><li> le nom d'un endroit &quot;près de Salim&quot; où Jean a baptisé</li></ol>",
    "pron": "ahee-nohn'",
    "strongs_def": " Ænon, un lieu en Palestine",
    "xlit": "Ainṓn"
}