{
    "derivation": "une forme prolongée (et causative) d'un verbe primaire (fuir ;",
    "frequency": 46,
    "kjv_def": "s'ensuivre, suivre (après), donner à, (souffrir) persécuter(-ion), presser en avant",
    "lemma": "διώκω",
    "outline": "<ol><li> faire courir ou fuir, mettre en fuite, chasser</li><li> courir rapidement afin d'attraper une personne ou une chose, courir après<ol><li> poursuivre : au sens figuré, de celui qui, dans une course, court rapidement pour atteindre le but</li><li> poursuivre (de manière hostile)</li></ol><li>de quelque manière que ce soit, harceler, troubler, molester quelqu'un<ol><li> persécuter</li><li> être maltraité, souffrir de persécution à cause de quelque chose</li></ol><li> sans idée d'hostilité, courir après, suivre :</li><li> métaphore de</li><li> quelqu'un</li><li>, poursuivre<ol><li> chercher avec ardeur, s'efforcer d'acquérir</li></ol></li></li> </ol>",
    "pron": "dee-o'-ko",
    "strongs_def": " comparer la base de G1169 (διώκω) et G1249 (διώκω)) ; poursuivre (au sens propre ou figuré) ; par implication, persécuter",
    "xlit": "diṓkō"
}