{
    "derivation": "de G1377 (διώκτης) ;",
    "frequency": 1,
    "kjv_def": "persécuteur",
    "lemma": "διώκτης",
    "outline": "<ol><li> persécuteur</li></ol>",
    "pron": "dee-oke'-tace",
    "strongs_def": " un persécuteur",
    "xlit": "diṓktēs"
}