{
    "derivation": "à partir d'un dérivé de G1364 (διχοστασία) et G4714 (διχοστασία) ;",
    "frequency": 2,
    "kjv_def": "division, sédition",
    "lemma": "διχοστασία",
    "outline": "<ol><li> dissension, division</li></ol>",
    "pron": "dee-khos-tas-ee'-ah",
    "strongs_def": " la désunion, c'est-à-dire (au sens figuré) la dissension",
    "xlit": "dichostasía"
}