{
    "derivation": "de G1388 (δολόω) ;",
    "frequency": 0,
    "kjv_def": "manipuler de manière frauduleuse",
    "lemma": "δολόω",
    "outline": "<ol><li> piéger</li><li> corrompre</li></ol>",
    "pron": "dol-o'-o",
    "strongs_def": " prendre au piège, c'est-à-dire (au sens figuré) falsifier",
    "xlit": "dolóō"
}