{
    "derivation": "neutre d'un dérivé présumé de G1382 (δοκίμιον) ;",
    "frequency": 2,
    "kjv_def": "procès, essai",
    "lemma": "δοκίμιον",
    "outline": "<ol><li> la mise à l'épreuve</li><li> ce par quoi quelque chose est essayé ou prouvé, un test</li></ol>",
    "pron": "dok-im'-ee-on",
    "strongs_def": " un test ; implicitement, la fiabilité",
    "xlit": "dokímion"
}