{
    "derivation": "du même que G1384 (δοκιμή) ;",
    "frequency": 3,
    "kjv_def": "expérience(-riment), preuve, essai",
    "lemma": "δοκιμή",
    "outline": "<ol><li> prouver, procès</li><li> caractère approuvé, éprouvé</li><li> une preuve, un spécimen de valeur éprouvée</li></ol>",
    "pron": "dok-ee-may'",
    "strongs_def": " test (abstraitement ou concrètement) ; implicitement, confiance",
    "xlit": "dokimḗ"
}