{
    "derivation": "de G1398 (δουλεία) ;",
    "frequency": 5,
    "kjv_def": "bondage",
    "lemma": "δουλεία",
    "outline": "<ol><li> l'esclavage, la servitude, la condition d'esclave</li></ol>",
    "pron": "doo-li'-ah",
    "strongs_def": " l'esclavage (au sens propre ou au sens figuré)",
    "xlit": "douleía"
}