{
    "derivation": "de la base de G1325 (δόμα) ;",
    "frequency": 4,
    "kjv_def": "cadeau",
    "lemma": "δόμα",
    "outline": "<ol><li> un cadeau</li></ol>",
    "pron": "dom'-ah",
    "strongs_def": " un cadeau",
    "xlit": "dóma"
}