{
    "derivation": "féminin de G1401 (δούλη) ;",
    "frequency": 3,
    "kjv_def": "servante(-en)",
    "lemma": "δούλη",
    "outline": "<ol><li> une esclave féminine, une servante, une servante</li></ol>",
    "pron": "doo'-lay",
    "strongs_def": " une femme esclave (involontairement ou volontairement)",
    "xlit": "doúlē"
}