{
    "derivation": "de G18 (ἀγαθοεργέω) et G2041 (ἀγαθοεργέω) ;",
    "frequency": 2,
    "kjv_def": "faire le bien",
    "lemma": "ἀγαθοεργέω",
    "outline": "<ol><li> travailler bien, faire bien, faire bien, agir correctement</li></ol>",
    "pron": "ag-ath-er-gheh'-o",
    "strongs_def": " de bien travailler",
    "xlit": "agathoergéō"
}