{
    "derivation": "de G1209 (δοχή) ;",
    "frequency": 2,
    "kjv_def": "festin",
    "lemma": "δοχή",
    "outline": "<ol><li> un festin, un banquet</li></ol>",
    "pron": "dokh-ay'",
    "strongs_def": " une réception, c'est-à-dire un divertissement convivial",
    "xlit": "dochḗ"
}