{
    "derivation": "de G1401 (δουλόω) ;",
    "frequency": 10,
    "kjv_def": "mettre en servitude, X donné, devenir (faire) serviteur(se)",
    "lemma": "δουλόω",
    "outline": "<ol><li> rendre esclave, réduire en esclavage</li><li> métaph. me donner entièrement à ses besoins et à son service, me rendre esclave de lui</li></ol>",
    "pron": "doo-lo'-o",
    "strongs_def": " asservir (au sens propre ou figuré)",
    "xlit": "doulóō"
}