{
    "derivation": "de G1416 (δυσμή) ;",
    "frequency": 5,
    "kjv_def": "ouest",
    "lemma": "δυσμή",
    "outline": "<ol><li> le coucher du soleil</li><li> la région du coucher du soleil, l'ouest</li></ol>",
    "pron": "doos-may'",
    "strongs_def": " le coucher du soleil, c'est-à-dire (implicitement) la région occidentale",
    "xlit": "dysmḗ"
}