{
    "derivation": "de G1427 (δωδεκάφυλον) et G5443 (δωδεκάφυλον) ;",
    "frequency": 1,
    "kjv_def": "douze tribus",
    "lemma": "δωδεκάφυλον",
    "outline": "<ol><li> les douze tribus, utilisé collectivement pour le peuple israélite, comme étant composé des douze tribus</li></ol>",
    "pron": "do-dek-af'-oo-lon",
    "strongs_def": " la communauté d'Israël",
    "xlit": "dōdekáphylon"
}