{
    "frequency": 19,
    "kjv_def": "cadeau, offre",
    "lemma": "δῶρον",
    "outline": "<ol><li> un cadeau, un présent<ol><li> les dons offerts en signe d'honneur<ol><li> des sacrifices et autres dons offerts à Dieu</li><li> de l'argent versé au trésor pour les besoins du temple et pour l'aide aux pauvres</li></ol><li> l'offrande d'un cadeau ou de cadeaux</li></ol>",
    "pron": "do'-ron",
    "strongs_def": "un cadeau ; en particulier, un sacrifice",
    "xlit": "dōron"
}