{
    "derivation": "de G1487 (ἐάν) et G302 (ἐάν) ;",
    "frequency": 374,
    "kjv_def": "avant, mais, sauf, (et) si, (si) donc, (quoi-, whither-)soever, though, when (-soever), whether (or), to whom, (who-)so(-ever)",
    "lemma": "ἐάν",
    "outline": "<ol><li> si, au cas où</li></ol>",
    "pron": "eh-an'",
    "strongs_def": " une particule conditionnelle ; au cas où, à condition que, etc. ; souvent utilisée en relation avec d'autres particules pour indiquer l'indétermination ou l'incertitude",
    "xlit": "eán"
}