{
    "derivation": "de G1451 (ἐγγίζω) ;",
    "frequency": 42,
    "kjv_def": "s'approcher, être à portée de main, venir (s'approcher), être (venir, s'approcher) proche",
    "lemma": "ἐγγίζω",
    "outline": "<ol><li> rapprocher, joindre une chose à une autre</li><li> attirer ou approcher, s'approcher</li></ol>",
    "pron": "eng-id'-zo",
    "strongs_def": " s'approcher, c'est-à-dire s'approcher (par réflexe)",
    "xlit": "engízō"
}