{
    "derivation": "neutre du comparatif de G1451 (ἐγγύτερον) ;",
    "frequency": 1,
    "kjv_def": "plus près",
    "lemma": "ἐγγύτερον",
    "outline": "<ol><li> plus près</li></ol>",
    "pron": "eng-goo'-ter-on",
    "strongs_def": " plus près",
    "xlit": "engýteron"
}