{
    "derivation": "de G1722 (ἐγκαλέω) et G2564 (ἐγκαλέω) ;",
    "frequency": 7,
    "kjv_def": "accuser, mettre en cause, impliquer, mettre en accusation",
    "lemma": "ἐγκαλέω",
    "outline": "<ol><li> se présenter comme accusateur contre, porter plainte contre</li><li> être accusé</li></ol>",
    "pron": "eng-kal-eh'-o",
    "strongs_def": " appeler (comme une dette ou une demande), c'est-à-dire demander des comptes (accuser, criminaliser, etc.)",
    "xlit": "enkaléō"
}