{
    "derivation": "de G1453 (ἔγερσις) ;",
    "frequency": 1,
    "kjv_def": "résurrection",
    "lemma": "ἔγερσις",
    "outline": "<ol><li> un réveil, une excitation</li><li> un soulèvement</li><li> résurrection d'entre les morts</li></ol>",
    "pron": "eg'-er-sis",
    "strongs_def": " une résurgence (de la mort)",
    "xlit": "égersis"
}