{
    "derivation": "de G1722 (ἐγκρατής) et G2904 (ἐγκρατής) ;",
    "frequency": 1,
    "kjv_def": "tempéré",
    "lemma": "ἐγκρατής",
    "outline": "<ol><li> fort, robuste</li><li> avoir le pouvoir sur, posséder (une chose)</li><li> maîtriser, contrôler, freiner, retenir<ol><li> se contrôler, être tempéré, être continent</li></ol></li></ol>",
    "pron": "eng-krat-ace'",
    "strongs_def": " fort dans une chose (maître), c'est-à-dire (au sens figuré et par réflexe) maître de soi (dans l'appétit, etc.)",
    "xlit": "enkratḗs"
}