{
    "derivation": "voix moyenne de G1468 (ἐγκρατεύομαι) ;",
    "frequency": 4,
    "kjv_def": "peut(-ne peut pas) contenir, être tempéré",
    "lemma": "ἐγκρατεύομαι",
    "outline": "<ol><li> être maître de soi, continent<ol><li> faire preuve d'autonomie, se conduire avec modération</li><li> dans une figure tirée des athlètes qui, pour se préparer aux jeux, s'abstenaient de manger des aliments malsains, de boire du vin et de se livrer à des activités sexuelles</li></ol></li></ol>",
    "pron": "eng-krat-yoo'-om-ahee",
    "strongs_def": " faire preuve de retenue (en matière de régime alimentaire et de chasteté)",
    "xlit": "enkrateúomai"
}