{
    "derivation": "probablement de G1486 (ἔθνος) ;",
    "frequency": 164,
    "kjv_def": "Gentil, païen, nation, peuple",
    "lemma": "ἔθνος",
    "outline": "<ol><li> une multitude (d'hommes ou de bêtes) associée ou vivant ensemble<ol><li> une compagnie, une troupe, un essaim</li></ol><li>une multitude d'individus de même nature ou de même genre<ol><li> la famille humaine</li></ol><li> une tribu, une nation, un groupe de personnes</li><li> dans l'Ancien Testament, les nations étrangères qui n'adorent pas le vrai Dieu, les païens, les Gentils</li><li> Paul utilise ce terme pour les chrétiens païens</li></li> </ol>",
    "pron": "eth'-nos",
    "strongs_def": " une race (de même origine), c'est-à-dire une tribu ; en particulier, une race étrangère (non juive) (généralement, implicitement, païenne)",
    "xlit": "éthnos"
}