{
    "derivation": "de G1486 (ἔθος) ;",
    "frequency": 12,
    "kjv_def": "coutume, manière, être coutumier",
    "lemma": "ἔθος",
    "outline": "<ol><li> coutume</li><li> usage prescrit par la loi, institut, prescription, rite</li></ol>",
    "pron": "eth'-os",
    "strongs_def": " un usage (prescrit par l'habitude ou la loi)",
    "xlit": "éthos"
}