{
    "derivation": "une particule primaire de la conditionnalité ;",
    "frequency": 520,
    "kjv_def": "pour autant que, si, que, (al-)bien que, si",
    "lemma": "εἰ",
    "outline": "<ol><li> si, si</li></ol>",
    "pron": "i",
    "strongs_def": " si, si, que, etc.",
    "xlit": "ei"
}