{
    "derivation": "un verbe primaire ;",
    "frequency": 326,
    "kjv_def": "être conscient, regarder, X peut (+ ne pas dire), considérer, (avoir) savoir (-connaissance), regarder (sur), percevoir, voir, être sûr, dire, comprendre, souhaiter, savoir",
    "lemma": "εἴδω",
    "outline": "<ol><li> voir<ol><li> percevoir avec les yeux</li><li> percevoir par l'un des sens</li><li> percevoir, remarquer, discerner, découvrir</li><li> voir<ol><li> c'est-à-dire tourner les yeux, l'esprit, l'attention vers quelque chose</li><li> prêter attention, observer</li><li> voir à propos de quelque chose<ol><li> c.-à-d. déterminer ce qui doit être fait à ce sujet</li></ol><li> inspecter, examiner</li><li> regarder, contempler</li></ol><li> faire l'expérience d'un état ou d'une condition</li><li> à voir, c'est-à-dire avoir un entretien avec, visiter</li></ol><li> connaître connaître<ol><li> de quoi que ce soit</li><li>connaître, c'est-à-dire avoir connaissance de, comprendre, percevoir<ol><li> de n'importe quel fait</li><li> la force et la signification de quelque chose qui a une signification définie</li><li> savoir comment, être habile à</li></ol></li></ol>avoir de l'<ol><li><li> estime pour quelqu'un, le chérir, faire attention à (1Th. 5:12)</li></li></ol></li></ol>",
    "pron": "i'-do",
    "strongs_def": " utilisé seulement dans certains temps du passé, les autres étant empruntés aux équivalents G3700 (εἴδω) et G3708 (εἴδω) ; proprement, voir (au sens propre ou figuré) ; implicitement, (au parfait seulement) connaître",
    "xlit": "eídō"
}