{
    "derivation": "de G1487 (εἰ καί) et G2532 (εἰ καί) ;",
    "frequency": 0,
    "kjv_def": "si (que), bien que",
    "lemma": "εἰ καί",
    "outline": "<ol><li> même, si, bien que</li></ol>",
    "pron": "i kahee",
    "strongs_def": " si aussi (ou même)",
    "xlit": "ei kaí"
}