{
    "derivation": "de (le rayon du soleil) et G2919 (εἰλικρινής) ;",
    "frequency": 2,
    "kjv_def": "pur, sincère",
    "lemma": "εἰλικρινής",
    "outline": "<ol><li> pur, sincère, sans tache</li><li> trouvé pur lorsqu'il est déplié et examiné par la lumière du soleil</li></ol>",
    "pron": "i-lik-ree-nace'",
    "strongs_def": " jugés à la lumière du soleil, c'est-à-dire testés comme authentiques (au sens figuré)",
    "xlit": "eilikrinḗs"
}