{
    "derivation": "apparemment un verbe primaire (peut-être apparenté à G1502 (εἴκω) par l'idée d'évanouissement comme copie) ;",
    "frequency": 2,
    "kjv_def": "être comme",
    "lemma": "εἴκω",
    "outline": "<ol><li> pour être comme</li></ol>",
    "pron": "i'-ko",
    "strongs_def": " ressembler à",
    "xlit": "eíkō"
}