{
    "derivation": "de G1503 (εἰκών) ;",
    "frequency": 24,
    "kjv_def": "image",
    "lemma": "εἰκών",
    "outline": "<ol><li> une image, une figure, une ressemblance<ol><li> l'image des choses (les choses célestes)<ol><li> utilisé de la ressemblance morale des hommes renouvelés à Dieu</li><li> l'image du Fils de Dieu, en laquelle les vrais chrétiens sont transformés, est une ressemblance non seulement avec le corps céleste, mais aussi avec l'état d'esprit le plus saint et le plus béni que possède le Christ</li></ol><li> l'image d'une<ol><li> personne en qui l'on voit la ressemblance de n'importe qui</li><li> appliquée à l'homme en raison de son pouvoir de commandement</li><li> au Christ en raison de sa nature divine et de son excellence morale absolue</li></ol></li></ol></li></ol>",
    "pron": "i-kone'",
    "strongs_def": " une ressemblance, c'est-à-dire (au sens propre) une statue, un profil, ou (au sens figuré) une représentation, une ressemblance",
    "xlit": "eikṓn"
}