{
    "derivation": "probablement de G1502 (εἰκῆ) (par l'idée d'échec) ;",
    "frequency": 7,
    "kjv_def": "sans raison, (en) vain (-ly)",
    "lemma": "εἰκῆ",
    "outline": "<ol><li> inconsidérément, sans but, sans cause juste</li><li> en vain<ol><li> sans succès ni effort</li></ol></li></ol>",
    "pron": "i-kay'",
    "strongs_def": " oisivement, c'est-à-dire sans raison (ou effet)",
    "xlit": "eikē"
}