{
    "derivation": "de G1508 (εἰ μή τι) et le neutre de G5100 (εἰ μή τι) ;",
    "frequency": 0,
    "kjv_def": "sauf",
    "lemma": "εἰ μή τι",
    "outline": "<ol><li> à moins que, en effet, sauf, à moins que peut-être</li></ol>",
    "pron": "i may tee",
    "strongs_def": " si ce n'est un peu",
    "xlit": "ei mḗ ti"
}