{
    "derivation": "de G150 (αἰσχρότης) ;",
    "frequency": 1,
    "kjv_def": "saleté",
    "lemma": "αἰσχρότης",
    "outline": "<ol><li> obscénité, saleté</li></ol>",
    "pron": "ahee-skhrot'-ace",
    "strongs_def": " le caractère honteux, c'est-à-dire l'obscénité",
    "xlit": "aischrótēs"
}