{
    "derivation": "3ème personne du pluriel de l'indicatif présent de G1510 (εἰσί) ;",
    "frequency": 0,
    "kjv_def": "accepter, sont, être, dure, X est, étaient",
    "lemma": "εἰσί",
    "outline": "<ol><li> sont, sont, étaient, etc.</li></ol>",
    "pron": "i-see'",
    "strongs_def": " ils sont",
    "xlit": "eisí"
}