{
    "derivation": "de (défiguration, c'est-à-dire de disgrâce) ;",
    "frequency": 4,
    "kjv_def": "avoir honte",
    "lemma": "αἰσχύνομαι",
    "outline": "<ol><li> défigurer</li><li> déshonorer</li><li> couvrir de honte, rendre honteux, être honteux</li></ol>",
    "pron": "ahee-skhoo'-nom-ahee",
    "strongs_def": " avoir honte (de soi)",
    "xlit": "aischýnomai"
}