{
    "derivation": "d'une affinité incertaine ;",
    "frequency": 17,
    "kjv_def": "cent",
    "lemma": "ἑκατόν",
    "outline": "<ol><li> une centaine</li></ol>",
    "pron": "hek-at-on'",
    "strongs_def": " une centaine",
    "xlit": "hekatón"
}