{
    "derivation": "de G1537 (ἐκδαπανάω) et G1159 (ἐκδαπανάω) ;",
    "frequency": 0,
    "kjv_def": "dépenser",
    "lemma": "ἐκδαπανάω",
    "outline": "<ol><li> épuiser en dépensant, dépenser entièrement, épuiser,</li><li> se dépenser entièrement</li></ol>",
    "pron": "ek-dap-an-ah'-o",
    "strongs_def": " dépenser (entièrement), c'est-à-dire (au sens figuré) épuiser",
    "xlit": "ekdapanáō"
}