{
    "derivation": "de G1537 (ἐκδιηγέομαι) et d'un composé de G1223 (ἐκδιηγέομαι) et G2233 (ἐκδιηγέομαι) ;",
    "frequency": 2,
    "kjv_def": "déclarer",
    "lemma": "ἐκδιηγέομαι",
    "outline": "<ol><li> raconter en entier ou en totalité</li><li> raconter, dire, déclarer</li></ol>",
    "pron": "ek-dee-ayg-eh'-om-ahee",
    "strongs_def": " pour raconter à travers entièrement",
    "xlit": "ekdiēgéomai"
}