{
    "derivation": "de G1537 (ἔκθαμβος) et G2285 (ἔκθαμβος) ;",
    "frequency": 1,
    "kjv_def": "je m'interroge",
    "lemma": "ἔκθαμβος",
    "outline": "<ol><li> très étonné, stupéfait</li><li> terrifiant, épouvantable</li><li> s'étonner ou s'émerveiller grandement</li></ol>",
    "pron": "ek'-tham-bos",
    "strongs_def": " complètement abasourdi",
    "xlit": "ékthambos"
}