{
    "derivation": "de G1551 (ἐκδοχή) ;",
    "frequency": 1,
    "kjv_def": "à la recherche de",
    "lemma": "ἐκδοχή",
    "outline": "<ol><li> l'acte ou la manière de recevoir de<ol><li> réception</li><li> succession</li><li> interprétation</li><li> attente, expectative</li></ol></li></ol>",
    "pron": "ek-dokh-ay'",
    "strongs_def": " attente",
    "xlit": "ekdochḗ"
}