{
    "derivation": "de G1537 (ἐκκαθαίρω) et G2508 (ἐκκαθαίρω) ;",
    "frequency": 3,
    "kjv_def": "purge (sortie)",
    "lemma": "ἐκκαθαίρω",
    "outline": "<ol><li> nettoyer, nettoyer à fond, purifier</li></ol>",
    "pron": "ek-kath-ah'-ee-ro",
    "strongs_def": " pour nettoyer en profondeur",
    "xlit": "ekkathaírō"
}