{
    "derivation": "de G1537 (ἐκκολυμβάω) et G2860 (ἐκκολυμβάω) ;",
    "frequency": 1,
    "kjv_def": "se baigner",
    "lemma": "ἐκκολυμβάω",
    "outline": "<ol><li> pour nager hors de</li></ol>",
    "pron": "ek-kol-oom-bah'-o",
    "strongs_def": " s'échapper à la nage",
    "xlit": "ekkolymbáō"
}