{
    "derivation": "de G1537 (ἐκκαίω) et G2545 (ἐκκαίω) ;",
    "frequency": 1,
    "kjv_def": "brûler",
    "lemma": "ἐκκαίω",
    "outline": "<ol><li> brûler</li><li> s'enflammer</li><li> s'enflammer, brûler</li></ol>",
    "pron": "ek-kah'-yo",
    "strongs_def": " enflammer profondément",
    "xlit": "ekkaíō"
}