{
    "derivation": "de G1537 (ἐκκλείω) et G2808 (ἐκκλείω) ;",
    "frequency": 2,
    "kjv_def": "exclure",
    "lemma": "ἐκκλείω",
    "outline": "<ol><li> fermer, mettre à l'écart</li><li> empêcher l'approche de quelqu'un</li></ol>",
    "pron": "ek-kli'-o",
    "strongs_def": " exclure (au sens propre ou figuré)",
    "xlit": "ekkleíō"
}