{
    "derivation": "voix moyenne de G1537 (ἐκλανθάνομαι) et G2990 (ἐκλανθάνομαι) ;",
    "frequency": 1,
    "kjv_def": "oubliez",
    "lemma": "ἐκλανθάνομαι",
    "outline": "<ol><li> faire oublier</li><li> oublier</li></ol>",
    "pron": "ek-lan-than'-om-ahee",
    "strongs_def": " d'être complètement inconscient de..",
    "xlit": "eklanthánomai"
}