{
    "derivation": "de G1537 (ἐκκόπτω) et G2875 (ἐκκόπτω) ;",
    "frequency": 9,
    "kjv_def": "réduire (enlever, éliminer), abattre, entraver",
    "lemma": "ἐκκόπτω",
    "outline": "<ol><li> supprimer, couper<ol><li> d'un arbre</li></ol><li> métaph. pour couper l'occasion</li></ol>",
    "pron": "ek-kop'-to",
    "strongs_def": " exscind ; au sens figuré, frustrer",
    "xlit": "ekkóptō"
}