{
    "derivation": "de G1537 (ἐκνεύω) et G3506 (ἐκνεύω) ;",
    "frequency": 1,
    "kjv_def": "s'éloigner de soi",
    "lemma": "ἐκνεύω",
    "outline": "<ol><li> se pencher d'un côté</li><li> s'éloigner, se détourner, éviter quelque chose</li><li> s'enfuir à la nage, s'échapper à la nage</li><li> s'échapper, s'éclipser secrètement</li></ol>",
    "pron": "ek-nyoo'-o",
    "strongs_def": " (par analogie) se retirer, c'est-à-dire se retirer discrètement",
    "xlit": "ekneúō"
}