{
    "derivation": "de G1537 (ἐκνήφω) et G3525 (ἐκνήφω) ;",
    "frequency": 2,
    "kjv_def": "éveillé",
    "lemma": "ἐκνήφω",
    "outline": "<ol><li> revenir à soi après l'ivresse, devenir sobre</li><li> métaph. revenir à la sobriété d'esprit</li></ol>",
    "pron": "ek-nay'-fo",
    "strongs_def": " (au sens figuré) sortir (soi-même) de la stupeur",
    "xlit": "eknḗphō"
}