{
    "derivation": "de G1537 (ἐκμάσσω) et la base de G3145 (ἐκμάσσω) ;",
    "frequency": 5,
    "kjv_def": "essuyer",
    "lemma": "ἐκμάσσω",
    "outline": "<ol><li> effacer, essuyer</li></ol>",
    "pron": "ek-mas'-so",
    "strongs_def": " pétrir, c'est-à-dire (par analogie) essuyer",
    "xlit": "ekmássō"
}