{
    "derivation": "de G1603 (ἐκπλήρωσις) ;",
    "frequency": 1,
    "kjv_def": "accomplissement",
    "lemma": "ἐκπλήρωσις",
    "outline": "<ol><li> un achèvement, un accomplissement</li></ol>",
    "pron": "ek-play'-ro-sis",
    "strongs_def": " achèvement des travaux",
    "xlit": "ekplḗrōsis"
}