{
    "derivation": "neutre du comparatif de G1618 (ἐκτενέστερον) ;",
    "frequency": 1,
    "kjv_def": "plus sérieusement",
    "lemma": "ἐκτενέστερον",
    "outline": "<ol><li> plus attentivement, plus sérieusement</li></ol>",
    "pron": "ek-ten-es'-ter-on",
    "strongs_def": " plus attentivement",
    "xlit": "ektenésteron"
}