{
    "derivation": "de G1537 (ἐκτείνω) et teino (étirer) ;",
    "frequency": 16,
    "kjv_def": "lancer, mettre en avant, étendre (dehors)",
    "lemma": "ἐκτείνω",
    "outline": "<ol><li> s'étendre, s'étendre en avant<ol><li> sur, vers, contre un</li></ol></li></ol>",
    "pron": "ek-ti'-no",
    "strongs_def": " de prolonger",
    "xlit": "ekteínō"
}