{
    "derivation": "de G1537 (ἐκτελέω) et G5055 (ἐκτελέω) ;",
    "frequency": 2,
    "kjv_def": "finir",
    "lemma": "ἐκτελέω",
    "outline": "<ol><li> pour terminer, compléter</li></ol>",
    "pron": "ek-tel-eh'-o",
    "strongs_def": " à compléter entièrement",
    "xlit": "ekteléō"
}