{
    "derivation": "de G1537 (ἐκτός) ;",
    "frequency": 10,
    "kjv_def": "mais, sauf(-ed), autre que, hors de, en dehors de, à moins que, sans",
    "lemma": "ἐκτός",
    "outline": "<ol><li> l'extérieur, au-delà</li><li> l'extérieur, l'extérieur</li><li> à l'extérieur de</li><li> au delà, en plus, sauf</li></ol>",
    "pron": "ek-tos'",
    "strongs_def": " l'extérieur ; au sens figuré (comme une préposition) à part de, en plus de",
    "xlit": "ektós"
}