{
    "derivation": "féminin d'un dérivé présumé d'un primaire obsolète ;",
    "frequency": 16,
    "kjv_def": "olivier (baie, arbre)",
    "lemma": "ἐλαία",
    "outline": "<ol><li> un olivier</li><li> une olive, le fruit d'un olivier</li></ol>",
    "pron": "el-ah'-yah",
    "strongs_def": " une olive (l'arbre ou le fruit)",
    "xlit": "elaía"
}