{
    "derivation": "de G1636 (ἐλαιών) ;",
    "frequency": 1,
    "kjv_def": "Olivet",
    "lemma": "ἐλαιών",
    "outline": "<ol><li> un verger d'oliviers, un endroit planté d'oliviers<ol><li> Mont des Oliviers</li></ol></li></ol>",
    "pron": "el-ah-yone'",
    "strongs_def": " une oliveraie, c'est-à-dire (spécialement) le mont des Oliviers",
    "xlit": "elaiṓn"
}