{
    "derivation": "de G1537 (ἐκψύχω) et G5594 (ἐκψύχω) ;",
    "frequency": 3,
    "kjv_def": "rendre (céder) le fantôme",
    "lemma": "ἐκψύχω",
    "outline": "<ol><li> expirer, expirer sa vie</li></ol>",
    "pron": "ek-psoo'-kho",
    "strongs_def": " pour expirer",
    "xlit": "ekpsýchō"
}