{
    "derivation": "de G1640 (ἐλαττόω) ;",
    "frequency": 3,
    "kjv_def": "diminuer, rendre plus faible",
    "lemma": "ἐλαττόω",
    "outline": "<ol><li> rendre moins ou inférieur : en dignité</li><li> être rendu moins important ou inférieur : en dignité</li><li> diminuer en autorité ou en popularité</li></ol>",
    "pron": "el-at-to'-o",
    "strongs_def": " diminuer (de rang ou d'influence)",
    "xlit": "elattóō"
}