{
    "derivation": "superlatif de (court) ;",
    "frequency": 16,
    "kjv_def": "le moins, très peu (petit), le plus petit",
    "lemma": "ἐλάχιστος",
    "outline": "<ol><li> le plus petit le moins<ol><li> en taille</li><li> en quantité : de la gestion des affaires</li><li> en importance : de ce qui est le moindre moment</li><li> en autorité : de commandements</li><li> dans l'estime des hommes : des personnes</li><li> en rang et en excellence : des personnes</li></ol></li></ol>",
    "pron": "el-akh'-is-tos",
    "strongs_def": " utilisé comme équivalent à G3398 (ἐλάχιστος) ; le moins (en taille, en quantité, en dignité, etc.)",
    "xlit": "eláchistos"
}