{
    "derivation": "de G1653 (ἐλεήμων) ;",
    "frequency": 2,
    "kjv_def": "miséricordieux",
    "lemma": "ἐλεήμων",
    "outline": "<ol><li> miséricordieux</li></ol>",
    "pron": "el-eh-ay'-mone",
    "strongs_def": " compatissant (activement)",
    "xlit": "eleḗmōn"
}