{
    "derivation": "de G1658 (ἐλευθερόω) ;",
    "frequency": 7,
    "kjv_def": "délivrer, rendre libre",
    "lemma": "ἐλευθερόω",
    "outline": "<ol><li> rendre libre</li><li> libérer : de la domination du péché</li></ol>",
    "pron": "el-yoo-ther-o'-o",
    "strongs_def": " libérer, c'est-à-dire (au sens figuré) exempter (de toute responsabilité morale, cérémoniale ou mortelle)",
    "xlit": "eleutheróō"
}