{
    "derivation": "de G1668 (ἑλκόω) ;",
    "frequency": 1,
    "kjv_def": "plein de plaies",
    "lemma": "ἑλκόω",
    "outline": "<ol><li> rendre douloureux, provoquer une ulcération</li><li> être ulcéré</li><li> plein de plaies</li></ol>",
    "pron": "hel-ko'-o",
    "strongs_def": " provoquer l'ulcération, c'est-à-dire (passivement) être ulcéreux",
    "xlit": "helkóō"
}