{
    "derivation": "d'origine hébraïque (H0477) ;",
    "frequency": 1,
    "kjv_def": "Elissæus",
    "lemma": "Ἐλισσαῖος",
    "outline": "<span class=\"literal-meaning\">Eliseus ou Elisha = &quot;Dieu son salut&quot;.</span><ol><li> un éminent prophète de l'Ancien Testament, disciple, compagnon et successeur d'Elie</li></ol>",
    "pron": "el-is-sah'-yos",
    "strongs_def": " Elissæus, un Israélite",
    "xlit": "Elissaîos"
}