{
    "derivation": "d'origine hébraïque (H0472) ;",
    "frequency": 9,
    "kjv_def": "Elisabeth",
    "lemma": "Ἐλισάβετ",
    "outline": "<span class=\"literal-meaning\">Élisabeth = &quot;serment de Dieu</span><ol><li> épouse de Zacharie et mère de Jean-Baptiste, de la famille sacerdotale, et parente de Marie, Lc. 1:36</li></ol>",
    "pron": "el-ee-sab'-et",
    "strongs_def": " Elisabet, une israélite",
    "xlit": "Elisábet"
}