{
    "derivation": "probablement apparenté à G138 (ἕλκω) ;",
    "frequency": 8,
    "kjv_def": "dessiner",
    "lemma": "ἕλκω",
    "outline": "<ol><li> tirer, entraîner</li><li> métaph., tirer par une force intérieure, conduire, impulser</li></ol>",
    "pron": "hel'-ko",
    "strongs_def": " traîner (au sens propre ou figuré)",
    "xlit": "helkýō"
}