{
    "derivation": "féminin de G1672 (Ἑλληνίς) ;",
    "frequency": 2,
    "kjv_def": "Grec",
    "lemma": "Ἑλληνίς",
    "outline": "<ol><li> une femme grecque</li><li> une femme païenne, pas une juive</li></ol>",
    "pron": "hel-lay-nis'",
    "strongs_def": " une femme grecque (c'est-à-dire non juive)",
    "xlit": "Hellēnís"
}