{
    "derivation": "de G169 (ἀκαθαρσία) ;",
    "frequency": 9,
    "kjv_def": "impureté",
    "lemma": "ἀκαθαρσία",
    "outline": "<ol><li> impureté<ol><li> physique</li><li> au sens moral : l'impureté d'une vie luxueuse, luxurieuse, prodigue..<ol><li> de motivations impures</li></ol></li></ol></li></ol>",
    "pron": "ak-ath-ar-see'-ah",
    "strongs_def": " impureté (la qualité), physique ou morale",
    "xlit": "akatharsía"
}