{
    "derivation": "de G1722 (ἐλλογέω) et G3056 (ἐλλογέω) (au sens de compte) ;",
    "frequency": 2,
    "kjv_def": "imputer, mettre en compte",
    "lemma": "ἐλλογέω",
    "outline": "<ol><li> compter, mettre à son compte, mettre à la charge de quelqu'un, imputer</li></ol>",
    "pron": "el-log-eh'-o",
    "strongs_def": " à comptabiliser, c'est-à-dire à attribuer",
    "xlit": "ellogéō"
}