{
    "derivation": "adverbe du même que G1675 (Ἑλληνιστί) ;",
    "frequency": 2,
    "kjv_def": "Grec",
    "lemma": "Ἑλληνιστί",
    "outline": "<ol><li> en grec, la langue grecque</li></ol>",
    "pron": "hel-lay-nis-tee'",
    "strongs_def": " Hellénistiquement, c'est-à-dire dans la langue grecque",
    "xlit": "Hellēnistí"
}