{
    "derivation": "de G1680 (ἐλπίζω) ;",
    "frequency": 29,
    "kjv_def": "(avoir, chose) espoir(-d) (pour), confiance",
    "lemma": "ἐλπίζω",
    "outline": "<ol><li> espérer<ol><li> dans un sens religieux, d'attendre le salut avec joie et pleine confiance</li></ol><li> espérer, avoir confiance en</li></ol>",
    "pron": "el-pid'-zo",
    "strongs_def": " attendre ou se confier",
    "xlit": "elpízō"
}