{
    "derivation": "cas génitif composé de G1700 (ἐμαυτοῦ) et G846 (ἐμαυτοῦ) ;",
    "frequency": 39,
    "kjv_def": "moi, mine own (self), myself",
    "lemma": "ἐμαυτοῦ",
    "outline": "<ol><li> Je, moi, moi-même, etc.</li></ol>",
    "pron": "em-ow-ton'",
    "strongs_def": " de moi-même, de même le datif et l'accusatif ",
    "xlit": "emautoû"
}