{
    "derivation": "de G1722 (ἐμβλέπω) et G991 (ἐμβλέπω) ;",
    "frequency": 11,
    "kjv_def": "regarder, regarder vers le haut, regarder sur, (pourrait) voir",
    "lemma": "ἐμβλέπω",
    "outline": "<ol><li> tourner les yeux vers</li><li> regarder</li><li> métaph. regarder avec l'esprit, considérer</li></ol>",
    "pron": "em-blep'-o",
    "strongs_def": " regarder, c'est-à-dire (relativement) observer fixement ou (absolument) discerner clairement",
    "xlit": "emblépō"
}