{
    "derivation": "de G1722 (ἐμμένω) et G3306 (ἐμμένω) ;",
    "frequency": 4,
    "kjv_def": "continuer",
    "lemma": "ἐμμένω",
    "outline": "<ol><li> rester dans, continuer</li><li> persévérer dans une chose, un état d'esprit, etc.</li><li> tenir bon, être fidèle à, respecter, garder</li></ol>",
    "pron": "em-men'-o",
    "strongs_def": " rester au même endroit, c'est-à-dire (au sens figuré) persévérer",
    "xlit": "emménō"
}