{
    "derivation": "d'une affinité incertaine ;",
    "frequency": 1,
    "kjv_def": "(sera) spue",
    "lemma": "ἐμέω",
    "outline": "<ol><li> vomir, vomir, vomir en avant, vomir</li></ol>",
    "pron": "em-eh'-o",
    "strongs_def": " de vomir",
    "xlit": "eméō"
}