{
    "derivation": "de G1702 (ἐμπαιγμός) ;",
    "frequency": 2,
    "kjv_def": "moquerie",
    "lemma": "ἐμπαιγμός",
    "outline": "<ol><li> une moquerie, une raillerie</li></ol>",
    "pron": "emp-aheeg-mos'",
    "strongs_def": " dérision",
    "xlit": "empaigmós"
}