{
    "derivation": "de G1702 (ἐμπαίκτης) ;",
    "frequency": 2,
    "kjv_def": "railleur, moqueur",
    "lemma": "ἐμπαίκτης",
    "outline": "<ol><li> un moqueur, une moquerie</li></ol>",
    "pron": "emp-aheek-tace'",
    "strongs_def": " un détracteur, c'est-à-dire (implicitement) un faux enseignant",
    "xlit": "empaíktēs"
}