{
    "derivation": "de G1722 (ἐμπνέω) et G4154 (ἐμπνέω) ;",
    "frequency": 1,
    "kjv_def": "respirez",
    "lemma": "ἐμπνέω",
    "outline": "<ol><li> inspirer ou respirer</li><li> inhaler<ol><li> les menaces et les massacres étaient pour ainsi dire l'élément dans lequel il puisait son souffle</li></ol></li></ol>",
    "pron": "emp-neh'-o",
    "strongs_def": " inhaler, c'est-à-dire (au sens figuré) être animé par (se pencher sur)",
    "xlit": "empnéō"
}