{
    "derivation": "de G1722 (ἐμπλήθω) et la base de G4118 (ἐμπλήθω) ;",
    "frequency": 5,
    "kjv_def": "remplir",
    "lemma": "ἐμπλήθω",
    "outline": "<ol><li> remplir, remplir à ras bord</li><li> se rassasier, se gaver, satisfaire, satiété</li></ol>",
    "pron": "em-play'-tho",
    "strongs_def": "remplir (compléter), c'est-à-dire (implicitement) satisfaire (au sens propre ou figuré)",
    "xlit": "empíplēmi"
}