{
    "derivation": "de G1722 (ἐμφυσάω) et (souffler) (comparer G5453 (ἐμφυσάω)) ;",
    "frequency": 1,
    "kjv_def": "souffler",
    "lemma": "ἐμφυσάω",
    "outline": "<ol><li> souffler ou respirer sur</li></ol>",
    "pron": "em-foo-sah'-o",
    "strongs_def": " souffler sur ou vers",
    "xlit": "emphysáō"
}