{
    "derivation": "de (le neutre de) G1520 (ἕνδεκα) et G1176 (ἕνδεκα) ;",
    "frequency": 6,
    "kjv_def": "onze",
    "lemma": "ἕνδεκα",
    "outline": "<ol><li> onze<ol><li> des onze disciples vivants après la mort de Judas</li></ol></li></ol>",
    "pron": "hen'-dek-ah",
    "strongs_def": " un et dix, c'est-à-dire onze",
    "xlit": "héndeka"
}