{
    "derivation": "de G1722 (ἐνδείκνυμι) et G1166 (ἐνδείκνυμι) ;",
    "frequency": 10,
    "kjv_def": "faire, montrer (en avant)",
    "lemma": "ἐνδείκνυμι",
    "outline": "<ol><li> indiquer<ol><li> montrer, démontrer, prouver, que ce soit par des arguments ou par des actes</li></ol><li> manifester, afficher, mettre en avant</li></ol>",
    "pron": "en-dike'-noo-mee",
    "strongs_def": " indiquer (par une parole ou un acte)",
    "xlit": "endeíknymi"
}