{
    "derivation": "de G1731 (ἔνδειξις) ;",
    "frequency": 3,
    "kjv_def": "déclarer, gage évident, preuve",
    "lemma": "ἔνδειξις",
    "outline": "<ol><li> démonstration, preuve<ol><li> manifestation faite par acte</li><li> signe, preuve</li></ol></li></ol>",
    "pron": "en'-dike-sis",
    "strongs_def": " indication (de manière abstraite)",
    "xlit": "éndeixis"
}