{
    "derivation": "troisième personne du singulier présent d'un composé de G1722 (ἐνδέχεται) et G1209 (ἐνδέχεται) ;",
    "frequency": 1,
    "kjv_def": "peut (+ ne pas) être",
    "lemma": "ἐνδέχεται",
    "outline": "<ol><li> recevoir, admettre, approuver, permettre</li><li> il peut être permis, est possible, peut être</li></ol>",
    "pron": "en-dekh'-et-ahee",
    "strongs_def": " (impersonnellement) il est accepté dans, c'est-à-dire admis (possible)",
    "xlit": "endéchetai"
}