{
    "derivation": "de G1722 (ἔνδοξος) et G1391 (ἔνδοξος) ;",
    "frequency": 5,
    "kjv_def": "glorieux, magnifique(-ly), honorable",
    "lemma": "ἔνδοξος",
    "outline": "<ol><li> tenu en bonne ou en grande estime, de haute réputation<ol><li> illustres, honorables, estimés</li><li> notable, glorieux</li><li> splendide<ol><li> de vêtements</li><li> fig., exempt de péchés</li></ol></li></ol></li></ol>",
    "pron": "en'-dox-os",
    "strongs_def": " en gloire, c'est-à-dire splendide, (au sens figuré) noble",
    "xlit": "éndoxos"
}