{
    "derivation": "de G1 (ἄκαρπος) (adverbe de négation) et G2590 (ἄκαρπος) ;",
    "frequency": 8,
    "kjv_def": "sans fruit, infructueux",
    "lemma": "ἄκαρπος",
    "outline": "<ol><li> métaph. sans fruit, stérile, ne produisant pas ce qu'il devrait produire</li></ol>",
    "pron": "ak'-ar-pos",
    "strongs_def": " stérile (au sens propre ou figuré)",
    "xlit": "ákarpos"
}