{
    "derivation": "de G1722 (ἐνέχω) et G2192 (ἐνέχω) ;",
    "frequency": 3,
    "kjv_def": "s'emmêler avec, se disputer avec, faire pression sur",
    "lemma": "ἐνέχω",
    "outline": "<ol><li> avoir en soi, tenir en soi<ol><li> être tenu, enchevêtré, être tenu pris au piège</li><li> être engagé avec, s'opposer à, garder rancune à quelqu'un</li></ol></li></ol>",
    "pron": "en-ekh'-o",
    "strongs_def": " retenir, c'est-à-dire piéger ; implicitement, garder rancune",
    "xlit": "enéchō"
}