{
    "derivation": "de G1722 (ἐνευλογέω) et G2127 (ἐνευλογέω) ;",
    "frequency": 2,
    "kjv_def": "bénissez",
    "lemma": "ἐνευλογέω",
    "outline": "<ol><li> conférer des avantages, bénir</li></ol>",
    "pron": "en-yoo-log-eh'-o",
    "strongs_def": " conférer un avantage",
    "xlit": "eneulogéō"
}