{
    "derivation": "de G1 (ἀκατάγνωστος) (adverbe de négation) et un dérivé de G2607 (ἀκατάγνωστος) ;",
    "frequency": 1,
    "kjv_def": "qui ne peuvent être condamnés",
    "lemma": "ἀκατάγνωστος",
    "outline": "<ol><li> qui ne peuvent être condamnés, à ne pas censurer</li></ol>",
    "pron": "ak-at-ag'-noce-tos",
    "strongs_def": " irréprochable",
    "xlit": "akatágnōstos"
}