{
    "derivation": "ordinal de G1767 (ἔννατος) ;",
    "frequency": 10,
    "kjv_def": "neuvième",
    "lemma": "ἔννατος",
    "outline": "<ol><li> neuvième<ol><li> la neuvième heure correspond à notre 3 heures de l'après-midi car la sixième heure des Juifs coïncide avec la douzième du jour telle que divisée par notre méthode, et la première heure du jour est pour nous 6 heures du matin</li></ol></li></ol>",
    "pron": "en'-nat-os",
    "strongs_def": " neuvième",
    "xlit": "énnatos"
}