{
    "derivation": "prolongation d'un primaire (un an) ;",
    "frequency": 14,
    "kjv_def": "année",
    "lemma": "ἐνιαυτός",
    "outline": "<ol><li> une année, dans un sens plus large, pour une période de temps définie et fixe</li></ol>",
    "pron": "en-ee-ow-tos'",
    "strongs_def": " une année",
    "xlit": "eniautós"
}