{
    "derivation": "de G1520 (ἑνότης) ;",
    "frequency": 2,
    "kjv_def": "unité",
    "lemma": "ἑνότης",
    "outline": "<ol><li> unité</li><li> unanimité, accord</li></ol>",
    "pron": "hen-ot-ace'",
    "strongs_def": " l'unicité, c'est-à-dire (au sens figuré) l'unanimité",
    "xlit": "henótēs"
}