{
    "derivation": "de G1722 (ἐνοικέω) et G3611 (ἐνοικέω) ;",
    "frequency": 5,
    "kjv_def": "habiter",
    "lemma": "ἐνοικέω",
    "outline": "<ol><li> habiter</li><li> métaph. habiter en quelqu'un et l'influencer (en bien)</li></ol>",
    "pron": "en-oy-keh'-o",
    "strongs_def": " habiter (au sens figuré)",
    "xlit": "enoikéō"
}