{
    "derivation": "du même que G1759 (ἐντεῦθεν) ;",
    "frequency": 10,
    "kjv_def": "(de) d'où, de part et d'autre",
    "lemma": "ἐντεῦθεν",
    "outline": "<ol><li> à partir de cet endroit, donc</li><li> d'un côté et de l'autre, de chaque côté</li></ol>",
    "pron": "ent-yoo'-then",
    "strongs_def": " d'où (au sens propre ou figuré) ; (répété) des deux côtés",
    "xlit": "enteûthen"
}