{
    "derivation": "de G1 (ἀκατάκριτος) (adverbe de négation) et un dérivé de G2632 (ἀκατάκριτος) ;",
    "frequency": 2,
    "kjv_def": "inconditionnel",
    "lemma": "ἀκατάκριτος",
    "outline": "<ol><li> inconditionnel, puni sans être jugé</li></ol>",
    "pron": "ak-at-ak'-ree-tos",
    "strongs_def": " sans procès (légal)",
    "xlit": "akatákritos"
}