{
    "derivation": "de G1722 (ἐντόπιος) et G5117 (ἐντόπιος) ;",
    "frequency": 1,
    "kjv_def": "de ce lieu",
    "lemma": "ἐντόπιος",
    "outline": "<ol><li> un habitant d'un lieu</li><li> un résident ou un natif d'un lieu</li></ol>",
    "pron": "en-top'-ee-os",
    "strongs_def": " un résident",
    "xlit": "entópios"
}