{
    "derivation": "de G1722 (ἐντυγχάνω) et G5177 (ἐντυγχάνω) ;",
    "frequency": 5,
    "kjv_def": "traiter, intercéder",
    "lemma": "ἐντυγχάνω",
    "outline": "<ol><li> tomber sur une personne ou une chose, tomber sur, frapper sur, une personne ou une chose</li><li> aller à la rencontre d'une personne, en particulier dans un but de conversation, de consultation ou de supplication</li><li> prier, intercéder</li><li> intercéder pour quelqu'un</li></ol>",
    "pron": "en-toong-khan'-o",
    "strongs_def": " s'adresser par hasard, c'est-à-dire (implicitement) s'entretenir avec ; par extension, solliciter (en faveur ou contre)",
    "xlit": "entynchánō"
}