{
    "derivation": "de G1722 (ἐντυπόω) et un dérivé de G5179 (ἐντυπόω) ;",
    "frequency": 0,
    "kjv_def": "graver",
    "lemma": "ἐντυπόω",
    "outline": "<ol><li> graver, imprimer (une figure)</li></ol>",
    "pron": "en-too-po'-o",
    "strongs_def": " estampiller, c'est-à-dire graver",
    "xlit": "entypóō"
}