{
    "derivation": "neutre d'un composé de G1722 (ἐνώπιον) et d'un dérivé de G3700 (ἐνώπιον) ;",
    "frequency": 90,
    "kjv_def": "devant, en présence (vue) de, à",
    "lemma": "ἐνώπιον",
    "outline": "<ol><li> en présence de, devant<ol><li> de lieu occupé : à l'endroit qui est devant, ou contre, en face de quelqu'un et vers lequel un autre tourne les yeux</li></ol></li></ol>",
    "pron": "en-o'-pee-on",
    "strongs_def": " face à (littéralement ou figurativement)",
    "xlit": "enṓpion"
}