{
    "derivation": "de G1722 (ἐνύπνιον) et G5258 (ἐνύπνιον) ;",
    "frequency": 1,
    "kjv_def": "rêve",
    "lemma": "ἐνύπνιον",
    "outline": "<ol><li> un rêve</li></ol>",
    "pron": "en-oop'-nee-on",
    "strongs_def": " quelque chose vu dans le sommeil, c'est-à-dire un rêve (vision dans un rêve)",
    "xlit": "enýpnion"
}