{
    "derivation": "voix moyenne de G1537 (ἐξαιτέομαι) et G154 (ἐξαιτέομαι) ;",
    "frequency": 1,
    "kjv_def": "désir",
    "lemma": "ἐξαιτέομαι",
    "outline": "<ol><li> demander à, exiger de<ol><li> demander ou mendier pour soi-même, demander que l'on soit livré à l'un par le pouvoir d'un autre</li><li> dans un bon sens,<ol><li> supplier quelqu'un de quelqu'un d'autre</li><li> demander le pardon</li><li> la sécurité de quelqu'un</li></ol><li> dans le mauvais sens, la<ol><li> torture</li><li>, la punition</li></ol></li></ol></li></ol>",
    "pron": "ex-ahee-teh'-om-ahee",
    "strongs_def": " exiger (pour un procès)",
    "xlit": "exaitéomai"
}