{
    "derivation": "d'origine hébraïque (H02585) ;",
    "frequency": 3,
    "kjv_def": "Enoch",
    "lemma": "Ἐνώχ",
    "outline": "<span class=\"literal-meaning\">Enoch = &quot;consacré&quot;</span><ol><li> le fils de Jared et le père de Methuselah</li></ol>",
    "pron": "en-oke'",
    "strongs_def": " Enoch (i.e. Chanok), un antédiluvien",
    "xlit": "Enṓch"
}