{
    "derivation": "de G1537 (ἐξαλείφω) et G218 (ἐξαλείφω) ;",
    "frequency": 5,
    "kjv_def": "éponger, essuyer",
    "lemma": "ἐξαλείφω",
    "outline": "<ol><li> oindre ou laver en tout point<ol><li> salir : c'est-à-dire recouvrir de chaux (blanchir ou plâtrer)</li></ol><li> essuyer, essuyer<ol><li> pour effacer, effacer, effacer, effacer, effacer</li></ol></li></ol>",
    "pron": "ex-al-i'-fo",
    "strongs_def": " barbouiller, c'est-à-dire effacer (effacer les larmes, au sens figuré, pardonner le péché)",
    "xlit": "exaleíphō"
}