{
    "derivation": "de G1537 (ἐξάπινα) et un dérivé du même que G160 (ἐξάπινα) ;",
    "frequency": 1,
    "kjv_def": "soudainement",
    "lemma": "ἐξάπινα",
    "outline": "<ol><li> soudainement</li></ol>",
    "pron": "ex-ap'-ee-nah",
    "strongs_def": " d'un coup, c'est-à-dire de manière inattendue",
    "xlit": "exápina"
}