{
    "derivation": "de G1537 (ἐξανίστημι) et G450 (ἐξανίστημι) ;",
    "frequency": 3,
    "kjv_def": "s'élever (s'élever)",
    "lemma": "ἐξανίστημι",
    "outline": "<ol><li> faire se lever, s'élever, produire</li><li> se lever (dans une assemblée pour prendre la parole)</li></ol>",
    "pron": "ex-an-is'-tay-mee",
    "strongs_def": " objectivement, produire, c'est-à-dire (au sens figuré) engendrer ; subjectivement, naître, c'est-à-dire (au sens figuré) objecter",
    "xlit": "exanístēmi"
}