{
    "derivation": "de G1537 (ἐξαίφνης) et la base de G160 (ἐξαίφνης) ;",
    "frequency": 5,
    "kjv_def": "soudainement",
    "lemma": "ἐξαίφνης",
    "outline": "<ol><li> d'un coup, soudainement, inopinément</li></ol>",
    "pron": "ex-ah'-eef-nace",
    "strongs_def": " soudainement (de façon inattendue)",
    "xlit": "exaíphnēs"
}