{
    "derivation": "ordinal pluriel de G1803 (ἑξακόσιοι) et G1540 (ἑξακόσιοι) ;",
    "frequency": 1,
    "kjv_def": "six cents",
    "lemma": "ἑξακόσιοι",
    "outline": "<ol><li> six cents</li></ol>",
    "pron": "hex-ak-os'-ee-oy",
    "strongs_def": " six cents",
    "xlit": "hexakósioi"
}