{
    "derivation": "de G1537 (ἐξετάζω) et (examiner) ;",
    "frequency": 3,
    "kjv_def": "demander, enquêter, chercher",
    "lemma": "ἐξετάζω",
    "outline": "<ol><li> chercher<ol><li> examiner strictement, s'enquérir</li><li> demander des renseignements à quelqu'un</li></ol></li></ol>",
    "pron": "ex-et-ad'-zo",
    "strongs_def": " tester minutieusement (par des questions), c'est-à-dire vérifier ou interroger",
    "xlit": "exetázō"
}