{
    "derivation": "de G2192 (ἑξῆς) (au sens de s'emparer de, c'est-à-dire de s'accoler) ;",
    "frequency": 5,
    "kjv_def": "après, suivant, X lendemain, prochain",
    "lemma": "ἑξῆς",
    "outline": "<ol><li> successivement dans l'ordre</li><li> le suivant qui suit, le suivant en succession</li></ol>",
    "pron": "hex-ace'",
    "strongs_def": " successivement",
    "xlit": "hexēs"
}