{
    "derivation": "de G1537 (ἐξουδενόω) et un dérivé du neutre de G3762 (ἐξουδενόω) ;",
    "frequency": 0,
    "kjv_def": "réduit à néant",
    "lemma": "ἐξουδενόω",
    "outline": "<ol><li> tenir et traiter comme sans importance, mépriser complètement</li><li> mettre à l'écart, traiter avec mépris</li></ol>",
    "pron": "ex-oo-den-o'-o",
    "strongs_def": " ne rien faire, c'est-à-dire mépriser",
    "xlit": "exoudenóō"
}