{
    "derivation": "de G1832 (ἐξουσία) (au sens de capacité) ;",
    "frequency": 110,
    "kjv_def": "autorité, juridiction, liberté, pouvoir, droit, force",
    "lemma": "ἐξουσία",
    "outline": "<ol><li> pouvoir de choix, liberté de faire ce que l'on veut<ol><li> autorisation ou permission</li></ol><li>pouvoir physique et mental<ol><li> capacité ou force dont une personne est dotée, qu'elle possède ou exerce</li></ol><li> pouvoir d'autorité (influence) et de droit (privilège)</li><li>pouvoir de domination ou de gouvernement (pouvoir de celui dont la volonté et les ordres doivent être soumis par les autres et obéis)<ol><li><ol><li> autorité</li></ol>universelle<ol><li> sur l'humanité</li></ol><li><ol><li> pouvoir des décisions judiciaires</li><li> pouvoir de gérer les affaires domestiques</li></ol><li> métonymiquement<ol><li>chose soumise à l'autorité ou à la domination<ol><li> juridiction</li></ol><li>celui qui possède l'autorité<ol><li> un dirigeant,</li></ol><ol><li> un magistrat humain</li><li> le chef et le plus puissant des êtres créés supérieurs à l'homme, les potentats spirituels</li></ol><li>signe de l'autorité du mari sur sa femme<ol><li> le voile dont la bienséance exigeait que les femmes se couvrent</li></ol><li> le signe de l'autorité royale, une couronne</li></li></li></li></ol></li></li></li></ol></li></li> ",
    "pron": "ex-oo-see'-ah",
    "strongs_def": " le privilège, c'est-à-dire (subjectivement) la force, la capacité, la compétence, la liberté, ou (objectivement) la maîtrise (concrètement, magistrat, surhomme, potentat, gage de contrôle), l'influence déléguée",
    "xlit": "exousía"
}