{
    "derivation": "de G1537 (ἐξολοθρεύω) et G3645 (ἐξολοθρεύω) ;",
    "frequency": 1,
    "kjv_def": "détruire",
    "lemma": "ἐξολοθρεύω",
    "outline": "<ol><li> détruire de sa place, détruire complètement, extirper</li></ol>",
    "pron": "ex-ol-oth-ryoo'-o",
    "strongs_def": " à extirper",
    "xlit": "exolothreúō"
}