{
    "derivation": "de G1537 (ἐξορύσσω) et G3736 (ἐξορύσσω) ;",
    "frequency": 2,
    "kjv_def": "briser, arracher",
    "lemma": "ἐξορύσσω",
    "outline": "<ol><li> creuser, arracher (les yeux)</li><li> creuser à travers</li></ol>",
    "pron": "ex-or-oos'-so",
    "strongs_def": " creuser, c'est-à-dire (par extension) extraire (un œil), enlever (une toiture)",
    "xlit": "exorýssō"
}