{
    "derivation": "de G1537 (ἔξυπνος) et G5258 (ἔξυπνος) ;",
    "frequency": 1,
    "kjv_def": "X hors du sommeil",
    "lemma": "ἔξυπνος",
    "outline": "<ol><li> réveillé d'un sommeil</li></ol>",
    "pron": "ex'-oop-nos",
    "strongs_def": " éveillé",
    "xlit": "éxypnos"
}