{
    "derivation": "d'une affinité incertaine ;",
    "frequency": 25,
    "kjv_def": "fête, jour de fête",
    "lemma": "ἑορτή",
    "outline": "<ol><li> un jour de fête, un festival</li></ol>",
    "pron": "heh-or-tay'",
    "strongs_def": " un festival",
    "xlit": "heortḗ"
}