{
    "derivation": "de G1861 (ἐπαγγελία) ;",
    "frequency": 50,
    "kjv_def": "message, promesse",
    "lemma": "ἐπαγγελία",
    "outline": "<ol><li> annonce</li><li> promesse<ol><li> l'acte de promettre, une promesse donnée ou à donner</li><li> un bien ou une bénédiction promis</li></ol></li></ol>",
    "pron": "ep-ang-el-ee'-ah",
    "strongs_def": " une annonce (à titre d'information, d'assentiment ou de promesse ; en particulier une assurance divine du bien)",
    "xlit": "epangelía"
}