{
    "derivation": "de G1909 (ἐπαγγέλλω) et la base de G32 (ἐπαγγέλλω) ;",
    "frequency": 15,
    "kjv_def": "professer, (faire) promettre",
    "lemma": "ἐπαγγέλλω",
    "outline": "<ol><li> annoncer que l'on est sur le point de faire ou de fournir quelque chose<ol><li> promettre (de son propre chef) de s'engager volontairement</li></ol><li> professer<ol><li> un art, professer sa compétence dans quelque chose</li></ol></li></ol>",
    "pron": "ep-ang-el'-lo",
    "strongs_def": " annoncer (par réflexe), c'est-à-dire (par implication) s'engager à faire quelque chose, affirmer quelque chose en ce qui concerne soi-même",
    "xlit": "epangéllō"
}