{
    "derivation": "de G1909 (ἐπάγω) et G71 (ἐπάγω) ;",
    "frequency": 3,
    "kjv_def": "provoquer",
    "lemma": "ἐπάγω",
    "outline": "<ol><li> conduire ou amener sur</li><li> amener une chose sur quelqu'un<ol><li> faire en sorte que quelque chose arrive à quelqu'un, généralement quelque chose de mauvais</li></ol></li></ol>",
    "pron": "ep-ag'-o",
    "strongs_def": " superinduire, c'est-à-dire infliger (un mal), charger (un crime)",
    "xlit": "epágō"
}