{
    "derivation": "de G1909 (ἐπαναμιμνήσκω) et G363 (ἐπαναμιμνήσκω) ;",
    "frequency": 1,
    "kjv_def": "à l'esprit",
    "lemma": "ἐπαναμιμνήσκω",
    "outline": "<ol><li> rappeler à l'esprit à nouveau</li><li> se rappeler</li></ol>",
    "pron": "ep-an-ah-mim-nace'-ko",
    "strongs_def": " pour rappeler",
    "xlit": "epanamimnḗskō"
}