{
    "derivation": "de G1909 (ἐπακούω) et G191 (ἐπακούω) ;",
    "frequency": 0,
    "kjv_def": "entendre",
    "lemma": "ἐπακούω",
    "outline": "<ol><li> prêter l'oreille, écouter<ol><li> percevoir par l'oreille</li></ol><li> écouter pour<ol><li> entendre avec faveur, accorder sa demande</li></ol></li></ol>",
    "pron": "ep-ak-oo'-o",
    "strongs_def": " prêter l'oreille (favorablement) à",
    "xlit": "epakoúō"
}