{
    "derivation": "de G1909 (ἐπαρκέω) et G714 (ἐπαρκέω) ;",
    "frequency": 3,
    "kjv_def": "soulager",
    "lemma": "ἐπαρκέω",
    "outline": "<ol><li> se servir ou être assez fort pour<ol><li> éloigner ou chasser, une chose à l'avantage d'un autre<ol><li> une chose de quelqu'un, à défendre</li></ol><li> aider, prêter assistance, soulager<ol><li>, donner de l'aide à partir de ses propres ressources</li></ol></li></ol></li></ol>",
    "pron": "ep-ar-keh'-o",
    "strongs_def": " de se servir, c'est-à-dire d'aider",
    "xlit": "eparkéō"
}