{
    "derivation": "de G1909 (ἐπαύριον) et G839 (ἐπαύριον) ;",
    "frequency": 17,
    "kjv_def": "jour suivant, lendemain, jour suivant (après)",
    "lemma": "ἐπαύριον",
    "outline": "<ol><li> le lendemain, le jour suivant</li></ol>",
    "pron": "ep-ow'-ree-on",
    "strongs_def": " survenant le jour suivant, c'est-à-dire (G2250 (ἐπαύριον) étant sous-entendu) demain",
    "xlit": "epaúrion"
}