{
    "derivation": "contracté à partir de G1891 (Ἐπαφρᾶς) ;",
    "frequency": 3,
    "kjv_def": "Epaphras",
    "lemma": "Ἐπαφρᾶς",
    "outline": "<span class=\"literal-meaning\">Epaphras = &quot;beau&quot;</span><ol><li> un homme chrétien mentionné dans les épîtres de Paul</li></ol>",
    "pron": "ep-af-ras'",
    "strongs_def": " Epaphras, un chrétien",
    "xlit": "Epaphrâs"
}