{
    "derivation": "de G1893 (ἐπείπερ) et G4007 (ἐπείπερ) ;",
    "frequency": 0,
    "kjv_def": "voir",
    "lemma": "ἐπείπερ",
    "outline": "<ol><li> puisque, en effet, puisqu'en tout état de cause</li></ol>",
    "pron": "ep-i'-per",
    "strongs_def": " car en effet (de cause)",
    "xlit": "epeíper"
}