{
    "derivation": "de G1909 (ἐπιβαίνω) et la base de G939 (ἐπιβαίνω) ;",
    "frequency": 6,
    "kjv_def": "entrer (dans), entrer dans, aller à l'étranger, s'asseoir sur, prendre le bateau",
    "lemma": "ἐπιβαίνω",
    "outline": "<ol><li> monter sur, monter<ol><li> embarquer dans</li><li> monter à bord (d'un navire)</li></ol><li> mettre le pied dans, entrer</li></ol>",
    "pron": "ep-ee-bah'-ee-no",
    "strongs_def": " marcher sur, c'est-à-dire monter, monter, embarquer, arriver",
    "xlit": "epibaínō"
}