{
    "derivation": "d'un composé présumé de G1909 (ἐπιβουλή) et G1014 (ἐπιβουλή) ;",
    "frequency": 4,
    "kjv_def": "l'attente (l'attente)",
    "lemma": "ἐπιβουλή",
    "outline": "<ol><li> un plan formé contre un autre, un complot</li></ol>",
    "pron": "ep-ee-boo-lay'",
    "strongs_def": " un plan contre quelqu'un, c'est-à-dire un complot",
    "xlit": "epiboulḗ"
}