{
    "derivation": "de G1909 (ἐπίγειος) et G1093 (ἐπίγειος) ;",
    "frequency": 8,
    "kjv_def": "terrestre, en terre, terrestre",
    "lemma": "ἐπίγειος",
    "outline": "<ol><li> existant sur la terre, terrestre, terrestre</li></ol>",
    "pron": "ep-ig'-i-os",
    "strongs_def": " mondain (physiquement ou moralement)",
    "xlit": "epígeios"
}