{
    "derivation": "de G1909 (ἐπιβοάω) et G994 (ἐπιβοάω) ;",
    "frequency": 0,
    "kjv_def": "pleurer",
    "lemma": "ἐπιβοάω",
    "outline": "<ol><li> pour crier, crier</li></ol>",
    "pron": "ep-ee-bo-ah'-o",
    "strongs_def": " de s'exclamer contre",
    "xlit": "epiboáō"
}