{
    "derivation": "de G1921 (ἐπίγνωσις) ;",
    "frequency": 20,
    "kjv_def": "(ac-)connaissance(-ing, - ment)",
    "lemma": "ἐπίγνωσις",
    "outline": "<ol><li> connaissance précise et correcte<ol><li> utilisé dans le NT de la connaissance des choses éthiques et divines</li></ol></li></ol>",
    "pron": "ep-ig'-no-sis",
    "strongs_def": " la reconnaissance, c'est-à-dire (par implication) le plein discernement, la reconnaissance",
    "xlit": "epígnōsis"
}