{
    "derivation": "de G1 (ἀκρατής) (adverbe de négation) et G2904 (ἀκρατής) ;",
    "frequency": 1,
    "kjv_def": "incontinent",
    "lemma": "ἀκρατής",
    "outline": "<ol><li> sans contrôle de soi, immodéré</li></ol>",
    "pron": "ak-rat'-ace",
    "strongs_def": " impuissant, c'est-à-dire sans maîtrise de soi",
    "xlit": "akratḗs"
}