{
    "derivation": "de G1933 (ἐπιείκεια) ;",
    "frequency": 1,
    "kjv_def": "clémence, gentillesse",
    "lemma": "ἐπιείκεια",
    "outline": "<ol><li> douceur, gentillesse, équité</li></ol>",
    "pron": "ep-ee-i'-ki-ah",
    "strongs_def": " convenance, c'est-à-dire (implicitement) équité, douceur",
    "xlit": "epieíkeia"
}