{
    "derivation": "de G1909 (ἐπιδύω) et G1416 (ἐπιδύω) ;",
    "frequency": 1,
    "kjv_def": "se coucher",
    "lemma": "ἐπιδύω",
    "outline": "<ol><li> se coucher, se coucher (du soleil)</li></ol>",
    "pron": "ep-ee-doo'-o",
    "strongs_def": " se coucher complètement (comme le soleil)",
    "xlit": "epidýō"
}