{
    "derivation": "de G1909 (ἐπιεικής) et G1503 (ἐπιεικής) ;",
    "frequency": 5,
    "kjv_def": "douceur, modération, patience",
    "lemma": "ἐπιεικής",
    "outline": "<ol><li> semblant, convenable</li><li> équitable, juste, doux, gentil</li></ol>",
    "pron": "ep-ee-i-kace'",
    "strongs_def": " approprié, c'est-à-dire (par implication) doux",
    "xlit": "epieikḗs"
}