{
    "derivation": "voix moyenne de G1909 (ἐπιλαμβάνομαι) et G2983 (ἐπιλαμβάνομαι) ;",
    "frequency": 19,
    "kjv_def": "attraper, retenir (up-)on, prendre (par, hold of, on)",
    "lemma": "ἐπιλαμβάνομαι",
    "outline": "<ol><li> prendre en plus, s'emparer de, prendre possession de, dépasser, atteindre, atteindre à<ol><li> saisir ou saisir quelque chose avec les mains, s'emparer de, s'emparer de</li><li> métaph. sauver du péril, aider, secourir</li></ol></li></ol>",
    "pron": "ep-ee-lam-ban'-om-ahee",
    "strongs_def": " saisir (pour aider, blesser, atteindre ou tout autre but ; au sens propre ou figuré)",
    "xlit": "epilambánomai"
}