{
    "derivation": "de G1909 (ἐπικρίνω) et G2919 (ἐπικρίνω) ;",
    "frequency": 1,
    "kjv_def": "donner une sentence",
    "lemma": "ἐπικρίνω",
    "outline": "<ol><li> juger, approuver par sa décision, décréter, condamner</li></ol>",
    "pron": "ep-ee-kree'-no",
    "strongs_def": " juger",
    "xlit": "epikrínō"
}