{
    "derivation": "de G1909 (ἐπικαλύπτω) et G2572 (ἐπικαλύπτω) ;",
    "frequency": 1,
    "kjv_def": "couverture",
    "lemma": "ἐπικαλύπτω",
    "outline": "<ol><li> pour recouvrir</li></ol>",
    "pron": "ep-ee-kal-oop'-to",
    "strongs_def": " dissimuler, c'est-à-dire (au sens figuré) pardonner",
    "xlit": "epikalýptō"
}