{
    "derivation": "de (comparer G1947 (Ἐπικούρειος)) (un philosophe réputé) ;",
    "frequency": 1,
    "kjv_def": "Épicurien",
    "lemma": "Ἐπικούρειος",
    "outline": "<span class=\"literal-meaning\">Épicurien = \"un auxiliaire : un défenseur\"</span><ol><li> appartenant à la secte d'Epicure, le philosophe</li></ol>",
    "pron": "ep-ee-koo'-ri-os",
    "strongs_def": " un épicurien ou un partisan d'Épicure",
    "xlit": "Epikoúreios"
}