{
    "derivation": "de G1909 (ἐπιλείπω) et G3007 (ἐπιλείπω) ;",
    "frequency": 1,
    "kjv_def": "échouer",
    "lemma": "ἐπιλείπω",
    "outline": "<ol><li> échouer, ne pas souffrir pour (un but quelconque, pour l'atteinte d'une fin)</li></ol>",
    "pron": "ep-ee-li'-po",
    "strongs_def": " laisser sur, c'est-à-dire (au sens figuré) être insuffisant pour",
    "xlit": "epileípō"
}