{
    "derivation": "adverbe issu d'un dérivé de G1959 (ἐπιμελῶς) ;",
    "frequency": 1,
    "kjv_def": "diligemment",
    "lemma": "ἐπιμελῶς",
    "outline": "<ol><li> diligemment, soigneusement</li></ol>",
    "pron": "ep-ee-mel-oce'",
    "strongs_def": " soigneusement",
    "xlit": "epimelōs"
}