{
    "derivation": "peut-être du même que G1966 (ἐπιούσιος) ;",
    "frequency": 2,
    "kjv_def": "quotidien",
    "lemma": "ἐπιούσιος",
    "outline": "<ol><li> mot trouvé dans la phrase<ol><li> le pain de notre nécessité</li><li> le pain qui suffit pour chaque jour</li></ol></li></ol>",
    "pron": "ep-ee-oo'-see-os",
    "strongs_def": " de demain ; mais plus probablement de G1909 (ἐπιούσιος) et d'un dérivé du participe présent féminin de G1510 (ἐπιούσιος) ; pour la subsistance, c'est-à-dire nécessaire",
    "xlit": "epioúsios"
}