{
    "derivation": "de G1909 (ἐπιῤῥίπτω) et G4496 (ἐπιῤῥίπτω) ;",
    "frequency": 2,
    "kjv_def": "jeté sur",
    "lemma": "ἐπιῤῥίπτω",
    "outline": "<ol><li> jeter sur, placer sur</li></ol>",
    "pron": "ep-ir-hrip'-to",
    "strongs_def": " jeter sur (littéralement ou figurativement)",
    "xlit": "epirrhíptō"
}