{
    "derivation": "neutre du comparatif de même que G196 (ἀκριβέστερον) ;",
    "frequency": 4,
    "kjv_def": "plus parfait (-ly)",
    "lemma": "ἀκριβέστερον",
    "outline": "<ol><li> plus exactement, plus parfaitement</li></ol>",
    "pron": "ak-ree-bes'-ter-on",
    "strongs_def": " (adverbialement) plus exactement",
    "xlit": "akribésteron"
}