{
    "derivation": "de G1909 (ἐπιπορεύομαι) et G4198 (ἐπιπορεύομαι) ;",
    "frequency": 1,
    "kjv_def": "venez",
    "lemma": "ἐπιπορεύομαι",
    "outline": "<ol><li> aller ou voyager vers</li><li> aller vers, traverser<ol><li> régions, villes</li></ol><li> faire une incursion hostile, envahir, marcher dessus</li></ol>",
    "pron": "ep-ee-por-yoo'-om-ahee",
    "strongs_def": " aller plus loin, c'est-à-dire voyager (atteindre)",
    "xlit": "epiporeúomai"
}