{
    "derivation": "de G1909 (ἐπίσημος) et une certaine forme de la base de G4591 (ἐπίσημος) ;",
    "frequency": 2,
    "kjv_def": "notable, à noter",
    "lemma": "ἐπίσημος",
    "outline": "<ol><li> portant une marque, marqué, estampillé, monnayé</li><li> marqué<ol><li> dans le bon sens du terme<ol><li> remarquable, illustre</li></ol><li> dans un mauvais sens<ol><li> notoire, infâme</li></ol></li></ol></li></ol>",
    "pron": "ep-is'-ay-mos",
    "strongs_def": " remarquable, c'est-à-dire (au sens figuré) éminent",
    "xlit": "epísēmos"
}