{
    "derivation": "de G1980 (ἐπισκοπή) ;",
    "frequency": 4,
    "kjv_def": "l'office d'un \"évêque\", l'évêque, la visite",
    "lemma": "ἐπισκοπή",
    "outline": "<ol><li> enquête, inspection, visite<ol><li> acte par lequel Dieu examine et sonde les voies, les actes, le caractère des hommes, pour leur réserver en conséquence un sort joyeux ou triste</li><li> surveillance<ol><li> surveillance, office, charge, fonction d'un ancien</li><li> le surveillant ou le président d'une église chrétienne</li></ol></li></ol></li></ol>",
    "pron": "ep-is-kop-ay'",
    "strongs_def": " inspection (pour le secours) ; par implication, surintendance ; en particulier, l'\"épiscopat\" chrétien",
    "xlit": "episkopḗ"
}