{
    "derivation": "de G1909 (ἐπισκοπέω) et G4648 (ἐπισκοπέω) ;",
    "frequency": 1,
    "kjv_def": "regardez attentivement, prenez la surveillance",
    "lemma": "ἐπισκοπέω",
    "outline": "<ol><li> regarder, inspecter, superviser, s'occuper de, prendre soin de<ol><li> du soin de l'église qui reposait sur les anciens</li><li> regarder attentivement, prendre garde</li></ol></li></ol>",
    "pron": "ep-ee-skop-eh'-o",
    "strongs_def": " surveiller ; implicitement, se méfier",
    "xlit": "episkopéō"
}