{
    "derivation": "de G1909 (ἐπίσκοπος) et G4649 (ἐπίσκοπος) (au sens de G1983 (ἐπίσκοπος)) ;",
    "frequency": 5,
    "kjv_def": "évêque, surveillant",
    "lemma": "ἐπίσκοπος",
    "outline": "<ol><li> un surveillant<ol><li> un homme chargé de veiller à ce que les choses qui doivent être faites par d'autres le soient correctement, tout curateur, tuteur ou surintendant</li><li> le surintendant, l'ancien ou le surveillant d'une église chrétienne</li></ol></li></ol>",
    "pron": "ep-is'-kop-os",
    "strongs_def": " un surintendant, c'est-à-dire un officier chrétien chargé, au génitif, d'une (ou de l') église (au sens propre ou figuré)",
    "xlit": "epískopos"
}