{
    "derivation": "voix moyenne de G1909 (ἐπισκέπτομαι) et la base de G4649 (ἐπισκέπτομαι) ;",
    "frequency": 11,
    "kjv_def": "attention, visite",
    "lemma": "ἐπισκέπτομαι",
    "outline": "<ol><li> regarder sur ou après, inspecter, examiner avec les yeux<ol><li> pour voir comment il va, c'est-à-dire pour visiter, aller voir quelqu'un<ol><li> les pauvres et les affligés, les malades</li></ol><li>regarder en vue d'aider ou de profiter<ol><li> s'occuper de, avoir soin de, pourvoir à : de Dieu</li></ol><li> regarder (à propos de), regarder dehors (quelqu'un à choisir, employer, etc.)</li></li> </ol></li></ol>",
    "pron": "ep-ee-skep'-tom-ahee",
    "strongs_def": " inspecter, c'est-à-dire (implicitement) sélectionner ; par extension, aller voir, se soulager",
    "xlit": "episképtomai"
}