{
    "derivation": "de G1909 (ἐπιστομίζω) et G4750 (ἐπιστομίζω) ;",
    "frequency": 1,
    "kjv_def": "bouches d'arrêt",
    "lemma": "ἐπιστομίζω",
    "outline": "<ol><li> brider ou boucher la bouche</li><li> métaph. fermer la bouche, réduire au silence</li></ol>",
    "pron": "ep-ee-stom-id'-zo",
    "strongs_def": " mettre quelque chose sur la bouche, c'est-à-dire (au sens figuré) faire taire",
    "xlit": "epistomízō"
}