{
    "derivation": "de G1989 (ἐπιστολή) ;",
    "frequency": 18,
    "kjv_def": "\"épître\", \"lettre",
    "lemma": "ἐπιστολή",
    "outline": "<ol><li> une lettre, une épître</li></ol>",
    "pron": "ep-is-tol-ay'",
    "strongs_def": " un message écrit",
    "xlit": "epistolḗ"
}