{
    "derivation": "de G1909 (ἐπισυντρέχω) et G4936 (ἐπισυντρέχω) ;",
    "frequency": 1,
    "kjv_def": "viennent courir ensemble",
    "lemma": "ἐπισυντρέχω",
    "outline": "<ol><li> pour courir ensemble d'ailleurs<ol><li> à d'autres déjà réunis</li></ol></li></ol>",
    "pron": "ep-ee-soon-trekh'-o",
    "strongs_def": " se précipiter ensemble en un lieu (ou une occasion particulière)",
    "xlit": "episyntréchō"
}