{
    "derivation": "de G1996 (ἐπισυναγωγή) ;",
    "frequency": 2,
    "kjv_def": "l'assemblage (le rassemblement)",
    "lemma": "ἐπισυναγωγή",
    "outline": "<ol><li> un rassemblement en un lieu</li><li> l'assemblée (religieuse) (des chrétiens)</li></ol>",
    "pron": "ep-ee-soon-ag-o-gay'",
    "strongs_def": " une collection complète ; en particulier une réunion chrétienne (pour le culte)",
    "xlit": "episynagōgḗ"
}