{
    "derivation": "de G1909 (ἐπισυνάγω) et G4863 (ἐπισυνάγω) ;",
    "frequency": 8,
    "kjv_def": "rassembler (ensemble)",
    "lemma": "ἐπισυνάγω",
    "outline": "<ol><li> rassembler en outre, réunir à d'autres déjà rassemblés</li><li> se réunir contre</li><li> se réunir en un seul lieu</li></ol>",
    "pron": "ep-ee-soon-ag'-o",
    "strongs_def": " de se rassembler au même endroit",
    "xlit": "episynágō"
}