{
    "derivation": "de G1909 (ἐπιστηρίζω) et G4741 (ἐπιστηρίζω) ;",
    "frequency": 3,
    "kjv_def": "confirmer, renforcer",
    "lemma": "ἐπιστηρίζω",
    "outline": "<ol><li> établir en outre, renforcer davantage</li><li> rendre plus ferme, confirmer</li></ol>",
    "pron": "ep-ee-stay-rid'-zo",
    "strongs_def": " à soutenir davantage, c'est-à-dire à rétablir",
    "xlit": "epistērízō"
}