{
    "derivation": "de G1909 (ἐπισωρεύω) et G4987 (ἐπισωρεύω) ;",
    "frequency": 1,
    "kjv_def": "amas",
    "lemma": "ἐπισωρεύω",
    "outline": "<ol><li> entasser, accumuler en tas</li></ol>",
    "pron": "ep-ee-so-ryoo'-o",
    "strongs_def": " accumuler davantage, c'est-à-dire (au sens figuré) chercher à s'enrichir davantage",
    "xlit": "episōreúō"
}