{
    "derivation": "de G1909 (ἐποικοδομέω) et G3618 (ἐποικοδομέω) ;",
    "frequency": 11,
    "kjv_def": "construire sur le terrain (thereupon, on, upon)",
    "lemma": "ἐποικοδομέω",
    "outline": "<ol><li> construire sur, développer</li></ol>",
    "pron": "ep-oy-kod-om-eh'-o",
    "strongs_def": " construire sur, c'est-à-dire (au sens figuré) élever",
    "xlit": "epoikodoméō"
}