{
    "derivation": "de G2040 (ἐργασία) ;",
    "frequency": 6,
    "kjv_def": "métier, diligence, gain, travail",
    "lemma": "ἐργασία",
    "outline": "<ol><li> un travail, une performance</li><li> travail, entreprise</li><li> gain obtenu par le travail, profit</li><li> effort, peine</li></ol>",
    "pron": "er-gas-ee'-ah",
    "strongs_def": " profession ; par voie de conséquence, profit, douleurs",
    "xlit": "ergasía"
}