{
    "derivation": "d'une forme prolongée présumée de G2054 (ἐρεθίζω) ;",
    "frequency": 1,
    "kjv_def": "provoquer",
    "lemma": "ἐρεθίζω",
    "outline": "<ol><li> susciter, exciter, stimuler, provoquer</li></ol>",
    "pron": "er-eth-id'-zo",
    "strongs_def": " stimuler (surtout à la colère)",
    "xlit": "erethízō"
}