{
    "derivation": "d'une affinité obscure ;",
    "frequency": 1,
    "kjv_def": "s'accrocher",
    "lemma": "ἐρείδω",
    "outline": "<ol><li> fixer, soutenir fermement</li></ol>",
    "pron": "er-i'-do",
    "strongs_def": " se propulser, c'est-à-dire (par réflexe) aller vite",
    "xlit": "ereídō"
}