{
    "derivation": "de G2048 (ἐρημόω) ;",
    "frequency": 5,
    "kjv_def": "(amener à, rendre) désolant(-ion), réduire à néant",
    "lemma": "ἐρημόω",
    "outline": "<ol><li> rendre désolant, détruire</li><li> ruiner, amener à la désolation</li><li> dépouiller une personne, la dépouiller de ses trésors</li></ol>",
    "pron": "er-ay-mo'-o",
    "strongs_def": " détruire (au sens propre ou figuré)",
    "xlit": "erēmóō"
}