{
    "derivation": "de G206 (ἀκροθίνιον) et (un tas) ;",
    "frequency": 1,
    "kjv_def": "gâches",
    "lemma": "ἀκροθίνιον",
    "outline": "<ol><li> le sommet du tas, les premiers fruits<ol><li> le meilleur du butin ou des récoltes</li></ol><li> les Grecs avaient l'habitude de choisir la partie la plus haute du tas et de l'offrir aux dieux</li></ol>",
    "pron": "ak-roth-in'-ee-on",
    "strongs_def": " proprement (au pluriel) le sommet du tas, c'est-à-dire (implicitement) le meilleur du butin",
    "xlit": "akrothínion"
}