{
    "derivation": "d'origine hébraïque (probablement pour H0454) ;",
    "frequency": 1,
    "kjv_def": "Esli",
    "lemma": "Ἐσλί",
    "outline": "<span class=\"literal-meaning\">Esli = &quot;réservé de Jéhovah&quot;</span><ol><li> le fils de Nagge ou Naggai dans la généalogie du Christ. Lc. 3:25.</li></ol>",
    "pron": "es-lee'",
    "strongs_def": " Esli, un Israélite",
    "xlit": "Eslí"
}