{
    "derivation": "apparemment de G2046 (ἐρωτάω) (comparer G2045 (ἐρωτάω)) ;",
    "frequency": 65,
    "kjv_def": "demander, prier, désirer, prier, prier",
    "lemma": "ἐρωτάω",
    "outline": "<ol><li> interroger</li><li> demander<ol><li> demander, prier, supplier, supplier, implorer</li></ol></li></ol>",
    "pron": "er-o-tah'-o",
    "strongs_def": " interroger ; implicitement, demander",
    "xlit": "erōtáō"
}