{
    "derivation": "probablement pour le latin aquila (un aigle) ;",
    "frequency": 7,
    "kjv_def": "Aquila",
    "lemma": "Ἀκύλας",
    "outline": "<span class=\"literal-meaning\">Aquila = &quot;un aigle</span><ol><li> juif du Pont, fabricant de tentes converti au Christ, compagnon et allié de Paul dans la propagation du christianisme</li></ol>",
    "pron": "ak-oo'-las",
    "strongs_def": " Akulas, un Israélite",
    "xlit": "Akýlas"
}