{
    "derivation": "deuxième personne du singulier impératif présent de G1510 (ἔστω) ;",
    "frequency": 0,
    "kjv_def": "être",
    "lemma": "ἔστω",
    "outline": "<ol><li> \"être\" ou \"laisser être\" (troisième personne du singulier impératif de \"être\")</li></ol>",
    "pron": "es'-to-san",
    "strongs_def": " sois toi ; aussi, troisième personne du même ; qu'ils soient",
    "xlit": "éstō"
}