{
    "derivation": "adverbe de G2087 (ἑτέρως) ;",
    "frequency": 1,
    "kjv_def": "sinon",
    "lemma": "ἑτέρως",
    "outline": "<ol><li> autrement, différemment</li></ol>",
    "pron": "het-er'-oce",
    "strongs_def": " différemment",
    "xlit": "hetérōs"
}