{
    "derivation": "de (un clansman) ;",
    "frequency": 3,
    "kjv_def": "compagnon, ami",
    "lemma": "ἑταῖρος",
    "outline": "<ol><li> un camarade, un compagnon, un partenaire</li><li> en s'adressant gentiment<ol><li> ami, (mon bon ami)</li></ol></li></ol>",
    "pron": "het-ah'-ee-ros",
    "strongs_def": " un camarade",
    "xlit": "hetaîros"
}