{
    "derivation": "d'origine hébraïque (H02332) ;",
    "frequency": 1,
    "kjv_def": "Eve",
    "lemma": "Εὖα",
    "outline": "<span class=\"literal-meaning\">Eve signifie &quot;vie&quot;.</span><ol><li> première femme dans les Écritures, mère de toute la famille humaine</li></ol>",
    "pron": "yoo'-ah",
    "strongs_def": " Eua (ou Eva, c'est-à-dire Chavvah), la première femme",
    "xlit": "Eûa"
}