{
    "derivation": "de G2090 (ἑτοιμασία) ;",
    "frequency": 1,
    "kjv_def": "préparation",
    "lemma": "ἑτοιμασία",
    "outline": "<ol><li> l'action de se préparer</li><li> l'état d'une personne ou d'une chose dans la mesure où elle est préparée, l'état de préparation, l'état d'empressement</li></ol>",
    "pron": "het-oy-mas-ee'-ah",
    "strongs_def": " préparation",
    "xlit": "hetoimasía"
}