{
    "derivation": "féminin de G2095 (εὐδία) et l'alternatif de G2203 (εὐδία) (comme le dieu du temps) ;",
    "frequency": 1,
    "kjv_def": "beau temps",
    "lemma": "εὐδία",
    "outline": "<ol><li> un ciel serein, le beau temps</li></ol>",
    "pron": "yoo-dee'-ah",
    "strongs_def": " un ciel clair, c'est-à-dire du beau temps",
    "xlit": "eudía"
}