{
    "derivation": "d'un composé présumé de G2095 (εὐδοκία) et de la base de G1380 (εὐδοκία) ;",
    "frequency": 9,
    "kjv_def": "désir, bon plaisir (volonté), X semble bon",
    "lemma": "εὐδοκία",
    "outline": "<ol><li> volonté, choix<ol><li> bonne volonté, intention bienveillante, bienveillance</li></ol><li> délectation, plaisir, satisfaction</li>le<li> désir<ol><li> de se délecter d'une chose absente produit facilement le désir de cette chose</li></ol></li></ol>",
    "pron": "yoo-dok-ee'-ah",
    "strongs_def": " satisfaction, c'est-à-dire (subjectivement) plaisir, ou (objectivement) gentillesse, souhait, but",
    "xlit": "eudokía"
}