{
    "derivation": "de G2095 (εὐγενής) et G1096 (εὐγενής) ;",
    "frequency": 4,
    "kjv_def": "plus noble, noble",
    "lemma": "εὐγενής",
    "outline": "<ol><li> bien né, de famille noble</li><li> noble d'esprit</li></ol>",
    "pron": "yoog-en'-ace",
    "strongs_def": " bien né, c'est-à-dire (au sens propre) d'un rang élevé, ou (au sens figuré) généreux",
    "xlit": "eugenḗs"
}