{
    "derivation": "de G2095 (εὐεργέτης) et la base de G2041 (εὐεργέτης) ;",
    "frequency": 1,
    "kjv_def": "bienfaiteur",
    "lemma": "εὐεργέτης",
    "outline": "<ol><li> bienfaiteur</li><li> titre honorifique conféré à ceux qui avaient rendu service à leur pays et aux princes, équivalent à Soter, Pater Patriae</li></ol>",
    "pron": "yoo-erg-et'-ace",
    "strongs_def": " un travailleur du bien, c'est-à-dire (spécialement) un philanthrope",
    "xlit": "euergétēs"
}