{
    "derivation": "de G213 (ἀλαζονεία) ;",
    "frequency": 2,
    "kjv_def": "vantardise, orgueil",
    "lemma": "ἀλαζονεία",
    "outline": "<ol><li> un discours vide et fanfaron</li><li> une assurance insolente et vide, qui se fie à son propre pouvoir et à ses propres ressources et qui méprise et viole honteusement les lois divines et les droits de l'homme</li><li> une présomption impie et vide qui se fie à la stabilité des choses terrestres</li></ol>",
    "pron": "al-ad-zon-i'-a",
    "strongs_def": " braggadocio, c'est-à-dire (implicitement) confiance en soi",
    "xlit": "alazoneía"
}