{
    "derivation": "comparatif d'un composé de G2095 (εὐκοπώτερος) et G2873 (εὐκοπώτερος) ;",
    "frequency": 7,
    "kjv_def": "plus facile",
    "lemma": "εὐκοπώτερος",
    "outline": "<ol><li> avec un travail facile</li><li> facile</li></ol>",
    "pron": "yoo-kop-o'-ter-os",
    "strongs_def": " mieux pour le labeur, c'est-à-dire plus facile",
    "xlit": "eukopṓteros"
}