{
    "derivation": "de (vagabondage) ;",
    "frequency": 2,
    "kjv_def": "boaster",
    "lemma": "ἀλαζών",
    "outline": "<ol><li> un prétendant vide, un vantard</li></ol>",
    "pron": "al-ad-zone'",
    "strongs_def": " fanfaron",
    "xlit": "alazṓn"
}