{
    "derivation": "à partir d'un composé de G2095 (εὐποιΐα) et G4160 (εὐποιΐα) ;",
    "frequency": 1,
    "kjv_def": "pour faire le bien",
    "lemma": "εὐποιΐα",
    "outline": "<ol><li> adorer le bien, la bienfaisance</li></ol>",
    "pron": "yoo-poy-ee'-ah",
    "strongs_def": " le bien faire, c'est-à-dire la bienfaisance",
    "xlit": "eupoiḯa"
}