{
    "derivation": "à partir d'un composé de G2095 (εὐπρέπεια) et de G4241 (εὐπρέπεια) ;",
    "frequency": 1,
    "kjv_def": "grâce",
    "lemma": "εὐπρέπεια",
    "outline": "<ol><li> une belle apparence, une forme, une beauté, une allure..</li></ol>",
    "pron": "yoo-prep'-i-ah",
    "strongs_def": " la bonne convenance, c'est-à-dire la grâce",
    "xlit": "euprépeia"
}