{
    "derivation": "de G1 (ἄλαλος) (adverbe de négation) et G2980 (ἄλαλος) ;",
    "frequency": 3,
    "kjv_def": "stupide",
    "lemma": "ἄλαλος",
    "outline": "<ol><li> sans voix, muet, ne possédant pas la faculté de parler</li></ol>",
    "pron": "al'-al-os",
    "strongs_def": " muet",
    "xlit": "álalos"
}