{
    "derivation": "de G2170 (εὐχαριστία) ;",
    "frequency": 13,
    "kjv_def": "remerciement, (donner) merci (-donner)",
    "lemma": "εὐχαριστία",
    "outline": "<ol><li> reconnaissance</li><li> l'action de grâces</li></ol>",
    "pron": "yoo-khar-is-tee'-ah",
    "strongs_def": " la gratitude ; activement, le langage reconnaissant (à Dieu, comme un acte d'adoration)",
    "xlit": "eucharistía"
}