{
    "derivation": "de G2095 (εὔχρηστος) et G5543 (εὔχρηστος) ;",
    "frequency": 3,
    "kjv_def": "rentable, rencontre pour l'utilisation",
    "lemma": "εὔχρηστος",
    "outline": "<ol><li> facile à utiliser, utile</li></ol>",
    "pron": "yoo'-khrays-tos",
    "strongs_def": " facilement utilisable, c'est-à-dire utile",
    "xlit": "eúchrēstos"
}