{
    "derivation": "de G1909 (ἐφάλλομαι) et G242 (ἐφάλλομαι) ;",
    "frequency": 1,
    "kjv_def": "sauter sur",
    "lemma": "ἐφάλλομαι",
    "outline": "<ol><li> sauter sur, s'élancer sur</li></ol>",
    "pron": "ef-al'-lom-ahee",
    "strongs_def": " de jaillir sur",
    "xlit": "ephállomai"
}