{
    "derivation": "à partir d'un composé de G2095 (εὐωδία) et d'un dérivé de G3605 (εὐωδία) ;",
    "frequency": 2,
    "kjv_def": "douce saveur (odeur, -smelling)",
    "lemma": "εὐωδία",
    "outline": "<ol><li> une douce odeur, un parfum</li><li> une chose parfumée ou qui sent bon, de l'encens, une odeur ou quelque chose qui sent bon<ol><li> une odeur d'assentiment, de satisfaction</li><li> une douce odeur, se dit de l'odeur des sacrifices et des obligations, conformément à l'ancienne notion selon laquelle Dieu sent et est satisfait de l'odeur des sacrifices</li></ol><li> métaphore : une chose qui plaît à Dieu</li></ol>",
    "pron": "yoo-o-dee'-ah",
    "strongs_def": " la bonne odeur, c'est-à-dire le parfum",
    "xlit": "euōdía"
}