{
    "derivation": "de G2181 (Ἐφεσῖνος) ;",
    "frequency": 0,
    "kjv_def": "d'Ephèse",
    "lemma": "Ἐφεσῖνος",
    "outline": "<ol><li> un natif ou un habitant d'Ephèse</li></ol>",
    "pron": "ef-es-ee'-nos",
    "strongs_def": " Ephesine, ou située à Ephèse",
    "xlit": "Ephesînos"
}