{
    "derivation": "probablement d'origine étrangère ;",
    "frequency": 18,
    "kjv_def": "Ephèse",
    "lemma": "Ἔφεσος",
    "outline": "<span class=\"literal-meaning\">Ephèse = &quot;permise&quot;</span><ol><li> ville maritime d'Asie mineure, capitale de l'Ionie et, sous les Romains, de l'Asie proconsulaire, située sur la mer Icarienne entre Smyrne et Milet</li></ol>",
    "pron": "ef'-es-os",
    "strongs_def": " Ephèse, une ville d'Asie Mineure",
    "xlit": "Éphesos"
}