{
    "derivation": "d'origine hébraïque (H0669 ou mieux H06085) ;",
    "frequency": 1,
    "kjv_def": "Ephraim",
    "lemma": "Ἐφραίμ",
    "outline": "<span class=\"literal-meaning\">Ephraïm = &quot;double fécondité&quot;.</span><ol><li> une ville située à une courte journée de voyage de Jérusalem</li></ol>",
    "pron": "ef-rah-im'",
    "strongs_def": " Ephraïm, un lieu en Palestine",
    "xlit": "Ephraím"
}