{
    "derivation": "féminin de G2190 (ἔχθρα) ;",
    "frequency": 6,
    "kjv_def": "inimitié, haine",
    "lemma": "ἔχθρα",
    "outline": "<ol><li> inimitié</li><li> cause de l'inimitié</li></ol>",
    "pron": "ekh'-thrah",
    "strongs_def": " l'hostilité ; implicitement, un motif d'opposition",
    "xlit": "échthra"
}