{
    "derivation": "de G220 (ἀλεκτοροφωνία) et G5456 (ἀλεκτοροφωνία) ;",
    "frequency": 1,
    "kjv_def": "cris de coqs",
    "lemma": "ἀλεκτοροφωνία",
    "outline": "<ol><li> le chant d'un coq, le chant du coq<ol><li> utilisé pour la troisième veille de la nuit</li></ol></li></ol>",
    "pron": "al-ek-tor-of-o-nee'-ah",
    "strongs_def": " le chant du coq, c'est-à-dire la troisième veille de la nuit",
    "xlit": "alektorophōnía"
}