{
    "derivation": "d'origine hébraïque (voir H02067) ;",
    "frequency": 12,
    "kjv_def": "Zebedee",
    "lemma": "Ζεβεδαῖος",
    "outline": "<span class=\"literal-meaning\">Zébédée = &quot;mon cadeau&quot;</span><ol><li> pêcheur de Galilée, père des apôtres Jacques le Majeur et Jean, et époux de Salomé</li></ol>",
    "pron": "dzeb-ed-ah'-yos",
    "strongs_def": " Zebedæus, un Israélite",
    "xlit": "Zebedaîos"
}