{
    "derivation": "un verbe primaire ;",
    "frequency": 734,
    "kjv_def": "être (capable, X tenir, posséder avec), accompagner, + commencer à s'amender, peut(+ -non), X concevoir, compter, malade, faire + manger, + jouir, + craindre, suivre, avoir, tenir, garder, + manquer, + aller à la loi, mentir, + doit besoins, + de nécessité, + besoin, prochain, + récupérer, + régner, + repos, + retour, X malade, prendre pour, + trembler, + incirconcis, utiliser",
    "lemma": "σχέω",
    "outline": "<ol><li> avoir, c'est-à-dire détenir<ol><li> avoir (tenir) dans la main, dans le sens de porter, avoir (tenir) possession de l'esprit (se réfère à l'alarme, aux émotions agitées, etc.), tenir rapidement, avoir ou comprendre ou impliquer, considérer ou tenir comme</li></ol><li>avoir, c'est-à-dire posséder des<ol><li> choses extérieures telles que des biens, des richesses, des meubles, des ustensiles, des marchandises, de la nourriture, etc.</li><li> utilisés par ceux qui sont unis à quelqu'un par les liens du sang, du mariage, de l'amitié, du devoir, de la loi, etc. de la fréquentation ou de la camaraderie</li></ol><li> se tenir ou se trouver tel ou tel, être dans tel ou tel état</li>se<li> tenir à une chose, s'accrocher à une chose, adhérer ou s'accrocher à une<ol><li> personne ou à une chose</li></ol></li></li> </ol>",
    "pron": "skheh'-o",
    "strongs_def": " détenir (utilisé dans des applications très variées, au sens propre ou figuré, direct ou à distance ; comme la possession ; la capacité, la contiuité, la relation ou la condition)",
    "xlit": "échō"
}