{
    "derivation": "un verbe primaire ;",
    "frequency": 2,
    "kjv_def": "être fervent",
    "lemma": "ζέω",
    "outline": "<ol><li> bouillir avec chaleur, être chaud<ol><li> utilisé pour l'eau</li><li> métaph.<ol><li> utilisé pour faire bouillir la colère, l'amour, le zèle, pour ce qui est bon ou mauvais, etc.</li><li> fervent en esprit, se dit du zèle pour le bien</li></ol></li></ol></li></ol>",
    "pron": "dzeh'-o",
    "strongs_def": " être chaud (bouillir, pour les liquides, ou briller, pour les solides), c'est-à-dire (au sens figuré) être fervent (sérieux)",
    "xlit": "zéō"
}