{
    "derivation": "de G2204 (ζῆλος) ;",
    "frequency": 12,
    "kjv_def": "émulation, envie(-ing), esprit fervent, indignation, jalousie, zèle",
    "lemma": "ζῆλος",
    "outline": "<ol><li> excitation d'esprit, ardeur, ferveur d'esprit<ol><li> zèle, ardeur à embrasser, poursuivre, défendre quelque chose<ol><li> zèle au nom de, pour une personne ou une chose</li><li> la férocité de l'indignation, le zèle punitif</li></ol><li> une rivalité envieuse et contentieuse, la jalousie</li></ol></li></ol>",
    "pron": "dzay'-los",
    "strongs_def": " proprement, la chaleur, c'est-à-dire (au sens figuré) le \"zèle\" (dans un sens favorable, l'ardeur ; dans un sens défavorable, la jalousie, comme celle d'un mari (au sens figuré, de Dieu), ou d'un ennemi, la malice)",
    "xlit": "zēlos"
}