{
    "derivation": "probablement de G2204 (ζύμη) ;",
    "frequency": 17,
    "kjv_def": "levain",
    "lemma": "ζύμη",
    "outline": "<ol><li> levain</li><li> métaph. de la corruption mentale et morale invétérée, considérée dans sa tendance à infecter les autres</li></ol>",
    "pron": "dzoo'-may",
    "strongs_def": " fermenter (comme s'il y avait ébullition)",
    "xlit": "zýmē"
}