{
    "derivation": "de G2209 (ζημιόω) ;",
    "frequency": 6,
    "kjv_def": "être rejeté, recevoir des dommages, perdre, subir des pertes",
    "lemma": "ζημιόω",
    "outline": "<ol><li> affecter avec dommage, faire du dommage à</li><li> subir un dommage, être blessé, subir une perte</li></ol>",
    "pron": "dzay-mee-o'-o",
    "strongs_def": " blesser, c'est-à-dire (par réflexe ou passivement) subir un préjudice",
    "xlit": "zēmióō"
}