{
    "derivation": "de la racine de (joindre, notamment par un \"joug\") ;",
    "frequency": 6,
    "kjv_def": "paire de balanciers, joug",
    "lemma": "ζυγός",
    "outline": "<ol><li> un joug<ol><li> un joug que l'on met sur le bétail de trait</li><li> métaphore utilisée pour désigner un fardeau ou une servitude<ol><li> comme celui de l'esclavage</li><li> de lois gênantes imposées à quelqu'un, en particulier de la loi mosaïque, d'où le nom est transféré aux commandements du Christ pour les opposer aux commandements des Pharisiens qui étaient un véritable \"joug\" ; cependant, même les commandements du Christ doivent être soumis, bien qu'il soit plus facile de les respecter</li></ol><li> une balance, un plateau de balance</li></ol>",
    "pron": "dzoo-gos'",
    "strongs_def": " un accouplement, c'est-à-dire (au sens figuré) la servitude (une loi ou une obligation) ; également (au sens littéral) le fléau de la balance (comme reliant les balances)",
    "xlit": "zygós"
}