{
    "derivation": "adverbe de confirmation ; peut-être intensif de G2228 (ἦ) ; utilisé uniquement (dans le Nouveau Testament) avant G3303 (ἦ) ;",
    "frequency": 0,
    "kjv_def": "sûrement",
    "lemma": "ἦ",
    "outline": "<ol><li> certainement, très certainement, très sûrement</li></ol>",
    "pron": "ay",
    "strongs_def": " certainement",
    "xlit": "ē"
}