{
    "derivation": "neutre d'un dérivé de G2198 (ζῶον) ;",
    "frequency": 23,
    "kjv_def": "bête",
    "lemma": "ζῶον",
    "outline": "<ol><li> un être vivant</li><li> un animal, une brute, une bête</li></ol>",
    "pron": "dzo'-on",
    "strongs_def": " un être vivant, c'est-à-dire un animal",
    "xlit": "zōon"
}