{
    "derivation": "une forme renforcée de G1485 (ἦθος) ;",
    "frequency": 2,
    "kjv_def": "manières",
    "lemma": "ἦθος",
    "outline": "<ol><li> une résidence habituelle, un lieu d'habitation, un repaire, un état habituel</li><li> coutume, usage, mœurs, caractère</li></ol>",
    "pron": "ay'-thos",
    "strongs_def": " l'usage, c'est-à-dire (au pluriel) les habitudes morales",
    "xlit": "ēthos"
}