{
    "derivation": "un verbe primaire ;",
    "frequency": 26,
    "kjv_def": "venez",
    "lemma": "ἥκω",
    "outline": "<ol><li> être venu, être arrivé, être présent</li><li> métaph.<ol><li> venir à quelqu'un, c'est-à-dire rechercher une intimité avec quelqu'un, devenir son adepte : venir sur quelqu'un (à l'improviste)</li><li> venir à quelqu'un, des choses endurées</li></ol></li></ol>",
    "pron": "hay'-ko",
    "strongs_def": " arriver, c'est-à-dire être présent (au sens propre ou figuré)",
    "xlit": "hḗkō"
}