{
    "derivation": "de (un rayon ;",
    "frequency": 33,
    "kjv_def": "+ est, soleil",
    "lemma": "ἥλιος",
    "outline": "<ol><li> le soleil</li><li> les rayons du soleil</li><li> la lumière du jour</li></ol>",
    "pron": "hay'-lee-os",
    "strongs_def": " peut-être apparenté à l'alternatif de G138 (ἥλιος)) ; le soleil ; par implication, la lumière",
    "xlit": "hḗlios"
}