{
    "derivation": "d'origine hébraïque (H05941) ;",
    "frequency": 1,
    "kjv_def": "Heli",
    "lemma": "Ἡλί",
    "outline": "<span class=\"literal-meaning\">Heli = &quot;ascendant&quot;</span><ol><li> le père de Joseph, l'époux de Marie</li></ol>",
    "pron": "hay-lee'",
    "strongs_def": " Héli (c'est-à-dire Eli), un Israélite",
    "xlit": "Hēlí"
}