{
    "derivation": "de G2349 (ἡμέτερος) ;",
    "frequency": 7,
    "kjv_def": "notre, votre (par une lecture différente)",
    "lemma": "ἡμέτερος",
    "outline": "<ol><li> notre, votre</li></ol>",
    "pron": "hay-met'-er-os",
    "strongs_def": " notre",
    "xlit": "hēméteros"
}