{
    "derivation": "à partir d'un composé présumé de la base de G2255 (ἡμιθανής) et de G2348 (ἡμιθανής) ;",
    "frequency": 1,
    "kjv_def": "à moitié mort",
    "lemma": "ἡμιθανής",
    "outline": "<ol><li> à moitié mort</li></ol>",
    "pron": "hay-mee-than-ace'",
    "strongs_def": " à moitié mort, c'est-à-dire entièrement épuisé",
    "xlit": "hēmithanḗs"
}