{
    "derivation": "d'origine hébraïque (H06147) ;",
    "frequency": 1,
    "kjv_def": "Er",
    "lemma": "Ἤρ",
    "outline": "<span class=\"literal-meaning\">Er = &quot;vigilant&quot;</span><ol><li> le fils de José et le père d'Elmodam</li></ol>",
    "pron": "ayr",
    "strongs_def": " Er, un Israélite",
    "xlit": "Ḗr"
}