{
    "derivation": "de G1 (ἀληθής) (adverbe de négation) et G2990 (ἀληθής) ;",
    "frequency": 25,
    "kjv_def": "vrai, vraiment, vérité",
    "lemma": "ἀληθής",
    "outline": "<ol><li> vrai</li><li> aimer la vérité, dire la vérité, être sincère</li></ol>",
    "pron": "al-ay-thace'",
    "strongs_def": " vrai (car non dissimulable)",
    "xlit": "alēthḗs"
}