{
    "derivation": "du même que G2272 (ἡσυχάζω) ;",
    "frequency": 5,
    "kjv_def": "cesser, se taire, être tranquille, se reposer",
    "lemma": "ἡσυχάζω",
    "outline": "<ol><li> se taire<ol><li> se reposer, cesser de travailler</li><li> mener une vie tranquille, se dit de ceux qui ne courent pas çà et là, mais restent chez eux et s'occupent de leurs affaires</li><li> se taire, c'est-à-dire ne rien dire, se taire</li></ol></li></ol>",
    "pron": "hay-soo-khad'-zo",
    "strongs_def": " se tenir tranquille (intransitivement), c'est-à-dire s'abstenir de travailler, de s'occuper ou de parler",
    "xlit": "hēsycházō"
}