{
    "derivation": "neutre du comparatif de (légèrement) utilisé pour celui de G2556 (ἥττον) ;",
    "frequency": 2,
    "kjv_def": "moins, pire",
    "lemma": "ἥττον",
    "outline": "<ol><li> inférieur</li><li> moins</li></ol>",
    "pron": "hate'-ton",
    "strongs_def": " pire (comme nom) ; par implication, moins (comme adverbe)",
    "xlit": "hḗtton"
}