{
    "derivation": "de G2279 (ἠχέω) ;",
    "frequency": 2,
    "kjv_def": "rugissement, son",
    "lemma": "ἠχέω",
    "outline": "<ol><li> sonner<ol><li> utilisé pour le rugissement de la mer</li></ol></li></ol>",
    "pron": "ay-kheh'-o",
    "strongs_def": " faire un bruit fort, c'est-à-dire se réverbérer",
    "xlit": "ēchéō"
}