{
    "derivation": "qui s'apparente à un désuet (à confondre) ;",
    "frequency": 3,
    "kjv_def": "X étonné, + étonné, émerveillé",
    "lemma": "θάμβος",
    "outline": "<ol><li> rendre inébranlable</li><li> étonnement</li></ol>",
    "pron": "tham'-bos",
    "strongs_def": " la stupéfaction (par surprise), c'est-à-dire l'étonnement",
    "xlit": "thámbos"
}