{
    "derivation": "de G2288 (θανάσιμος) ;",
    "frequency": 1,
    "kjv_def": "mortel",
    "lemma": "θανάσιμος",
    "outline": "<ol><li> mortel</li></ol>",
    "pron": "than-as'-ee-mos",
    "strongs_def": " mortel, c'est-à-dire toxique",
    "xlit": "thanásimos"
}