{
    "derivation": "de G2288 (θανατόω) tuer (au sens propre ou figuré)",
    "frequency": 10,
    "kjv_def": "devenir mort, (faire en sorte que) mettre à mort, tuer, mortifier",
    "lemma": "θανατόω",
    "outline": "<ol><li> mettre à mort</li><li> métaph.<ol><li> faire mourir, c'est-à-dire détruire, rendre éteint</li><li> par la mort être libéré de tout lien, littéralement être rendu mort par rapport à (quelque chose)</li></ol></li></ol>",
    "pron": "than-at-o'-o",
    "xlit": "thanatóō"
}