{
    "derivation": "du même que G224 (ἀλήθω) ;",
    "frequency": 2,
    "kjv_def": "moudre",
    "lemma": "ἀλήθω",
    "outline": "<ol><li> à broyer</li></ol>",
    "pron": "al-ay'-tho",
    "strongs_def": " à broyer",
    "xlit": "alḗthō"
}