{
    "derivation": "de la base de G2330 (θέρμη) ;",
    "frequency": 1,
    "kjv_def": "chaleur",
    "lemma": "θέρμη",
    "outline": "<ol><li> chaleur</li></ol>",
    "pron": "ther'-may",
    "strongs_def": " chaleur",
    "xlit": "thérmē"
}