{
    "derivation": "de G2323 (θεραπεία) ;",
    "frequency": 3,
    "kjv_def": "guérison, ménage",
    "lemma": "θεραπεία",
    "outline": "<ol><li> service rendu par un individu à un autre</li><li> spéc. service médical : soigner, guérir</li><li> service domestique<ol><li> corps de préposés, de serviteurs, de domestiques</li></ol></li></ol>",
    "pron": "ther-ap-i'-ah",
    "strongs_def": " assistance (spécialement, médicale, c'est-à-dire de guérison) ; au sens figuré et collectivement, domestiques",
    "xlit": "therapeía"
}