{
    "derivation": "de (un animal sauvage, comme le gibier) ;",
    "frequency": 1,
    "kjv_def": "piège",
    "lemma": "θήρα",
    "outline": "<ol><li> une chasse aux bêtes sauvages pour les détruire</li><li> métaph. de la préparation de la destruction pour les hommes</li></ol>",
    "pron": "thay'-rah",
    "strongs_def": " la chasse, c'est-à-dire (au sens figuré) la destruction",
    "xlit": "thḗra"
}