{
    "derivation": "de G251 (ἁλίζω) ;",
    "frequency": 2,
    "kjv_def": "sel",
    "lemma": "ἁλίζω",
    "outline": "<ol><li> pour saler, assaisonner avec du sel, saupoudrer avec du sel</li></ol>",
    "pron": "hal-id'-zo",
    "strongs_def": " pour saler",
    "xlit": "halízō"
}