{
    "derivation": "forme prolongée d'un primaire obsolète (doigt) ;",
    "frequency": 3,
    "kjv_def": "manipuler, toucher",
    "lemma": "θιγγάνω",
    "outline": "<ol><li> toucher, manipuler<ol><li> faire violence à, blesser</li></ol></li></ol>",
    "pron": "thing-gan'-o",
    "strongs_def": " manipuler, c'est-à-dire avoir à faire avec ; implicitement, blesser",
    "xlit": "thingánō"
}