{
    "derivation": "diminutif de la même chose que G2339 (θηρίον) ;",
    "frequency": 45,
    "kjv_def": "bête (venimeuse, sauvage)",
    "lemma": "θηρίον",
    "outline": "<ol><li> un animal</li><li> un animal sauvage, une bête sauvage, une bête</li><li> métaph. un homme brutal, bestial, sauvage, féroce</li></ol>",
    "pron": "thay-ree'-on",
    "strongs_def": " un animal dangereux",
    "xlit": "thēríon"
}