{
    "derivation": "de G5087 (θησαυρός) ;",
    "frequency": 16,
    "kjv_def": "trésor",
    "lemma": "θησαυρός",
    "outline": "<ol><li> lieu où sont rassemblés et déposés les biens et les objets précieux<ol><li> un coffret, un cercueil ou un autre réceptacle, dans lequel sont conservés des objets de valeur</li><li> un trésor</li><li> entrepôt, dépôt, magasin</li></ol><li> les choses déposées dans un trésor, les trésors collectés</li></ol>",
    "pron": "thay-sow-ros'",
    "strongs_def": " un dépôt, c'est-à-dire une richesse (au sens propre ou figuré)",
    "xlit": "thēsaurós"
}