{
    "derivation": "de G5142 (θρέμμα) ;",
    "frequency": 1,
    "kjv_def": "bovins",
    "lemma": "θρέμμα",
    "outline": "<ol><li> tout ce qui est nourri ou soigné<ol><li> un pupille, un nourrisson, un enfant</li></ol><li> un troupeau, du bétail, en particulier des moutons et des chèvres</li></ol>",
    "pron": "threm'-mah",
    "strongs_def": " stock (tel qu'élevé dans une ferme)",
    "xlit": "thrémma"
}