{
    "derivation": "cas génitif, etc ;",
    "frequency": 15,
    "kjv_def": "cheveux",
    "lemma": "θρίξ",
    "outline": "<ol><li> les cheveux de la tête</li><li> les poils des animaux</li></ol>",
    "pron": "threeks",
    "strongs_def": " d'origine incertaine ; cheveux",
    "xlit": "thríx"
}