{
    "derivation": "de gémir ;",
    "frequency": 3,
    "kjv_def": "problème",
    "lemma": "θροέω",
    "outline": "<ol><li> crier à haute voix, faire du bruit en poussant des cris<ol><li> dans le NT, troubler, effrayer</li><li> être troublé dans son esprit, être effrayé, alarmé</li></ol></li></ol>",
    "pron": "thro-eh'-o",
    "strongs_def": " clamer, c'est-à-dire (implicitement) effrayer",
    "xlit": "throéō"
}