{
    "derivation": "d'un dérivé de G2380 (θύϊνος) (au sens de souffler ;",
    "frequency": 1,
    "kjv_def": "thyine",
    "lemma": "θύϊνος",
    "outline": "<ol><li> le citrus, un arbre odoriférant d'Afrique du Nord utilisé comme encens, prisé par les Grecs et les Romains de l'Antiquité en raison de la beauté de son bois pour divers usages ornementaux</li></ol>",
    "pron": "thoo'-ee-nos",
    "strongs_def": " désignant un certain arbre odorant) ; en bois de cédrat",
    "xlit": "thýïnos"
}