{
    "derivation": "d'une affinité incertaine ;",
    "frequency": 130,
    "kjv_def": "X sa connaissance, lorsqu'ils étaient seuls, à part, à part, dû, son (propre, propre, plusieurs), maison, (elle, notre, ta, tes) propres (affaires), privé(-ly), propre, séparément, leur (propre)",
    "lemma": "ἴδιος",
    "outline": "<ol><li> qui se rapporte à soi-même, qui est le sien, qui appartient à soi-même</li></ol>",
    "pron": "id'-ee-os",
    "strongs_def": " qui se rapporte à soi-même, c'est-à-dire qui est le sien ; implicitement, privé ou séparé",
    "xlit": "ídios"
}