{
    "derivation": "participe actif masculin futur de G2390 (Ἰάσων) ;",
    "frequency": 5,
    "kjv_def": "Jason",
    "lemma": "Ἰάσων",
    "outline": "<span class=\"literal-meaning\">Jason = &quot;celui qui guérit&quot;.</span><ol><li> un Thessalonicien qui recevait Paul et Silas, et peut-être un cousin de Paul (Ro. 16:21)</li></ol>",
    "pron": "ee-as'-oan",
    "strongs_def": " sur le point de guérir ; Jason, un chrétien",
    "xlit": "Iásōn"
}