{
    "derivation": "voix moyenne d'un verbe apparemment primaire ;",
    "frequency": 25,
    "kjv_def": "guérir, reconstituer",
    "lemma": "ἰάομαι",
    "outline": "<ol><li> soigner, guérir</li><li> guérir<ol><li> libérer des erreurs et des péchés, amener le salut (de quelqu'un)</li></ol></li></ol>",
    "pron": "ee-ah'-om-ahee",
    "strongs_def": " guérir (au sens propre ou figuré)",
    "xlit": "iáomai"
}