{
    "derivation": "d'origine hébraïque (H03389) ;",
    "frequency": 61,
    "kjv_def": "Jérusalem",
    "lemma": "Ἱεροσόλυμα",
    "outline": "<span class=\"literal-meaning\">Jérusalem = &quot;mettez la double paix&quot;</span><ol><li> désigne soit la ville elle-même, soit ses habitants</li><li> &quot;la Jérusalem actuelle&quot;, avec ses institutions religieuses actuelles, c'est-à-dire le système mosaïque, ainsi désignée d'après sa situation extérieure primaire</li><li> la &quot;Jérusalem d'en haut&quot;, c'est-à-dire celle qui existe dans le ciel, selon le modèle duquel la Jérusalem terrestre devait être construite<ol><li> métaphore : &quot;la Cité de Dieu fondée par le Christ&quot;, qui revêt actuellement la forme de l'Eglise, mais qui, après le retour du Christ, revêtira la forme du royaume messianique parfait</li></ol> &quot;la<li> Jérusalem céleste&quot;, c'est-à-dire la demeure céleste de Dieu, du Christ, des anges, des saints de l'Ancien et du Nouveau Testament et des chrétiens qui seront vivants au retour du Christ la Nouvelle</li><li> Jérusalem&quot;, une splendide cité visible qui sera descendue du ciel après la rénovation du monde, la future demeure des bienheureux</li></ol>",
    "pron": "hee-er-os-ol'-oo-mah",
    "strongs_def": " Hierosolyma (c'est-à-dire Jerushalaim), la capitale de la Palestine",
    "xlit": "Hierosólyma"
}