{
    "derivation": "de G2417 (ἱεροσυλέω) ;",
    "frequency": 1,
    "kjv_def": "commettre un sacrilège",
    "lemma": "ἱεροσυλέω",
    "outline": "<ol><li> de commettre un sacrilège, de piller un temple<ol><li> dans Rom. 2:22, où le sens est &quot;toi qui abhorres les idoles et leur contamination, tu n'hésites pourtant pas à piller leurs sanctuaires&quot;.</li></ol></li></ol>",
    "pron": "hee-er-os-ool-eh'-o",
    "strongs_def": " être un voleur de temple (au sens figuré)",
    "xlit": "hierosyléō"
}