{
    "derivation": "d'une affinité incertaine ;",
    "frequency": 1,
    "kjv_def": "humidité",
    "lemma": "ἱκμάς",
    "outline": "<ol><li> humidité</li></ol>",
    "pron": "hik-mas'",
    "strongs_def": " humidité",
    "xlit": "hikmás"
}