{
    "derivation": "de G2440 (ἱματίζω) ;",
    "frequency": 2,
    "kjv_def": "habiller",
    "lemma": "ἱματίζω",
    "outline": "<ol><li> pour habiller</li></ol>",
    "pron": "him-at-id'-zo",
    "strongs_def": " pour s'habiller",
    "xlit": "himatízō"
}