{
    "frequency": 2,
    "kjv_def": "propitiation",
    "lemma": "ἱλασμός",
    "outline": "<ol><li> un apaisement, une propitiation</li><li> le moyen d'apaiser, une propitiation</li></ol>",
    "pron": "hil-as-mos'",
    "strongs_def": "l'expiation, c'est-à-dire (concrètement) un expiateur",
    "xlit": "hilasmós"
}