{
    "derivation": "neutre d'un dérivé de G2433 (ἱλαστήριον) ;",
    "frequency": 2,
    "kjv_def": "siège de la miséricorde, propitiation",
    "lemma": "ἱλαστήριον",
    "outline": "<ol><li> relatif à un apaisement ou à une expiation, ayant une force apaisante ou expiatoire, expiatoire ; un moyen d'apaiser ou d'expier, une propitiation<ol><li> désigne le couvercle de l'arche d'alliance dans le Saint des Saints, qui était aspergé du sang de la victime expiatoire le jour annuel des expiations (ce rite signifiant que la vie du peuple, dont il avait mérité la perte par ses péchés, était offerte à Dieu dans le sang comme la vie de la victime, et que Dieu, par cette cérémonie, était apaisé et ses péchés expiés) ; d'où le couvercle d'expiation, le propitiatoire</li><li> un sacrifice expiatoire</li><li> une victime expiatoire</li></ol></li></ol>",
    "pron": "hil-as-tay'-ree-on",
    "strongs_def": " un (lieu ou une chose) expiatoire, c'est-à-dire (concrètement) une victime expiatoire, ou (spécialement) le couvercle de l'Arche (dans le Temple)",
    "xlit": "hilastḗrion"
}