{
    "derivation": "peut-être de (aller) ou (envoyer) ;",
    "frequency": 3,
    "kjv_def": "poison, rouille",
    "lemma": "ἰός",
    "outline": "<ol><li> poison (des animaux)<ol><li> le poison des aspics est sous leurs lèvres,</li><li> se dit d'hommes enclins à injurier et à calomnier, et donc à blesser les autres</li></ol><li> rouille</li></ol>",
    "pron": "ee-os'",
    "strongs_def": " rouille (comme celle émise par les métaux) ; également venin (comme celui émis par les serpents)",
    "xlit": "iós"
}