{
    "derivation": "de G2453 (Ἰουδαϊκός) ;",
    "frequency": 1,
    "kjv_def": "Juif",
    "lemma": "Ἰουδαϊκός",
    "outline": "<ol><li> Juif</li></ol>",
    "pron": "ee-oo-dah-ee-kos'",
    "strongs_def": " Judaïque, c'est-à-dire ressemblant à un Judéen",
    "xlit": "Ioudaïkós"
}