{
    "derivation": "neutre d'un dérivé de G2462 (ἱππικόν) ;",
    "frequency": 1,
    "kjv_def": "cheval(-hommes)",
    "lemma": "ἱππικόν",
    "outline": "<ol><li> équestre, le cheval (hommes), cavalerie</li></ol>",
    "pron": "hip-pee-kon'",
    "strongs_def": " la force de cavalerie",
    "xlit": "hippikón"
}