{
    "derivation": "une forme prolongée d'un primaire (de même sens, et utilisé pour lui dans certains temps) ;",
    "frequency": 154,
    "kjv_def": "abide, nommer, apporter, continuer, alliance, établir, tenir, poser, présenter, mettre en place, tenir (par, en avant, toujours, en haut)",
    "lemma": "ἵστημι",
    "outline": "<ol><li> faire en sorte que l'on tienne debout, placer, mettre, établir<ol><li> offrir de se tenir prêt, [mettre en place]<ol><li> en présence des autres, au milieu, devant les juges, devant les membres du Sanhédrin ;</li><li> placer</li></ol><li>rendre ferme, fixer établir<ol><li> faire en sorte qu'une personne ou une chose garde sa place</li><li> se tenir debout, être maintenu intact (d'une famille, d'un royaume), s'échapper en sécurité</li><li>établir une chose, la faire tenir debout<ol><li> soutenir l'autorité ou la force de quelque chose</li></ol><li>mettre ou placer dans une balance<ol><li> pour peser :</li></ol>de l'<ol><li> argent à un (parce qu'au tout début, avant l'introduction de la monnaie, les métaux étaient pesés)</li></ol><li>de se tenir debout<ol><li> de se tenir près de, de s'<ol><li>arrêter, de rester immobile, de rester fermement anc</li></ol></li></ol></li> ré dans<li><ol><li><ol><li><ol><li> les fondations d'un bâtiment</li></ol><li> de<ol><li> continuer à être sain et sauf, de rester indemne, de se tenir prêt ou préparé</li><li> d'être d'une</li><li> qualité</li></ol></li></li></ol></li></ol></li> d'<li><ol><li><ol><li><li><ol><li> esprit inébranlable</li><li>, quelqu'un qui n'hésite pas, qui ne renonce pas</li></ol></li></li></ol></li></ol></li></li></li></ol></li> ",
    "pron": "stah'-o",
    "strongs_def": " se tenir debout (transitivement ou intransitivement), utilisé dans diverses applications (littéralement ou figurativement)",
    "xlit": "hístēmi"
}