{
    "derivation": "à partir d'une dérivée de (force ;",
    "frequency": 10,
    "kjv_def": "capacité, pouvoir, force, puissance, pouvoir(-ily)",
    "lemma": "ἰσχύς",
    "outline": "<ol><li> capacité, force, puissance, pouvoir</li></ol>",
    "pron": "is-khoos'",
    "strongs_def": " comparer , une forme de G2192 (ἰσχύς)) ; force (au sens propre ou figuré)",
    "xlit": "ischýs"
}