{
    "derivation": "du même que G257 (ἀλοάω) ;",
    "frequency": 5,
    "kjv_def": "battre, fouler le maïs",
    "lemma": "ἀλοάω",
    "outline": "<ol><li> à un seuil</li></ol>",
    "pron": "al-o-ah'-o",
    "strongs_def": " pour fouler le grain",
    "xlit": "aloáō"
}