{
    "derivation": "d'une affinité incertaine ;",
    "frequency": 21,
    "kjv_def": "poisson",
    "lemma": "ἰχθύς",
    "outline": "<ol><li> un poisson</li></ol>",
    "pron": "ikh-thoos'",
    "strongs_def": " un poisson",
    "xlit": "ichthýs"
}