{
    "derivation": "de (à) arriver ;",
    "frequency": 2,
    "kjv_def": "étape",
    "lemma": "ἴχνος",
    "outline": "<ol><li> une empreinte, une trace, un pas</li><li> dans le NT, métaph. d'imiter l'exemple de quelqu'un</li></ol>",
    "pron": "ikh'-nos",
    "strongs_def": " comparer G2240 (ἴχνος)) ; une piste (au sens figuré)",
    "xlit": "íchnos"
}