{
    "derivation": "féminin de la même chose que G2491 (Ἰωάννα) ;",
    "frequency": 2,
    "kjv_def": "Joanna",
    "lemma": "Ἰωάννα",
    "outline": "<span class=\"literal-meaning\">Jeanne = &quot;Jéhovah est un généreux donateur&quot;.</span><ol><li> femme de Chuza, intendant d'Hérode, et disciple de Jésus</li></ol>",
    "pron": "ee-o-an'-nah",
    "strongs_def": " Joanna, une chrétienne",
    "xlit": "Iōánna"
}