{
    "derivation": "de G2505 (καθάπερ) et G4007 (καθάπερ) ;",
    "frequency": 14,
    "kjv_def": "(même, aussi bien) que",
    "lemma": "καθάπερ",
    "outline": "<ol><li> selon, juste selon, même selon</li></ol>",
    "pron": "kath-ap'-er",
    "strongs_def": " exactement comme",
    "xlit": "katháper"
}