{
    "derivation": "de G2532 (καίγε) et G1065 (καίγε) ;",
    "frequency": 3,
    "kjv_def": "et, au moins",
    "lemma": "καίγε",
    "outline": "<ol><li> et au moins, en effet</li></ol>",
    "pron": "kah'-ee-gheh",
    "strongs_def": " et au moins (ou même, en effet)",
    "xlit": "kaíge"
}