{
    "derivation": "d'affinité incertaine ; nouveau (surtout dans la fraîcheur ; tandis que G3501 (καινός) l'est proprement par rapport à l'âge",
    "frequency": 39,
    "kjv_def": "nouveau",
    "lemma": "καινός",
    "outline": "<ol><li> nouveau<ol><li> en ce qui concerne la forme<ol><li> récemment fait, frais, récent, non utilisé, non usé</li></ol><li> en ce qui concerne le fond<ol><li> d'un nouveau genre, sans précédent, nouveau, peu commun, inédit</li></ol></li></ol></li></ol>",
    "pron": "kahee-nos'",
    "xlit": "kainós"
}