{
    "derivation": "de dérivation incertaine ;",
    "frequency": 11,
    "kjv_def": "liens, chaîne",
    "lemma": "ἅλυσις",
    "outline": "<ol><li> une chaîne, un lien par lequel on attache le corps ou une partie de celui-ci (mains, pieds)</li></ol>",
    "pron": "hal'-oo-sis",
    "strongs_def": " une entrave ou un manteau",
    "xlit": "hálysis"
}