{
    "derivation": "à partir d'un composé de G2556 (κακολογέω) et G3056 (κακολογέω) ;",
    "frequency": 4,
    "kjv_def": "maudire, dire du mal de",
    "lemma": "κακολογέω",
    "outline": "<ol><li> dire du mal, injurier, maltraiter, un</li><li> maudire</li></ol>",
    "pron": "kak-ol-og-eh'-o",
    "strongs_def": " injurier",
    "xlit": "kakologéō"
}