{
    "derivation": "de G2556 (κακοῦργος) et la base de G2041 (κακοῦργος) ;",
    "frequency": 4,
    "kjv_def": "malfaisant, malfaiteur",
    "lemma": "κακοῦργος",
    "outline": "<ol><li> un malfaiteur</li></ol>",
    "pron": "kak-oor'-gos",
    "strongs_def": " un malfaiteur, c'est-à-dire un criminel",
    "xlit": "kakoûrgos"
}