{
    "derivation": "de G2556 (κακοποιός) et G4160 (κακοποιός) ;",
    "frequency": 3,
    "kjv_def": "malfaisant, malfaiteur",
    "lemma": "κακοποιός",
    "outline": "<ol><li> une personne malveillante, un malfaiteur</li></ol>",
    "pron": "kak-op-oy-os'",
    "strongs_def": " un malfaiteur ; (spécialement), un criminel",
    "xlit": "kakopoiós"
}