{
    "derivation": "de G2570 (καλοποιέω) et G4160 (καλοποιέω) ;",
    "frequency": 1,
    "kjv_def": "bon fonctionnement",
    "lemma": "καλοποιέω",
    "outline": "<ol><li> bien faire, agir avec droiture</li></ol>",
    "pron": "kal-op-oy-eh'-o",
    "strongs_def": " bien faire, c'est-à-dire vivre vertueusement",
    "xlit": "kalopoiéō"
}