{
    "derivation": "d'origine hébraïque (voir H02501) ;",
    "frequency": 5,
    "kjv_def": "Alpheus",
    "lemma": "Ἀλφαῖος",
    "outline": "<span class=\"literal-meaning\">Alphée = \"changeant</span><ol><li> Le père de Lévi le publicain (Mc 2,14)</li><li> Père de Jacques le Mineur, ainsi appelé, l'un des apôtres</li></ol>",
    "pron": "al-fah'-yos",
    "strongs_def": " Alphæus, un Israélite",
    "xlit": "Alphaîos"
}