{
    "derivation": "de G2570 (καλοδιδάσκαλος) et G1320 (καλοδιδάσκαλος) ;",
    "frequency": 1,
    "kjv_def": "professeur de bonnes choses",
    "lemma": "καλοδιδάσκαλος",
    "outline": "<ol><li> enseignant ce qui est bon, un enseignant du bien</li></ol>",
    "pron": "kal-od-id-as'-kal-os",
    "strongs_def": " un enseignant du droit",
    "xlit": "kalodidáskalos"
}