{
    "derivation": "de G2556 (κακῶς) ;",
    "frequency": 16,
    "kjv_def": "mal, malade, mal, douloureux, misérable, malade, douloureux..",
    "lemma": "κακῶς",
    "outline": "<ol><li> malheureux, être malade</li><li> mal, à tort</li><li> dire du mal, injurier, un</li></ol>",
    "pron": "kak-oce'",
    "strongs_def": " mal (physiquement ou moralement)",
    "xlit": "kakōs"
}