{
    "derivation": "de G2572 (κάλυμα) ;",
    "frequency": 0,
    "kjv_def": "vail",
    "lemma": "κάλυμα",
    "outline": "<ol><li> un voile, couvrant</li></ol>",
    "pron": "kal'-oo-mah",
    "strongs_def": " une couverture, c'est-à-dire un voile",
    "xlit": "kályma"
}