{
    "derivation": "d'origine étrangère ;",
    "frequency": 2,
    "kjv_def": "Cappadoce",
    "lemma": "Καππαδοκία",
    "outline": "<span class=\"literal-meaning\">Cappadoce = &quot;Province des bons chevaux&quot;.</span><ol><li> région d'Asie mineure, délimitée sous l'empire romain au nord par le Pont, à l'est par l'Arménie mineure, au sud par la Cilicie et la Commagène, à l'ouest par la Lycaonie et la Galatie</li></ol>",
    "pron": "kap-pad-ok-ee'-ah",
    "strongs_def": " La Cappadoce, une région d'Asie Mineure",
    "xlit": "Kappadokía"
}