{
    "derivation": "de G2588 (καρδιογνώστης) et G1097 (καρδιογνώστης) ;",
    "frequency": 2,
    "kjv_def": "qui connaît les cœurs",
    "lemma": "καρδιογνώστης",
    "outline": "<ol><li> connaisseur des cœurs</li></ol>",
    "pron": "kar-dee-og-noce'-tace",
    "strongs_def": " un connaisseur du cœur",
    "xlit": "kardiognṓstēs"
}