{
    "derivation": "de G2596 (καταβαρέω) et G916 (καταβαρέω) ;",
    "frequency": 1,
    "kjv_def": "charge",
    "lemma": "καταβαρέω",
    "outline": "<ol><li> presser par un poids imposant</li><li> peser</li><li> métaphorique : charger</li></ol>",
    "pron": "kat-ab-ar-eh'-o",
    "strongs_def": " imposer",
    "xlit": "katabaréō"
}