{
    "derivation": "de G2590 (καρποφόρος) et G5342 (καρποφόρος) ;",
    "frequency": 1,
    "kjv_def": "fructueux",
    "lemma": "καρποφόρος",
    "outline": "<ol><li> fructifier, fructueux, productif</li></ol>",
    "pron": "kar-pof-or'-os",
    "strongs_def": " portant des fruits (au sens figuré)",
    "xlit": "karpophóros"
}