{
    "derivation": "de G2593 (καρποφορέω) ;",
    "frequency": 8,
    "kjv_def": "être (porter, produire) des fruits (-ful)",
    "lemma": "καρποφορέω",
    "outline": "<ol><li> porter des fruits</li><li> porter, faire naître, agir</li><li> porter des fruits de soi-même</li></ol>",
    "pron": "kar-pof-or-eh'-o",
    "strongs_def": " être fertile (au sens propre ou figuré)",
    "xlit": "karpophoréō"
}