{
    "derivation": "de G25 (ἀγάπη) ;",
    "frequency": 121,
    "kjv_def": "(fête de) charité(-ably), cher, amour",
    "lemma": "ἀγάπη",
    "outline": "<ol><li> affection, bonne volonté, amour, bienveillance, amour fraternel</li><li> fêtes d'amour</li></ol>",
    "pron": "ag-ah'-pay",
    "strongs_def": " l'amour, c'est-à-dire l'affection ou la bienveillance ; spécialement (au pluriel) une fête de l'amour",
    "xlit": "agápē"
}