{
    "frequency": 3,
    "kjv_def": "mépriser",
    "lemma": "καταγελάω",
    "outline": "<ol><li> de se moquer</li></ol>",
    "pron": "kat-ag-el-ah'-o",
    "strongs_def": "se moquer, c'est-à-dire tourner en dérision",
    "xlit": "katageláō"
}