{
    "derivation": "de G2596 (καταδυναστεύω) et un dérivé de G1413 (καταδυναστεύω) ;",
    "frequency": 2,
    "kjv_def": "opprimer",
    "lemma": "καταδυναστεύω",
    "outline": "<ol><li> exercer un contrôle sévère sur une personne, utiliser son pouvoir contre elle</li><li> opprimer quelqu'un</li></ol>",
    "pron": "kat-ad-oo-nas-tyoo'-o",
    "strongs_def": " exercer une domination sur, c'est-à-dire opprimer",
    "xlit": "katadynasteúō"
}