{
    "derivation": "de G2596 (καταδιώκω) et G1377 (καταδιώκω) ;",
    "frequency": 1,
    "kjv_def": "suivre après",
    "lemma": "καταδιώκω",
    "outline": "<ol><li> suivre après, faire un suivi</li></ol>",
    "pron": "kat-ad-ee-o'-ko",
    "strongs_def": " traquer, c'est-à-dire rechercher",
    "xlit": "katadiṓkō"
}