{
    "derivation": "de G2626 (κατακλυσμός) ;",
    "frequency": 4,
    "kjv_def": "inondation",
    "lemma": "κατακλυσμός",
    "outline": "<ol><li> inondation, déluge<ol><li> du déluge de Noé</li></ol></li></ol>",
    "pron": "kat-ak-looce-mos'",
    "strongs_def": " une inondation",
    "xlit": "kataklysmós"
}