{
    "derivation": "de G263 (ἀμαράντινος) ;",
    "frequency": 1,
    "kjv_def": "qui ne s'efface pas",
    "lemma": "ἀμαράντινος",
    "outline": "<ol><li> composé d'amarante<ol><li> une fleur ainsi appelée parce qu'elle ne se fane jamais et que, lorsqu'elle est arrachée, elle revit si on l'humidifie avec de l'eau</li><li> un symbole de perpétuité et d'immortalité</li></ol></li></ol>",
    "pron": "am-ar-an'-tee-nos",
    "strongs_def": " \"amaranthine\", c'est-à-dire (implicitement) sans fadeur",
    "xlit": "amarántinos"
}