{
    "derivation": "de G2596 (κατακολουθέω) et G190 (κατακολουθέω) ;",
    "frequency": 2,
    "kjv_def": "suivre (après)",
    "lemma": "κατακολουθέω",
    "outline": "<ol><li> à suivre après</li></ol>",
    "pron": "kat-ak-ol-oo-theh'-o",
    "strongs_def": " accompagner de près",
    "xlit": "katakolouthéō"
}