{
    "derivation": "de G2596 (καταλέγω) et G3004 (καταλέγω) (dans son sens premier) ;",
    "frequency": 1,
    "kjv_def": "prendre en compte le nombre",
    "lemma": "καταλέγω",
    "outline": "<ol><li> s'allonger, s'allonger</li><li> narrer longuement, raconter, exposer</li><li> inscrire dans une liste ou un registre, enrôler<ol><li> de soldats</li><li> de ces veuves qui occupaient une place importante dans l'église et exerçaient une certaine surintendance sur le reste des femmes, et avaient la charge des veuves et des orphelins soutenus aux frais de l'État</li></ol></li></ol>",
    "pron": "kat-al-eg'-o",
    "strongs_def": " se coucher, c'est-à-dire (au sens figuré) s'inscrire",
    "xlit": "katalégō"
}