{
    "derivation": "de G2596 (κατάλαλος) et la base de G2980 (κατάλαλος) ;",
    "frequency": 1,
    "kjv_def": "backbiter",
    "lemma": "κατάλαλος",
    "outline": "<ol><li> un diffamateur, un orateur maléfique</li></ol>",
    "pron": "kat-al'-al-os",
    "strongs_def": " bavard contre, c'est-à-dire un calomniateur",
    "xlit": "katálalos"
}