{
    "derivation": "de G2637 (καταλαλέω) ;",
    "frequency": 5,
    "kjv_def": "parler contre (le mal de)",
    "lemma": "καταλαλέω",
    "outline": "<ol><li> parler contre quelqu'un, le criminaliser, le calomnier..</li></ol>",
    "pron": "kat-al-al-eh'-o",
    "strongs_def": " être un traducteur, c'est-à-dire calomnier",
    "xlit": "katalaléō"
}