{
    "derivation": "de G2596 (καταπαύω) et G3973 (καταπαύω) ;",
    "frequency": 4,
    "kjv_def": "cesser, (donner) du repos(-rain)",
    "lemma": "καταπαύω",
    "outline": "<ol><li> faire taire, faire en sorte d'être en repos, accorder du repos<ol><li> conduire à une demeure tranquille</li><li> calmer, retenir, faire en sorte que (celui qui s'efforce de faire quelque chose) se désiste</li></ol><li> se reposer, prendre du repos</li></ol>",
    "pron": "kat-ap-ow'-o",
    "strongs_def": " s'installer, c'est-à-dire (au sens propre) coloniser, ou (au sens figuré) (faire) déserter",
    "xlit": "katapaúō"
}