{
    "derivation": "de G2596 (καταπατέω) et G3961 (καταπατέω) ;",
    "frequency": 5,
    "kjv_def": "piétiner, fouler (en bas, sous le pied)",
    "lemma": "καταπατέω",
    "outline": "<ol><li> piétiner, fouler aux pieds, fouler au pied</li><li> métaph. traiter avec grossièreté et insulte<ol><li> mépriser, traiter avec une négligence insultante</li></ol></li></ol>",
    "pron": "kat-ap-at-eh'-o",
    "strongs_def": " piétiner ; au sens figuré, rejeter avec dédain",
    "xlit": "katapatéō"
}