{
    "derivation": "de G2596 (καταπλέω) et G4126 (καταπλέω) ;",
    "frequency": 1,
    "kjv_def": "arriver",
    "lemma": "καταπλέω",
    "outline": "<ol><li> descendre des profondeurs de la mer vers la terre</li><li> pour y mettre</li></ol>",
    "pron": "kat-ap-leh'-o",
    "strongs_def": " naviguer sur un lieu, c'est-à-dire débarquer à",
    "xlit": "katapléō"
}