{
    "derivation": "de G2596 (κατανύσσω) et G3572 (κατανύσσω) ;",
    "frequency": 1,
    "kjv_def": "piqûre",
    "lemma": "κατανύσσω",
    "outline": "<ol><li> piquer, percer</li><li> métaphorique : faire une douleur aiguë à l'esprit, l'agiter avec véhémence<ol><li> en particulier l'émotion de la douleur</li></ol></li></ol>",
    "pron": "kat-an-oos'-so",
    "strongs_def": " percer à fond, c'est-à-dire (au sens figuré) agiter violemment (\"piquer au vif\")",
    "xlit": "katanýssō"
}