{
    "derivation": "de G264 (ἁμαρτία) ;",
    "frequency": 174,
    "kjv_def": "infraction, péché(-ful)",
    "lemma": "ἁμαρτία",
    "outline": "<ol><li> équivalent à 264<ol><li> être sans part dans</li><li> manquer la cible</li><li> errer, se tromper</li><li> manquer ou s'écarter du chemin de la droiture et de l'honneur, faire ou se tromper</li><li> s'écarter de la loi de Dieu, violer la loi de Dieu, pécher</li></ol><li> ce qui est mal fait, le péché, une offense, une violation de la loi divine en pensée ou en acte</li><li> collectivement, le complexe ou l'agrégat de péchés commis soit par une seule personne, soit par plusieurs</li></ol>",
    "pron": "ham-ar-tee'-ah",
    "strongs_def": " un péché (proprement abstrait)",
    "xlit": "hamartía"
}