{
    "derivation": "de G2596 (κατάρα) (intensif) et G685 (κατάρα) ;",
    "frequency": 6,
    "kjv_def": "malédiction (-d, ing)",
    "lemma": "κατάρα",
    "outline": "<ol><li> une exécration, une imprécation, une malédiction</li></ol>",
    "pron": "kat-ar'-ah",
    "strongs_def": " imprécation, exécration",
    "xlit": "katára"
}