{
    "derivation": "voix moyenne de G2596 (κατασοφίζομαι) et G4679 (κατασοφίζομαι) ;",
    "frequency": 1,
    "kjv_def": "traiter subtilement avec",
    "lemma": "κατασοφίζομαι",
    "outline": "<ol><li> contourner par artifice ou fraude, conquérir par des moyens subtils</li><li> déjouer</li><li> dépasser</li><li> traiter avec astuce</li></ol>",
    "pron": "kat-as-of-id'-zom-ahee",
    "strongs_def": " être rusé contre, c'est à dire contourner",
    "xlit": "katasophízomai"
}