{
    "derivation": "de G264 (ἁμαρτωλός) ;",
    "frequency": 47,
    "kjv_def": "pécheur, pécheur",
    "lemma": "ἁμαρτωλός",
    "outline": "<ol><li> dévoué au péché, pécheur<ol><li> ne sont pas exempts de péchés</li><li> prééminemment pécheur, particulièrement méchant<ol><li> tous les hommes méchants</li><li> spécifiquement des hommes entachés de certains vices ou crimes déterminés<ol><li> collecteurs d'impôts, païens</li></ol></li></ol></li></ol></li></ol>",
    "pron": "ham-ar-to-los'",
    "strongs_def": " pécheur, c'est-à-dire une personne qui pèche",
    "xlit": "hamartōlós"
}