{
    "derivation": "de G2596 (κατασύρω) et G4951 (κατασύρω) ;",
    "frequency": 1,
    "kjv_def": "hale",
    "lemma": "κατασύρω",
    "outline": "<ol><li> tirer vers le bas, tirer vers le bas</li><li> tirer le long, traîner de force</li></ol>",
    "pron": "kat-as-oo'-ro",
    "strongs_def": " traîner, c'est-à-dire arrêter judiciairement",
    "xlit": "katasýrō"
}