{
    "derivation": "de G2596 (καταστρώννυμι) et G4766 (καταστρώννυμι) ;",
    "frequency": 2,
    "kjv_def": "renverser",
    "lemma": "καταστρώννυμι",
    "outline": "<ol><li> répandre sur (le sol)</li><li> prosterner, tuer, (cf. faire profil bas)</li></ol>",
    "pron": "kat-as-trone'-noo-mee",
    "strongs_def": " jeter par terre, c'est-à-dire (implicitement) prosterner (tuer)",
    "xlit": "katastrṓnnymi"
}