{
    "derivation": "de G2596 (καταφεύγω) et G5343 (καταφεύγω) ;",
    "frequency": 2,
    "kjv_def": "fuir",
    "lemma": "καταφεύγω",
    "outline": "<ol><li> fuir, se réfugier</li></ol>",
    "pron": "kat-af-yoo'-go",
    "strongs_def": " fuir vers le bas (loin)",
    "xlit": "katapheúgō"
}