{
    "derivation": "de G2596 (καταφέρω) et G5342 (καταφέρω) (y compris son suppléant) ;",
    "frequency": 4,
    "kjv_def": "tomber, donner, s'enfoncer",
    "lemma": "καταφέρω",
    "outline": "<ol><li> porter, abattre, jeter à terre<ol><li> jeter un caillou ou un calcul dans l'urne<ol><li> donner son vote, approuver</li></ol><li> naître, s'enfoncer, (de la fenêtre au trottoir)</li><li> métaph.<ol><li> s'alourdir, être vaincu, être emporté</li><li> s'enfoncer dans le sommeil, s'endormir</li></ol></li></ol></li></ol>",
    "pron": "kat-af-er'-o",
    "strongs_def": " supporter, c'est-à-dire (au sens figuré) vaincre (par la somnolence) ; en particulier, voter",
    "xlit": "kataphérō"
}