{
    "derivation": "de G2596 (κατατρέχω) et G5143 (κατατρέχω) ;",
    "frequency": 1,
    "kjv_def": "descendre",
    "lemma": "κατατρέχω",
    "outline": "<ol><li> s'écouler, se hâter</li></ol>",
    "pron": "kat-at-rekh'-o",
    "strongs_def": " descendre, c'est-à-dire se précipiter d'une tour",
    "xlit": "katatréchō"
}