{
    "derivation": "de G2596 (κατατοξεύω) et un dérivé de G5115 (κατατοξεύω) ;",
    "frequency": 0,
    "kjv_def": "poussée à travers",
    "lemma": "κατατοξεύω",
    "outline": "<ol><li> abattre ou transpercer avec une flèche</li></ol>",
    "pron": "kat-at-ox-yoo'-o",
    "strongs_def": " abattre une flèche ou un autre missile",
    "xlit": "katatoxeúō"
}