{
    "derivation": "de G2596 (καταφθείρω) et G5351 (καταφθείρω) ;",
    "frequency": 1,
    "kjv_def": "--corrompus, périssent complètement",
    "lemma": "καταφθείρω",
    "outline": "<ol><li> corrompre, dépraver<ol><li> corrompu dans l'esprit</li></ol><li> détruire<ol><li>, être détruit, périr</li></ol></li></ol>",
    "pron": "kat-af-thi'-ro",
    "strongs_def": " gâcher entièrement, c'est-à-dire (au sens propre) détruire ; ou (au sens figuré) dépraver ",
    "xlit": "kataphtheírō"
}