{
    "derivation": "de G2596 (κατεργάζομαι) et G2038 (κατεργάζομαι) ;",
    "frequency": 17,
    "kjv_def": "causer, à (acte), exécuter, travailler (out)",
    "lemma": "κατεργάζομαι",
    "outline": "<ol><li> exécuter, accomplir, réaliser</li><li> élaborer c.-à-d. faire ce dont quelque chose résulte<ol><li> des choses : faire naître, aboutir à</li></ol><li> façonner, c'est-à-dire rendre quelqu'un apte à une chose</li></ol>",
    "pron": "kat-er-gad'-zom-ahee",
    "strongs_def": " travailler pleinement, c'est-à-dire accomplir ; par implication, terminer, façonner",
    "xlit": "katergázomai"
}