{
    "derivation": "de G2730 (κατοίκησις) ;",
    "frequency": 1,
    "kjv_def": "habitation",
    "lemma": "κατοίκησις",
    "outline": "<ol><li> habitation, demeure</li></ol>",
    "pron": "kat-oy'-kay-sis",
    "strongs_def": " résidence (proprement, l'acte ; mais implicitement, concrètement, le manoir)",
    "xlit": "katoíkēsis"
}