{
    "derivation": "comparative de G2736 (κατώτερος) ;",
    "frequency": 1,
    "kjv_def": "inférieur",
    "lemma": "κατώτερος",
    "outline": "<ol><li> inférieur</li></ol>",
    "pron": "kat-o'-ter-os",
    "strongs_def": " inférieur (localement, d'Hadès)",
    "xlit": "katṓteros"
}