{
    "derivation": "voix moyenne issue d'un composé de G2596 (κατοπτρίζομαι) et d'un dérivé de G3700 (κατοπτρίζομαι) (comparer G2072 (κατοπτρίζομαι)) ;",
    "frequency": 0,
    "kjv_def": "regarder comme dans un verre",
    "lemma": "κατοπτρίζομαι",
    "outline": "<ol><li> se montrer dans un miroir, faire réfléchir, refléter</li><li> se regarder dans un miroir</li><li> se contempler dans un miroir</li></ol>",
    "pron": "kat-op-trid'-zom-ahee",
    "strongs_def": " se refléter, c'est-à-dire voir son reflet (au sens figuré)",
    "xlit": "katoptrízomai"
}