{
    "derivation": "de quelque base (obsolète) apparentée à celle de (se vanter) et G2172 (καυχάομαι) ;",
    "frequency": 22,
    "kjv_def": "(faire) se vanter, gloire, joie, se réjouir",
    "lemma": "καυχάομαι",
    "outline": "<ol><li> se glorifier (avec ou sans raison)</li><li> se glorifier à cause d'une chose</li><li> se glorifier d'une chose</li></ol>",
    "pron": "kow-khah'-om-ahee",
    "strongs_def": " se vanter (dans un bon ou un mauvais sens)",
    "xlit": "kaucháomai"
}