{
    "derivation": "de G2744 (καύχημα) ;",
    "frequency": 11,
    "kjv_def": "se vanter, (dont) se glorifier, se glorifier, se réjouir (-ing)",
    "lemma": "καύχημα",
    "outline": "<ol><li> ce dont on se glorifie ou peut se glorifier, matière ou motif de glorification</li><li> se glorifier ou se vanter</li></ol>",
    "pron": "kow'-khay-mah",
    "strongs_def": " une vantardise (proprement, l'objet ; implicitement, l'acte) dans un bon ou un mauvais sens",
    "xlit": "kaúchēma"
}