{
    "derivation": "voix moyenne d'un verbe primaire ;",
    "frequency": 23,
    "kjv_def": "être (nommé, mis en place, fait, fixé), poser, mentir",
    "lemma": "κεῖμαι",
    "outline": "<ol><li> mentir<ol><li> d'un enfant</li><li> d'une personne enterrée</li><li> de choses qui couvrent tranquillement un endroit<ol><li> d'une ville située sur une colline</li></ol><li>de ce qui est mis ou fixé en quelque lieu que ce soit, en référence auquel nous utilisons souvent &quot;to stand&quot; de<ol><li> vases, d'un trône, de l'emplacement d'une ville, de grains et d'autres choses déposés ensemble, d'une fondation métaphore</li></ol>d'<li> être (par l'<ol><li> intention de Dieu) fixé, c'est-à-dire destiné, désigné de lois,</li><li> à faire, posé se trouve au</li><li> pouvoir du malin, c'est-à-dire est tenu en soumission par le diable</li></ol></li></li> </ol>",
    "pron": "ki'-mahee",
    "strongs_def": " s'étendre (au sens propre ou figuré)",
    "xlit": "keîmai"
}