{
    "derivation": "d'un primaire (pour inciter) ;",
    "frequency": 26,
    "kjv_def": "soumission, (à, donner) commande(-ment)",
    "lemma": "κελεύω",
    "outline": "<ol><li> de commander, d'ordonner</li></ol>",
    "pron": "kel-yoo'-o",
    "strongs_def": " \" grêle \" ; inciter par la parole, c'est-à-dire ordonner",
    "xlit": "keleúō"
}