{
    "derivation": "d'origine latine ;",
    "frequency": 3,
    "kjv_def": "centurion",
    "lemma": "κεντυρίων",
    "outline": "<ol><li> centurion, un officier de l'armée romaine</li></ol>",
    "pron": "ken-too-ree'-ohn",
    "strongs_def": " un centurion, c'est-à-dire le capitaine de cent soldats",
    "xlit": "kentyríōn"
}