{
    "derivation": "de G2751 (κέρμα) ;",
    "frequency": 1,
    "kjv_def": "argent",
    "lemma": "κέρμα",
    "outline": "<ol><li> petites pièces d'argent, petite pièce, monnaie, argent</li></ol>",
    "pron": "ker'-mah",
    "strongs_def": " une coupure (bit), c'est-à-dire (spécialement) une pièce de monnaie",
    "xlit": "kérma"
}