{
    "derivation": "d'origine latine ;",
    "frequency": 4,
    "kjv_def": "hommage",
    "lemma": "κῆνσος",
    "outline": "<ol><li> recensement (chez les Romains, désignant un registre et une évaluation des biens en fonction desquels les impôts étaient payés), dans le NT l'impôt ou le tribut prélevé sur les individus et devant être payé annuellement. (notre capitation ou poll tax)</li><li> la pièce de monnaie avec laquelle l'impôt est payé, la monnaie du tribut</li></ol>",
    "pron": "kane'-sos",
    "strongs_def": " à proprement parler, une inscription (\"recensement\"), c'est-à-dire (implicitement) une taxe",
    "xlit": "kēnsos"
}