{
    "derivation": "neutre d'un dérivé de G2776 (κεφάλαιον) ;",
    "frequency": 2,
    "kjv_def": "somme",
    "lemma": "κεφάλαιον",
    "outline": "<ol><li> le point principal ou principal, la chose principale</li><li> le total pécuniaire d'un décompte, d'un montant<ol><li> le principal, le capital, par opposition à l'intérêt</li><li> une somme d'argent, une somme</li></ol></li></ol>",
    "pron": "kef-al'-ah-yon",
    "strongs_def": " une chose principale, c'est-à-dire le point principal ; en particulier, une somme (d'argent)",
    "xlit": "kephálaion"
}