{
    "derivation": "de G1 (ἀμετακίνητος) (adverbe de négation) et un dérivé de G3334 (ἀμετακίνητος) ;",
    "frequency": 2,
    "kjv_def": "inamovible",
    "lemma": "ἀμετακίνητος",
    "outline": "<ol><li> ne pas être déplacé de sa place, immobile</li><li> métaph. fermement persistant</li></ol>",
    "pron": "am-et-ak-in'-ay-tos",
    "strongs_def": " inamovible",
    "xlit": "ametakínētos"
}