{
    "derivation": "de G2779 (κηπουρός) et (un gardien) ;",
    "frequency": 1,
    "kjv_def": "jardinier",
    "lemma": "κηπουρός",
    "outline": "<ol><li> un gardien de jardin, un jardinier</li></ol>",
    "pron": "kay-poo-ros'",
    "strongs_def": " un gardien de jardin, c'est-à-dire un jardinier",
    "xlit": "kēpourós"
}