{
    "derivation": "d'origine étrangère (voir H07076) ;",
    "frequency": 1,
    "kjv_def": "cannelle",
    "lemma": "κινάμωμον",
    "outline": "<ol><li> la cannelle était une substance aromatique bien connue, l'écorce de &quot;Laurus cinnamonum&quot; appelée &quot;Korunda-gauhah&quot; à Ceylan</li></ol>",
    "pron": "kin-am'-o-mon",
    "strongs_def": " cannelle",
    "xlit": "kinámōmon"
}