{
    "derivation": "d'origine hébraïque (H07027) ;",
    "frequency": 1,
    "kjv_def": "Cis",
    "lemma": "Κίς",
    "outline": "<span class=\"literal-meaning\">Kish = &quot;un piège&quot;</span><ol><li> le père de Saül, le premier roi d'Israël</li></ol>",
    "pron": "kis",
    "strongs_def": " Cis (c'est-à-dire Kish), un Israélite",
    "xlit": "Kís"
}