{
    "derivation": "de G1 (ἄμετρος) (adverbe de négation) et G3358 (ἄμετρος) ;",
    "frequency": 0,
    "kjv_def": "(chose) sans mesure",
    "lemma": "ἄμετρος",
    "outline": "<ol><li> sans mesure, immense</li></ol>",
    "pron": "am'-et-ros",
    "strongs_def": " immodéré",
    "xlit": "ámetros"
}