{
    "derivation": "de G2806 (κλάσμα) ;",
    "frequency": 9,
    "kjv_def": "brisé, fragment",
    "lemma": "κλάσμα",
    "outline": "<ol><li> un fragment, un morceau cassé<ol><li> des restes d'aliments</li></ol></li></ol>",
    "pron": "klas'-mah",
    "strongs_def": " un morceau (bit)",
    "xlit": "klásma"
}