{
    "derivation": "d'origine latine ;",
    "frequency": 3,
    "kjv_def": "Claudius",
    "lemma": "Κλαύδιος",
    "outline": "<span class=\"literal-meaning\">Claudius = &quot;boiteux&quot;</span><ol><li> C. César : nom du quatrième empereur romain, arrivé au pouvoir en 41 après Jésus-Christ et empoisonné par sa femme Agrippine en 54 après Jésus-Christ.</li><li> C. Lysias tribun de la cohorte romaine qui sauva Paul des mains de la foule à Jérusalem</li></ol>",
    "pron": "klow'-dee-os",
    "strongs_def": " Claudius, le nom de deux Romains",
    "xlit": "Klaúdios"
}