{
    "derivation": "de G2818 (κληρονομέω) ;",
    "frequency": 22,
    "kjv_def": "être héritier, (obtenir par) hériter(-ance)",
    "lemma": "κληρονομέω",
    "outline": "<ol><li> recevoir un lot, recevoir par lot<ol><li> esp. recevoir une partie d'un héritage, recevoir comme un héritage, obtenir par droit d'héritage</li><li> être un héritier, hériter</li></ol><li> recevoir la part qui lui est attribuée, recevoir une part allouée, recevoir en propre ou comme une possession</li><li> devenir participant, obtenir</li></ol>",
    "pron": "klay-ron-om-eh'-o",
    "strongs_def": " être un héritier (au sens propre ou figuré)",
    "xlit": "klēronoméō"
}