{
    "derivation": "d'une forme abrégée de G2564 (κλέος) ;",
    "frequency": 1,
    "kjv_def": "gloire",
    "lemma": "κλέος",
    "outline": "<ol><li> rumeur, rapport</li><li> gloire, louange</li></ol>",
    "pron": "kleh'-os",
    "strongs_def": " renommée (comme si on l'appelait)",
    "xlit": "kléos"
}