{
    "derivation": "neutre d'un dérivé présumé de G2825 (κλινίδιον) ;",
    "frequency": 2,
    "kjv_def": "lit",
    "lemma": "κλινίδιον",
    "outline": "<ol><li> un petit lit, un canapé</li></ol>",
    "pron": "klin-id'-ee-on",
    "strongs_def": " une palette ou un petit canapé",
    "xlit": "klinídion"
}