{
    "derivation": "d'origine latine ;",
    "frequency": 2,
    "kjv_def": "farthing",
    "lemma": "κοδράντης",
    "outline": "<ol><li> un quadrans (environ la quatrième partie d'un &quot;as&quot;) ; dans le NT, une pièce de monnaie égale à la moitié du chalcus attique valant environ 3/8 de cent</li></ol>",
    "pron": "kod-ran'-tace",
    "strongs_def": " a quadrans, c'est-à-dire la quatrième partie d'un as",
    "xlit": "kodrántēs"
}