{
    "derivation": "de G2844 (κοινωνέω) ;",
    "frequency": 8,
    "kjv_def": "communiquer, distribuer, participer",
    "lemma": "κοινωνέω",
    "outline": "<ol><li> entrer dans la communion ou la camaraderie avec, devenir un partageur, être fait partenaire</li><li> entrer en communion, s'unir à un associé, se faire partager, devenir un partenaire</li></ol>",
    "pron": "koy-no-neh'-o",
    "strongs_def": " pour partager avec d'autres (objectivement ou subjectivement)",
    "xlit": "koinōnéō"
}