{
    "derivation": "de G2848 (κόκκινος) (de la forme du noyau de l'insecte) ;",
    "frequency": 6,
    "kjv_def": "écarlate (couleur, coloré)",
    "lemma": "κόκκινος",
    "outline": "<ol><li> cramoisi, couleur écarlate. Amande, grain ou baie de l'&quot;ilex coccifera&quot; ; ces baies sont les grappes des œufs d'un insecte femelle, le &quot;kermès&quot; (ressemblant à la cochenille), et lorsqu'elles sont recueillies et pulvérisées, elles produisent un rouge qui était utilisé pour la teinture (Pline)</li><li> tissu ou vêtement écarlate</li></ol>",
    "pron": "kok'-kee-nos",
    "strongs_def": " couleur cramoisie",
    "xlit": "kókkinos"
}