{
    "derivation": "de (nain) ;",
    "frequency": 2,
    "kjv_def": "punir",
    "lemma": "κολάζω",
    "outline": "<ol><li> couper ou tailler, comme les arbres et les ailes</li><li> freiner, contrôler, restreindre</li><li> châtier, corriger, punir</li><li> faire en sorte que l'on soit puni</li></ol>",
    "pron": "kol-ad'-zo",
    "strongs_def": " proprement, réduire, c'est-à-dire (au sens figuré) châtier (ou se réserver pour l'infliger)",
    "xlit": "kolázō"
}