{
    "derivation": "de G2844 (κοινωνικός) ;",
    "frequency": 1,
    "kjv_def": "désireux de communiquer",
    "lemma": "κοινωνικός",
    "outline": "<ol><li> social, sociable, prêt et apte à former et à maintenir la communion et la camaraderie</li><li> enclin à faire participer les autres à ses biens, enclin à donner, à donner librement, à être libéral</li></ol>",
    "pron": "koy-no-nee-kos'",
    "strongs_def": " communicatif, c'est-à-dire (pécuniairement) libéral",
    "xlit": "koinōnikós"
}