{
    "derivation": "apparemment un mot primaire ;",
    "frequency": 8,
    "kjv_def": "maïs, grain",
    "lemma": "κόκκος",
    "outline": "<ol><li> un grain</li></ol>",
    "pron": "kok'-kos",
    "strongs_def": " un grain de semence",
    "xlit": "kókkos"
}