{
    "derivation": "de (\"colle\") ;",
    "frequency": 14,
    "kjv_def": "se séparer, s'unir (soi-même), se tenir ensemble",
    "lemma": "κολλάω",
    "outline": "<ol><li> coller, coller ensemble, cimenter, attacher ensemble</li><li> joindre ou attacher fermement ensemble</li><li> s'unir à, s'attacher à</li></ol>",
    "pron": "kol-lah'-o",
    "strongs_def": " coller, c'est-à-dire (au passif ou par réflexe) coller (au sens figuré)",
    "xlit": "kolláō"
}