{
    "derivation": "pluriel apparemment féminin de kolossos (\"colossal\") ;",
    "frequency": 1,
    "kjv_def": "Colosse",
    "lemma": "Κολοσσαί",
    "outline": "<span class=\"literal-meaning\">Colosse = \" monstruosités</span><ol><li> autrefois une ville importante et florissante, mais à l'époque de Strabon une petite ville de Phrygie majeure située sur le Lycus non loin de sa jonction avec le Maeander et dans le voisinage de Laodicée et Hiérapolis</li></ol>",
    "pron": "kol-os-sah'-ee",
    "strongs_def": " Colosses, lieu en Asie Mineure",
    "xlit": "Kolossaí"
}