{
    "derivation": "d'un dérivé présumé de (une petite pièce de monnaie ;",
    "frequency": 3,
    "kjv_def": "changeur (de monnaie)",
    "lemma": "κολλυβιστής",
    "outline": "<ol><li> un changeur de monnaie, un banquier</li></ol>",
    "pron": "kol-loo-bis-tace'",
    "strongs_def": " probablement apparenté à G2854 (κολλυβιστής)) ; un marchand de monnaie",
    "xlit": "kollybistḗs"
}