{
    "derivation": "apparemment de la même que G2865 (κόμη) ;",
    "frequency": 2,
    "kjv_def": "cheveux",
    "lemma": "κόμη",
    "outline": "<ol><li> cheveux, tête de cheveux</li></ol>",
    "pron": "kom'-ay",
    "strongs_def": " les cheveux de la tête (mèches, comme ornementales, et donc différent de G2359 (κόμη) ; qui désigne proprement le cuir chevelu)",
    "xlit": "kómē"
}