{
    "derivation": "d'un primaire (tendre, c'est-à-dire prendre soin de) ;",
    "frequency": 11,
    "kjv_def": "apporter, recevoir",
    "lemma": "κομίζω",
    "outline": "<ol><li> prendre soin de, prendre soin de, subvenir aux besoins de</li><li> prendre ou emporter pour soigner et préserver</li><li> emporter, porter au loin</li><li> transporter, porter, apporter à, emporter pour soi, emporter ce qui est à soi, rapporter<ol><li> recevoir, obtenir : la bénédiction promise</li><li> recevoir ce qui était auparavant le sien, récupérer, recevoir en retour, recouvrer</li></ol></li></ol>",
    "pron": "kom-id'-zo",
    "strongs_def": " proprement, pourvoir, c'est-à-dire (implicitement) emporter (comme s'il s'agissait d'un mal ; cas génitif obtenir)",
    "xlit": "komízō"
}