{
    "derivation": "de G2860 (κολυμβήθρα) ;",
    "frequency": 3,
    "kjv_def": "piscine",
    "lemma": "κολυμβήθρα",
    "outline": "<ol><li> un endroit pour plonger, un trou de baignade, un réservoir ou une piscine pour se baigner</li></ol>",
    "pron": "kol-oom-bay'-thrah",
    "strongs_def": " un lieu de plongée, c'est-à-dire un bassin de baignade (ou de natation)",
    "xlit": "kolymbḗthra"
}