{
    "derivation": "de G2875 (κόπος) ;",
    "frequency": 16,
    "kjv_def": "travail, + ennui, lassitude",
    "lemma": "κόπος",
    "outline": "<ol><li> un battement</li><li> un battement de poitrine avec de la peine, du chagrin</li><li> travail<ol><li> ennui<ol><li> causer des ennuis à quelqu'un, lui donner du travail</li></ol><li> travail intense associé à la difficulté et au labeur</li></ol></li></ol>",
    "pron": "kop'-os",
    "strongs_def": " une coupure, c'est-à-dire (par analogie) le labeur (comme réduisant la force), au sens propre ou figuré ; par implication, les douleurs",
    "xlit": "kópos"
}