{
    "derivation": "d'origine latine ;",
    "frequency": 8,
    "kjv_def": "Cornelius",
    "lemma": "Κορνήλιος",
    "outline": "<span class=\"literal-meaning\">Cornelius = &quot;d'une corne&quot;</span><ol><li> centurion romain de la cohorte italienne stationnée à Césarée, converti au christianisme</li></ol>",
    "pron": "kor-nay'-lee-os",
    "strongs_def": " Cornelius, un Romain",
    "xlit": "Kornḗlios"
}