{
    "derivation": "de G2889 (κοσμικός) (dans son sens secondaire) ;",
    "frequency": 2,
    "kjv_def": "mondain",
    "lemma": "κοσμικός",
    "outline": "<ol><li> de ou appartenant au monde<ol><li> relatif à l'univers</li><li> terrestre</li><li> mondain, c'est-à-dire ayant le caractère du présent âge corrompu</li></ol></li></ol>",
    "pron": "kos-mee-kos'",
    "strongs_def": " terrene (\"cosmique\"), au sens propre (mondain) ou figuré (corrompu)",
    "xlit": "kosmikós"
}