{
    "derivation": "de (poids léger) ;",
    "frequency": 1,
    "kjv_def": "éclaircir",
    "lemma": "κουφίζω",
    "outline": "<ol><li> être léger</li><li> alléger<ol><li> un navire en jetant la cargaison par-dessus bord</li></ol></li></ol>",
    "pron": "koo-fid'-zo",
    "strongs_def": " pour décharger",
    "xlit": "kouphízō"
}