{
    "derivation": "d'origine latine ;",
    "frequency": 3,
    "kjv_def": "regarder",
    "lemma": "κουστωδία",
    "outline": "<ol><li> garde : utilisé pour les soldats romains qui gardaient le sépulcre du Christ</li></ol>",
    "pron": "koos-to-dee'-ah",
    "strongs_def": " \"garde\", c'est-à-dire une sentinelle romaine",
    "xlit": "koustōdía"
}