{
    "derivation": "superlatif d'un dérivé de G2904 (κράτιστος) ;",
    "frequency": 4,
    "kjv_def": "le plus excellent (noble)",
    "lemma": "κράτιστος",
    "outline": "<ol><li> le plus puissant, le plus fort, le plus noble, le plus illustre, le meilleur, le plus excellent<ol><li> utilisé pour s'adresser à des hommes de rang ou de fonction éminents</li></ol></li></ol>",
    "pron": "krat'-is-tos",
    "strongs_def": " le plus fort, c'est-à-dire (dans la dignité) très honorable",
    "xlit": "krátistos"
}