{
    "derivation": "peut-être un mot primaire ;",
    "frequency": 12,
    "kjv_def": "domination, puissance (-ily), pouvoir, force",
    "lemma": "κράτος",
    "outline": "<ol><li> force, puissance</li><li> puissance, force : puissant avec une grande puissance<ol><li> une action puissante, une œuvre de puissance</li></ol><li> domination</li></ol>",
    "pron": "krat'-os",
    "strongs_def": " vigor (\"grand\") (au sens propre ou figuré)",
    "xlit": "krátos"
}