{
    "derivation": "d'origine latine ;",
    "frequency": 3,
    "kjv_def": "Crispus",
    "lemma": "Κρίσπος",
    "outline": "<span class=\"literal-meaning\">Crispus = &quot;frisé&quot;</span><ol><li> le chef de la synagogue juive de Corinthe, baptisé par Paul</li></ol>",
    "pron": "kris'-pos",
    "strongs_def": " \"crisp\" ; Crispus, un Corinthien",
    "xlit": "Kríspos"
}