{
    "derivation": "de G2936 (κτίστης) ;",
    "frequency": 1,
    "kjv_def": "Créateur",
    "lemma": "κτίστης",
    "outline": "<ol><li> un fondateur</li><li> un créateur</li></ol>",
    "pron": "ktis-tace'",
    "strongs_def": " un fondateur, c'est-à-dire Dieu (en tant qu'auteur de toutes choses)",
    "xlit": "ktístēs"
}