{
    "derivation": "de G2932 (κτῆνος) ;",
    "frequency": 5,
    "kjv_def": "bête",
    "lemma": "κτῆνος",
    "outline": "<ol><li> une bête<ol><li> en particulier une bête de somme</li><li> utilisé pour les animaux à quatre pattes par opposition aux poissons et aux oiseaux</li></ol></li></ol>",
    "pron": "ktay'-nos",
    "strongs_def": " un bien, c'est-à-dire (spécialement) un animal domestique",
    "xlit": "ktēnos"
}