{
    "derivation": "de G2947 (κύλισμα) ;",
    "frequency": 1,
    "kjv_def": "se vautrant",
    "lemma": "κύλισμα",
    "outline": "<ol><li> chose roulée, roulée (vautrée) boue ou bourbier</li></ol>",
    "pron": "koo'-lis-mah",
    "strongs_def": " se vautrer (l'effet du roulement), c'est-à-dire la saleté",
    "xlit": "kýlisma"
}