{
    "derivation": "d'origine étrangère (voir H03646) ;",
    "frequency": 1,
    "kjv_def": "cummin",
    "lemma": "κύμινον",
    "outline": "<ol><li> le cummin est une plante cultivée en Palestine dont les graines ont un goût amer et chaud et une saveur aromatique</li></ol>",
    "pron": "koo'-min-on",
    "strongs_def": " aneth ou fenouil (\"cummin\")",
    "xlit": "kýminon"
}