{
    "derivation": "de G2957 (Κυρηναῖος) ;",
    "frequency": 6,
    "kjv_def": "de Cyrène, de Cyrénée",
    "lemma": "Κυρηναῖος",
    "outline": "<ol><li> originaire de Cyrène</li></ol>",
    "pron": "koo-ray-nah'-yos",
    "strongs_def": " c'est-à-dire Cyrénéen, c'est-à-dire habitant de Cyrène",
    "xlit": "Kyrēnaîos"
}