{
    "derivation": "féminin de G2962 (Κυρία) ;",
    "frequency": 2,
    "kjv_def": "dame",
    "lemma": "Κυρία",
    "outline": "<ol><li> une femme chrétienne à qui la deuxième épître de Jean est adressée</li></ol>",
    "pron": "koo-ree'-ah",
    "strongs_def": " Cyria, une femme chrétienne",
    "xlit": "Kyría"
}