{
    "derivation": "de la base de G297 (ἄμφοδον) et G3598 (ἄμφοδον) ;",
    "frequency": 1,
    "kjv_def": "où deux chemins se rencontrent",
    "lemma": "ἄμφοδον",
    "outline": "<ol><li> une route autour de quelque chose, une rue</li></ol>",
    "pron": "am'-fod-on",
    "strongs_def": " une bifurcation sur la route",
    "xlit": "ámphodon"
}