{
    "derivation": "de G2749 (κώμη) ;",
    "frequency": 26,
    "kjv_def": "ville, village",
    "lemma": "κώμη",
    "outline": "<ol><li> le lieu de sommeil commun où retournent les travailleurs des champs, un village</li><li> le nom de la ville près de laquelle se trouvent les villages et à la municipalité de laquelle ils appartiennent</li><li> les habitants des villages</li></ol>",
    "pron": "ko'-may",
    "strongs_def": " un hameau (comme s'il était couché)",
    "xlit": "kṓmē"
}