{
    "derivation": "de G2962 (κυριεύω) ;",
    "frequency": 6,
    "kjv_def": "avoir la domination sur, être le seigneur de, exercer la seigneurie sur",
    "lemma": "κυριεύω",
    "outline": "<ol><li> être le seigneur de, gouverner, dominer sur</li><li> des choses et des forces<ol><li> exercer une influence sur, avoir le pouvoir sur</li></ol></li></ol>",
    "pron": "ko-ree-yoo'-o",
    "strongs_def": " à la règle",
    "xlit": "kyrieúō"
}