{
    "derivation": "de G2962 (κυριότης) ;",
    "frequency": 4,
    "kjv_def": "domination, gouvernement",
    "lemma": "κυριότης",
    "outline": "<ol><li> domination, pouvoir, seigneurie</li><li> dans le NT : celui qui possède la domination</li></ol>",
    "pron": "koo-ree-ot'-ace",
    "strongs_def": " la maîtrise, c'est-à-dire (concrètement et collectivement) les gouvernants",
    "xlit": "kyriótēs"
}