{
    "derivation": "de dérivation incertaine ;",
    "frequency": 3,
    "kjv_def": "tempête, orage",
    "lemma": "λαῖλαψ",
    "outline": "<ol><li> un tourbillon, un vent tempétueux</li><li> une violente attaque de vent, une bourrasque<ol><li> jamais une simple rafale ni un vent régulier, aussi violent soit-il, mais une tempête qui sort de nuages noirs et orageux en rafales furieuses, avec des trombes d'eau, et qui fait tout basculer</li></ol></li></ol>",
    "pron": "lah'-ee-laps",
    "strongs_def": " un tourbillon (squall)",
    "xlit": "laîlaps"
}