{
    "derivation": "d'origine hébraïque (voir H07081) ;",
    "frequency": 1,
    "kjv_def": "Cosam",
    "lemma": "Κωσάμ",
    "outline": "<span class=\"literal-meaning\">Cosam = &quot;divination&quot;</span><ol><li> ancêtre de celui du Christ</li></ol>",
    "pron": "ko-sam'",
    "strongs_def": " Cosam (i.e. Kosam) un Israélite",
    "xlit": "Kōsám"
}