{
    "derivation": "de l'adverbe (du talon) ;",
    "frequency": 1,
    "kjv_def": "coup de pied",
    "lemma": "λακτίζω",
    "outline": "<ol><li> donner un coup de pied, frapper avec le talon</li></ol>",
    "pron": "lak-tid'-zo",
    "strongs_def": " recalcitrer",
    "xlit": "laktízō"
}