{
    "derivation": "adverbe de G2990 (λάθρα) ;",
    "frequency": 4,
    "kjv_def": "en privé, en secret",
    "lemma": "λάθρα",
    "outline": "<ol><li> secrètement</li></ol>",
    "pron": "lath'-rah",
    "strongs_def": " privé",
    "xlit": "láthra"
}