{
    "derivation": "une forme prolongée d'un verbe primaire, qui n'est utilisée comme alternative que dans certains temps ;",
    "frequency": 4,
    "kjv_def": "son sort soit, tirer au sort, obtenir",
    "lemma": "λαγχάνω",
    "outline": "<ol><li> obtenir par tirage au sort<ol><li> recevoir par attribution divine, obtenir</li></ol><li> tirer au sort, déterminer par le sort</li></ol>",
    "pron": "lang-khan'-o",
    "strongs_def": " à lot, c'est-à-dire déterminer (implicitement, recevoir) notamment par lot",
    "xlit": "lanchánō"
}