{
    "derivation": "d'origine incertaine ;",
    "frequency": 1,
    "kjv_def": "Lasea",
    "lemma": "Λασαία",
    "outline": "<span class=\"literal-meaning\">Lasea = &quot;hirsute&quot;</span><ol><li> une ville de Crète sur la côte près de Fair Havens</li></ol>",
    "pron": "las-ah'-yah",
    "strongs_def": " Lasæa, un lieu en Crète",
    "xlit": "Lasaía"
}