{
    "derivation": "une forme renforcée d'un verbe primaire, qui ne se présente que sous cette forme et une autre forme prolongée en alternance dans certains temps ;",
    "frequency": 1,
    "kjv_def": "éclater",
    "lemma": "λάσχω",
    "outline": "<ol><li> craquer, craquer, s'écraser</li><li> éclater avec un craquement, se fendre en deux</li></ol>",
    "pron": "las'-kho",
    "strongs_def": " se fendre (d'une chute)",
    "xlit": "láschō"
}