{
    "derivation": "d'un composé de (une pierre) et de la base de G3584 (λαξευτός) (dans son sens premier de gratter) ;",
    "frequency": 1,
    "kjv_def": "taillé dans la pierre",
    "lemma": "λαξευτός",
    "outline": "<ol><li> taillé dans la pierre</li></ol>",
    "pron": "lax-yoo-tos'",
    "strongs_def": " rocailleux",
    "xlit": "laxeutós"
}