{
    "derivation": "de G3000 (λατρεία) ;",
    "frequency": 5,
    "kjv_def": "service (divin)",
    "lemma": "λατρεία",
    "outline": "<ol><li> service rendu contre rémunération<ol><li> tout service ou administration : le service de Dieu</li></ol><li> le service et le culte de Dieu selon les exigences de la loi lévitique</li><li> pour l'accomplissement de services sacrés</li></ol>",
    "pron": "lat-ri'-ah",
    "strongs_def": " l'administration de Dieu, c'est-à-dire le culte",
    "xlit": "latreía"
}