{
    "derivation": "un verbe primaire ;",
    "frequency": 6,
    "kjv_def": "être démuni (manque), manquer",
    "lemma": "λείπω",
    "outline": "<ol><li> quitter, laisser derrière soi, abandonner, être laissé derrière soi<ol><li> être à la traîne, être inférieur</li><li> être dépourvu de, manquer de</li></ol><li> être défaillant, échouer</li></ol>",
    "pron": "li'-po",
    "strongs_def": " quitter, c'est-à-dire (intransitivement ou passivement) manquer ou être absent",
    "xlit": "leípō"
}