{
    "derivation": "apparemment un mot primaire ;",
    "frequency": 5,
    "kjv_def": "pressoir à vin",
    "lemma": "ληνός",
    "outline": "<ol><li> un réceptacle en forme de bac ou d'auge, la cuve, dans lequel on foule les raisins</li><li> la cuve inférieure, creusée dans le sol, dans laquelle le moût ou le vin nouveau s'écoulait du pressoir</li></ol>",
    "pron": "lay-nos'",
    "strongs_def": " une auge, c'est-à-dire une cuve à vin",
    "xlit": "lēnós"
}