{
    "derivation": "de G3030 (λιβανωτός) ;",
    "frequency": 2,
    "kjv_def": "encensoir",
    "lemma": "λιβανωτός",
    "outline": "<ol><li> la gomme exsudant d'un arbre d'encens</li><li> un encensoir</li></ol>",
    "pron": "lib-an-o-tos'",
    "strongs_def": " l'encens, c'est-à-dire (par extension) un encensoir pour le brûler",
    "xlit": "libanōtós"
}