{
    "derivation": "de , l'équivalent de (un éventail ou un panier à vider) ;",
    "frequency": 1,
    "kjv_def": "réduire en poudre",
    "lemma": "λικμάω",
    "outline": "<ol><li> vider, séparer l'ivraie du grain par vannage</li><li> disperser</li><li> mettre en pièces, réduire en poudre</li></ol>",
    "pron": "lik-mah'-o",
    "strongs_def": " vider, c'est-à-dire (par analogie), triturer",
    "xlit": "likmáō"
}