{
    "derivation": "une préposition et un adverbe primaires ;",
    "frequency": 15,
    "kjv_def": "et, apiece, par, chaque, chaque (homme), dans, à travers",
    "lemma": "ἀνά",
    "outline": "<ol><li> au milieu, au milieu, au milieu de, parmi, entre, entre</li></ol>",
    "pron": "an-ah'",
    "strongs_def": " proprement, vers le haut ; mais (par extension) utilisé (de manière distributive) séparément, ou (localement) à (etc.)",
    "xlit": "aná"
}