{
    "derivation": "apparemment un mot primaire ;",
    "frequency": 3,
    "kjv_def": "refuge",
    "lemma": "λιμήν",
    "outline": "<ol><li> un port, un havre</li></ol>",
    "pron": "lee-mane'",
    "strongs_def": " un port",
    "xlit": "limḗn"
}