{
    "derivation": "probablement un mot primaire ;",
    "frequency": 2,
    "kjv_def": "lin",
    "lemma": "λίνον",
    "outline": "<ol><li> les vêtements en lin fabriqués à partir du lin</li></ol>",
    "pron": "lee'-non",
    "strongs_def": " lin, c'est-à-dire (implicitement) \"lin\"",
    "xlit": "línon"
}