{
    "derivation": "de G305 (ἀναβαθμός) (comparer G898 (ἀναβαθμός)) ;",
    "frequency": 2,
    "kjv_def": "escaliers",
    "lemma": "ἀναβαθμός",
    "outline": "<ol><li> une ascension</li><li> un moyen de monter, une volée de marches, des escaliers</li></ol>",
    "pron": "an-ab-ath-mos'",
    "strongs_def": " un escalier",
    "xlit": "anabathmós"
}