{
    "derivation": "de G3004 (λόγος) ;",
    "frequency": 338,
    "kjv_def": "compte, cause, communication, X concernant, doctrine, renommée, X avoir à faire, intention, matière, bouche, prédication, question, raison, + compte, enlever, dire(-ing), montrer, X orateur, discours, parler, chose, + aucune de ces choses ne m'émeut, nouvelles, traité, énoncé, mot, travail",
    "lemma": "λόγος",
    "outline": "<ol><li> de la parole<ol><li> un mot, prononcé par une voix vivante, qui incarne une conception ou une idée</li><li> ce que quelqu'un a dit<ol><li> un mot</li><li> les paroles de Dieu</li><li> décret, mandat ou ordre</li><li> des préceptes moraux donnés par Dieu</li><li> Prophétie de l'Ancien Testament donnée par les prophètes</li><li> ce qui est déclaré, une pensée, une déclaration, un aphorisme, une parole de poids, un dictum, une maxime</li></ol><li>discours<ol><li> l'acte de parler, la parole</li><li> la faculté de parler, l'habileté et la pratique de la parole</li><li> un genre ou un style de parole</li><li> un discours continu - instruction</li></ol><li> doctrine, enseignement</li><li> tout ce qui est rapporté en discours ; une narration, un récit</li><li> sujet de discussion, chose dont on parle, affaire, sujet de dispute, cas, procès</li><li> la chose dont on parle ou dont on parle ; événement, fait</li></li> </ol><li>son utilisation par rapport à l'ESPRIT seul<ol><li> raison, faculté mentale de penser, de méditer, de raisonner, de calculer</li><li> compte, c'est-à-dire regard, considération</li><li> compte, c'est-à-dire calcul, score</li><li> compte, c'est-à-dire réponse ou explication par rapport au jugement</li><li>relation, c'est-à-dire</li></ol><li> dans Jean, désigne la Parole essentielle de Dieu, Jésus-Christ, la sagesse et la puissance personnelles en union avec Dieu, son ministre dans la création et le gouvernement de l'univers, la cause de toute la vie du monde, tant physique qu'éthique, qui, pour assurer le salut de l'homme, a revêtu la nature humaine en la personne de Jésus le Messie, la deuxième personne de la Divinité, et a brillé de manière éclatante par ses paroles et ses actes.</li></li> </ol>",
    "pron": "log'-os",
    "strongs_def": " quelque chose de dit (y compris la pensée) ; par implication, un thème (sujet de discours), également le raisonnement (la faculté mentale) ou le motif ; par extension, un calcul ; spécialement, (avec l'article dans Jean) l'expression divine (c'est-à-dire le Christ)",
    "xlit": "lógos"
}