{
    "derivation": "de G3060 (λοιδορέω) ;",
    "frequency": 5,
    "kjv_def": "injurier",
    "lemma": "λοιδορέω",
    "outline": "<ol><li> reprocher, râler, injurier, insulter</li></ol>",
    "pron": "loy-dor-eh'-o",
    "strongs_def": " reprocher, c'est-à-dire vilipender",
    "xlit": "loidoréō"
}