{
    "derivation": "un verbe primaire ;",
    "frequency": 5,
    "kjv_def": "laver",
    "lemma": "λούω",
    "outline": "<ol><li> baigner, laver<ol><li> d'une personne morte</li><li> laver pour nettoyer le sang des plaies</li></ol></li></ol>",
    "pron": "loo'-o",
    "strongs_def": " se baigner (toute la personne ; alors que G3538 (λούω) signifie mouiller une partie seulement, et G4150 (λούω) laver, nettoyer les vêtements exclusivement)",
    "xlit": "loúō"
}