{
    "derivation": "de (méchanceté) ;",
    "frequency": 4,
    "kjv_def": "railer, reviler",
    "lemma": "λοίδορος",
    "outline": "<ol><li> un railer, un reviler</li></ol>",
    "pron": "loy'-dor-os",
    "strongs_def": " abusif, c'est-à-dire une canaille",
    "xlit": "loídoros"
}