{
    "derivation": "cas génitif singulier du même que G3062 (λοιποῦ) ;",
    "frequency": 2,
    "kjv_def": "à partir de maintenant",
    "lemma": "λοιποῦ",
    "outline": "<ol><li> ci-après, pour l'avenir, dorénavant</li></ol>",
    "pron": "loy-poo'",
    "strongs_def": " temps restant",
    "xlit": "loipoû"
}