{
    "derivation": "apparemment un mot primaire ;",
    "frequency": 10,
    "kjv_def": "chagrin, pénible, + à contrecœur, lourdeur, tristesse",
    "lemma": "λύπη",
    "outline": "<ol><li> chagrin, douleur, chagrin, contrariété, affliction<ol><li> de personnes en deuil</li></ol></li></ol>",
    "pron": "loo'-pay",
    "strongs_def": " tristesse",
    "xlit": "lýpē"
}