{
    "derivation": "d'une affinité incertaine ;",
    "frequency": 2,
    "kjv_def": "Lysias",
    "lemma": "Λυσίας",
    "outline": "<span class=\"literal-meaning\">Lysias = &quot;libérateur&quot;</span><ol><li> un tribun ou chiliarque de la cohorte romaine</li></ol>",
    "pron": "loo-see'-as",
    "strongs_def": " Lysias, un Romain",
    "xlit": "Lysías"
}