{
    "derivation": "de G3083 (λυτρόω) ;",
    "frequency": 3,
    "kjv_def": "racheter",
    "lemma": "λυτρόω",
    "outline": "<ol><li> libérer sur réception d'une rançon</li><li> racheter, libérer par le paiement d'une rançon<ol><li> libérer</li><li> faire libérer quelqu'un par le paiement d'une rançon</li><li> racheter</li><li> délivrer : des maux de toute nature, internes et externes</li></ol></li></ol>",
    "pron": "loo-tro'-o",
    "strongs_def": " rançonner (au sens propre ou figuré)",
    "xlit": "lytróō"
}