{
    "derivation": "de G3084 (λύτρωσις) ;",
    "frequency": 3,
    "kjv_def": "+ racheté, rédemption",
    "lemma": "λύτρωσις",
    "outline": "<ol><li> une rançon, une rédemption</li><li> délivrance, en particulier de la peine du péché</li></ol>",
    "pron": "loo'-tro-sis",
    "strongs_def": " une rançon (au sens figuré)",
    "xlit": "lýtrōsis"
}