{
    "derivation": "de G3097 (μαγεύω) ;",
    "frequency": 1,
    "kjv_def": "utiliser la sorcellerie",
    "lemma": "μαγεύω",
    "outline": "<ol><li> être un magicien, pratiquer les arts magiques</li></ol>",
    "pron": "mag-yoo'-o",
    "strongs_def": " de pratiquer la magie",
    "xlit": "mageúō"
}