{
    "derivation": "d'origine hébraïque (H04968) ;",
    "frequency": 1,
    "kjv_def": "Mathusala",
    "lemma": "Μαθουσάλα",
    "outline": "<span class=\"literal-meaning\">Methuselah = &quot;quand il mourra, il y aura une émission&quot;</span><ol><li> fils d'Hénoch, grand-père de Noé, a vécu plus longtemps que quiconque, soit 969 ans</li></ol>",
    "pron": "math-oo-sal'-ah",
    "strongs_def": " Mathusala (c'est-à-dire Methushelach), un antédiluvien",
    "xlit": "Mathousála"
}