{
    "derivation": "de G306 (ἀναβολή) ;",
    "frequency": 1,
    "kjv_def": "retarder",
    "lemma": "ἀναβολή",
    "outline": "<ol><li> un retard, une remise à plus tard</li></ol>",
    "pron": "an-ab-ol-ay'",
    "strongs_def": " une remise à plus tard",
    "xlit": "anabolḗ"
}