{
    "derivation": "adverbe de G3117 (μακρόθεν) ;",
    "frequency": 14,
    "kjv_def": "au loin, de loin",
    "lemma": "μακρόθεν",
    "outline": "<ol><li> de loin, de loin</li></ol>",
    "pron": "mak-roth'-en",
    "strongs_def": " à distance ou de loin",
    "xlit": "makróthen"
}