{
    "derivation": "d'origine naturelle (\"mammy\") ;",
    "frequency": 1,
    "kjv_def": "grand-mère",
    "lemma": "μάμμη",
    "outline": "<ol><li> mère (le nom que les enfants utilisent pour s'adresser à leur mère)</li><li> grand-mère</li></ol>",
    "pron": "mam'-may",
    "strongs_def": " une grand-mère",
    "xlit": "mámmē"
}