{
    "derivation": "d'une affinité incertaine ;",
    "frequency": 1,
    "kjv_def": "s'éteindre",
    "lemma": "μαραίνω",
    "outline": "<ol><li> éteindre (une flamme, un feu, une lumière, etc.)</li><li> rendre aride, faire dépérir, consumer, périr</li><li> avoir une fin misérable</li></ol>",
    "pron": "mar-ah'-ee-no",
    "strongs_def": " éteindre (comme le feu), c'est-à-dire (au sens figuré et passif) disparaître",
    "xlit": "maraínō"
}