{
    "derivation": "de G303 (ἀναγεννάω) et G1080 (ἀναγεννάω) ;",
    "frequency": 2,
    "kjv_def": "engendrer, (porter) X (encore)",
    "lemma": "ἀναγεννάω",
    "outline": "<ol><li> produire à nouveau, naître à nouveau, naître de nouveau</li><li> métaph. faire changer d'avis une personne pour qu'elle vive une vie nouvelle et conforme à la volonté de Dieu</li></ol>",
    "pron": "an-ag-en-nah'-o",
    "strongs_def": " engendrer ou (par extension) enfanter (à nouveau)",
    "xlit": "anagennáō"
}