{
    "derivation": "d'origine hébraïque (H04478) ;",
    "frequency": 4,
    "kjv_def": "manna",
    "lemma": "μάννα",
    "outline": "<span class=\"literal-meaning\">manne = &quot; qu'est-ce que c'est ?</span><ol><li> la nourriture qui a nourri les Israélites pendant quarante ans dans le désert</li><li> la manne était conservée dans l'arche de l'alliance</li><li> symboliquement, ce qui est conservé dans le temple céleste pour la nourriture des anges et des bienheureux</li></ol>",
    "pron": "man'-nah",
    "strongs_def": " manne (i.e. homme), une gomme comestible",
    "xlit": "mánna"
}