{
    "derivation": "d'un primaire (à manipuler ou à presser) ;",
    "frequency": 1,
    "kjv_def": "ronger",
    "lemma": "μασσάομαι",
    "outline": "<ol><li> mâcher, consommer, manger, dévorer</li></ol>",
    "pron": "mas-sah'-om-ahee",
    "strongs_def": " à mâcher",
    "xlit": "massáomai"
}