{
    "derivation": "une forme plus courte de G3164 (Ματθαῖος) ;",
    "frequency": 5,
    "kjv_def": "Matthew",
    "lemma": "Ματθαῖος",
    "outline": "<span class=\"literal-meaning\">Matthieu = \"don de Jéhovah\"</span><ol><li> fils d'Alphée, l'un des 12 disciples</li></ol>",
    "pron": "mat-thah'-yos",
    "strongs_def": " Matthæus (c'est-à-dire Matthitjah), israélite et chrétien",
    "xlit": "Matthaîos"
}