{
    "derivation": "de la base de G3155 (μάταιος) ;",
    "frequency": 8,
    "kjv_def": "vain, vanité",
    "lemma": "μάταιος",
    "outline": "<ol><li> dépourvu de force, de vérité, de succès, de résultat</li><li> inutile, sans but</li></ol>",
    "pron": "mat'-ah-yos",
    "strongs_def": " vide, c'est-à-dire (littéralement) sans profit, ou (spécialement), une idole",
    "xlit": "mátaios"
}