{
    "derivation": "probablement une forme abrégée de G3161 (Ματταθά) (comparer G4992 (Ματταθά)) ;",
    "frequency": 1,
    "kjv_def": "Mattatha",
    "lemma": "Ματταθά",
    "outline": "<span class=\"literal-meaning\">Mattatha = &quot;don de soi&quot;.</span><ol><li> un ancêtre du Christ</li></ol>",
    "pron": "mat-tath-ah'",
    "strongs_def": " Mattatha (c'est-à-dire Mattithjah), un israélite",
    "xlit": "Mattathá"
}