{
    "derivation": "de G3173 (μεγαλεῖος) ;",
    "frequency": 1,
    "kjv_def": "grandes choses, œuvres merveilleuses",
    "lemma": "μεγαλεῖος",
    "outline": "<ol><li> magnifique, excellent, splendide, merveilleux</li></ol>",
    "pron": "meg-al-i'-os",
    "strongs_def": " magnifique, c'est-à-dire (neutre, pluriel comme nom) une faveur ostentatoire, ou (subjectivement) la perfection",
    "xlit": "megaleîos"
}