{
    "derivation": "voix moyenne d'un verbe apparemment primaire ;",
    "frequency": 4,
    "kjv_def": "lutter, s'efforcer",
    "lemma": "μάχομαι",
    "outline": "<ol><li> se battre<ol><li> de combattants armés, ou de ceux qui s'engagent dans une lutte à mains nues</li><li> de ceux qui se livrent à une guerre des mots, à une querelle, à un conflit, à une dispute</li><li> de ceux qui se disputent en justice des biens et des privilèges</li></ol></li></ol>",
    "pron": "makh'-om-ahee",
    "strongs_def": " faire la guerre, c'est-à-dire (au sens figuré) se quereller, se disputer",
    "xlit": "máchomai"
}