{
    "derivation": "de G318 (ἀναγκαῖος) ;",
    "frequency": 8,
    "kjv_def": "près, nécessaire, nécessité, nécessaire",
    "lemma": "ἀναγκαῖος",
    "outline": "<ol><li> nécessaire<ol><li> ce dont on ne peut se passer, indispensable</li><li> relié par des liens de nature ou d'amitié</li><li> ce qui doit être fait selon la loi du devoir, ce qui est exigé par les circonstances</li></ol></li></ol>",
    "pron": "an-ang-kah'-yos",
    "strongs_def": " nécessaire ; implicitement, proche (de la parenté)",
    "xlit": "anankaîos"
}