{
    "derivation": "de G3326 (μεθερμηνεύω) et G2059 (μεθερμηνεύω) ;",
    "frequency": 7,
    "kjv_def": "(par) interpréter (-ation)",
    "lemma": "μεθερμηνεύω",
    "outline": "<ol><li> traduire dans la langue de celui avec qui je souhaite communiquer, interpréter</li></ol>",
    "pron": "meth-er-mane-yoo'-o",
    "strongs_def": " pour expliquer par-dessus, c'est-à-dire traduire",
    "xlit": "methermēneúō"
}