{
    "derivation": "une forme prolongée (transitive) de G3184 (μεθύσκω) ;",
    "frequency": 4,
    "kjv_def": "être ivre(-en)",
    "lemma": "μεθύσκω",
    "outline": "<ol><li> enivrer, rendre ivre</li><li> s'enivrer, s'intoxiquer</li></ol>",
    "pron": "meth-oos'-ko",
    "strongs_def": " enivrer",
    "xlit": "methýskō"
}