{
    "derivation": "neutre de G3189 (μέλαν) comme nom ;",
    "frequency": 2,
    "kjv_def": "encre",
    "lemma": "μέλαν",
    "outline": "<ol><li> encre</li></ol>",
    "pron": "mel'-an",
    "strongs_def": " encre",
    "xlit": "mélan"
}