{
    "derivation": "voix moyenne de G303 (ἀναγνωρίζομαι) et G1107 (ἀναγνωρίζομαι) ;",
    "frequency": 1,
    "kjv_def": "être connu",
    "lemma": "ἀναγνωρίζομαι",
    "outline": "<ol><li> de reconnaître</li></ol>",
    "pron": "an-ag-no-rid'-zom-ahee",
    "strongs_def": " faire (se) connaître",
    "xlit": "anagnōrízomai"
}