{
    "derivation": "de G3192 (μελίσσιος) ;",
    "frequency": 0,
    "kjv_def": "nid d'abeille",
    "lemma": "μελίσσιος",
    "outline": "<ol><li> d'abeilles, fait par des abeilles</li></ol>",
    "pron": "mel-is'-see-os",
    "strongs_def": " relatif au miel, c'est-à-dire à l'abeille (rayon)",
    "xlit": "melíssios"
}