{
    "derivation": "de G303 (ἀναδείκνυμι) et G1166 (ἀναδείκνυμι) ;",
    "frequency": 2,
    "kjv_def": "nommer, montrer",
    "lemma": "ἀναδείκνυμι",
    "outline": "<ol><li> proclamer l'élection d'une personne à un poste</li><li> annoncer la nomination d'un roi, d'un général, etc.</li><li> élever quelque chose en haut et l'exposer à la vue de tous</li></ol>",
    "pron": "an-ad-ike'-noo-mee",
    "strongs_def": " exposer, c'est-à-dire (implicitement) indiquer, nommer",
    "xlit": "anadeíknymi"
}