{
    "derivation": "de G322 (ἀνάδειξις) ;",
    "frequency": 1,
    "kjv_def": "affichant",
    "lemma": "ἀνάδειξις",
    "outline": "<ol><li> une mise en évidence, une démonstration publique</li><li> la proclamation, l'annonce, l'inauguration de ceux qui sont élus à une fonction</li></ol>",
    "pron": "an-ad'-ike-sis",
    "strongs_def": " (l'acte de) l'exposition",
    "xlit": "anádeixis"
}