{
    "derivation": "de G303 (ἀναδέχομαι) et G1209 (ἀναδέχομαι) ;",
    "frequency": 2,
    "kjv_def": "recevoir",
    "lemma": "ἀναδέχομαι",
    "outline": "<ol><li> prendre, se prendre en charge, entreprendre, assumer</li><li> recevoir, divertir quelqu'un de manière hospitalière</li></ol>",
    "pron": "an-ad-ekh'-om-ahee",
    "strongs_def": " recevoir (en tant qu'invité)",
    "xlit": "anadéchomai"
}