{
    "derivation": "de G303 (ἀναζωπυρέω) et un composé de la base de G2226 (ἀναζωπυρέω) et de G4442 (ἀναζωπυρέω) ;",
    "frequency": 1,
    "kjv_def": "remuer",
    "lemma": "ἀναζωπυρέω",
    "outline": "<ol><li> enflammer, enflammer son esprit, sa force, son zèle</li></ol>",
    "pron": "an-ad-zo-poor-eh'-o",
    "strongs_def": " pour raviver",
    "xlit": "anazōpyréō"
}