{
    "derivation": "une particule primaire ;",
    "frequency": 189,
    "kjv_def": "même, en effet, ainsi, certains, vraiment, en vérité",
    "lemma": "μέν",
    "outline": "<ol><li> vraiment, certainement, sûrement, effectivement</li></ol>",
    "pron": "men",
    "strongs_def": " proprement, indicatif d'affirmation ou de concession (en fait) ; généralement suivi d'une clause contrastée avec G1161 (μέν) (celui-ci, le premier, etc.)",
    "xlit": "mén"
}