{
    "derivation": "de G3203 (μενοῦνγε) et G3767 (μενοῦνγε) et G1065 (μενοῦνγε) ;",
    "frequency": 4,
    "kjv_def": "non mais, oui sans doute (plutôt, en vérité)",
    "lemma": "μενοῦνγε",
    "outline": "<ol><li> nay surely, nay rather</li></ol>",
    "pron": "men-oon'-geh",
    "strongs_def": " alors au moins",
    "xlit": "menoûnge"
}