{
    "derivation": "de G3316 (μεσιτεύω) ;",
    "frequency": 1,
    "kjv_def": "confirmer",
    "lemma": "μεσιτεύω",
    "outline": "<ol><li> agir en tant que médiateur entre des parties en litige ou des parties contractantes<ol><li> accomplir quelque chose en s'interposant entre deux parties</li><li> servir de médiateur</li></ol><li> agir en tant que parrain ou cautionner s'<ol><li> engager, se porter caution</li></ol></li></ol>",
    "pron": "mes-it-yoo'-o",
    "strongs_def": " s'interposer (comme arbitre), c'est-à-dire (implicitement) ratifier (comme caution)",
    "xlit": "mesiteúō"
}