{
    "derivation": "féminin de G3313 (μερίς) ;",
    "frequency": 4,
    "kjv_def": "partie (X -akers)",
    "lemma": "μερίς",
    "outline": "<ol><li> une partie distincte du tout</li><li> une partie assignée, une portion, une part</li></ol>",
    "pron": "mer-ece'",
    "strongs_def": " une portion, c'est-à-dire une province, une part ou (abstraitement) une participation",
    "xlit": "merís"
}