{
    "derivation": "neutre du composé de G3319 (μεσονύκτιον) et G3571 (μεσονύκτιον) ;",
    "frequency": 4,
    "kjv_def": "minuit",
    "lemma": "μεσονύκτιον",
    "outline": "<ol><li> minuit</li></ol>",
    "pron": "mes-on-ook'-tee-on",
    "strongs_def": " minuit (surtout en tant que montre)",
    "xlit": "mesonýktion"
}