{
    "derivation": "de G3326 (μετάγω) et G718 (μετάγω) ;",
    "frequency": 2,
    "kjv_def": "tourner",
    "lemma": "μετάγω",
    "outline": "<ol><li> transférer, transmettre</li><li> diriger</li></ol>",
    "pron": "met-ag'-o",
    "strongs_def": " passer au-dessus, c'est-à-dire transférer (direct)",
    "xlit": "metágō"
}