{
    "derivation": "une préposition primaire (souvent utilisée comme adverbe) ;",
    "frequency": 471,
    "kjv_def": "après(-ward), X qu'il encore, contre, parmi, X et, + suivre, d'où, ci-après, dans, de, (up-)on, + notre, X et setting, depuis, (un-)to, + ensemble, quand, avec (+ -out)",
    "lemma": "μετά",
    "outline": "<ol><li> avec, après, derrière</li></ol>",
    "pron": "met-ah'",
    "strongs_def": " proprement, désignant l'accompagnement ; \" au milieu \" (local ou causal) ; modifié diversement selon le cas (association génitive, ou succession accusative) avec lequel il est joint ; occupant une position intermédiaire entre G575 (μετά) ou G1537 (μετά) et G1519 (μετά) ou G4314 (μετά) ; moins intime que G1722 (μετά) et moins proche que G4862 (μετά))",
    "xlit": "metá"
}