{
    "derivation": "de G3326 (μεταίρω) et G142 (μεταίρω) ;",
    "frequency": 2,
    "kjv_def": "départ",
    "lemma": "μεταίρω",
    "outline": "<ol><li> soulever et déplacer d'un endroit à un autre, transférer</li><li> s'en aller, partir</li></ol>",
    "pron": "met-ah'-ee-ro",
    "strongs_def": " se livrer, c'est-à-dire se retirer (localement)",
    "xlit": "metaírō"
}