{
    "derivation": "de G3326 (μεταλαμβάνω) et G2983 (μεταλαμβάνω) ;",
    "frequency": 7,
    "kjv_def": "manger, avoir, être participant, recevoir, prendre",
    "lemma": "μεταλαμβάνω",
    "outline": "<ol><li> être ou être fait partenaire</li><li> prendre part à, prendre [de la] nourriture</li><li> d'une chose, obtenir, trouver (un tout)</li></ol>",
    "pron": "met-al-am-ban'-o",
    "strongs_def": " participer ; cas génitif, accepter (et utiliser)",
    "xlit": "metalambánō"
}