{
    "derivation": "de G3326 (μεταμέλλομαι) et la voix moyenne de G3199 (μεταμέλλομαι) ;",
    "frequency": 4,
    "kjv_def": "se repentir (soi-même)",
    "lemma": "μεταμέλλομαι",
    "outline": "<ol><li> c'est un soin pour nous après<ol><li> on se repent, pour se repentir soi-même</li></ol></li></ol>",
    "pron": "met-am-el'-lom-ahee",
    "strongs_def": " de se soucier de l'après, c'est-à-dire de regretter",
    "xlit": "metaméllomai"
}