{
    "derivation": "à partir d'un composé de la base du G3357 (μετριοπαθέω) et du G3806 (μετριοπαθέω) ;",
    "frequency": 1,
    "kjv_def": "avoir de la compassion",
    "lemma": "μετριοπαθέω",
    "outline": "<ol><li> être affecté modérément ou en juste mesure</li><li> conserver la modération dans les passions, en particulier la colère ou le chagrin<ol><li> de quelqu'un qui n'est pas indûment troublé par les erreurs, les fautes, les péchés des autres, mais qui les supporte avec douceur</li></ol></li></ol>",
    "pron": "met-ree-op-ath-eh'-o",
    "strongs_def": " être modéré dans la passion, c'est-à-dire doux (traiter avec indulgence)",
    "xlit": "metriopathéō"
}