{
    "derivation": "c'est-à-dire G1437 (ἐὰν μή) et G3361 (ἐὰν μή) ;",
    "frequency": 0,
    "kjv_def": "X avant, mais, sauf, si, non, (si, + quiconque) non",
    "lemma": "ἐὰν μή",
    "outline": "<ol><li> si non, à moins que, qui que ce soit ... non</li></ol>",
    "pron": "eh-an' may",
    "strongs_def": " sinon, c'est-à-dire à moins que",
    "xlit": "eàn mḗ"
}