{
    "derivation": "de G3366 (μηδέποτε) et G4218 (μηδέποτε) ;",
    "frequency": 1,
    "kjv_def": "jamais",
    "lemma": "μηδέποτε",
    "outline": "<ol><li> jamais</li></ol>",
    "pron": "may-dep'-ot-eh",
    "strongs_def": " pas même jamais",
    "xlit": "mēdépote"
}