{
    "derivation": "peut-être un mot primaire ;",
    "frequency": 1,
    "kjv_def": "cuisse",
    "lemma": "μηρός",
    "outline": "<ol><li> cuisse</li></ol>",
    "pron": "may-ros'",
    "strongs_def": " une cuisse",
    "xlit": "mērós"
}