{
    "derivation": "de G3361 (μήτι) et le neutre de G5100 (μήτι) ;",
    "frequency": 15,
    "kjv_def": "pas (la particule n'est généralement pas exprimée, sauf par la forme de la question)",
    "lemma": "μήτι",
    "outline": "<ol><li> si, du tout, par hasard</li></ol>",
    "pron": "may'-tee",
    "strongs_def": " si du tout",
    "xlit": "mḗti"
}