{
    "derivation": "de G303 (ἀνακαθίζω) et G2523 (ἀνακαθίζω) ;",
    "frequency": 2,
    "kjv_def": "s'asseoir",
    "lemma": "ἀνακαθίζω",
    "outline": "<ol><li> se lever et s'asseoir droit, s'asseoir, se redresser</li></ol>",
    "pron": "an-ak-ath-id'-zo",
    "strongs_def": " proprement, s'installer, c'est-à-dire (par réflexe) s'asseoir",
    "xlit": "anakathízō"
}