{
    "derivation": "d'origine incertaine ;",
    "frequency": 3,
    "kjv_def": "Miletus",
    "lemma": "Μίλητος",
    "outline": "<span class=\"literal-meaning\">Miletus = &quot;laine fine d'un blanc pur&quot;.</span><ol><li> une ville maritime, aujourd'hui à près de 10 miles (16 km), de la côte de Carie ou d'Ionie, près de l'embouchure du Maeander et à 35 miles (55 km) d'Ephèse. Elle était la mère d'environ quatre-vingts colonies, le lieu de naissance de Thalès, Anaximandre, et d'autres hommes célèbres.</li></ol>",
    "pron": "mil'-ay-tos",
    "strongs_def": " Miletus, une ville d'Asie Mineure",
    "xlit": "Mílētos"
}