{
    "derivation": "masculin ou neutre singulier de G3398 (μικρόν) (comme nom) ;",
    "frequency": 16,
    "kjv_def": "un (petit) (moment)",
    "lemma": "μικρόν",
    "outline": "<ol><li> petit, peu<ol><li> de taille : de stature, de longueur</li><li> d'espace</li><li> d'âge : moins par la naissance, plus jeune</li><li> de temps : court, bref, un peu de temps, si peu !</li><li> de quantité : c'est-à-dire de nombre, de quantité</li><li> de rang ou d'influence</li></ol></li></ol>",
    "pron": "mik-ron'",
    "strongs_def": " un petit espace de temps ou de degré",
    "xlit": "mikrón"
}