{
    "derivation": "de G3392 (μίασμα) (\"miasme\") ;",
    "frequency": 1,
    "kjv_def": "pollution",
    "lemma": "μίασμα",
    "outline": "<ol><li> ce qui souille, la souillure</li><li> métaph., les vices dont la souillure contamine l'homme dans ses rapports avec la masse impie de l'humanité</li></ol>",
    "pron": "mee'-as-mah",
    "strongs_def": " (moralement) l'infamie (proprement, l'effet)",
    "xlit": "míasma"
}