{
    "derivation": "de G3409 (μισθαποδότης) et G591 (μισθαποδότης) ;",
    "frequency": 1,
    "kjv_def": "récompensé",
    "lemma": "μισθαποδότης",
    "outline": "<ol><li> celui qui paie un salaire, un rémunérateur</li></ol>",
    "pron": "mis-thap-od-ot'-ace",
    "strongs_def": " un renuméroteur",
    "xlit": "misthapodótēs"
}