{
    "derivation": "apparemment un mot primaire ;",
    "frequency": 33,
    "kjv_def": "embauche, récompense, salaire",
    "lemma": "μισθός",
    "outline": "<ol><li> droits payés pour un travail<ol><li> salaire, location</li></ol><li> récompense : se dit du fruit qui résulte naturellement des labeurs et des efforts<ol><li> dans les deux sens, récompenses et punitions</li><li> des récompenses que Dieu accorde, ou accordera, aux bonnes actions et des efforts</li><li> des punitions</li></ol></li></ol>",
    "pron": "mis-thos'",
    "strongs_def": " payer pour un service (au sens propre ou figuré), bon ou mauvais",
    "xlit": "misthós"
}