{
    "derivation": "d'un primaire (haine) ;",
    "frequency": 40,
    "kjv_def": "haine (-ful)",
    "lemma": "μισέω",
    "outline": "<ol><li> haïr, poursuivre avec haine, détester</li><li> être haï, détesté</li></ol>",
    "pron": "mis-eh'-o",
    "strongs_def": " détester (surtout pour persécuter) ; par extension, aimer moins",
    "xlit": "miséō"
}