{
    "derivation": "de G3408 (μίσθιος) ;",
    "frequency": 2,
    "kjv_def": "serviteur engagé",
    "lemma": "μίσθιος",
    "outline": "<ol><li> employé pour le loyer, embauché</li></ol>",
    "pron": "mis'-thee-os",
    "strongs_def": " un travailleur salarié",
    "xlit": "místhios"
}