{
    "derivation": "pour (abondance de coquillages) ;",
    "frequency": 1,
    "kjv_def": "Mitylène",
    "lemma": "Μιτυλήνη",
    "outline": "<span class=\"literal-meaning\">Mitylene = &quot;mutilé&quot;.</span><ol><li> chef-lieu maritime de l'île de Lesbos dans la mer Égée</li></ol>",
    "pron": "mit-oo-lay'-nay",
    "strongs_def": " Mitylène (ou Mytilène), ville de l'île de Lesbos",
    "xlit": "Mitylḗnē"
}