{
    "derivation": "d'origine hébraïque (H04317) ;",
    "frequency": 2,
    "kjv_def": "Michael",
    "lemma": "Μιχαήλ",
    "outline": "<span class=\"literal-meaning\">Michel = &quot;qui est comme Dieu&quot;.</span><ol><li> le premier des princes ou archanges qui est censé être l'ange gardien des Israélites</li></ol>",
    "pron": "mikh-ah-ale'",
    "strongs_def": " Michael, un archange",
    "xlit": "Michaḗl"
}