{
    "derivation": "d'un dérivé du G3415 (μνηστεύω) ;",
    "frequency": 3,
    "kjv_def": "espouse",
    "lemma": "μνηστεύω",
    "outline": "<ol><li> la courtiser et la demander en mariage</li><li> être promise en mariage, être fiancée</li></ol>",
    "pron": "mnace-tyoo'-o",
    "strongs_def": " donner un souvenir (cadeau de fiançailles), c'est-à-dire fiancer",
    "xlit": "mnēsteúō"
}