{
    "derivation": "de G3432 (μοιχεύω) ;",
    "frequency": 16,
    "kjv_def": "commettre un adultère",
    "lemma": "μοιχεύω",
    "outline": "<ol><li> à commettre l'adultère<ol><li> être adultère</li><li> commettre l'adultère avec, avoir des rapports illicites avec la femme d'autrui</li><li> de la femme : subir l'adultère, se débaucher</li><li> Idiome hébreu, ce mot est utilisé pour désigner ceux qui, à la demande d'une femme, se laissent entraîner à l'idolâtrie, c'est-à-dire à la consommation de choses sacrifiées aux idoles</li></ol></li></ol>",
    "pron": "moy-khyoo'-o",
    "strongs_def": " de commettre l'adultère",
    "xlit": "moicheúō"
}