{
    "derivation": "de G3441 (μονογενής) et G1096 (μονογενής) ;",
    "frequency": 9,
    "kjv_def": "unique (engendré, enfant)",
    "lemma": "μονογενής",
    "outline": "<ol><li> unique en son genre, unique<ol><li> utilisé pour les fils ou les filles uniques (considérés par rapport à leurs parents)</li><li> utilisé pour le Christ, désigne le fils unique de Dieu</li></ol></li></ol>",
    "pron": "mon-og-en-ace'",
    "strongs_def": " seul né, c'est-à-dire unique",
    "xlit": "monogenḗs"
}