{
    "derivation": "probablement de G3306 (μόνος) ;",
    "frequency": 50,
    "kjv_def": "seuls, seulement, par eux-mêmes",
    "lemma": "μόνος",
    "outline": "<ol><li> seul (sans compagnon), abandonné, privé d'aide, seul, seulement, simplement</li></ol>",
    "pron": "mon'-os",
    "strongs_def": " restant, c'est-à-dire seul ou unique ; par implication, simple",
    "xlit": "mónos"
}