{
    "derivation": "de G3458 (μυλικός) ;",
    "frequency": 1,
    "kjv_def": "moulin (-pierre)",
    "lemma": "μυλικός",
    "outline": "<ol><li> appartenant à un moulin</li><li> en meulière</li></ol>",
    "pron": "moo-lee-kos'",
    "strongs_def": " appartenant à un moulin",
    "xlit": "mylikós"
}