{
    "derivation": "de la base de G3466 (μυέω) ;",
    "frequency": 1,
    "kjv_def": "donner des instructions à",
    "lemma": "μυέω",
    "outline": "<ol><li> initier aux mystères</li><li> enseigner pleinement, instruire<ol><li> habituer à une chose</li><li> donner une connaissance intime d'une chose</li></ol></li></ol>",
    "pron": "moo-eh'-o",
    "strongs_def": " initier, c'est-à-dire (implicitement) enseigner",
    "xlit": "myéō"
}