{
    "derivation": "de G3470 (μωμάομαι) ;",
    "frequency": 0,
    "kjv_def": "blâmer",
    "lemma": "μωμάομαι",
    "outline": "<ol><li> blâmer, trouver à redire, se moquer</li></ol>",
    "pron": "mo-mah'-om-ahee",
    "strongs_def": " critiquer, c'est-à-dire censurer (discréditer)",
    "xlit": "mōmáomai"
}