{
    "derivation": "probablement d'origine hébraïque (comparer H05052) ;",
    "frequency": 1,
    "kjv_def": "Nagge",
    "lemma": "Ναγγαί",
    "outline": "<span class=\"literal-meaning\">Nagge = \"éclairer\"</span><ol><li> un ancêtre du Christ</li></ol>",
    "pron": "nang-gah'-ee",
    "strongs_def": " Nangæ (c'est-à-dire peut-être Nogach), un Israélite",
    "xlit": "Nangaí"
}