{
    "derivation": "d'origine hébraïque (H05417) ;",
    "frequency": 6,
    "kjv_def": "Nathanael",
    "lemma": "Ναθαναήλ",
    "outline": "<span class=\"literal-meaning\">Nathanaël = \"don de Dieu</span><ol><li> disciple intime de Jésus-Christ, on pense généralement qu'il s'agit de la même personne que Barthélemy</li></ol>",
    "pron": "nath-an-ah-ale'",
    "strongs_def": " Nathanaël (i.e. Nathanel), un israélite et un chrétien",
    "xlit": "Nathanaḗl"
}