{
    "derivation": "d'origine étrangère (voir H05373) ;",
    "frequency": 2,
    "kjv_def": "(spike-)nard",
    "lemma": "νάρδος",
    "outline": "<ol><li> nard, la tête ou l'épi d'une plante odorante de l'Inde orientale appartenant au genre Valerianna, qui donne un jus d'une odeur délicieuse que les anciens utilisaient (pur ou mélangé) dans la préparation d'un onguent très précieux</li><li> huile ou pommade de nard</li></ol>",
    "pron": "nar'dos",
    "strongs_def": " \"nard\"",
    "xlit": "nárdos"
}