{
    "derivation": "à partir d'un élément apparemment primaire (un cadavre) ;",
    "frequency": 140,
    "kjv_def": "mort",
    "lemma": "νεκρός",
    "outline": "<ol><li> correctement<ol><li> celui qui a rendu son dernier soupir, sans vie</li><li> décédé, défunt, celui dont l'âme est au ciel ou en enfer</li><li> dépourvu de vie, sans vie, inanimé</li></ol><li> métaph.<ol><li>spirituellement mort<ol><li> dépourvu d'une vie qui reconnaît et est consacrée à Dieu, parce que livré aux offenses et aux péchés</li><li> inactif en ce qui concerne le droit</li></ol><li> dépourvu de force ou de puissance, inactif, inopérant</li></li></ol></li></ol>",
    "pron": "nek-ros'",
    "strongs_def": " mort (au sens propre ou figuré ; également comme substantif)",
    "xlit": "nekrós"
}