{
    "derivation": "de ou (à flotter) ;",
    "frequency": 1,
    "kjv_def": "bateau",
    "lemma": "ναῦς",
    "outline": "<ol><li> un navire, un vaisseau de taille considérable</li></ol>",
    "pron": "nowce",
    "strongs_def": " un bateau (de n'importe quelle taille)",
    "xlit": "naûs"
}