{
    "derivation": "d'origine hébraïque (H05152) ;",
    "frequency": 1,
    "kjv_def": "Nachor",
    "lemma": "Ναχώρ",
    "outline": "<span class=\"literal-meaning\">Nahor = \"renifler\"</span><ol><li> était le nom de deux personnes dans la famille d'Abraham, un ancêtre du Christ</li></ol>",
    "pron": "nakh-ore'",
    "strongs_def": " Nachor, le grand-père d'Abraham",
    "xlit": "Nachṓr"
}