{
    "derivation": "de G3501 (νεοσσός) ;",
    "frequency": 1,
    "kjv_def": "jeune",
    "lemma": "νεοσσός",
    "outline": "<ol><li> un jeune (créature), un jeune oiseau</li></ol>",
    "pron": "neh-os-sos'",
    "strongs_def": " un jeune (oisillon)",
    "xlit": "neossós"
}