{
    "derivation": "de G3509 (νεφέλη) ;",
    "frequency": 28,
    "kjv_def": "nuage",
    "lemma": "νεφέλη",
    "outline": "<ol><li> un nuage<ol><li> utilisé pour le nuage qui guidait les Israélites dans le désert</li></ol></li></ol>",
    "pron": "nef-el'-ay",
    "strongs_def": " proprement, la nébulosité, c'est-à-dire (concrètement) un nuage",
    "xlit": "nephélē"
}