{
    "derivation": "y compris le comparatif ; un mot primaire ;",
    "frequency": 24,
    "kjv_def": "nouveau, jeune",
    "lemma": "νέος",
    "outline": "<ol><li> récemment né, jeune, jeune</li><li> nouveau</li></ol>",
    "pron": "neh-o'-ter-os",
    "strongs_def": " \"nouveau\", c'est-à-dire (des personnes) jeune, ou (des choses) frais ; au sens figuré, régénéré",
    "xlit": "néos"
}