{
    "derivation": "d'origine latine ;",
    "frequency": 0,
    "kjv_def": "Nero",
    "lemma": "Νέρων",
    "outline": "<span class=\"literal-meaning\">Néron = \"courageux\"</span><ol><li> un empereur célèbre mais cruel de Rome de 54 à 68 après J.-C.</li></ol>",
    "pron": "ner'-ohn",
    "strongs_def": " Neron (c'est-à-dire Néron), empereur romain",
    "xlit": "Nérōn"
}