{
    "derivation": "d'une affinité incertaine ;",
    "frequency": 1,
    "kjv_def": "rênes",
    "lemma": "νεφρός",
    "outline": "<ol><li> un rein</li><li> reins, longes<ol><li> utilisé pour les pensées intimes, les sentiments, les buts, de l'âme</li></ol></li></ol>",
    "pron": "nef-ros'",
    "strongs_def": " un rein (au pluriel), c'est-à-dire (au sens figuré) l'esprit intime",
    "xlit": "nephrós"
}