{
    "derivation": "de G3525 (νηφάλιος) ;",
    "frequency": 3,
    "kjv_def": "sobre",
    "lemma": "νηφάλιος",
    "outline": "<ol><li> sobre, tempéré<ol><li> s'abstenir de vin, soit entièrement, soit au moins de son usage immodéré</li><li> des choses exemptes de tout vin, comme les vases, les offrandes</li></ol></li></ol>",
    "pron": "nay-fal'-ee-os",
    "strongs_def": " sobre, c'est-à-dire (au sens figuré) circonspecte",
    "xlit": "nēpháleos"
}