{
    "derivation": "d'une affinité incertaine ;",
    "frequency": 6,
    "kjv_def": "soyez sobre, regardez",
    "lemma": "νήφω",
    "outline": "<ol><li> être sobre, avoir l'esprit calme et recueilli</li><li> être tempéré, dépassionné, circonspect</li></ol>",
    "pron": "nay'-fo",
    "strongs_def": " s'abstenir de boire du vin (rester sobre), c'est-à-dire (au sens figuré) être discret",
    "xlit": "nḗphō"
}