{
    "derivation": "probablement de G3528 (Νικάνωρ) ;",
    "frequency": 1,
    "kjv_def": "Nicanor",
    "lemma": "Νικάνωρ",
    "outline": "<span class=\"literal-meaning\">Nicanor = \"conquérant\"</span><ol><li> un des sept diacres de l'église de Jérusalem</li></ol>",
    "pron": "nik-an'-ore",
    "strongs_def": " victorieux ; Nicanor, un chrétien",
    "xlit": "Nikánōr"
}