{
    "derivation": "apparemment un mot primaire ;",
    "frequency": 1,
    "kjv_def": "victoire",
    "lemma": "νίκη",
    "outline": "<ol><li> victoire</li></ol>",
    "pron": "nee'-kay",
    "strongs_def": " la conquête (abstraitement), c'est-à-dire (au sens figuré) les moyens de réussite",
    "xlit": "níkē"
}