{
    "derivation": "d'origine hébraïque (H05210) ;",
    "frequency": 0,
    "kjv_def": "Nineve",
    "lemma": "Νινευΐ",
    "outline": "<span class=\"literal-meaning\">Ninive = \"progéniture de l'aisance : progéniture qui demeure\"</span><ol><li> la capitale de l'ancien royaume d'AssyrieVoir<span class=\"literal-meaning\">sujet 25735</span></li></ol>",
    "pron": "nin-yoo-ee'",
    "strongs_def": " Ninevi (c'est-à-dire Ninive), la capitale de l'Assyrie",
    "xlit": "Nineuḯ"
}