{
    "derivation": "de G3563 (νοιέω) ;",
    "frequency": 14,
    "kjv_def": "considérer, percevoir, penser, comprendre",
    "lemma": "νοιέω",
    "outline": "<ol><li> percevoir avec l'esprit, comprendre, avoir de l'intelligence</li><li> réfléchir, tenir compte, méditer, considérer</li></ol>",
    "pron": "noy-eh'-o",
    "strongs_def": " exercer l'esprit (observer), c'est-à-dire (au sens figuré) comprendre, écouter",
    "xlit": "noiéō"
}