{
    "derivation": "de G3534 (Νικόπολις) et G4172 (Νικόπολις) ;",
    "frequency": 1,
    "kjv_def": "Nicopolis",
    "lemma": "Νικόπολις",
    "outline": "<span class=\"literal-meaning\">Nicopolis signifiant \"ville de la victoire\"</span><ol><li> Il y avait de nombreuses villes de ce nom, en Arménie, au Pont, en Cilicie, en Épire, en Thrace, qui ont généralement été construites ou dont le nom a été changé par un conquérant pour commémorer une victoire. Celle de Tite 3:12 semble se référer à la ville construite par Auguste en souvenir de la bataille d'Actium sur un promontoire d'Epire. Celle de l'abonnement de Tite semble faire référence à la Nicopolis thrace, fondée par Trojan sur le fleuve Nestus, puisqu'il l'appelle la ville de Macédoine.</li></ol>",
    "pron": "nik-op'-ol-is",
    "strongs_def": " ville victorieuse ; Nicopolis, lieu en Macédoine",
    "xlit": "Nikópolis"
}