{
    "derivation": "adverbe issu d'un dérivé de G3551 (νομίμως) ;",
    "frequency": 2,
    "kjv_def": "légalement",
    "lemma": "νομίμως",
    "outline": "<ol><li> légalement, en accord avec la loi, correctement</li></ol>",
    "pron": "nom-im'-oce",
    "strongs_def": " légitimement (spécialement, en accord avec les règles des listes)",
    "xlit": "nomímōs"
}