{
    "derivation": "de G3551 (νομοδιδάσκαλος) et G1320 (νομοδιδάσκαλος) ;",
    "frequency": 3,
    "kjv_def": "docteur (professeur) en droit",
    "lemma": "νομοδιδάσκαλος",
    "outline": "<ol><li> un professeur et un interprète de la loi : parmi les Juifs<ol><li> de ceux qui, parmi les chrétiens, se présentaient comme des défenseurs et des interprètes de la loi mosaïque</li></ol></li></ol>",
    "pron": "nom-od-id-as'-kal-os",
    "strongs_def": " un exposant de la loi (juive), c'est-à-dire un rabbin",
    "xlit": "nomodidáskalos"
}