{
    "derivation": "d'une affinité incertaine ;",
    "frequency": 7,
    "kjv_def": "sud (vent)",
    "lemma": "νότος",
    "outline": "<ol><li> le vent du sud</li><li> le sud, le quart sud</li></ol>",
    "pron": "not'-os",
    "strongs_def": " le vent du sud(-ouest) ; par extension, le quart sud lui-même",
    "xlit": "nótos"
}