{
    "derivation": "de G3554 (νοσέω) ;",
    "frequency": 1,
    "kjv_def": "dote",
    "lemma": "νοσέω",
    "outline": "<ol><li> être malade</li><li> métaph. de toute affection de l'esprit<ol><li> être pris d'un intérêt tel pour une chose qu'il équivaut à une maladie, avoir un penchant morbide pour..</li></ol></li></ol>",
    "pron": "nos-eh'-o",
    "strongs_def": " être malade, c'est-à-dire (implicitement, d'un appétit maladif) avoir envie de (au sens figuré, avoir envie de)",
    "xlit": "noséō"
}