{
    "derivation": "de G3502 (νοσσιά) ;",
    "frequency": 1,
    "kjv_def": "couvée",
    "lemma": "νοσσιά",
    "outline": "<ol><li> un nid d'oiseaux</li><li> une couvée d'oiseaux</li></ol>",
    "pron": "nos-see-ah'",
    "strongs_def": " une couvée (de poulets)",
    "xlit": "nossiá"
}