{
    "derivation": "une particule primaire du temps présent ;",
    "frequency": 145,
    "kjv_def": "henceforth, + hereafter, of late, soon, present, this (time)",
    "lemma": "νῦν",
    "outline": "<ol><li> en ce moment, le présent, maintenant</li></ol>",
    "pron": "noon",
    "strongs_def": " \"maintenant\" (comme adverbe de date, de transition ou d'accentuation) ; également comme nom ou adjectif présent ou immédiat",
    "xlit": "nŷn"
}