{
    "derivation": "à partir d'un composé de G303 (ἀναλογία) et G3056 (ἀναλογία) ;",
    "frequency": 1,
    "kjv_def": "proportion",
    "lemma": "ἀναλογία",
    "outline": "<ol><li> proportion</li></ol>",
    "pron": "an-al-og-ee'-ah",
    "strongs_def": " proportion",
    "xlit": "analogía"
}