{
    "derivation": "féminin d'un composé de G3501 (νουμηνία) et G3376 (νουμηνία) (comme substantif par implication, de G2250 (νουμηνία)) ;",
    "frequency": 1,
    "kjv_def": "nouvelle lune",
    "lemma": "νουμηνία",
    "outline": "<ol><li> nouvelle lune<ol><li> de la fête juive de la nouvelle lune</li></ol></li></ol>",
    "pron": "noo-may-nee'-ah",
    "strongs_def": " le festival de la nouvelle lune",
    "xlit": "noumēnía"
}