{
    "derivation": "d'un verbe primaire mais obsolète (se voiler comme une mariée ;",
    "frequency": 8,
    "kjv_def": "mariée, belle-fille",
    "lemma": "νύμφη",
    "outline": "<ol><li> une femme fiancée, une mariée</li><li> une femme récemment mariée, une jeune épouse</li><li> une jeune femme</li><li> une belle-fille</li></ol>",
    "pron": "noom-fay'",
    "strongs_def": " comparer au latin \"nupto\", se marier) ; une jeune femme mariée (comme voilée), y compris une fille fiancée ; implicitement, l'épouse d'un fils",
    "xlit": "nýmphē"
}