{
    "derivation": "de G3565 (νυμφών) ;",
    "frequency": 4,
    "kjv_def": "chambre des mariés",
    "lemma": "νυμφών",
    "outline": "<ol><li> la chambre contenant le lit nuptial, la chambre nuptiale<ol><li> des amis de l'époux dont le devoir était de fournir et de prendre soin de tout ce qui se rapportait à la chambre nuptiale, c'est-à-dire de tout ce qui était nécessaire à la célébration des noces</li><li> la pièce dans laquelle se déroulent les cérémonies de mariage</li></ol></li></ol>",
    "pron": "noom-fohn'",
    "strongs_def": " la chambre nuptiale",
    "xlit": "nymphṓn"
}