{
    "derivation": "de G3581 (ξενίζω) ;",
    "frequency": 10,
    "kjv_def": "divertir, loger, (le) trouver étrange",
    "lemma": "ξενίζω",
    "outline": "<ol><li> recevoir comme invité, divertir, hospitalièrement<ol><li> être reçu de façon hospitalière</li><li> rester comme invité, loger</li><li> être hébergé</li></ol><li> surprendre ou étonner par l'étrangeté et la nouveauté d'une chose<ol><li>, penser étrange, être choqué</li></ol></li></ol>",
    "pron": "xen-id'-zo",
    "strongs_def": " être un hôte (passivement, un invité) ; implicitement, être (faire, paraître) étrange",
    "xlit": "xenízō"
}