{
    "derivation": "apparemment un mot primaire ;",
    "frequency": 1,
    "kjv_def": "pierce",
    "lemma": "νύσσω",
    "outline": "<ol><li> percer</li><li> percer à travers, transfixier<ol><li> souvent de blessures graves, voire mortelles, infligées à une personne</li></ol></li></ol>",
    "pron": "noos'-so",
    "strongs_def": " piquer (\"nudge\")",
    "xlit": "nýssō"
}