{
    "derivation": "à partir d'un composé de G3581 (ξενοδοχέω) et G1209 (ξενοδοχέω) ;",
    "frequency": 1,
    "kjv_def": "les étrangers logés",
    "lemma": "ξενοδοχέω",
    "outline": "<ol><li> recevoir et divertir de manière hospitalière, être hospitalier</li></ol>",
    "pron": "xen-od-okh-eh'-o",
    "strongs_def": " être hospitalier",
    "xlit": "xenodochéō"
}