{
    "derivation": "apparemment un mot primaire ;",
    "frequency": 14,
    "kjv_def": "hôte, étrange(-r)",
    "lemma": "ξένος",
    "outline": "<ol><li> un étranger, une étrangère<ol><li> étranger (d'une personne ou d'une chose)</li><li> sans connaissance, sans participation</li><li> nouveau, inouï</li></ol><li> celui qui reçoit et entretient hospitalièrement un autre<ol><li> chez qui il séjourne ou loge, un hôte</li></ol></li></ol>",
    "pron": "xen'-os",
    "strongs_def": " étranger (au sens propre, étranger, ou au sens figuré, nouveau) ; par implication, un invité ou (vice-versa) un amuseur",
    "xlit": "xénos"
}