{
    "derivation": "de G3590 (ὀγδοήκοντα) ;",
    "frequency": 2,
    "kjv_def": "quatre-vingt-cinq",
    "lemma": "ὀγδοήκοντα",
    "outline": "<ol><li> quatre-vingts</li></ol>",
    "pron": "og-do-ay'-kon-tah",
    "strongs_def": " dix fois huit",
    "xlit": "ogdoḗkonta"
}