{
    "derivation": "de G3598 (ὁδηγός) et G2233 (ὁδηγός) ;",
    "frequency": 5,
    "kjv_def": "guide, leader",
    "lemma": "ὁδηγός",
    "outline": "<ol><li> un chef de file sur le chemin, un guide</li><li> un professeur des ignorants et des inexpérimentés</li></ol>",
    "pron": "hod-ayg-os'",
    "strongs_def": " un chef d'orchestre (au sens propre ou figuré (professeur))",
    "xlit": "hodēgós"
}