{
    "derivation": "de G3588 (τόδε) et G1161 (τόδε) ;",
    "frequency": 10,
    "kjv_def": "il, elle, tel, ces, ainsi",
    "lemma": "τόδε",
    "outline": "<ol><li> celui-ci ici, ces choses, comme suit, ainsi</li></ol>",
    "pron": "tod'-e",
    "strongs_def": " le même, c'est-à-dire celui-ci ou celui-là (pluriel ceux-ci ou ceux-là) ; souvent utilisé comme pronom personnel",
    "xlit": "hóde"
}