{
    "derivation": "du même que G3596 (ὁδοιπορία) ;",
    "frequency": 1,
    "kjv_def": "voyage(-ing)",
    "lemma": "ὁδοιπορία",
    "outline": "<ol><li> un voyage, un voyage</li></ol>",
    "pron": "hod-oy-por-ee'-ah",
    "strongs_def": " voyage",
    "xlit": "hodoiporía"
}