{
    "derivation": "apparemment un mot primaire ;",
    "frequency": 103,
    "kjv_def": "voyage, (haut)chemin",
    "lemma": "ὁδός",
    "outline": "<ol><li> correctement<ol><li> un chemin<ol><li> un chemin parcouru, une route</li></ol><li> un chemin de voyageurs, un voyage, un déplacement</li></ol><li> métaph.<ol><li> une ligne de conduite</li><li> une façon (i.e. manière) de penser, de sentir, de décider</li></ol></li></ol>",
    "pron": "hod-os'",
    "strongs_def": " une route ; implicitement, un progrès (l'itinéraire, l'acte ou la distance) ; au sens figuré, un mode ou un moyen",
    "xlit": "hodós"
}