{
    "derivation": "d'une affinité incertaine ;",
    "frequency": 2,
    "kjv_def": "feuille",
    "lemma": "ὀθόνη",
    "outline": "<ol><li> lin (c'est-à-dire le lin blanc fin pour les vêtements féminins)</li><li> vêtements en lin (drap ou voile)</li></ol>",
    "pron": "oth-on'-ay",
    "strongs_def": " une toile de lin, c'est-à-dire (surtout) une voile",
    "xlit": "othónē"
}