{
    "derivation": "de G3624 (οἰκέω) ;",
    "frequency": 11,
    "kjv_def": "habiter",
    "lemma": "οἰκέω",
    "outline": "<ol><li> à habiter</li></ol>",
    "pron": "oy-keh'-o",
    "strongs_def": " occuper une maison, c'est-à-dire résider (au sens figuré, habiter, rester, habiter) ; implicitement, cohabiter",
    "xlit": "oikéō"
}