{
    "derivation": "de G3611 (οἰκέτης) ;",
    "frequency": 5,
    "kjv_def": "serviteur (domestique)",
    "lemma": "οἰκέτης",
    "outline": "<ol><li> celui qui vit dans la même maison qu'un autre, se dit de tous ceux qui sont sous l'autorité d'un même maître de maison<ol><li> un serviteur, un domestique</li></ol></li></ol>",
    "pron": "oy-ket'-ace",
    "strongs_def": " un autre résident, c'est-à-dire les tâches domestiques subalternes",
    "xlit": "oikétēs"
}