{
    "derivation": "de G3623 (οἰκονομία) ;",
    "frequency": 10,
    "kjv_def": "dispense, intendance",
    "lemma": "οἰκονομία",
    "outline": "<ol><li> la gestion d'un ménage ou des affaires du ménage<ol><li> plus précisément, la gestion, la surveillance, l'administration, des biens d'autrui</li><li> la fonction de gestionnaire ou de surveillant, l'intendance</li><li> l'administration, la dispense</li></ol></li></ol>",
    "pron": "oy-kon-om-ee'-ah",
    "strongs_def": " administration (d'un ménage ou d'un domaine) ; en particulier, une \"économie\" (religieuse)",
    "xlit": "oikonomía"
}