{
    "derivation": "de G3631 (οἰνοφλυγία) et une forme de la base de G5397 (οἰνοφλυγία) ;",
    "frequency": 1,
    "kjv_def": "excès de vin",
    "lemma": "οἰνοφλυγία",
    "outline": "<ol><li> ivresse</li></ol>",
    "pron": "oy-nof-loog-ee'-ah",
    "strongs_def": " un débordement (ou un surplus) de vin, c'est-à-dire une vinolence (ivresse)",
    "xlit": "oinophlygía"
}