{
    "derivation": "de G3631 (οἰνοπότης) et un dérivé de l'alternatif de G4095 (οἰνοπότης) ;",
    "frequency": 2,
    "kjv_def": "sommelier",
    "lemma": "οἰνοπότης",
    "outline": "<ol><li> un oenophile, un amateur de vin, un wino</li></ol>",
    "pron": "oy-nop-ot'-ace",
    "strongs_def": " un barman",
    "xlit": "oinopótēs"
}