{
    "derivation": "probablement apparenté à G3588 (οἷος), G3739 (οἷος), et G3745 (οἷος) ;",
    "frequency": 13,
    "kjv_def": "ainsi (comme), comme, quoi (manière de), lequel (laquelle)",
    "lemma": "οἷος",
    "outline": "<ol><li> quelle sorte de, quelle manière de, tel que</li></ol>",
    "pron": "hoy'-os",
    "strongs_def": " tel ou tel (comme une corrélation ou une exclamation) ; surtout le neutre (adverbialement) avec négatif, pas si",
    "xlit": "hoîos"
}