{
    "derivation": "de G3650 (ὁλόκληρος) et G2819 (ὁλόκληρος) ;",
    "frequency": 2,
    "kjv_def": "entier, entier",
    "lemma": "ὁλόκληρος",
    "outline": "<ol><li> complet dans toutes ses parties, en aucune partie manquante ou défectueuse, complet, entier, entier<ol><li> d'un corps sans tache ni défaut, qu'il s'agisse d'un prêtre ou d'une victime</li><li> libre de tout péché, sans défaut</li><li> complet à tous égards, consommé</li></ol></li></ol>",
    "pron": "hol'-ok'-lay-ros",
    "strongs_def": " complet dans toutes ses parties, c'est-à-dire parfaitement sain (dans son corps)",
    "xlit": "holóklēros"
}