{
    "derivation": "de G3641 (ὀλιγόπιστος) et G4102 (ὀλιγόπιστος) ;",
    "frequency": 6,
    "kjv_def": "de peu de foi",
    "lemma": "ὀλιγόπιστος",
    "outline": "<ol><li> de peu de foi, faisant trop peu confiance</li></ol>",
    "pron": "ol-ig-op'-is-tos",
    "strongs_def": " incrédules, c'est-à-dire manquant de confiance (en Christ)",
    "xlit": "oligópistos"
}