{
    "derivation": "adverbe de G3650 (ὅλως) ;",
    "frequency": 7,
    "kjv_def": "du tout, communément, complètement",
    "lemma": "ὅλως",
    "outline": "<ol><li> totalement, entièrement</li></ol>",
    "pron": "hol'-oce",
    "strongs_def": " complètement, c'est-à-dire tout à fait ; (par analogie), partout ; (négativement) en aucune façon",
    "xlit": "hólōs"
}