{
    "derivation": "d'une affinité incertaine ;",
    "frequency": 1,
    "kjv_def": "douche",
    "lemma": "ὄμβρος",
    "outline": "<ol><li> une averse<ol><li> une violente tempête, accompagnée de vents violents, de tonnerre et d'éclairs</li></ol></li></ol>",
    "pron": "om'-bros",
    "strongs_def": " un orage",
    "xlit": "ómbros"
}