{
    "derivation": "probablement une contraction de (Olympian-bestowed, i.e. heaven-descended) ;",
    "frequency": 1,
    "kjv_def": "Olympas",
    "lemma": "Ὀλυμπᾶς",
    "outline": "<span class=\"literal-meaning\">Olympas = &quot;céleste</span><ol><li> un chrétien à Rome</li></ol>",
    "pron": "ol-oom-pas'",
    "strongs_def": " Olympas, un chrétien",
    "xlit": "Olympâs"
}