{
    "derivation": "de la base de G3674 (ὅμιλος) et d'un dérivé de l'alternatif de G138 (ὅμιλος) (signifiant une foule) ;",
    "frequency": 0,
    "kjv_def": "entreprise",
    "lemma": "ὅμιλος",
    "outline": "<ol><li> une multitude d'hommes rassemblés, une foule, un attroupement</li></ol>",
    "pron": "hom'-il-os",
    "strongs_def": " association ensemble, c'est-à-dire une multitude",
    "xlit": "hómilos"
}