{
    "derivation": "adverbe issu d'un composé de la base du G3674 (ὁμοθυμαδόν) et du G2372 (ὁμοθυμαδόν) ;",
    "frequency": 11,
    "kjv_def": "d'un commun accord (esprit)",
    "lemma": "ὁμοθυμαδόν",
    "outline": "<ol><li> d'un seul esprit, d'un seul accord, d'une seule passion</li></ol>",
    "pron": "hom-oth-oo-mad-on'",
    "strongs_def": " à l'unanimité",
    "xlit": "homothymadón"
}