{
    "derivation": "de G3664 (ὁμοιάζω) ;",
    "frequency": 0,
    "kjv_def": "d'accord",
    "lemma": "ὁμοιάζω",
    "outline": "<ol><li> pour être comme</li></ol>",
    "pron": "hom-oy-ad'-zo",
    "strongs_def": " ressembler à",
    "xlit": "homoiázō"
}