{
    "derivation": "de la base de G3674 (ὅμοιος) ;",
    "frequency": 45,
    "kjv_def": "comme, + manière",
    "lemma": "ὅμοιος",
    "outline": "<ol><li> comme, similaire, ressemblant<ol><li> like : c'est-à-dire ressemblant</li><li> comme : c'est-à-dire correspondant à une chose</li></ol></li></ol>",
    "pron": "hom'-oy-os",
    "strongs_def": " similaires (en apparence ou en caractère)",
    "xlit": "hómoios"
}