{
    "derivation": "de G3664 (ὁμοιοπαθής) et l'alternative de G3958 (ὁμοιοπαθής) ;",
    "frequency": 2,
    "kjv_def": "de (soumis à) des passions semblables",
    "lemma": "ὁμοιοπαθής",
    "outline": "<ol><li> souffrir de la même chose qu'un autre, de sentiments ou d'affections similaires</li></ol>",
    "pron": "hom-oy-op-ath-ace'",
    "strongs_def": " affectés de la même manière",
    "xlit": "homoiopathḗs"
}