{
    "derivation": "de G3666 (ὁμοίωσις) ;",
    "frequency": 1,
    "kjv_def": "similitude",
    "lemma": "ὁμοίωσις",
    "outline": "<ol><li> rendre semblable</li><li> ressemblance : à la ressemblance de Dieu</li></ol>",
    "pron": "hom-oy'-o-sis",
    "strongs_def": " l'assimilation, c'est-à-dire la ressemblance",
    "xlit": "homoíōsis"
}