{
    "derivation": "adverbe du participe présent passif de G3670 (ὁμολογουμένως) ;",
    "frequency": 1,
    "kjv_def": "sans polémique",
    "lemma": "ὁμολογουμένως",
    "outline": "<ol><li> par le consentement de tous, de manière confessée, sans controverse</li></ol>",
    "pron": "hom-ol-og-ow-men'-oce",
    "strongs_def": " avoué ",
    "xlit": "homologouménōs"
}