{
    "derivation": "adverbe des cas obliques de G5607 (ὄντως) ;",
    "frequency": 11,
    "kjv_def": "certainement, propre, en effet, d'une vérité, en vérité",
    "lemma": "ὄντως",
    "outline": "<ol><li> véritablement, en réalité, en fait, par opposition à ce qui est prétendu, fictif, faux, conjectural</li><li> ce qui est vraiment, etc., ce qui est effectif</li></ol>",
    "pron": "on'-toce",
    "strongs_def": " vraiment",
    "xlit": "óntōs"
}