{
    "derivation": "de G3688 (ὀνικός) ;",
    "frequency": 2,
    "kjv_def": "meule de pierre",
    "lemma": "ὀνικός",
    "outline": "<ol><li> d'un âne ou pour un âne, tourné par un âne<ol><li> ces bêtes étaient souvent employées pour tourner les meules</li></ol></li></ol>",
    "pron": "on-ik-os'",
    "strongs_def": " appartenant à un âne, c'est-à-dire grand (de manière à pouvoir être tourné par un âne)",
    "xlit": "onikós"
}