{
    "derivation": "une forme prolongée d'un verbe apparemment primaire (, bafouer) ;",
    "frequency": 1,
    "kjv_def": "avoir de la joie",
    "lemma": "ὀνίνημι",
    "outline": "<ol><li> être utile, profiter, aider</li><li> recevoir un bénéfice ou un avantage, être aidé [ou avoir de la joie]</li></ol>",
    "pron": "on-in'-ay-mee",
    "strongs_def": " pour lequel une autre forme prolongée () est utilisée comme alternative à certains temps (à moins qu'elle ne soit identique à la base de G3686 (ὀνίνημι) par l'idée de notoriété) ; gratifier, c'est-à-dire (voix moyenne) tirer du plaisir ou de l'avantage",
    "xlit": "onínēmi"
}