{
    "derivation": "de G3685 (Ὀνήσιμος) ;",
    "frequency": 2,
    "kjv_def": "Onésime",
    "lemma": "Ὀνήσιμος",
    "outline": "<span class=\"literal-meaning\">Onésime = &quot;profitable ou utile&quot;.</span><ol><li> un esclave chrétien de Philémon</li></ol>",
    "pron": "on-ay'-sim-os",
    "strongs_def": " profitable ; Onésime, un chrétien",
    "xlit": "Onḗsimos"
}