{
    "derivation": "de G3686 (ὀνομάζω) ;",
    "frequency": 10,
    "kjv_def": "appel, nom",
    "lemma": "ὀνομάζω",
    "outline": "<ol><li> nommer<ol><li> nommer, prononcer, faire mention du nom</li><li> nommer<ol><li> donner un nom à, une</li><li> être nommé<ol><li> porter le nom d'une personne ou d'une chose</li></ol><li> prononcer le nom d'une personne ou d'une chose</li></ol></li></ol>",
    "pron": "on-om-ad'-zo",
    "strongs_def": " nommer, c'est-à-dire attribuer une appellation ; par extension, énoncer, mentionner, professer",
    "xlit": "onomázō"
}