{
    "derivation": "de G3739 (ὅπου) et G4225 (ὅπου) ;",
    "frequency": 83,
    "kjv_def": "en quel lieu, où(-comme, -qui que ce soit), où que ce soit (+ quoi que ce soit)",
    "lemma": "ὅπου",
    "outline": "<ol><li> où, alors que</li></ol>",
    "pron": "hop'-oo",
    "strongs_def": " où que ce soit, c'est-à-dire à n'importe quel endroit",
    "xlit": "hópou"
}