{
    "derivation": "d'un dérivé présumé de G3700 (ὀπτασία) ;",
    "frequency": 3,
    "kjv_def": "vision",
    "lemma": "ὀπτασία",
    "outline": "<ol><li> le fait de s'exposer à la vue de tous</li><li> une vue, une vision, une apparence présentée à quelqu'un, qu'il soit endormi ou éveillé</li></ol>",
    "pron": "op-tas-ee'-ah",
    "strongs_def": " la visualité, c'est-à-dire (concrètement) une apparition",
    "xlit": "optasía"
}