{
    "derivation": "une forme (voix moyenne) prolongée de la (voix moyenne) primaire ; qui s'emploie pour elle à certains temps ; et tous deux comme alternatifs de G3708 (ὀπτάνομαι) ;",
    "frequency": 1,
    "kjv_def": "apparaître, regarder, voir, se montrer",
    "lemma": "ὀπτάνομαι",
    "outline": "<ol><li> regarder, contempler</li><li> se laisser voir, apparaître</li></ol>",
    "pron": "op'-tom-ahee",
    "strongs_def": " regarder (c'est-à-dire les yeux grands ouverts, comme devant quelque chose de remarquable, et se distinguant ainsi de G991 (ὀπτάνομαι), qui désigne une observation simplement volontaire ; et de G1492 (ὀπτάνομαι), qui exprime une vision simplement mécanique, passive ou occasionnelle ; tandis que G2300 (ὀπτάνομαι), et plus encore son intensif G2334 (ὀπτάνομαι), signifie une inspection sérieuse mais plus continue ; et G4648 (ὀπτάνομαι) une observation à distance)",
    "xlit": "optánomai"
}