{
    "derivation": "de G3708 (ὅραμα) ;",
    "frequency": 11,
    "kjv_def": "la vue, la vision",
    "lemma": "ὅραμα",
    "outline": "<ol><li> ce qui est vu, spectacle</li><li> une vue divinement accordée dans une extase ou dans un sommeil, une vision</li></ol>",
    "pron": "hor'-am-ah",
    "strongs_def": " quelque chose que l'on regarde, c'est-à-dire un spectacle (surtout surnaturel)",
    "xlit": "hórama"
}