{
    "derivation": "voix moyenne d'une forme apparemment prolongée d'une primaire obsolète (comparer G3735 (ὀρέγομαι)) ;",
    "frequency": 3,
    "kjv_def": "convoiter, désirer",
    "lemma": "ὀρέγομαι",
    "outline": "<ol><li> s'étendre pour toucher ou saisir quelque chose, tendre la main ou désirer quelque chose</li><li> s'abandonner à l'amour de l'argent</li></ol>",
    "pron": "or-eg'-om-ahee",
    "strongs_def": " s'étirer, c'est-à-dire tendre la main vers (désirer)",
    "xlit": "orégomai"
}