{
    "derivation": "à partir d'un composé de la base de G3725 (ὁροθεσία) et d'un dérivé de G5087 (ὁροθεσία) ;",
    "frequency": 1,
    "kjv_def": "lié",
    "lemma": "ὁροθεσία",
    "outline": "<ol><li> la mise en place de frontières, la fixation de limites</li><li> une limite définie, des bornes</li></ol>",
    "pron": "hor-oth-es-ee'-ah",
    "strongs_def": " une limite, c'est-à-dire (concrètement) une ligne de démarcation",
    "xlit": "horothesía"
}