{
    "derivation": "d'une affinité incertaine ;",
    "frequency": 2,
    "kjv_def": "sans confort, sans père",
    "lemma": "ὀρφανός",
    "outline": "<ol><li> privé (d'un père, de parents)<ol><li> de ceux qui sont privés d'un enseignant, d'un guide, d'un tuteur</li><li> orphelin</li></ol></li></ol>",
    "pron": "or-fan-os'",
    "strongs_def": " endeuillé (\"orphelin\"), c'est-à-dire sans parents",
    "xlit": "orphanós"
}