{
    "derivation": "probablement un mot primaire (ou peut-être une forme de l'article G3588 (ὅ)) ;",
    "frequency": 1424,
    "kjv_def": "un, (an-, l') autre, quelque, cela, quoi, lequel, qui(-m, -se), etc",
    "lemma": "ὅ",
    "outline": "<ol><li> qui, lequel, quoi, que</li></ol>",
    "pron": "ho",
    "strongs_def": " le pronom relatif (parfois démonstratif), qui, lequel, quoi, que",
    "xlit": "hós"
}