{
    "derivation": "par redoublement de G3739 (ὅσος) ;",
    "frequency": 108,
    "kjv_def": "tout (que), aussi (longtemps, beaucoup, énormément) (que), combien (beaucoup, énormément), (in-)autant que, autant que, que (jamais), le plus, ces choses, ce (grand, -tout), où que, où que, qui, X pendant que, qui(-tout)",
    "lemma": "ὅσος",
    "outline": "<ol><li> aussi grand que, aussi loin que, combien, combien de, qui que ce soit</li></ol>",
    "pron": "hos'-os",
    "strongs_def": " comme (beaucoup, grand, long, etc.) comme",
    "xlit": "hósos"
}