{
    "derivation": "de G3741 (ὁσιότης) ;",
    "frequency": 2,
    "kjv_def": "sainteté",
    "lemma": "ὁσιότης",
    "outline": "<ol><li> la piété envers Dieu, la fidélité dans l'observation des obligations de piété, la sainteté</li></ol>",
    "pron": "hos-ee-ot'-ace",
    "strongs_def": " piété",
    "xlit": "hosiótēs"
}