{
    "derivation": "pour le cas génitif de G3748 (ὅτου) (comme adverbe) ;",
    "frequency": 0,
    "kjv_def": "tandis que",
    "lemma": "ὅτου",
    "outline": "<ol><li> pendant que, jusqu'à ce que</li></ol>",
    "pron": "hot'-oo",
    "strongs_def": " pendant ce même temps, c'est-à-dire pendant que",
    "xlit": "hótou"
}