{
    "derivation": "de G3753 (ὅταν) et G302 (ὅταν) ;",
    "frequency": 132,
    "kjv_def": "aussi longtemps (bientôt) que, que, + jusqu'à, quand(-quelque chose), pendant que",
    "lemma": "ὅταν",
    "outline": "<ol><li> quand, à tout moment, aussi longtemps que, dès que</li></ol>",
    "pron": "hot'-an",
    "strongs_def": " chaque fois que (impliquant une hypothèse ou une incertitude plus ou moins grande) ; également de manière causative (conjonctive) dans la mesure où",
    "xlit": "hótan"
}