{
    "derivation": "d'une affinité incertaine ;",
    "frequency": 8,
    "kjv_def": "longe",
    "lemma": "ὀσφῦς",
    "outline": "<ol><li> la hanche (longe)<ol><li> ceindre, entourer, les reins</li></ol><li> une longe, les (deux) reins<ol><li> l'endroit où les Hébreux pensaient que résidait le pouvoir générateur (sperme)</li></ol></li></ol>",
    "pron": "os-foos'",
    "strongs_def": " l'échine (extérieurement), c'est-à-dire la hanche ; intérieurement (par extension) la puissance procréatrice",
    "xlit": "osphŷs"
}