{
    "derivation": "de G3756 (οὔτε) et G5037 (οὔτε) ;",
    "frequency": 107,
    "kjv_def": "ni, aucun, ni (encore), (non, encore) pas, rien",
    "lemma": "οὔτε",
    "outline": "<ol><li> ni l'un ni l'autre, et pas</li></ol>",
    "pron": "oo'-teh",
    "strongs_def": " pas aussi, c'est-à-dire ni ou ni ; par analogie, pas même",
    "xlit": "oúte"
}