{
    "derivation": "peut-être du même que G3735 (οὐρανός) (par l'idée d'élévation) ;",
    "frequency": 274,
    "kjv_def": "air, ciel, ciel(-ly)",
    "lemma": "οὐρανός",
    "outline": "<ol><li> l'étendue voûtée du ciel avec tout ce qui y est visible<ol><li> l'univers, le monde</li><li> les cieux ou le ciel aériens, la région où se rassemblent les nuages et les tempêtes, et où se produisent le tonnerre et la foudre</li><li> le ciel sidéral ou étoilé</li></ol><li> la région au-dessus des cieux sidéraux, le siège de l'ordre des choses éternelles et parfaites où réside Dieu et les autres êtres célestes</li></ol>",
    "pron": "oo-ran-os'",
    "strongs_def": " le ciel ; par extension, le ciel (comme la demeure de Dieu) ; par implication, le bonheur, la puissance, l'éternité ; spécialement, l'Évangile (le christianisme)",
    "xlit": "ouranós"
}