{
    "derivation": "du féminin de G5607 (οὐσία) ;",
    "frequency": 2,
    "kjv_def": "marchandises, substance",
    "lemma": "οὐσία",
    "outline": "<ol><li> ce que l'on possède, c'est-à-dire la propriété, les possessions, le patrimoine</li></ol>",
    "pron": "oo-see'-ah",
    "strongs_def": " substance, c'est-à-dire propriété (possessions)",
    "xlit": "ousía"
}