{
    "derivation": "apparemment un mot primaire ;",
    "frequency": 38,
    "kjv_def": "oreille",
    "lemma": "οὖς",
    "outline": "<ol><li> l'oreille</li><li> métaph. la faculté de percevoir avec l'esprit, la faculté de comprendre et de connaître</li></ol>",
    "pron": "ooce",
    "strongs_def": " l'oreille (physiquement ou mentalement)",
    "xlit": "oûs"
}