{
    "derivation": "de G303 (ἀναπληρόω) et G4137 (ἀναπληρόω) ;",
    "frequency": 8,
    "kjv_def": "remplir, remplir, occuper, fournir",
    "lemma": "ἀναπληρόω",
    "outline": "<ol><li> remplir, rendre plein, par exemple un fossé</li><li> fournir</li></ol>",
    "pron": "an-ap-lay-ro'-o",
    "strongs_def": " compléter ; par implication, occuper, fournir ; au sens figuré, accomplir (par coïncidence ou par obéissance)",
    "xlit": "anaplēróō"
}