{
    "derivation": "de (amasser, c'est-à-dire accumuler ou bénéficier) ;",
    "frequency": 4,
    "kjv_def": "avantage, profit",
    "lemma": "ὄφελος",
    "outline": "<ol><li> avantage, profit</li></ol>",
    "pron": "of'-el-os",
    "strongs_def": " gain",
    "xlit": "óphelos"
}