{
    "derivation": "probablement de la base de G3786 (ὀφειλέω) (par l'idée d'accumuler) ;",
    "frequency": 38,
    "kjv_def": "behove, be bound, (be) debt(-or), (be) due(-ty), be guilty (indebted), (must) need(-s), ought, owe, should",
    "lemma": "ὀφειλέω",
    "outline": "<ol><li> devoir<ol><li> devoir de l'argent, être débiteur<ol><li> ce qui est dû, la dette</li></ol><li> métaph. la bonne volonté due</li></ol>",
    "pron": "of-i-leh'-o",
    "strongs_def": " devoir (pécuniairement) ; au sens figuré, être dans l'obligation (doit, doit, devrait) ; au sens moral, manquer à son devoir",
    "xlit": "opheílō"
}