{
    "derivation": "neutre d'un dérivé présumé de la base de G3702 (ὀψάριον) ;",
    "frequency": 5,
    "kjv_def": "poisson",
    "lemma": "ὀψάριον",
    "outline": "<ol><li> poisson</li></ol>",
    "pron": "op-sar'-ee-on",
    "strongs_def": " un condiment pour d'autres aliments (comme s'il s'agissait d'une sauce cuite), c'est-à-dire (spécialement) du poisson (vraisemblablement salé et séché comme un condiment)",
    "xlit": "opsárion"
}