{
    "derivation": "de G3793 (ὀχλοποιέω) et G4160 (ὀχλοποιέω) ;",
    "frequency": 1,
    "kjv_def": "réunir une entreprise",
    "lemma": "ὀχλοποιέω",
    "outline": "<ol><li> rassembler une foule, rassembler les gens</li></ol>",
    "pron": "okh-lop-oy-eh'-o",
    "strongs_def": " faire un attroupement, c'est-à-dire provoquer un trouble de l'ordre public",
    "xlit": "ochlopoiéō"
}