{
    "derivation": "une phrase combinant G3588 (ὁ ὢν καί ὁ ἦν καί ὁ ἐρχόμενος) avec le participe présent et l'imparfait de G1510 (ὁ ὢν καί ὁ ἦν καί ὁ ἐρχόμενος) et le participe présent de G2064 (ὁ ὢν καί ὁ ἦν καί ὁ ἐρχόμενος) au moyen de G2532 (ὁ ὢν καί ὁ ἦν καί ὁ ἐρχόμενος) ;",
    "frequency": 0,
    "kjv_def": "qui est (est, était), et (qui) était (est, était), et est (est) à venir (sera)",
    "lemma": "ὁ ὢν καί ὁ ἦν καί ὁ ἐρχόμενος",
    "outline": "<ol><li> Celui qui est, et était, et qui vient</li></ol>",
    "pron": "ho own kahee ho ane kahee ho er-khom'-en-os",
    "strongs_def": " l'unique être et l'unique qui était et l'unique qui vient, c'est-à-dire l'Éternel, comme épithète divine du Christ",
    "xlit": "ho ṑn kaí ho ēn kaí ho erchómenos"
}