{
    "derivation": "de G3803 (παγιδεύω) ;",
    "frequency": 1,
    "kjv_def": "enchevêtrer",
    "lemma": "παγιδεύω",
    "outline": "<ol><li> prendre au piège, piéger<ol><li> d'oiseaux</li></ol><li> métaph. de la tentative d'obtenir d'une personne une remarque qui peut être transformée en accusation contre elle</li></ol>",
    "pron": "pag-id-yoo'-o",
    "strongs_def": " prendre au piège (au sens figuré)",
    "xlit": "pagideúō"
}