{
    "derivation": "neutre d'un dérivé présumé du même que G3795 (ὀψώνιον) ;",
    "frequency": 4,
    "kjv_def": " salaires",
    "lemma": "ὀψώνιον",
    "outline": "<ol><li> la solde, l'indemnité d'un soldat<ol><li> la partie de l'alimentation du soldat qui est donnée à la place de la solde [c'est-à-dire les rations] et la monnaie dans laquelle il est payé</li></ol><li> métaph. salaire : location ou rémunération du péché</li></ol>",
    "pron": "op-so'-nee-on",
    "strongs_def": " les rations d'un soldat, c'est-à-dire (par extension) son allocation ou sa solde",
    "xlit": "opsṓnion"
}