{
    "derivation": "neutre d'un dérivé présumé de G3816 (παιδάριον) ;",
    "frequency": 1,
    "kjv_def": "enfant, garçon",
    "lemma": "παιδάριον",
    "outline": "<ol><li> petit garçon, un garçon</li></ol>",
    "pron": "pahee-dar'-ee-on",
    "strongs_def": " un petit garçon",
    "xlit": "paidárion"
}