{
    "derivation": "de G303 (ἀνάπτω) et G681 (ἀνάπτω) ;",
    "frequency": 2,
    "kjv_def": "kindle, lumière",
    "lemma": "ἀνάπτω",
    "outline": "<ol><li> allumer, enflammer</li></ol>",
    "pron": "an-ap'-to",
    "strongs_def": " à enflammer",
    "xlit": "anáptō"
}