{
    "derivation": "de G3820 (παλαιότης) ;",
    "frequency": 1,
    "kjv_def": "vieillesse",
    "lemma": "παλαιότης",
    "outline": "<ol><li> la vieillesse : l'ancien état de vie contrôlé par \"la lettre\"</li></ol>",
    "pron": "pal-ah-yot'-ace",
    "strongs_def": " désuétude",
    "xlit": "palaiótēs"
}