{
    "derivation": "probablement du même que G3823 (πάλιν) (par l'idée de répétition oscillatoire) ;",
    "frequency": 136,
    "kjv_def": "à nouveau",
    "lemma": "πάλιν",
    "outline": "<ol><li> à nouveau, encore<ol><li> renouvellement ou répétition de l'action</li><li> à nouveau, à nouveau</li></ol> à<li> nouveau, c'est-à-dire plus loin, de plus à</li>son<li> tour, d</li>'autre part</ol>",
    "pron": "pal'-in",
    "strongs_def": " (adverbialement) anew, c'est-à-dire (de lieu) en arrière, (de temps) une fois de plus, ou (conjointement) furthermore ou on the other hand",
    "xlit": "pálin"
}