{
    "derivation": "à partir d'un composé de G3956 (πανοπλία) et G3696 (πανοπλία) ;",
    "frequency": 3,
    "kjv_def": "toutes les armures (entières)",
    "lemma": "πανοπλία",
    "outline": "<ol><li> armure complète, armure complète<ol><li> comprend un bouclier, une épée, une lance, un casque, des crevasses et un plastron</li></ol></li></ol>",
    "pron": "pan-op-lee'-ah",
    "strongs_def": " armure complète (\"panoplie\")",
    "xlit": "panoplía"
}