{
    "derivation": "de G3956 (πάντοτε) et G3753 (πάντοτε) ;",
    "frequency": 39,
    "kjv_def": "toujours(-s), toujours(-plus)",
    "lemma": "πάντοτε",
    "outline": "<ol><li> à tout moment, toujours, à jamais</li></ol>",
    "pron": "pan'-tot-eh",
    "strongs_def": " à chaque fois, c'est-à-dire à tout moment",
    "xlit": "pántote"
}