{
    "derivation": "une préposition primaire ;",
    "frequency": 194,
    "kjv_def": "au-dessus de, contre, parmi, à, avant, par, contrairement à, X ami, de, + donner (telles choses qu'elles), + qu'elle (elle) avait, X son, dans, plus que, près de, (hors de) de, passé, sauver, côté ... par, en vue de, que, (là-)avant, avec",
    "lemma": "παρά",
    "outline": "<ol><li> de, de à, par, en plus de, près de</li></ol>",
    "pron": "par-ah'",
    "strongs_def": " proprement, près ; c'est-à-dire (avec le génitif) à côté de (au sens propre ou figuré), (avec le datif) à (ou dans) le voisinage de (objectivement ou subjectivement), (avec l'accusatif) à proximité de (local (surtout au-delà ou opposé à) ou causal (à cause de)",
    "xlit": "pará"
}