{
    "derivation": "de G3844 (παράγω) et G71 (παράγω) ;",
    "frequency": 11,
    "kjv_def": "partir, passer (loin, par, en avant)",
    "lemma": "παράγω",
    "outline": "<ol><li> passer par<ol><li> conduire devant, conduire par</li><li> conduire à l'écart, induire en erreur<ol><li> conduire au loin</li></ol><li>to lead to to<ol><li> to lead forth, bring forward</li></ol><li>to pass by, go past<ol><li> to depart, go away</li></ol><li> metaph. disappear</li></li></li> </ol>",
    "pron": "par-ag'-o",
    "strongs_def": " mener à proximité, c'est-à-dire (réflexivement ou intransitivement) aller de l'avant ou s'éloigner",
    "xlit": "parágō"
}