{
    "derivation": "de G3844 (παραγίνομαι) et G1096 (παραγίνομαι) ;",
    "frequency": 39,
    "kjv_def": "venir, partir, être présent",
    "lemma": "παραγίνομαι",
    "outline": "<ol><li> être présent, s'approcher, s'approcher</li><li> se présenter, faire une apparition publique</li></ol>",
    "pron": "par-ag-in'-om-ahee",
    "strongs_def": " s'approcher, c'est-à-dire s'approcher (être arrivé) ; implicitement, apparaître publiquement",
    "xlit": "paragínomai"
}