{
    "derivation": "de G3844 (παρακαθίζω) et G2523 (παρακαθίζω) ;",
    "frequency": 1,
    "kjv_def": "s'asseoir",
    "lemma": "παρακαθίζω",
    "outline": "<ol><li> faire asseoir à côté</li><li> mettre à côté, placer près de</li><li> s'asseoir à côté de</li></ol>",
    "pron": "par-ak-ath-id'-zo",
    "strongs_def": " s'asseoir près de",
    "xlit": "parakathízō"
}