{
    "derivation": "de G3844 (παραδίδωμι) et G1325 (παραδίδωμι) ;",
    "frequency": 125,
    "kjv_def": "trahir, mettre en avant, jeter, commettre, livrer (en haut), donner (en haut), risquer, mettre en prison, recommander",
    "lemma": "παραδίδωμι",
    "outline": "<ol><li> remettre entre les mains (d'un autre)</li><li> remettre au pouvoir ou à l'usage (de quelqu'un)<ol><li> livrer à quelqu'un quelque chose pour qu'il le garde, l'utilise, en prenne soin, le gère</li><li> livrer quelqu'un à la garde, à être jugé, condamné, puni, flagellé, tourmenté, mis à mort</li><li> livrer par traîtrise<ol><li> par trahison, faire en sorte que l'on soit pris</li><li> livrer quelqu'un pour être enseigné, modelé</li></ol><li> commettre, recommander</li><li>délivrer verbalement des<ol><li> commandements, des rites</li><li> délivrer en racontant, rapporter</li></ol><li> permettre permettre<ol><li> quand le fruit le permet c'est-à-dire quand sa maturité permet</li><li> se livrer, se présenter</li></ol></li></li> </ol>",
    "pron": "par-ad-id'-o-mee",
    "strongs_def": " céder, c'est-à-dire céder, confier, transmettre",
    "xlit": "paradídōmi"
}