{
    "derivation": "d'un dérivé de G450 (ἀναστατόω) (dans le sens de suppression) ;",
    "frequency": 3,
    "kjv_def": "troubler, renverser, faire un tollé",
    "lemma": "ἀναστατόω",
    "outline": "<ol><li> susciter, exciter, déstabiliser<ol><li> d'exciter des tumultes et des séditions dans l'état</li><li> bouleverser, déstabiliser, les esprits en diffusant l'erreur religieuse</li></ol></li></ol>",
    "pron": "an-as-tat-o'-o",
    "strongs_def": " proprement, chasser de chez soi, c'est-à-dire (implicitement) déranger (au sens propre ou figuré)",
    "xlit": "anastatóō"
}