{
    "derivation": "à partir d'un composé de G3844 (παρακαταθήκη) et G2698 (παρακαταθήκη) ;",
    "frequency": 0,
    "kjv_def": "cette (chose) qui est engagée (non) dans (la confiance)",
    "lemma": "παρακαταθήκη",
    "outline": "<ol><li> un dépôt, une confiance ou une chose confiée à la garde fidèle d'une personne<ol><li> utilisé pour la connaissance correcte et la doctrine pure de l'évangile, à conserver fermement et fidèlement, et à transmettre consciencieusement aux autres</li></ol></li></ol>",
    "pron": "par-ak-at-ath-ay'-kay",
    "strongs_def": " quelque chose déposé à côté, c'est-à-dire un dépôt (confiance sacrée)",
    "xlit": "parakatathḗkē"
}