{
    "frequency": 5,
    "kjv_def": "défenseur, consolateur",
    "lemma": "παράκλητος",
    "outline": "<ol><li> convoqué, appelé à son côté, en particulier appelé à son secours<ol><li> celui qui plaide la cause d'un autre devant un juge, un plaideur, un avocat de la défense, un assistant juridique, un défenseur</li><li> celui qui plaide la cause d'un autre avec un autre, un intercesseur<ol><li> du Christ dans son exaltation à la droite de Dieu, plaidant auprès de Dieu le Père pour le pardon de nos péchés</li></ol><li> au sens le plus large, aide, secoureur, assistant<ol><li> de l'Esprit Saint destiné à prendre la place du Christ auprès des apôtres (après son ascension vers le Père), à les conduire à une connaissance plus approfondie de la vérité évangélique, et à leur donner la force divine nécessaire pour leur permettre de subir les épreuves et les persécutions en faveur du royaume divin</li></ol></li></ol></li></ol>",
    "pron": "par-ak'-lay-tos",
    "strongs_def": "un intercesseur, un consolateur",
    "xlit": "paráklētos"
}