{
    "derivation": "de G3888 (παραμυθία) ;",
    "frequency": 2,
    "kjv_def": "confort",
    "lemma": "παραμυθία",
    "outline": "<ol><li> toute adresse, qu'elle soit faite dans le but de persuader, d'éveiller et de stimuler, ou de calmer et de consoler<ol><li> consolation, réconfort</li></ol></li></ol>",
    "pron": "par-am-oo-thee'-ah",
    "strongs_def": " consolation (proprement, abstraite)",
    "xlit": "paramythía"
}