{
    "derivation": "de G303 (ἀνασταυρόω) et G4717 (ἀνασταυρόω) ;",
    "frequency": 1,
    "kjv_def": "crucifier à nouveau",
    "lemma": "ἀνασταυρόω",
    "outline": "<ol><li> élever sur une croix, crucifier</li></ol>",
    "pron": "an-as-tow-ro'-o",
    "strongs_def": " recruter (au sens figuré)",
    "xlit": "anastauróō"
}