{
    "derivation": "à partir d'un composé de G3844 (παραλλαγή) et G236 (παραλλαγή) ;",
    "frequency": 1,
    "kjv_def": "variabilité",
    "lemma": "παραλλαγή",
    "outline": "<ol><li> variation, changement</li></ol>",
    "pron": "par-al-lag-ay'",
    "strongs_def": " transmutation (de phase ou d'orbite), c'est-à-dire (au sens figuré) inconstance",
    "xlit": "parallagḗ"
}