{
    "derivation": "de G3844 (παραπίπτω) et G4098 (παραπίπτω) ;",
    "frequency": 1,
    "kjv_def": "disparaître",
    "lemma": "παραπίπτω",
    "outline": "<ol><li> tomber à côté d'une personne ou d'une chose</li><li> glisser sur le côté<ol><li> s'écarter du droit chemin, se détourner, errer</li><li> se tromper</li><li> se détourner (de la vraie foi) : du culte de Jéhovah</li></ol></li></ol>",
    "pron": "par-ap-ip'-to",
    "strongs_def": " tomber à l'écart, c'est-à-dire (au sens figuré) apostasier",
    "xlit": "parapíptō"
}