{
    "derivation": "neutre de G3889 (παραμύθιον) ;",
    "frequency": 1,
    "kjv_def": "confort",
    "lemma": "παραμύθιον",
    "outline": "<ol><li> discours persuasif</li></ol>",
    "pron": "par-am-oo'-thee-on",
    "strongs_def": " consolation (proprement, concrètement)",
    "xlit": "paramýthion"
}