{
    "derivation": "de G3844 (παραφέρω) et G5342 (παραφέρω) (y compris ses formes alternatives) ;",
    "frequency": 4,
    "kjv_def": "retirer, enlever",
    "lemma": "παραφέρω",
    "outline": "<ol><li> porter à, amener à, mettre devant</li><li> détourner de la bonne voie ou du bon chemin, entraîner au loin</li><li> porter devant, conduire devant<ol><li> faire passer, enlever</li></ol></li></ol>",
    "pron": "par-af-er'-o",
    "strongs_def": " porter le long ou à l'écart, c'est-à-dire emporter (au sens propre ou figuré) ; implicitement, détourner",
    "xlit": "paraphérō"
}