{
    "derivation": "de G3844 (παρεπίδημος) et la base de G1927 (παρεπίδημος) ;",
    "frequency": 3,
    "kjv_def": "pèlerin, étranger",
    "lemma": "παρεπίδημος",
    "outline": "<ol><li> celui qui vient d'un pays étranger dans une ville ou un pays pour y résider aux côtés des indigènes</li><li> un étranger</li><li> qui séjourne dans un lieu étranger, un étranger</li><li> dans le NT, métaph. en référence au ciel comme pays natal, celui qui séjourne sur terre</li></ol>",
    "pron": "par-ep-id'-ay-mos",
    "strongs_def": " un étranger à côté, c'est-à-dire un étranger résident",
    "xlit": "parepídēmos"
}