{
    "derivation": "de G3844 (παρεισφέρω) et G1533 (παρεισφέρω) ;",
    "frequency": 1,
    "kjv_def": "donner",
    "lemma": "παρεισφέρω",
    "outline": "<ol><li> apporter en plus</li><li> contribuer à quelque chose en plus</li></ol>",
    "pron": "par-ice-fer'-o",
    "strongs_def": " tenir en parallèle, c'est-à-dire introduire simultanément",
    "xlit": "pareisphérō"
}