{
    "derivation": "de G3844 (παρέρχομαι) et G2064 (παρέρχομαι) ;",
    "frequency": 28,
    "kjv_def": "venir (forth), aller, passer (loin, par, sur), passé, transgresser",
    "lemma": "παρέρχομαι",
    "outline": "<ol><li> passer devant, passer par<ol><li> de personnes qui avancent<ol><li> de passer devant</li></ol><li>de temps<ol><li> un acte qui se poursuit pendant un certain temps</li></ol><li>métaph.<ol><li> passer, périr</li><li> passer par (passer au-dessus de), c'est-à-dire négliger, omettre, (transgresser)</li><li> être conduit par, être porté au-delà, être détourné</li></ol><li> s'approcher, avancer, arriver</li></li></li> </ol>",
    "pron": "par-er'-khom-ahee",
    "strongs_def": " s'approcher ou s'écarter, c'est-à-dire s'approcher (arriver), passer (ou s'éloigner), (au sens figuré) périr ou négliger, (au sens causal) détourner",
    "xlit": "parérchomai"
}