{
    "derivation": "de G3844 (παροικέω) et G3611 (παροικέω) ;",
    "frequency": 2,
    "kjv_def": "séjourner, être un étranger",
    "lemma": "παροικέω",
    "outline": "<ol><li> habiter à côté de (quelqu'un) ou dans son voisinage, vivre près de chez soi</li><li> dans le NT, être ou habiter dans un lieu comme un étranger, séjourner</li></ol>",
    "pron": "par-oy-keh'-o",
    "strongs_def": " habiter près de, c'est-à-dire résider comme un étranger",
    "xlit": "paroikéō"
}