{
    "derivation": "probablement d'origine étrangère ;",
    "frequency": 1,
    "kjv_def": "Parthes",
    "lemma": "Πάρθος",
    "outline": "<span class=\"literal-meaning\">Parthia = \"un gage\"</span><ol><li> un habitant de la Parthie, un district d'Asie, délimité au nord par l'Hyrcania, à l'est par l'Ariana, au sud par la Carmania Deserta, à l'ouest par la Media</li></ol>",
    "pron": "par'-thos",
    "strongs_def": " un Parthien, c'est-à-dire un habitant de la Parthie",
    "xlit": "Párthos"
}