{
    "derivation": "de G3844 (πάροδος) et G3598 (πάροδος) ;",
    "frequency": 2,
    "kjv_def": "chemin",
    "lemma": "πάροδος",
    "outline": "<ol><li> un passage ou une traversée</li><li> en passant</li></ol>",
    "pron": "par'-od-os",
    "strongs_def": " un by-road, c'est-à-dire (activement) une route",
    "xlit": "párodos"
}