{
    "derivation": "d'origine inconnue ;",
    "frequency": 20,
    "kjv_def": "vierge",
    "lemma": "παρθένος",
    "outline": "<ol><li> une vierge<ol><li> une jeune fille mariable</li><li> une femme qui n'a jamais eu de rapports sexuels avec un homme</li><li> la fille nubile d'une personne</li></ol><li> un homme qui s'est abstenu de toute impureté et de toute prostitution liée à l'idolâtrie, et qui a donc gardé sa chasteté<ol><li> un homme qui n'a jamais eu de rapports sexuels avec des femmes</li></ol></li></ol>",
    "pron": "par-then'-os",
    "strongs_def": " une jeune fille ; implicitement, une fille non mariée",
    "xlit": "parthénos"
}