{
    "derivation": "de G3844 (παρίημι) et hiemi (envoyer) ;",
    "frequency": 2,
    "kjv_def": "s'accrocher",
    "lemma": "παρίημι",
    "outline": "<ol><li> laisser passer<ol><li> passer à côté, négliger</li><li> ne pas tenir compte, omettre</li></ol><li> détendre, relâcher, laisser aller</li><li> détendu, détendu, affaibli, épuisé</li></ol>",
    "pron": "par-ee'-ay-mi",
    "strongs_def": " à laisser passer, c'est-à-dire qu'il faut se détendre",
    "xlit": "paríēmi"
}