{
    "derivation": "probablement par contraction de (un dérivé d'un composé de G3844 (Παρμενᾶς) et G3306 (Παρμενᾶς)) ;",
    "frequency": 1,
    "kjv_def": "Parmenas",
    "lemma": "Παρμενᾶς",
    "outline": "<span class=\"literal-meaning\">Parmenas = &quot;demeurer&quot;</span><ol><li> un des sept diacres de l'église de Jérusalem</li></ol>",
    "pron": "par-men-as'",
    "strongs_def": " constant ; Parmenas, un chrétien",
    "xlit": "Parmenâs"
}