{
    "derivation": "d'un composé de G3844 (παροιμία) et peut-être d'un dérivé de G3633 (παροιμία) ;",
    "frequency": 5,
    "kjv_def": "parabole, proverbe",
    "lemma": "παροιμία",
    "outline": "<ol><li> une parole qui sort de l'ordinaire ou qui s'écarte de la manière habituelle de parler<ol><li> un dicton courant ou banal, un proverbe</li></ol><li> toute parole obscure qui met en lumière une vérité didactique,<ol><li> en particulier une parole symbolique ou figurative</li><li> discours dans lequel une chose est illustrée par l'utilisation de simulations et de comparaisons</li><li> allégorie<ol><li> métaphore étendue et élaborée</li></ol></li></ol></li></ol>",
    "pron": "par-oy-mee'-ah",
    "strongs_def": " apparemment un état à côté d'une supposition, c'est-à-dire (concrètement) un adage ; spécialement, une illustration énigmatique ou fictive",
    "xlit": "paroimía"
}