{
    "derivation": "de G3844 (παροίχομαι) et (partir) ;",
    "frequency": 1,
    "kjv_def": "passé",
    "lemma": "παροίχομαι",
    "outline": "<ol><li> passer par, passer par</li></ol>",
    "pron": "par-oy'-khom-ahee",
    "strongs_def": " s'échapper, c'est-à-dire s'en aller",
    "xlit": "paroíchomai"
}