{
    "derivation": "du participe présent de G3918 (παρουσία) ;",
    "frequency": 23,
    "kjv_def": "venue, présence",
    "lemma": "παρουσία",
    "outline": "<ol><li> présence</li><li> la venue, l'arrivée, l'avènement<ol><li> le retour futur et visible du ciel de Jésus, pour ressusciter les morts, prononcer le jugement dernier et établir formellement et glorieusement le royaume de Dieu</li></ol></li></ol>",
    "pron": "par-oo-see'-ah",
    "strongs_def": " être proche, c'est-à-dire l'avènement (souvent, le retour ; en particulier, celui du Christ pour punir Jérusalem, ou enfin les méchants) ; (par implication) physiquement, aspect",
    "xlit": "parousía"
}