{
    "derivation": "probablement d'origine étrangère ;",
    "frequency": 1,
    "kjv_def": "Patara",
    "lemma": "Πάταρα",
    "outline": "<span class=\"literal-meaning\">Patara = &quot;dispersion, malédiction&quot;.</span><ol><li> ville maritime de Lycie, célèbre pour son oracle d'Apollon</li></ol>",
    "pron": "pat'-ar-ah",
    "strongs_def": " Patara, un lieu en Asie Mineure",
    "xlit": "Pátara"
}