{
    "derivation": "peut-être une contraction de (un composé de G3962 (Πατροβᾶς) et G979 (Πατροβᾶς)) ;",
    "frequency": 1,
    "kjv_def": "Patrobas",
    "lemma": "Πατροβᾶς",
    "outline": "<span class=\"literal-meaning\">Patrobas = &quot;paternel&quot;</span><ol><li> un certain chrétien de Rome</li></ol>",
    "pron": "pat-rob'-as",
    "strongs_def": " la vie de son père ; Patrobas, un chrétien",
    "xlit": "Patrobâs"
}