{
    "derivation": "probablement une prolongation de G3817 (πατάσσω) ;",
    "frequency": 10,
    "kjv_def": "frapper, frapper",
    "lemma": "πατάσσω",
    "outline": "<ol><li> frapper doucement : comme une partie ou un membre du corps</li><li> frapper, frapper : avec l'épée, pour affliger, visiter avec des maux, etc. comme avec une maladie mortelle</li><li> abattre, couper, tuer, égorger</li></ol>",
    "pron": "pat-as'-so",
    "strongs_def": " frapper (doucement ou avec une arme ou mortellement)",
    "xlit": "patássō"
}