{
    "derivation": "de G303 (ἀνατρέπω) et la base de G5157 (ἀνατρέπω) ;",
    "frequency": 3,
    "kjv_def": "renverser, subvertir",
    "lemma": "ἀνατρέπω",
    "outline": "<ol><li> renverser, renverser, détruire</li><li> subvertir</li></ol>",
    "pron": "an-at-rep'-o",
    "strongs_def": " renverser (au sens figuré)",
    "xlit": "anatrépō"
}