{
    "derivation": "de la base de G4008 (πεῖρα) (par l'idée de percer) ;",
    "frequency": 2,
    "kjv_def": "analyse, essai",
    "lemma": "πεῖρα",
    "outline": "<ol><li> un essai, une expérience, une tentative</li><li> tenter une chose, faire l'essai d'une chose ou d'une personne</li><li> faire l'essai d'une chose</li><li> expérimenter, apprendre, connaître par expérience</li></ol>",
    "pron": "pi'-rah",
    "strongs_def": " un test, c'est-à-dire une tentative, une expérience",
    "xlit": "peîra"
}