{
    "derivation": "d'un dérivé présumé de G3982 (πεισμονή) ;",
    "frequency": 1,
    "kjv_def": "persuasion",
    "lemma": "πεισμονή",
    "outline": "<ol><li> persuasion</li><li> persuasion perfide ou trompeuse</li></ol>",
    "pron": "pice-mon-ay'",
    "strongs_def": " la capacité de persuasion, c'est-à-dire la crédulité",
    "xlit": "peismonḗ"
}