{
    "derivation": "de G3982 (πειθός) ;",
    "frequency": 2,
    "kjv_def": "séduisant",
    "lemma": "πειθός",
    "outline": "<ol><li> persuasif</li></ol>",
    "pron": "pi-thos'",
    "strongs_def": " persuasif",
    "xlit": "peithós"
}