{
    "derivation": "prolongement de la base de G3993 (πενιχρός) ;",
    "frequency": 1,
    "kjv_def": "pauvre",
    "lemma": "πενιχρός",
    "outline": "<ol><li> nécessiteux, pauvre</li></ol>",
    "pron": "pen-tikh-ros'",
    "strongs_def": " nécessaire",
    "xlit": "penichrós"
}