{
    "derivation": "d'un primaire (travailler pour la subsistance quotidienne) ;",
    "frequency": 0,
    "kjv_def": "pauvre",
    "lemma": "πένης",
    "outline": "<ol><li> pauvre</li></ol>",
    "pron": "pen'-ace",
    "strongs_def": " affamé, c'est-à-dire indigent",
    "xlit": "pénēs"
}