{
    "derivation": "d'une affinité incertaine ;",
    "frequency": 1,
    "kjv_def": "beau-père",
    "lemma": "πενθερός",
    "outline": "<ol><li> beau-père, père de la femme</li></ol>",
    "pron": "pen-ther-os'",
    "strongs_def": " le père d'une épouse",
    "xlit": "pentherós"
}