{
    "derivation": "de G1 (ἀβαρής) (comme particule négative) et G922 (ἀβαρής) ;",
    "frequency": 0,
    "kjv_def": "de ne pas être un fardeau",
    "lemma": "ἀβαρής",
    "outline": "<ol><li> pas lourd</li><li> pas lourd</li><li> léger sans poids</li></ol>",
    "pron": "ab-ar-ace'",
    "strongs_def": " en apesanteur, c'est-à-dire (au sens figuré) sans charge",
    "xlit": "abarḗs"
}