{
    "derivation": "de (une chose affreuse) (comparer G53 (ἅγιος), G2282 (ἅγιος)) ;",
    "frequency": 237,
    "kjv_def": "(le plus) saint (un, une chose), saint",
    "lemma": "ἅγιος",
    "outline": "<ol><li> la chose la plus sainte, un saint</li></ol>",
    "pron": "hag'-ee-os",
    "strongs_def": " sacré (physiquement, pur, moralement irréprochable ou religieux, cérémoniel, consacré)",
    "xlit": "hágios"
}