{
    "derivation": "un numéro primaire ;",
    "frequency": 39,
    "kjv_def": "cinq",
    "lemma": "πέντε",
    "outline": "<ol><li> cinq</li></ol>",
    "pron": "pen'-teh",
    "strongs_def": " \"cinq\"",
    "xlit": "pénte"
}