{
    "derivation": "de G303 (ἀναφωνέω) et G5455 (ἀναφωνέω) ;",
    "frequency": 1,
    "kjv_def": "s'exprimer",
    "lemma": "ἀναφωνέω",
    "outline": "<ol><li> crier d'une voix forte, appeler à haute voix, s'exclamer</li></ol>",
    "pron": "an-af-o-neh'-o",
    "strongs_def": " s'exclamer",
    "xlit": "anaphōnéō"
}