{
    "derivation": "neutre d'un dérivé présumé de G4016 (περιβόλαιον) ;",
    "frequency": 3,
    "kjv_def": "couverture, vesture",
    "lemma": "περιβόλαιον",
    "outline": "<ol><li> une couverture jetée autour, une enveloppe<ol><li> un manteau</li><li> un voile</li></ol></li></ol>",
    "pron": "per-ib-ol'-ah-yon",
    "strongs_def": " quelque chose jeté autour de quelqu'un, c'est-à-dire un manteau, un voile",
    "xlit": "peribólaion"
}