{
    "derivation": "de G4012 (περίεργος) et G2041 (περίεργος) ;",
    "frequency": 2,
    "kjv_def": "curieux, arts curieux",
    "lemma": "περίεργος",
    "outline": "<ol><li> occupé par des futilités et négligeant les choses importantes<ol><li> surtout occupé par les affaires des autres, un fouineur</li><li> de choses : impertinentes et superflues<ol><li> des arts magiques</li></ol></li></ol></li></ol>",
    "pron": "per-ee'-er-gos",
    "strongs_def": " travaillant tout autour, c'est-à-dire officiant (meddlesome, neuter pluriel magique)",
    "xlit": "períergos"
}