{
    "derivation": "de G4012 (περιΐστημι) et G2476 (περιΐστημι) ;",
    "frequency": 4,
    "kjv_def": "éviter, se tenir à l'écart, se tenir près de (autour de)",
    "lemma": "περιΐστημι",
    "outline": "<ol><li> placer autour de soi</li><li> se tenir autour<ol><li> tourner autour de soi dans le but d'éviter quelque chose</li><li> éviter, fuir</li></ol></li></ol>",
    "pron": "per-ee-is'-tay-mee",
    "strongs_def": " se tenir tout autour, c'est-à-dire (près de) être un spectateur, ou (à l'écart) se tenir loin de",
    "xlit": "periḯstēmi"
}