{
    "derivation": "de G404 (ἀνάψυξις) ;",
    "frequency": 1,
    "kjv_def": "renouveau",
    "lemma": "ἀνάψυξις",
    "outline": "<ol><li> un refroidissement, un rafraîchissement</li></ol>",
    "pron": "an-aps'-ook-sis",
    "strongs_def": " à proprement parler, une reprise de souffle, c'est-à-dire (au sens figuré) un renouveau",
    "xlit": "anápsyxis"
}