{
    "derivation": "de G4012 (περιλείπω) et G3007 (περιλείπω) ;",
    "frequency": 2,
    "kjv_def": "rester",
    "lemma": "περιλείπω",
    "outline": "<ol><li> laisser sur</li><li> rester sur, survivre</li></ol>",
    "pron": "per-ee-li'-po",
    "strongs_def": " de laisser tout autour, c'est-à-dire de survivre (passivement)",
    "xlit": "perileípō"
}