{
    "derivation": "adverbe de G4012 (πέριξ) ;",
    "frequency": 1,
    "kjv_def": "en rond",
    "lemma": "πέριξ",
    "outline": "<ol><li> autour de nous : les villes voisines</li></ol>",
    "pron": "per'-ix",
    "strongs_def": " tout autour, c'est-à-dire (comme un adjectif) circumjacent",
    "xlit": "périx"
}