{
    "derivation": "du participe présent féminin d'un composé de 4012 et G1510 (περιούσιος) ;",
    "frequency": 1,
    "kjv_def": "singulier",
    "lemma": "περιούσιος",
    "outline": "<ol><li> ce qui appartient à quelqu'un, ce qui fait partie de ses possessions<ol><li> un peuple choisi par Dieu parmi les autres nations pour sa propre possession</li></ol></li></ol>",
    "pron": "per-ee-oo'-see-os",
    "strongs_def": " être hors du commun, c'est-à-dire spécial (le sien)",
    "xlit": "perioúsios"
}