{
    "derivation": "de G4012 (περιπείρω) et la base de G4008 (περιπείρω) ;",
    "frequency": 1,
    "kjv_def": "percer à travers",
    "lemma": "περιπείρω",
    "outline": "<ol><li> percer à travers</li><li> métaph. torturer son âme avec des chagrins</li></ol>",
    "pron": "per-ee-pi'-ro",
    "strongs_def": " pénétrer entièrement, c'est-à-dire transfixer (au sens figuré)",
    "xlit": "peripeírō"
}