{
    "derivation": "de G303 (ἀναψύχω) et G5594 (ἀναψύχω) ;",
    "frequency": 1,
    "kjv_def": "rafraîchir",
    "lemma": "ἀναψύχω",
    "outline": "<ol><li> rafraîchir, se rafraîchir, se remettre des effets de la chaleur<ol><li> rafraîchir (son esprit)</li></ol><li> reprendre son souffle, prendre l'air, se rafraîchir, se revigorer, se rafraîchir soi-même</li></ol>",
    "pron": "an-aps-oo'-kho",
    "strongs_def": " proprement, se rafraîchir, c'est-à-dire (au sens figuré) se soulager",
    "xlit": "anapsýchō"
}