{
    "derivation": "de G4012 (περισσός) (au sens d'au-delà) ;",
    "frequency": 14,
    "kjv_def": "plus qu'abondamment au-dessus, plus abondamment, avantage, excessivement, très hautement, au-delà de la mesure, plus, superflu, véhément (-ly)",
    "lemma": "περισσός",
    "outline": "<ol><li> dépasser un nombre, une mesure, un rang ou un besoin<ol><li> par-dessus, plus que nécessaire, surajouté<ol><li> très abondamment, suprêmement</li><li> quelque chose de plus, plus, beaucoup plus que tout, plus clairement</li></ol><li> supérieur, extraordinaire, surpassant, hors du commun<ol><li> prééminence, supériorité, avantage, plus éminent, plus remarquable, plus excellent</li></ol></li></ol></li></ol>",
    "pron": "per-is-sos'",
    "strongs_def": " surabondant (en quantité) ou supérieur (en qualité) ; par implication, excessif ; adverbialement (avec G1537 (περισσός)) violemment ; neutre (comme nom) prééminence",
    "xlit": "perissós"
}