{
    "derivation": "voix moyenne de (braggart ;",
    "frequency": 2,
    "kjv_def": "se vanter",
    "lemma": "περπερεύομαι",
    "outline": "<ol><li> se vanter</li><li> un étalage de soi, en utilisant des embellissements rhétoriques pour se vanter de manière excessive</li></ol>",
    "pron": "per-per-yoo'-om-ahee",
    "strongs_def": " peut-être par réduplication de la base de G4008 (περπερεύομαι)) ; se vanter",
    "xlit": "perpereúomai"
}