{
    "derivation": "une autre forme pour G4084 (πιέζω) ;",
    "frequency": 1,
    "kjv_def": "appuyer sur le bouton",
    "lemma": "πιέζω",
    "outline": "<ol><li> presser, presser ensemble</li></ol>",
    "pron": "pee-ed'-zo",
    "strongs_def": " à emballer",
    "xlit": "piézō"
}