{
    "derivation": "d'une affinité incertaine ;",
    "frequency": 4,
    "kjv_def": "coudée",
    "lemma": "πῆχυς",
    "outline": "<ol><li> une coudée</li><li> une mesure de longueur égale à la distance entre l'articulation du coude et le bout du majeur (soit environ 18 pouces, (.5 m) mais sa longueur précise a varié et est contestée)</li></ol>",
    "pron": "pay'-khoos",
    "strongs_def": " l'avant-bras, c'est-à-dire (comme mesure) une coudée",
    "xlit": "pēchys"
}