{
    "derivation": "une forme quantitative (le féminin) de la base de G4225 (πηλίκος) ;",
    "frequency": 2,
    "kjv_def": "comme c'est bien (grand)",
    "lemma": "πηλίκος",
    "outline": "<ol><li> combien grand, combien large<ol><li> dans une référence matérielle (désignant la grandeur géométrique par opposition à la grandeur arithmétique)</li><li> dans un sens éthique : combien distingué</li></ol></li></ol>",
    "pron": "pay-lee'-kos",
    "strongs_def": " combien (comme un indéfini), c'est-à-dire en taille ou (au sens figuré) en dignité",
    "xlit": "pēlíkos"
}