{
    "derivation": "de (gras ;",
    "frequency": 1,
    "kjv_def": "graisse",
    "lemma": "πιότης",
    "outline": "<ol><li> graisse</li></ol>",
    "pron": "pee-ot'-ace",
    "strongs_def": " peut-être apparenté à l'alternat de G4095 (πιότης) par l'idée de réplétion) ; rondeur, c'est-à-dire (par implication) richesse (caractère huileux)",
    "xlit": "piótēs"
}