{
    "derivation": "de G4103 (πιστόω) ;",
    "frequency": 1,
    "kjv_def": "assurer de",
    "lemma": "πιστόω",
    "outline": "<ol><li> rendre fidèle, rendre digne de confiance<ol><li> rendre ferme, établir</li></ol><li> être fermement convaincu de<ol><li> être assuré de</li></ol></li></ol>",
    "pron": "pis-to'-o",
    "strongs_def": " pour assurer",
    "xlit": "pistóō"
}