{
    "derivation": "de G4106 (πλανάω) ;",
    "frequency": 41,
    "kjv_def": "s'égarer, tromper, errer, séduire, vagabonder, être hors du chemin",
    "lemma": "πλανάω",
    "outline": "<ol><li> faire s'égarer, égarer, détourner du bon chemin<ol><li> s'égarer, errer, vagabonder</li></ol><li> métaph.<ol><li> détourner de la vérité, conduire à l'erreur, tromper</li><li> être conduit dans l'erreur</li><li> être détourné du chemin de la vertu, s'égarer, pécher</li><li>rompre ou se détacher de la vérité<ol><li> des hérétiques</li></ol><li> être conduit dans l'erreur et le péché</li></li></ol></li></ol>",
    "pron": "plan-ah'-o",
    "strongs_def": " de (proprement, faire) errer (de la sécurité, de la vérité ou de la vertu)",
    "xlit": "planáō"
}