{
    "derivation": "de G4102 (πιστικός) ;",
    "frequency": 2,
    "kjv_def": "spike-(nard)",
    "lemma": "πιστικός",
    "outline": "<ol><li> relatif à la croyance<ol><li> qui a le pouvoir de persuader, qui est habile à produire de la croyance</li><li> confiant, fidèle, sur lequel on peut compter</li></ol></li></ol>",
    "pron": "pis-tik-os'",
    "strongs_def": " digne de confiance, c'est-à-dire authentique (non altéré)",
    "xlit": "pistikós"
}