{
    "derivation": "de G4108 (πλανήτης) ;",
    "frequency": 1,
    "kjv_def": "errant",
    "lemma": "πλανήτης",
    "outline": "<ol><li> un vagabond : les étoiles errantes</li></ol>",
    "pron": "plan-ay'-tace",
    "strongs_def": " un rover (\"planète\"), c'est-à-dire (au sens figuré) un professeur erratique",
    "xlit": "planḗtēs"
}