{
    "derivation": "d'une affinité incertaine ;",
    "frequency": 4,
    "kjv_def": "--trompeur, séducteur",
    "lemma": "πλάνος",
    "outline": "<ol><li> errant, vagabond</li><li> tromper, induire en erreur<ol><li> un vagabond, un &quot;clochard&quot;, un imposteur</li><li> corrupteur, trompeur</li></ol></li></ol>",
    "pron": "plan'-os",
    "strongs_def": " errant (comme un vagabond), c'est-à-dire (implicitement) un imposteur ou un trompeur ",
    "xlit": "plános"
}