{
    "derivation": "de G4111 (πλάσμα) ;",
    "frequency": 1,
    "kjv_def": "chose formée",
    "lemma": "πλάσμα",
    "outline": "<ol><li> ce qui a été moulé ou formé, comme de la cire</li><li> la chose formée par un potier, un récipient en terre</li></ol>",
    "pron": "plas'-mah",
    "strongs_def": " quelque chose de moulé",
    "xlit": "plásma"
}