{
    "derivation": "un mot primaire ;",
    "frequency": 3,
    "kjv_def": "tresse",
    "lemma": "πλέκω",
    "outline": "<ol><li> tresser, tresser, tisser ensemble</li></ol>",
    "pron": "plek'-o",
    "strongs_def": " ficeler ou tresser",
    "xlit": "plékō"
}