{
    "derivation": "probablement une forme de G4150 (πλεύω) (par l'idée de plonger dans l'eau) ;",
    "frequency": 6,
    "kjv_def": "voile",
    "lemma": "πλεύω",
    "outline": "<ol><li> naviguer, naviguer, voyager en bateau</li></ol>",
    "pron": "plyoo'-o",
    "strongs_def": " passer dans un vaisseau",
    "xlit": "pléō"
}