{
    "derivation": "de G1 (ἀνεκλάλητος) (adverbe de négation) et un dérivé présumé de G1583 (ἀνεκλάλητος) ;",
    "frequency": 1,
    "kjv_def": "indicible",
    "lemma": "ἀνεκλάλητος",
    "outline": "<ol><li> indicible</li></ol>",
    "pron": "an-ek-lal'-ay-tos",
    "strongs_def": " non prononcé, c'est-à-dire (implicitement) inexprimable",
    "xlit": "aneklálētos"
}