{
    "derivation": "de G4119 (πλεονάζω) ;",
    "frequency": 7,
    "kjv_def": "abonder, abonder, faire croître, avoir plus de..",
    "lemma": "πλεονάζω",
    "outline": "<ol><li> surabonder<ol><li> de choses<ol><li> exister en abondance</li><li> augmenter</li><li> être augmenté</li></ol><li> faire augmenter : un dans une chose</li></ol>",
    "pron": "pleh-on-ad'-zo",
    "strongs_def": " faire, rendre ou être plus, c'est-à-dire augmenter (de manière transitive ou intransitive) ; par extension, surabonder",
    "xlit": "pleonázō"
}