{
    "derivation": "de G4119 (πλήν) ;",
    "frequency": 32,
    "kjv_def": "mais (plutôt), sauf, néanmoins, nonobstant, sauver, que",
    "lemma": "πλήν",
    "outline": "<ol><li> en outre, en plus, mais, néanmoins</li><li> en outre, sauf, mais</li></ol>",
    "pron": "plane",
    "strongs_def": " en outre (besides), c'est-à-dire, bien que, sauf que, plutôt, cependant",
    "xlit": "plḗn"
}