{
    "derivation": "de G4137 (πλήρωμα) ;",
    "frequency": 18,
    "kjv_def": "qui est mis dans pour remplir, pièce qui a rempli, remplir, plein, plénitude",
    "lemma": "πλήρωμα",
    "outline": "<ol><li> ce qui est (a été) rempli<ol><li> un navire dans la mesure où il est rempli (c'est-à-dire habité) de marins, de rameurs et de soldats</li><li> dans le NT, le corps des croyants, comme ce qui est rempli de la présence, de la puissance, de l'action, de la richesse de Dieu et du Christ</li></ol><li>ce qui remplit ou avec quoi une chose est remplie<ol><li> de ces choses dont un navire est rempli, fret et marchandises, marins, rameurs, soldats</li><li> complétude ou plénitude du temps</li></ol><li> plénitude, abondance</li><li> un accomplissement, un maintien</li></li> </ol>",
    "pron": "play'-ro-mah",
    "strongs_def": " remplissage ou achèvement, c'est-à-dire (subjectivement) ce qui remplit (comme contenu, supplément, abondance, multitude), ou (objectivement) ce qui est rempli (comme contenant, performance, période)",
    "xlit": "plḗrōma"
}