{
    "derivation": "d'une affinité incertaine ;",
    "frequency": 18,
    "kjv_def": "berger, pasteur",
    "lemma": "ποιμήν",
    "outline": "<ol><li> un gardien de troupeau, en particulier un berger<ol><li> dans la parabole, celui aux soins duquel les autres se sont confiés et dont ils suivent les préceptes</li></ol><li> métaph.<ol><li> le président, l'administrateur, le directeur de toute assemblée : ainsi du Christ, chef de l'église<ol><li>, des surveillants des assemblées chrétiennes</li><li>, des rois et des princes</li></ol></li></ol></li></ol>",
    "pron": "poy-mane'",
    "strongs_def": " un berger (au sens propre ou figuré)",
    "xlit": "poimḗn"
}