{
    "derivation": "de G417 (ἀνεμίζω) ;",
    "frequency": 1,
    "kjv_def": "conduire avec le vent",
    "lemma": "ἀνεμίζω",
    "outline": "<ol><li> agiter ou conduire par le vent</li></ol>",
    "pron": "an-em-id'-zo",
    "strongs_def": " à ballotter au gré du vent",
    "xlit": "anemízō"
}