{
    "derivation": "de (to bustle) ;",
    "frequency": 19,
    "kjv_def": "bataille, combat, guerre",
    "lemma": "πόλεμος",
    "outline": "<ol><li> une guerre</li><li> un combat, une bataille</li><li> une dispute, un conflit, une querelle</li></ol>",
    "pron": "pol'-em-os",
    "strongs_def": " la guerre (au sens propre ou figuré ; une seule rencontre ou une série)",
    "xlit": "pólemos"
}