{
    "derivation": "de G4176 (πολίτευμα) ;",
    "frequency": 1,
    "kjv_def": "conversation",
    "lemma": "πολίτευμα",
    "outline": "<ol><li> l'administration des affaires civiles ou d'un commonwealth</li><li> la constitution d'un commonwealth, la forme de gouvernement et les lois par lesquelles il est administré</li><li> un état, un commonwealth<ol><li> le commonwealth des citoyens</li></ol></li></ol>",
    "pron": "pol-it'-yoo-mah",
    "strongs_def": " une communauté, c'est-à-dire (abstraitement) la citoyenneté (au sens figuré)",
    "xlit": "políteuma"
}