{
    "derivation": "adverbe multiplicatif de G4183 (πολλάκις) ;",
    "frequency": 13,
    "kjv_def": "oft(-en, -entimes, -times)",
    "lemma": "πολλάκις",
    "outline": "<ol><li> souvent, fréquemment</li></ol>",
    "pron": "pol-lak'-is",
    "strongs_def": " plusieurs fois, c'est-à-dire fréquemment",
    "xlit": "pollákis"
}