{
    "derivation": "de G4171 (πολεμέω) ;",
    "frequency": 7,
    "kjv_def": "combattre, (faire) la guerre",
    "lemma": "πολεμέω",
    "outline": "<ol><li> faire la guerre, faire la guerre</li><li> combattre</li></ol>",
    "pron": "pol-em-eh'-o",
    "strongs_def": " être (engagé) dans la guerre, c'est-à-dire combattre (au sens propre ou figuré)",
    "xlit": "poleméō"
}