{
    "derivation": "de G1 (ἀνένδεκτος) (adverbe de négation) et un dérivé du même que G1735 (ἀνένδεκτος) ;",
    "frequency": 1,
    "kjv_def": "impossible",
    "lemma": "ἀνένδεκτος",
    "outline": "<ol><li> qui ne peuvent pas être admis, inadmissibles, non admissibles, inappropriés</li></ol>",
    "pron": "an-en'-dek-tos",
    "strongs_def": " non admis, c'est-à-dire (par implication) non supposable",
    "xlit": "anéndektos"
}