{
    "derivation": "adverbe comparatif de G4206 (ποῤῥωτέρω) ;",
    "frequency": 1,
    "kjv_def": "plus loin",
    "lemma": "ποῤῥωτέρω",
    "outline": "<ol><li> plus loin</li></ol>",
    "pron": "por-rho-ter'-o",
    "strongs_def": " plus loin, c'est-à-dire à une plus grande distance",
    "xlit": "porrhōtérō"
}