{
    "derivation": "adverbe de G4253 (πόῤῥω) ;",
    "frequency": 3,
    "kjv_def": "loin, très loin",
    "lemma": "πόῤῥω",
    "outline": "<ol><li> loin, à une certaine distance, très loin</li></ol>",
    "pron": "por'-rho",
    "strongs_def": " vers l'avant, c'est-à-dire à une distance",
    "xlit": "pórrhō"
}