{
    "derivation": "de G4206 (πόῤῥωθεν) avec enclitique adverbial de source ;",
    "frequency": 2,
    "kjv_def": "au loin",
    "lemma": "πόῤῥωθεν",
    "outline": "<ol><li> de loin, de très loin</li></ol>",
    "pron": "por'-rho-then",
    "strongs_def": " de loin, ou (implicitement) à distance, c'est-à-dire de manière éloignée",
    "xlit": "pórrhōthen"
}