{
    "derivation": "d'un dérivé de (une manière, c'est-à-dire un moyen) ;",
    "frequency": 2,
    "kjv_def": "gain",
    "lemma": "πορισμός",
    "outline": "<ol><li> acquisition, gain</li><li> source de gain</li></ol>",
    "pron": "por-is-mos'",
    "strongs_def": " fournir (procurer), c'est-à-dire (implicitement) obtenir de l'argent (acquisition)",
    "xlit": "porismós"
}