{
    "derivation": "de G4204 (πορνεύω) ;",
    "frequency": 11,
    "kjv_def": "commettre (fornication)",
    "lemma": "πορνεύω",
    "outline": "<ol><li> prostituer son corps à la convoitise d'autrui</li><li> se livrer à des relations sexuelles illicites<ol><li> commettre la fornication</li></ol><li> métaph. se livrer à l'idolâtrie, adorer des idoles se<ol><li> laisser entraîner par un autre dans l'idolâtrie</li></ol></li></ol>",
    "pron": "porn-yoo'-o",
    "strongs_def": " se prostituer, c'est-à-dire (au sens propre) se livrer à une luxure illégale (de l'un ou l'autre sexe), ou (au sens figuré) pratiquer l'idolâtrie",
    "xlit": "porneúō"
}