{
    "derivation": "de G4203 (πορνεία) ;",
    "frequency": 29,
    "kjv_def": "fornication",
    "lemma": "πορνεία",
    "outline": "<ol><li> rapports sexuels illicites<ol><li> adultère, fornication, homosexualité, lesbianisme, rapports sexuels avec des animaux, etc.</li><li> rapports sexuels avec des parents proches ; Lév. 18</li><li> rapports sexuels avec un homme ou une femme divorcés ; Mc 10:11,12</li></ol><li> métaphore du culte des idoles<ol><li> de la souillure de l'idolâtrie, telle qu'elle est encourue en mangeant les sacrifices offerts aux idoles</li></ol></li></ol>",
    "pron": "por-ni'-ah",
    "strongs_def": " la prostitution (y compris l'adultère et l'inceste) ; au sens figuré, l'idolâtrie",
    "xlit": "porneía"
}