{
    "derivation": "féminine d'un composé du G4209 (πορφυρόπωλις) et du G4453 (πορφυρόπωλις) ;",
    "frequency": 1,
    "kjv_def": "vendeur de pourpre",
    "lemma": "πορφυρόπωλις",
    "outline": "<ol><li> une vendeuse de pourpre ou de tissu teint en pourpre</li></ol>",
    "pron": "por-foo-rop'-o-lis",
    "strongs_def": " une femme commerçante en tissu violet",
    "xlit": "porphyrópōlis"
}