{
    "derivation": "de G4215 (ποταμοφόρητος) et un dérivé de G5409 (ποταμοφόρητος) ;",
    "frequency": 1,
    "kjv_def": "emportés par le déluge",
    "lemma": "ποταμοφόρητος",
    "outline": "<ol><li> emporté par un torrent (c'est-à-dire submergé, noyé dans les eaux)</li></ol>",
    "pron": "pot-am-of-or'-ay-tos",
    "strongs_def": " porté par un fleuve, c'est-à-dire submergé par un cours d'eau",
    "xlit": "potamophórētos"
}