{
    "derivation": "de G4209 (πορφυροῦς) ;",
    "frequency": 4,
    "kjv_def": "pourpre",
    "lemma": "πορφυροῦς",
    "outline": "<ol><li> violet, teint en violet, fait de tissu violet</li></ol>",
    "pron": "por-foo-rooce'",
    "strongs_def": " purpurique, c'est-à-dire rouge bleuté",
    "xlit": "porphyroûs"
}