{
    "derivation": "de l'alternatif de G4095 (πόσις) ;",
    "frequency": 3,
    "kjv_def": "boire",
    "lemma": "πόσις",
    "outline": "<ol><li> une boisson, une boisson</li></ol>",
    "pron": "pos'-is",
    "strongs_def": " un boire (l'acte), c'est-à-dire (concrètement) un courant d'air",
    "xlit": "pósis"
}