{
    "derivation": "cas génitif d'un pronom indéfini (certains) autrement obsolète (comparer G4214 (πού)) ;",
    "frequency": 8,
    "kjv_def": "sur, un certain endroit",
    "lemma": "πού",
    "outline": "<ol><li> où ?, dans quel lieu ?</li></ol>",
    "pron": "poo",
    "strongs_def": " comme adverbe de lieu, quelque part, c'est-à-dire presque",
    "xlit": "poú"
}