{
    "derivation": "cas génitif d'un pronom interrogatif (quoi) autrement obsolète (peut-être le même que G4225 (ποῦ) utilisé avec le glissement montant de l'enquête) ;",
    "frequency": 53,
    "kjv_def": "où, où",
    "lemma": "ποῦ",
    "outline": "<ol><li> quelque part</li><li> presque</li><li> avec des chiffres : quelque part à peu près, à peu près</li></ol>",
    "pron": "poo",
    "strongs_def": " comme adverbe de lieu ; à (par implication, à) quelle localité",
    "xlit": "poû"
}