{
    "derivation": "de l'alternatif de G4095 (πότος) ;",
    "frequency": 1,
    "kjv_def": "banqueting",
    "lemma": "πότος",
    "outline": "<ol><li> de boire, de s'amuser</li></ol>",
    "pron": "pot'-os",
    "strongs_def": " une beuverie ou une bagarre",
    "xlit": "pótos"
}