{
    "derivation": "d'origine latine ;",
    "frequency": 1,
    "kjv_def": "Pudens",
    "lemma": "Πούδης",
    "outline": "<span class=\"literal-meaning\">Pudens = &quot;modeste&quot;</span><ol><li> un ami chrétien de Timothée à Rome, et peut-être l'un des soixante-dix disciples</li></ol>",
    "pron": "poo'-dace",
    "strongs_def": " modeste ; Pudes (c'est-à-dire Pudens), un chrétien",
    "xlit": "Poúdēs"
}