{
    "derivation": "peut-être à partir (d'un poireau, donc d'un oignon) ;",
    "frequency": 2,
    "kjv_def": "dans les rangs",
    "lemma": "πρασιά",
    "outline": "<ol><li> une parcelle de terrain, un lit de jardin</li><li> Idiome hébreu : ils se sont couchés en rangs ou en divisions, de sorte que plusieurs rangs formaient comme des parcelles séparées</li></ol>",
    "pron": "pras-ee-ah'",
    "strongs_def": " une parcelle de jardin, c'est-à-dire (par implication, des lits réguliers) une rangée (répétée au pluriel par hébraïsme, pour indiquer un arrangement)",
    "xlit": "prasiá"
}