{
    "derivation": "du même que G4245 (πρεσβύτης) ;",
    "frequency": 3,
    "kjv_def": "vieux (homme), vieil homme",
    "lemma": "πρεσβύτης",
    "outline": "<ol><li> un vieil homme, un homme âgé</li><li> ambassadeur</li></ol>",
    "pron": "pres-boo'-tace",
    "strongs_def": " un vieil homme",
    "xlit": "presbýtēs"
}