{
    "derivation": "adverbe de G4253 (πρίν) ;",
    "frequency": 13,
    "kjv_def": "avant (que), avant",
    "lemma": "πρίν",
    "outline": "<ol><li> avant, autrefois</li></ol>",
    "pron": "prin",
    "strongs_def": " avant, plus tôt",
    "xlit": "prín"
}