{
    "derivation": "de G4267 (πρόγνωσις) ;",
    "frequency": 2,
    "kjv_def": "prescience",
    "lemma": "πρόγνωσις",
    "outline": "<ol><li> prescience</li><li> prévoyance, arrangement préalable</li></ol>",
    "pron": "prog'-no-sis",
    "strongs_def": " prévoyance",
    "xlit": "prógnōsis"
}