{
    "derivation": "une particule primaire ;",
    "frequency": 3,
    "kjv_def": "sans",
    "lemma": "ἄνευ",
    "outline": "<ol><li> sans la volonté ou l'intervention de quelqu'un</li></ol>",
    "pron": "an'-yoo",
    "strongs_def": " sans",
    "xlit": "áneu"
}