{
    "derivation": "de G4289 (προθυμία) ;",
    "frequency": 1,
    "kjv_def": "anticipation de l'esprit, préparation (de l'esprit), esprit prêt (volontaire)",
    "lemma": "προθυμία",
    "outline": "<ol><li> zèle, esprit, ardeur</li><li> inclinaison, disponibilité d'esprit</li></ol>",
    "pron": "proth-oo-mee'-ah",
    "strongs_def": " la prédisposition, c'est-à-dire l'alacrité",
    "xlit": "prothymía"
}