{
    "derivation": "de G4253 (προκαταρτίζω) et G2675 (προκαταρτίζω) ;",
    "frequency": 0,
    "kjv_def": "se maquiller à l'avance",
    "lemma": "προκαταρτίζω",
    "outline": "<ol><li> se préparer à l'avance</li></ol>",
    "pron": "prok-at-ar-tid'-zo",
    "strongs_def": " se préparer à l'avance",
    "xlit": "prokatartízō"
}