{
    "derivation": "de G4314 (προσαναλίσκω) et G355 (προσαναλίσκω) ;",
    "frequency": 1,
    "kjv_def": "dépenser",
    "lemma": "προσαναλίσκω",
    "outline": "<ol><li> à dépenser en plus (c'est-à-dire sur les médecins)</li></ol>",
    "pron": "pros-an-al-is'-ko",
    "strongs_def": " de dépenser davantage",
    "xlit": "prosanalískō"
}