{
    "derivation": "de G303 (ἀνήκω) et G2240 (ἀνήκω) ;",
    "frequency": 3,
    "kjv_def": "pratique, être en forme",
    "lemma": "ἀνήκω",
    "outline": "<ol><li> avoir atteint, être arrivé à, parvenir à</li><li> se rapporter à ce qui est dû, au devoir, à ce qui était approprié</li></ol>",
    "pron": "an-ay'-ko",
    "strongs_def": " atteindre, c'est-à-dire (au sens figuré) être approprié",
    "xlit": "anḗkō"
}