{
    "derivation": "à partir d'un composé de G4314 (προσεδρεύω) et de la base de G1476 (προσεδρεύω) ;",
    "frequency": 2,
    "kjv_def": "attendre à",
    "lemma": "προσεδρεύω",
    "outline": "<ol><li> s'asseoir à proximité</li><li> assister assidûment</li><li> être aux petits soins, ne pas quitter son côté</li></ol>",
    "pron": "pros-ed-ryoo'-o",
    "strongs_def": " s'asseoir près de, c'est-à-dire s'occuper comme un serviteur",
    "xlit": "prosedreúō"
}