{
    "derivation": "de G1 (ἀνήμερος) (adverbe de négation) et (boiteux) ;",
    "frequency": 1,
    "kjv_def": "féroce",
    "lemma": "ἀνήμερος",
    "outline": "<ol><li> pas apprivoisé, sauvage, féroce</li></ol>",
    "pron": "an-ay'-mer-os",
    "strongs_def": " sauvage",
    "xlit": "anḗmeros"
}