{
    "derivation": "de G4314 (προσκόπτω) et G2875 (προσκόπτω) ;",
    "frequency": 8,
    "kjv_def": "se battre, s'élancer, trébucher (sur)",
    "lemma": "προσκόπτω",
    "outline": "<ol><li> frapper contre<ol><li> de ceux qui se heurtent à une pierre ou à un autre obstacle sur le chemin, pour trébucher</li><li> frapper son pied contre une pierre<ol><li> c'est-à-dire de rencontrer quelque mal ;</li></ol><li> se précipiter sur, frapper contre</li><li>, être fait trébucher par une chose</li>, c<li><ol><li> 'est-à-dire être incité à pécher</li></ol></li></ol></li></ol>",
    "pron": "pros-kop'-to",
    "strongs_def": " frapper, c'est-à-dire déferler contre (comme l'eau) ; en particulier, buter, c'est-à-dire trébucher (au sens propre ou figuré)",
    "xlit": "proskóptō"
}