{
    "derivation": "de G4314 (προσορμίζω) et un dérivé du même que G3730 (προσορμίζω) (signifiant attacher (ancrer) ou endormir) ;",
    "frequency": 1,
    "kjv_def": "s'approcher du rivage",
    "lemma": "προσορμίζω",
    "outline": "<ol><li> amener un navire à l'amarrage</li><li> prendre position près du rivage</li><li> amarrer, jeter l'ancre</li></ol>",
    "pron": "pros-or-mid'-zo",
    "strongs_def": " s'amarrer à, c'est-à-dire (implicitement) débarquer à",
    "xlit": "prosormízō"
}