{
    "derivation": "de G4314 (προσοφείλω) et G3784 (προσοφείλω) ;",
    "frequency": 1,
    "kjv_def": "en plus de",
    "lemma": "προσοφείλω",
    "outline": "<ol><li> à devoir à côté</li></ol>",
    "pron": "pros-of-i'-lo",
    "strongs_def": " d'être redevable en plus",
    "xlit": "prosopheílō"
}