{
    "derivation": "de G4314 (πρόσπεινος) et le même que G3983 (πρόσπεινος) ;",
    "frequency": 1,
    "kjv_def": "très faim",
    "lemma": "πρόσπεινος",
    "outline": "<ol><li> très faim</li></ol>",
    "pron": "pros'-pi-nos",
    "strongs_def": " avoir encore faim, c'est-à-dire avoir une faim intense",
    "xlit": "próspeinos"
}