{
    "derivation": "de G4314 (προσψαύω) et (toucher) ;",
    "frequency": 1,
    "kjv_def": "touchez",
    "lemma": "προσψαύω",
    "outline": "<ol><li> pour toucher</li></ol>",
    "pron": "pros-psow'-o",
    "strongs_def": " empiéter, c'est-à-dire mettre le doigt dessus (pour soulager)",
    "xlit": "prospsaúō"
}