{
    "derivation": "de G4253 (πρόσφατος) et d'un dérivé de G4969 (πρόσφατος) ;",
    "frequency": 1,
    "kjv_def": "nouveau",
    "lemma": "πρόσφατος",
    "outline": "<ol><li> récemment abattu, fraîchement tué</li><li> récemment fait, nouveau</li></ol>",
    "pron": "pros'-fat-os",
    "strongs_def": " précédemment (récemment) tué (frais), c'est-à-dire (au sens figuré) récemment fait",
    "xlit": "prósphatos"
}