{
    "derivation": "adverbe de G4372 (προσφάτως) ;",
    "frequency": 1,
    "kjv_def": "dernièrement",
    "lemma": "προσφάτως",
    "outline": "<ol><li> dernièrement</li></ol>",
    "pron": "pros-fat'-oce",
    "strongs_def": " récemment",
    "xlit": "prosphátōs"
}