{
    "derivation": "voix moyenne de G4253 (προτίθεμαι) et G5087 (προτίθεμαι) ;",
    "frequency": 3,
    "kjv_def": "objectif, énoncé",
    "lemma": "προτίθεμαι",
    "outline": "<ol><li> placer devant, mettre en avant<ol><li> à exposer pour être regardé, exposer à la vue</li><li> exposer à la vue du public<ol><li> des corps des morts</li><li> laisser reposer en état</li></ol><li> se mettre sous les yeux, se proposer à soi-même dans un<ol><li> but précis, déterminer</li></ol></li></ol>",
    "pron": "prot-ith'-em-ahee",
    "strongs_def": " placer devant, c'est-à-dire (pour soi) exposer ; (pour soi) proposer (déterminer)",
    "xlit": "protíthemai"
}