{
    "derivation": "de G4253 (προτρέχω) et G5143 (προτρέχω) (y compris son substitut) ;",
    "frequency": 2,
    "kjv_def": "dépasser, courir avant",
    "lemma": "προτρέχω",
    "outline": "<ol><li> courir avant, dépasser</li></ol>",
    "pron": "prot-rekh'-o",
    "strongs_def": " courir en avant, c'est-à-dire dépasser, précéder",
    "xlit": "protréchō"
}