{
    "derivation": "de G4253 (προφθάνω) et G5348 (προφθάνω) ;",
    "frequency": 1,
    "kjv_def": "prévenir",
    "lemma": "προφθάνω",
    "outline": "<ol><li> venir avant, anticiper</li></ol>",
    "pron": "prof-than'-o",
    "strongs_def": " de commencer plus tôt, c'est-à-dire d'anticiper",
    "xlit": "prophthánō"
}