{
    "derivation": "de G4413 (πρωτεύω) ;",
    "frequency": 1,
    "kjv_def": "ont la prééminence",
    "lemma": "πρωτεύω",
    "outline": "<ol><li> être le premier, tenir la première place</li></ol>",
    "pron": "prote-yoo'-o",
    "strongs_def": " être le premier (en rang ou en influence)",
    "xlit": "prōteúō"
}