{
    "derivation": "de dérivation incertaine ;",
    "frequency": 1,
    "kjv_def": "charbon de feu",
    "lemma": "ἄνθραξ",
    "outline": "<ol><li> un charbon ardent ou vivant</li></ol>",
    "pron": "anth'-rax",
    "strongs_def": " un charbon vivant",
    "xlit": "ánthrax"
}