{
    "derivation": "voix moyenne de G4253 (προχειρίζομαι) et un dérivé de G5495 (προχειρίζομαι) ;",
    "frequency": 3,
    "kjv_def": "choisir, faire",
    "lemma": "προχειρίζομαι",
    "outline": "<ol><li> mettre dans la main, livrer dans les mains</li><li> prendre en main</li><li> mettre devant soi, prosterner, déterminer</li><li> choisir, désigner<ol><li> pour son usage</li><li> pour son salut</li></ol></li></ol>",
    "pron": "prokh-i-rid'-zom-ahee",
    "strongs_def": " s'occuper de soi-même à l'avance, c'est-à-dire (au sens figuré) se donner un but",
    "xlit": "procheirízomai"
}