{
    "derivation": "de G4253 (Πρόχορος) et G5525 (Πρόχορος) ;",
    "frequency": 1,
    "kjv_def": "Prochorus",
    "lemma": "Πρόχορος",
    "outline": "<span class=\"literal-meaning\">Prochorus = &quot;chef du choeur&quot;.</span><ol><li> un des sept diacres choisis par l'église de Jérusalem</li></ol>",
    "pron": "prokh'-or-os",
    "strongs_def": " avant la danse ; Prochorus, un chrétien",
    "xlit": "Próchoros"
}