{
    "derivation": "neutre de G4413 (πρῶτον) comme adverbe (avec ou sans G3588 (πρῶτον)) ;",
    "frequency": 60,
    "kjv_def": "avant, au début, principalement (à, au) premier (de tous)",
    "lemma": "πρῶτον",
    "outline": "<ol><li> premier en temps ou en lieu<ol><li> dans toute succession de choses ou de personnes</li></ol><li>premier en rang<ol><li> influence, honneur</li><li> chef</li><li> principal</li></ol><li> premier, au premier</li></li> </ol>",
    "pron": "pro'-ton",
    "strongs_def": " en premier lieu (dans le temps, la place, l'ordre ou l'importance)",
    "xlit": "prōton"
}