{
    "derivation": "apparemment un mot primaire (\"burgh\") ;",
    "frequency": 4,
    "kjv_def": "tour",
    "lemma": "πύργος",
    "outline": "<ol><li> une tour</li><li> une structure fortifiée s'élevant à une hauteur considérable, pour repousser une attaque hostile ou pour permettre à un gardien de voir dans toutes les directions</li></ol>",
    "pron": "poor'-gos",
    "strongs_def": " une tour ou un château",
    "xlit": "pýrgos"
}