{
    "derivation": "de G4450 (πυῤῥάζω) ;",
    "frequency": 2,
    "kjv_def": "être rouge",
    "lemma": "πυῤῥάζω",
    "outline": "<ol><li> devenir incandescent, devenir rouge, être rouge</li></ol>",
    "pron": "poor-hrad'-zo",
    "strongs_def": " rougir (intransitivement)",
    "xlit": "pyrrházō"
}