{
    "derivation": "un mot primaire ;",
    "frequency": 74,
    "kjv_def": "ardent, feu",
    "lemma": "πῦρ",
    "outline": "<ol><li> feu</li></ol>",
    "pron": "poor",
    "strongs_def": " \"feu\" (au sens propre ou figuré, notamment la foudre)",
    "xlit": "pŷr"
}