{
    "derivation": "d'un dérivé de (saupoudrer) ;",
    "frequency": 5,
    "kjv_def": " saupoudrer",
    "lemma": "ῥαντίζω",
    "outline": "<ol><li> arroser</li><li> nettoyer par aspersion, donc purifier, nettoyer</li></ol>",
    "pron": "hran-tid'-zo",
    "strongs_def": " rendre besprinkled, c'est-à-dire asperger (cérémonieusement ou figurativement)",
    "xlit": "rhantízō"
}