{
    "derivation": "d'origine hébraïque (H07354) ;",
    "frequency": 1,
    "kjv_def": "Rachel",
    "lemma": "Ῥαχήλ",
    "outline": "<span class=\"literal-meaning\">Rachel = &quot;brebis ou mouton&quot;.</span><ol><li> l'épouse de Jacob</li></ol>",
    "pron": "hrakh-ale'",
    "strongs_def": " Rachel, l'épouse de Jacob",
    "xlit": "Rhachḗl"
}