{
    "derivation": "d'origine latine ;",
    "frequency": 1,
    "kjv_def": "char",
    "lemma": "ῥέδα",
    "outline": "<ol><li> un char, un type de véhicule ayant quatre roues</li></ol>",
    "pron": "hred'-ah",
    "strongs_def": " une rheda, c'est-à-dire une voiture à quatre roues (chariot pour monter à cheval)",
    "xlit": "rhéda"
}