{
    "derivation": "adverbe issu d'un dérivé du G4483 (ῥητῶς) ;",
    "frequency": 1,
    "kjv_def": "expressément",
    "lemma": "ῥητῶς",
    "outline": "<ol><li> expressément, en termes exprès</li></ol>",
    "pron": "hray-toce'",
    "strongs_def": " à l'extérieur, c'est-à-dire distinctement",
    "xlit": "rhētōs"
}