{
    "derivation": "probablement pour rhode (une rose) ;",
    "frequency": 1,
    "kjv_def": "Rhoda",
    "lemma": "Ῥόδη",
    "outline": "<span class=\"literal-meaning\">Rhoda = &quot;rose&quot;</span><ol><li> le nom d'une certaine servante</li></ol>",
    "pron": "hrod'-ay",
    "strongs_def": " Rode, une servante",
    "xlit": "Rhódē"
}