{
    "derivation": "probablement de (une rose) ;",
    "frequency": 1,
    "kjv_def": "Rhodes",
    "lemma": "Ῥόδος",
    "outline": "<span class=\"literal-meaning\">Rhodes = &quot;rose&quot;</span><ol><li> une île bien connue des Cyclades en face de la Carie et de la Lycie, avec une Rhodes comme capitale</li></ol>",
    "pron": "hrod'-os",
    "strongs_def": " Rhodes, une île de la Méditerranée",
    "xlit": "Rhódos"
}