{
    "derivation": "de G1 (ἄνιπτος) (adverbe de négation) et un dérivé présumé de G3538 (ἄνιπτος) ;",
    "frequency": 2,
    "kjv_def": "unwashen",
    "lemma": "ἄνιπτος",
    "outline": "<ol><li> non lavée</li></ol>",
    "pron": "an'-ip-tos",
    "strongs_def": " sans ablution",
    "xlit": "ániptos"
}