{
    "derivation": "voix moyenne d'un verbe désuet, apparenté à G4482 (ῥύομαι) (par l'idée d'un courant ;",
    "frequency": 14,
    "kjv_def": "livrer (-er)",
    "lemma": "ῥύομαι",
    "outline": "<ol><li> attirer à soi, secourir, délivrer</li><li> le libérateur</li></ol>",
    "pron": "rhoo'-om-ahee",
    "strongs_def": " comparer G4511 (ῥύομαι)) ; se précipiter ou tirer (pour soi), c'est-à-dire secourir",
    "xlit": "rhýomai"
}