{
    "derivation": "de G4509 (ῥυπαρός) ;",
    "frequency": 2,
    "kjv_def": "ignoble",
    "lemma": "ῥυπαρός",
    "outline": "<ol><li> être sale, devenir souillé</li><li> métaph. être souillé par l'iniquité</li></ol>",
    "pron": "rhoo-par-os'",
    "strongs_def": " sale, c'est-à-dire (relativement) bon marché ou miteux ; moralement, mauvais",
    "xlit": "rhyparós"
}