{
    "derivation": "de G4514 (Ῥωμαϊκός) ;",
    "frequency": 0,
    "kjv_def": "Latin",
    "lemma": "Ῥωμαϊκός",
    "outline": "<span class=\"literal-meaning\">Latin = \"de la force de Rome\"</span><ol><li> la langue parlée par les Romains</li></ol>",
    "pron": "rho-mah-ee-kos'",
    "strongs_def": " Romique, c'est-à-dire latin",
    "xlit": "Rhōmaïkós"
}