{
    "derivation": "probablement de G4524 (Σαδδουκαῖος) ;",
    "frequency": 15,
    "kjv_def": "Sadducéen",
    "lemma": "Σαδδουκαῖος",
    "outline": "<span class=\"literal-meaning\">Sadducéens = &quot;les justes&quot;.</span><ol><li> un parti religieux à l'époque du Christ parmi les Juifs, qui niait que la loi orale était une révélation de Dieu aux Israélites, et qui considérait que seule la loi écrite était obligatoire pour la nation, en tant qu'autorité divine. Ils niaient les doctrines suivantes :<ol><li> résurrection du corps</li><li> immortalité de l'âme</li><li> existence des esprits et des anges</li><li> prédestination divine, affirmation du libre arbitre</li></ol></li></ol>",
    "pron": "sad-doo-kah'-yos",
    "strongs_def": " un Sadducéen (c'est-à-dire un Tsadokien), ou un partisan d'un certain israélite hérétique",
    "xlit": "Saddoukaîos"
}