{
    "derivation": "apparenté à G4579 (σαίνω) ;",
    "frequency": 1,
    "kjv_def": "déplacer",
    "lemma": "σαίνω",
    "outline": "<ol><li> remuer la queue<ol><li> de chiens</li></ol><li> métaph.<ol><li> flatter, se pâmer pour</li></ol>émouvoir<ol><li> (l'esprit de quelqu'un)<ol><li> agréablement</li><li> agiter, déranger, troubler</li></ol></li></ol></li></ol>",
    "pron": "sah'-ee-no",
    "strongs_def": " remuer (la queue d'un chien), c'est-à-dire (en général) secouer (au sens figuré, déranger)",
    "xlit": "saínō"
}