{
    "derivation": "de G4536 (σαλπίζω) ;",
    "frequency": 13,
    "kjv_def": "(qui doivent encore) sonner (une trompette)",
    "lemma": "σαλπίζω",
    "outline": "<ol><li> sonner une trompette</li></ol>",
    "pron": "sal-pid'-zo",
    "strongs_def": " jouer de la trompette, c'est-à-dire faire retentir une détonation (au sens propre ou figuré)",
    "xlit": "salpízō"
}