{
    "derivation": "de G1 (ἀνόητος) (adverbe de négation) et un dérivé de G3539 (ἀνόητος) ;",
    "frequency": 6,
    "kjv_def": "idiot(-e), imprudent(e)",
    "lemma": "ἀνόητος",
    "outline": "<ol><li> non compris, inintelligible</li><li> ne pas comprendre, imprudent, insensé</li></ol>",
    "pron": "an-o'-ay-tos",
    "strongs_def": " inintelligent ; par implication, sensuel",
    "xlit": "anóētos"
}