{
    "derivation": "d'origine hébraïque (H08283) ;",
    "frequency": 4,
    "kjv_def": "Sara, Sarah",
    "lemma": "Σάῤῥα",
    "outline": "<span class=\"literal-meaning\">Sarah = &quot;princesse&quot;</span><ol><li> l'épouse d'Abraham</li></ol>",
    "pron": "sar'-hrah",
    "strongs_def": " Sarra (c'est-à-dire Sarah), l'épouse d'Abraham",
    "xlit": "Sárrha"
}