{
    "derivation": "d'origine araméenne correspondant à H04566 (avec l'affixe défini) ;",
    "frequency": 35,
    "kjv_def": "Satan",
    "lemma": "Σατανᾶς",
    "outline": "<ol><li> adversaire (celui qui s'oppose à un autre dans ses intentions ou dans ses actes), nom donné à<ol><li> le prince des esprits mauvais, l'adversaire invétéré de Dieu et du Christ<ol><li> il incite à l'apostasie vis-à-vis de Dieu et au péché</li><li> il contourne les hommes par ses ruses</li><li> les adorateurs d'idoles seraient sous son contrôle</li><li> par ses démons, il est capable de prendre possession des hommes et de leur infliger des maladies</li><li> il est vaincu par l'aide de Dieu</li><li> au retour du Christ du ciel, il sera enchaîné pendant mille ans, mais au terme des mille ans, il parcourra la terre avec une puissance encore plus grande, mais peu après, il sera livré au châtiment éternel</li></ol><li> un homme semblable à Satan</li></ol></li></ol>",
    "pron": "sat-an-as'",
    "strongs_def": " l'accusateur, c'est-à-dire le diable",
    "xlit": "Satanâs"
}