{
    "derivation": "d'origine hébraïque (H08286) ;",
    "frequency": 1,
    "kjv_def": "Saruch",
    "lemma": "Σαρούχ",
    "outline": "<span class=\"literal-meaning\">Serug = &quot;entrelacé&quot;</span><ol><li> le fils de Reu dans la généalogie du Christ</li></ol>",
    "pron": "sar-ooch'",
    "strongs_def": " Saruch (i.e. Serug), un patriarche",
    "xlit": "Saroúch"
}