{
    "derivation": "de G4573 (σεβαστός) ;",
    "frequency": 3,
    "kjv_def": "Auguste(-')",
    "lemma": "σεβαστός",
    "outline": "<ol><li> révérend, vénérable</li><li> le titre des empereurs romains<ol><li> Auguste, c'est-à-dire tirant son nom de l'empereur</li><li> titre honorifique que l'on donnait à certaines légions, ou cohortes, ou bataillons, &quot;pour leur bravoure&quot;.</li></ol></li></ol>",
    "pron": "seb-as-tos'",
    "strongs_def": " vénérable (auguste), c'est-à-dire (comme nom) un titre de l'empereur romain, ou (comme adjectif) impérial",
    "xlit": "sebastós"
}