{
    "derivation": "une forme prolongée d'un verbe apparemment primaire ;",
    "frequency": 6,
    "kjv_def": "sortir, éteindre",
    "lemma": "σβέννυμι",
    "outline": "<ol><li> éteindre, éteindre<ol><li> du feu ou des choses en feu<ol><li> s'éteindre, s'éteindre</li></ol><li> métaph. éteindre, supprimer, étouffer<ol><li> l'influence divine</li></ol></li></ol></li></ol>",
    "pron": "sben'-noo-mee",
    "strongs_def": " éteindre (au sens propre ou figuré)",
    "xlit": "sbénnymi"
}