{
    "derivation": "cas accusatif singulier de G4771 (σέ) ;",
    "frequency": 0,
    "kjv_def": "toi, tu, X ta maison",
    "lemma": "σέ",
    "outline": "<ol><li> tu, toi</li></ol>",
    "pron": "seh",
    "strongs_def": " le",
    "xlit": "sé"
}