{
    "derivation": "voix moyenne d'un dérivé de G4576 (σεβάζομαι) ;",
    "frequency": 1,
    "kjv_def": "culte",
    "lemma": "σεβάζομαι",
    "outline": "<ol><li> craindre, avoir peur</li><li> honorer religieusement, vénérer</li></ol>",
    "pron": "seb-ad'-zom-ahee",
    "strongs_def": " vénérer, c'est-à-dire adorer",
    "xlit": "sebázomai"
}