{
    "derivation": "adverbe de G459 (ἀνόμως) ;",
    "frequency": 2,
    "kjv_def": "sans loi",
    "lemma": "ἀνόμως",
    "outline": "<ol><li> sans la loi, sans la connaissance de la loi</li><li> pécher dans l'ignorance de la loi mosaïque</li><li> vivre dans l'ignorance de la loi et de la discipline</li></ol>",
    "pron": "an-om'-oce",
    "strongs_def": " sans loi, c'est-à-dire (spécialement) non soumis à la loi (juive)",
    "xlit": "anómōs"
}