{
    "derivation": "d'origine incertaine (peut-être étrangère) ;",
    "frequency": 6,
    "kjv_def": "lin (fin) (tissu)",
    "lemma": "σινδών",
    "outline": "<ol><li> tissu de lin, en particulier celui qui était fin et coûteux, dans lequel on enveloppait les corps des morts</li><li> chose faite de tissu fin<ol><li> vêtement léger et ample porté la nuit sur un corps nu</li></ol></li></ol>",
    "pron": "sin-done'",
    "strongs_def": " byssos, c'est-à-dire le lin blanchi (le tissu ou un vêtement de celui-ci)",
    "xlit": "sindṓn"
}