{
    "frequency": 3,
    "kjv_def": "bateau",
    "lemma": "σκάφη",
    "outline": "<ol><li> tout ce qui est creusé, vaisseau creux, auge, plateau, baignoire</li><li> d'un bateau</li></ol>",
    "pron": "skaf'-ay",
    "strongs_def": "un \"skiff\" (comme s'il était creusé), ou une yole (transportée à bord d'un grand navire pour le débarquement)",
    "xlit": "skáphē"
}