{
    "derivation": "(\"scandale\") ; probablement un dérivé de G2578 (σκάνδαλον) ;",
    "frequency": 16,
    "kjv_def": "occasion de chute (de trébuchement), offense, chose qui offense, pierre d'achoppement",
    "lemma": "σκάνδαλον",
    "outline": "<ol><li> le bâton mobile ou la gâchette d'un piège, un bâton-piège<ol><li> un piège, un collet</li><li> tout obstacle placé sur le chemin et qui fait trébucher ou tomber, (une pierre d'achoppement, une occasion de trébucher), c'est-à-dire un rocher qui est une cause de trébuchement</li><li> fig. appliqué à Jésus-Christ, dont la personne et la carrière étaient si contraires aux attentes des Juifs concernant le Messie, qu'ils le rejetèrent et firent par leur obstination le naufrage de leur salut</li></ol><li> toute personne ou chose par laquelle on est (piégé) entraîné dans l'erreur ou le péché</li></ol>",
    "pron": "skan'-dal-on",
    "strongs_def": " un bâton-piège (jeune arbre tordu), c'est-à-dire un piège (au sens figuré, cause de déplaisir ou de péché)",
    "xlit": "skándalon"
}