{
    "derivation": "de G4636 (σκηνοπηγία) et G4078 (σκηνοπηγία) ;",
    "frequency": 1,
    "kjv_def": "tabernacles",
    "lemma": "σκηνοπηγία",
    "outline": "<ol><li> la construction d'un tabernacle ou de tabernacles</li><li> la fête des tabernacles ; cette fête était observée par les Juifs chaque année pendant sept jours, à partir du 15 du mois de Tisri (environ notre oct.).) en partie pour perpétuer le souvenir de l'époque où leurs ancêtres, après avoir quitté l'Égypte, habitaient sous des tentes sur leur chemin à travers le désert d'Arabie, et en partie comme une saison de festivités et de joie à l'achèvement de la récolte et de la vendange (la fête des récoltes), -- soit sur les toits ou dans les cours de leurs habitations, soit dans les rues et sur les places, et de les orner de fleurs et de fruits de toutes sortes - sous lesquels, pendant toute la durée de la fête, ils festoyaient et se livraient à des réjouissances.</li></ol>",
    "pron": "skay-nop-ayg-ee'-ah",
    "strongs_def": " la fête des Tabernacles (appelée ainsi en raison de la coutume d'ériger des cabanes pour des habitations temporaires)",
    "xlit": "skēnopēgía"
}