{
    "derivation": "apparenté à (à sauter) ;",
    "frequency": 3,
    "kjv_def": "sauter (de joie)",
    "lemma": "σκιρτάω",
    "outline": "<ol><li> de bondir</li></ol>",
    "pron": "skeer-tah'-o",
    "strongs_def": " sauter, c'est-à-dire bouger de façon sympathique (comme l'accélération d'un fœtus)",
    "xlit": "skirtáō"
}