{
    "derivation": "de G4655 (σκοτεινός) ;",
    "frequency": 3,
    "kjv_def": "sombre, plein d'obscurité",
    "lemma": "σκοτεινός",
    "outline": "<ol><li> plein de ténèbres, couvert de ténèbres</li></ol>",
    "pron": "skot-i-nos'",
    "strongs_def": " opaque, c'est-à-dire (au sens figuré) aveugle",
    "xlit": "skoteinós"
}