{
    "derivation": "à partir d'un composé de G473 (ἀντάλλαγμα) et G236 (ἀντάλλαγμα) ;",
    "frequency": 2,
    "kjv_def": "en échange",
    "lemma": "ἀντάλλαγμα",
    "outline": "<ol><li> ce qui est donné à la place d'une autre chose par voie d'échange</li><li> ce que l'on donne soit pour garder, soit pour acquérir quelque chose</li></ol>",
    "pron": "an-tal'-ag-mah",
    "strongs_def": " un équivalent ou une rançon",
    "xlit": "antállagma"
}