{
    "derivation": "apparemment du même que G4651 (σκορπίζω) (par l'idée de pénétrer) ;",
    "frequency": 4,
    "kjv_def": "se disperser à l'étranger, se disperser (à l'étranger)",
    "lemma": "σκορπίζω",
    "outline": "<ol><li> disperser<ol><li> de ceux qui, mis en déroute, terrorisés ou poussés par d'autres impulsions, volent dans toutes les directions</li><li> disperser à l'étranger (ce que d'autres peuvent recueillir pour eux-mêmes), ou celui qui dispense des bénédictions au sens propre du terme</li></ol></li></ol>",
    "pron": "skor-pid'-zo",
    "strongs_def": " dissiper, c'est-à-dire (au sens figuré) mettre en fuite, gaspiller, être libéral",
    "xlit": "skorpízō"
}