{
    "derivation": "probablement d'un obsolète (peut-être renforcé à partir de la base de G4649 (σκορπίος) et signifiant percer) ;",
    "frequency": 5,
    "kjv_def": "scorpion",
    "lemma": "σκορπίος",
    "outline": "<ol><li> scorpion, nom d'un petit animal, ressemblant un peu à un homard, qui se cache dans les régions chaudes, notamment dans les murs de pierre ; il possède un aiguillon venimeux dans la queue</li></ol>",
    "pron": "skor-pee'-os",
    "strongs_def": " un \"scorpion\" (du fait de son aiguillon)",
    "xlit": "skorpíos"
}