{
    "derivation": "de G4663 (σκωληκόβρωτος) et un dérivé de G977 (σκωληκόβρωτος) ;",
    "frequency": 1,
    "kjv_def": "mangé de vers",
    "lemma": "σκωληκόβρωτος",
    "outline": "<ol><li> mangé de vers</li></ol>",
    "pron": "sko-lay-kob'-ro-tos",
    "strongs_def": " vermoulu, c'est-à-dire infecté par des asticots",
    "xlit": "skōlēkóbrōtos"
}