{
    "derivation": "le même que G4666 (Σμύρνα) ;",
    "frequency": 2,
    "kjv_def": "Smyrne",
    "lemma": "Σμύρνα",
    "outline": "<span class=\"literal-meaning\">Smyrne = \"myrrhe</span><ol><li> ville ionienne d'Asie mineure, sur la mer Égée, à 65 km au nord d'Éphèse</li></ol>",
    "pron": "smoor'-nah",
    "strongs_def": " Smyrne, une localité d'Asie Mineure",
    "xlit": "Smýrna"
}