{
    "derivation": "de dérivation incertaine ;",
    "frequency": 1,
    "kjv_def": "émeraude",
    "lemma": "σμάραγδος",
    "outline": "<ol><li> une pierre précieuse transparente remarquée surtout pour sa couleur vert clair</li></ol>",
    "pron": "smar'-ag-dos",
    "strongs_def": " l'émeraude ou la gemme verte ainsi appelée",
    "xlit": "smáragdos"
}