{
    "derivation": "de G4667 (σμυρνίζω) ;",
    "frequency": 1,
    "kjv_def": "se mêler à la myrrhe",
    "lemma": "σμυρνίζω",
    "outline": "<ol><li> être comme la myrrhe</li><li> mélanger et ainsi aromatiser avec de la myrrhe<ol><li> vin à la myrrhe : c'est-à-dire le vin aromatisé à la myrrhe. Les anciens avaient l'habitude d'infuser de la myrrhe dans le vin pour lui donner un parfum et un goût plus agréables</li></ol></li></ol>",
    "pron": "smoor-nid'-zo",
    "strongs_def": " teindre avec de la myrrhe, c'est-à-dire aigrir (comme un narcotique)",
    "xlit": "smyrnízō"
}