{
    "derivation": "d'origine latine ;",
    "frequency": 4,
    "kjv_def": "mouchoir, serviette",
    "lemma": "σουδάριον",
    "outline": "<ol><li> un mouchoir</li><li> un tissu pour essuyer la transpiration du visage et pour nettoyer le nez, également utilisé pour envelopper la tête d'un cadavre</li></ol>",
    "pron": "soo-dar'-ee-on",
    "strongs_def": " un sudarium, c'est-à-dire une serviette (pour essuyer la transpiration du visage, ou pour lier le visage d'un cadavre)",
    "xlit": "soudárion"
}