{
    "derivation": "probablement renforcé de G4685 (σπείρω) (par l'idée d'extension) ;",
    "frequency": 58,
    "kjv_def": "semer(- er), recevoir des graines",
    "lemma": "σπείρω",
    "outline": "<ol><li> semer, disperser, graine</li><li> métaph. de dictons proverbiaux</li></ol>",
    "pron": "spi'-ro",
    "strongs_def": " disperser, c'est-à-dire semer (au sens propre ou figuré)",
    "xlit": "speírō"
}