{
    "derivation": "de G4687 (σπέρμα) ;",
    "frequency": 43,
    "kjv_def": "question, semences",
    "lemma": "σπέρμα",
    "outline": "<ol><li> à partir duquel une plante germe<ol><li> la graine, c'est-à-dire le grain ou l'amande qui contient en son sein le germe des futures plantes<ol><li> des grains ou amandes semés</li></ol><li> métaph. une graine c'est-à-dire un résidu, ou quelques survivants réservés comme germe de la génération suivante (de même que l'on garde la graine de la récolte pour la semer)</li></ol><li> le sperme viril<ol><li> le produit de ce sperme, la semence, les enfants, la progéniture, la</li><li> famille, la tribu, la postérité</li><li> tout ce qui possède la force vitale ou le pouvoir de donner la vie<ol><li> de l'énergie divine de l'Esprit Saint opérant dans l'âme par laquelle nous sommes régénérés</li></ol></li></ol></li></ol>",
    "pron": "sper'-mah",
    "strongs_def": " quelque chose de semé, c'est-à-dire la semence (y compris le \"sperme\" mâle) ; par implication, la progéniture ; en particulier, un reste (au sens figuré, comme si on le gardait pour le planter)",
    "xlit": "spérma"
}