{
    "derivation": "neutre d'un dérivé présumé de (une grotte) ;",
    "frequency": 6,
    "kjv_def": "grotte, tanière",
    "lemma": "σπήλαιον",
    "outline": "<ol><li> une grotte, une tanière</li></ol>",
    "pron": "spay'-lah-yon",
    "strongs_def": " une caverne ; implicitement, une cachette ou un lieu de villégiature",
    "xlit": "spḗlaion"
}