{
    "derivation": "de G53 (ἁγνεία) ;",
    "frequency": 2,
    "kjv_def": "pureté",
    "lemma": "ἁγνεία",
    "outline": "<ol><li> la pureté, l'absence de péché dans la vie</li></ol>",
    "pron": "hag-ni'-ah",
    "strongs_def": " la propreté (la qualité), c'est-à-dire (spécialement) la chasteté",
    "xlit": "hagneía"
}