{
    "derivation": "de G4703 (σπόριμος) ;",
    "frequency": 3,
    "kjv_def": "maïs(-champ)",
    "lemma": "σπόριμος",
    "outline": "<ol><li> apte à l'ensemencement, ensemencé</li><li> champs ensemencés, cultures en cours</li></ol>",
    "pron": "spor'-ee-mos",
    "strongs_def": " semé, c'est-à-dire (neutre pluriel) un champ planté",
    "xlit": "spórimos"
}