{
    "derivation": "de G4687 (σπορά) ;",
    "frequency": 1,
    "kjv_def": "graines",
    "lemma": "σπορά",
    "outline": "<ol><li> graines</li></ol>",
    "pron": "spor-ah'",
    "strongs_def": " un semis, c'est-à-dire (implicitement) une filiation",
    "xlit": "sporá"
}