{
    "derivation": "de G473 (ἀντέπω) et G2036 (ἀντέπω) ;",
    "frequency": 2,
    "kjv_def": "contredire, dire contre",
    "lemma": "ἀντέπω",
    "outline": "<ol><li> parler contre, contredire</li></ol>",
    "pron": "an-tep'-o",
    "strongs_def": " réfuter ou nier",
    "xlit": "antépō"
}