{
    "derivation": "de G4687 (σπυρίς) (comme tissé) ;",
    "frequency": 5,
    "kjv_def": "panier",
    "lemma": "σπυρίς",
    "outline": "<ol><li> un panier en roseau, (un panier tressé, un panier repas, un panier à provisions)</li></ol>",
    "pron": "spoo-rece'",
    "strongs_def": " un panier ou un réceptacle à déjeuner",
    "xlit": "spyrís"
}