{
    "derivation": "de G4716 (σταυρόω) ;",
    "frequency": 49,
    "kjv_def": "crucifier",
    "lemma": "σταυρόω",
    "outline": "<ol><li> planter des pieux, enfoncer des pieux</li><li> fortifier avec des pieux, palissader</li><li> crucifier<ol><li> crucifier quelqu'un</li><li> métaph. crucifier la chair, détruire complètement son pouvoir (la nature de la figure implique que la destruction est accompagnée d'une douleur intense)</li></ol></li></ol>",
    "pron": "stow-ro'-o",
    "strongs_def": " empaler sur la croix ; au sens figuré, éteindre (soumettre) la passion ou l'égoïsme",
    "xlit": "stauróō"
}