{
    "derivation": "probablement de la base de G4735 (σταφυλή) ;",
    "frequency": 3,
    "kjv_def": "raisins",
    "lemma": "σταφυλή",
    "outline": "<ol><li> raisins, grappe de raisins</li></ol>",
    "pron": "staf-oo-lay'",
    "strongs_def": " une grappe de raisin (comme si elle était entrelacée)",
    "xlit": "staphylḗ"
}