{
    "derivation": "de la base de G2476 (στάμνος) (comme stationnaire) ;",
    "frequency": 1,
    "kjv_def": "pot",
    "lemma": "στάμνος",
    "outline": "<ol><li> chez les Grecs, une jarre en terre, dans laquelle on puisait le vin pour le conserver, mais qui servait aussi à d'autres usages<ol><li> de la petite jarre dans laquelle on conservait la manne, déposée dans l'arche d'alliance</li></ol></li></ol>",
    "pron": "stam'-nos",
    "strongs_def": " une jarre ou un réservoir en terre",
    "xlit": "stámnos"
}