{
    "derivation": "de G4727 (στεναγμός) ;",
    "frequency": 2,
    "kjv_def": "gémissements",
    "lemma": "στεναγμός",
    "outline": "<ol><li> un gémissement, un soupir</li></ol>",
    "pron": "sten-ag-mos'",
    "strongs_def": " un soupir",
    "xlit": "stenagmós"
}