{
    "derivation": "une contraction de G4731 (στείρος) (comme raide et non naturel) ;",
    "frequency": 4,
    "kjv_def": "stérile",
    "lemma": "στείρος",
    "outline": "<ol><li> dur, rigide<ol><li> d'hommes et d'animaux</li></ol><li> stérile<ol><li> de la femme qui ne conçoit pas</li></ol></li></ol>",
    "pron": "sti'-ros",
    "strongs_def": " \"stérile\"",
    "xlit": "steíros"
}