{
    "derivation": "renforcée d'une primaire (la \"chaume\" ou la \"terrasse\" d'un bâtiment) ;",
    "frequency": 3,
    "kjv_def": "toit",
    "lemma": "στέγη",
    "outline": "<ol><li> un toit : d'une maison</li></ol>",
    "pron": "steg'-ay",
    "strongs_def": " un toit",
    "xlit": "stégē"
}