{
    "derivation": "de G473 (ἀντέχομαι) et la voix moyenne de G2192 (ἀντέχομαι) ;",
    "frequency": 4,
    "kjv_def": "tenir fermement, tenir à, soutenir",
    "lemma": "ἀντέχομαι",
    "outline": "<ol><li> tenir devant ou contre, retenir, résister, endurer</li><li> se tenir directement en face de quelqu'un, s'y tenir fermement, s'y attacher, y prêter attention</li></ol>",
    "pron": "an-tekh'-om-ahee",
    "strongs_def": " se tenir à l'opposé de, c'est-à-dire (implicitement) adhérer à ; par extension prendre soin de",
    "xlit": "antéchomai"
}