{
    "derivation": "de G4731 (στερεόω) ;",
    "frequency": 3,
    "kjv_def": "établir, recevoir de la force, rendre fort",
    "lemma": "στερεόω",
    "outline": "<ol><li> rendre solide, rendre ferme, renforcer, rendre fort<ol><li> du corps de quelqu'un</li></ol></li></ol>",
    "pron": "ster-eh-o'-o",
    "strongs_def": " solidifier, c'est-à-dire confirmer (au sens propre ou figuré)",
    "xlit": "stereóō"
}