{
    "derivation": "de G4735 (στεφανόω) ;",
    "frequency": 3,
    "kjv_def": "couronne",
    "lemma": "στεφανόω",
    "outline": "<ol><li> entourer d'une couronne, couronner : le vainqueur d'une compétition</li><li> parer, honorer</li></ol>",
    "pron": "stef-an-o'-o",
    "strongs_def": " orner d'une couronne honorifique (au sens propre ou figuré)",
    "xlit": "stephanóō"
}