{
    "derivation": "de G4732 (στερέωμα) ;",
    "frequency": 1,
    "kjv_def": "stedfastness",
    "lemma": "στερέωμα",
    "outline": "<ol><li> ce qui a été rendu solide<ol><li> le firmament, la voûte céleste, que l'on considérait autrefois comme solide<ol><li> un lieu fortifié</li></ol><li>ce qui constitue une base<ol><li> sur laquelle une chose repose fermement, un support</li></ol><li> la fermeté, la constance<ol><li> métaph. au sens militaire : front solide</li></ol></li></li> </ol></li></ol>",
    "pron": "ster-eh'-o-mah",
    "strongs_def": " quelque chose d'établi, c'est-à-dire (abstraitement) la confirmation (stabilité)",
    "xlit": "steréōma"
}