{
    "derivation": "de G2476 (στῆθος) (comme se tenant bien en vue) ;",
    "frequency": 5,
    "kjv_def": "sein",
    "lemma": "στῆθος",
    "outline": "<ol><li> le sein</li></ol>",
    "pron": "stay'-thos",
    "strongs_def": " la poitrine (toute la partie externe), c'est-à-dire le thorax",
    "xlit": "stēthos"
}