{
    "derivation": "à partir d'un primaire (pour \"coller\", c'est-à-dire piquer) ;",
    "frequency": 1,
    "kjv_def": "marque",
    "lemma": "στίγμα",
    "outline": "<ol><li> une marque piquée ou marquée sur le corps. Selon l'ancien usage oriental, les esclaves et les soldats portaient le nom ou le cachet de leur maître ou commandant, marqué ou piqué (coupé) sur leur corps pour indiquer à quel maître ou général ils appartenaient, et il y avait même des dévots qui se marquaient de cette façon avec le symbole de leurs dieux</li></ol>",
    "pron": "stig'-mah",
    "strongs_def": " une marque incisée ou poinçonnée (pour la reconnaissance de la propriété), c'est-à-dire (au sens figuré) une cicatrice de service",
    "xlit": "stígma"
}