{
    "derivation": "de G4724 (στολή) ;",
    "frequency": 9,
    "kjv_def": "vêtements longs, robe (longue)",
    "lemma": "στολή",
    "outline": "<ol><li> un équipement</li><li> un équipement en vêtements, un vêtement<ol><li> vêtement extérieur ample pour les hommes, s'étendant jusqu'aux pieds, porté par les rois, les prêtres et les personnes de haut rang</li></ol></li></ol>",
    "pron": "stol-ay'",
    "strongs_def": " l'équipement, c'est-à-dire (en particulier) une \"étole\" ou une robe longue (en signe de dignité)",
    "xlit": "stolḗ"
}