{
    "derivation": "féminin de G4742 (στιγμή) ;",
    "frequency": 1,
    "kjv_def": "moment",
    "lemma": "στιγμή",
    "outline": "<ol><li> un instant (c'est-à-dire un moment) de temps</li></ol>",
    "pron": "stig-may'",
    "strongs_def": " un point dans le temps, c'est-à-dire un instant",
    "xlit": "stigmḗ"
}