{
    "derivation": "d'un dérivé présumé de G2476 (στηρίζω) (comme G4731 (στηρίζω)) ;",
    "frequency": 14,
    "kjv_def": "fixer, (e-)stablir, stedfastly fixer, renforcer",
    "lemma": "στηρίζω",
    "outline": "<ol><li> rendre stable, placer fermement, mettre en place rapidement, fixer</li><li> renforcer, rendre ferme</li><li> rendre constant, confirmer, l'esprit d'une personne</li></ol>",
    "pron": "stay-rid'-zo",
    "strongs_def": " fixer, c'est-à-dire (au sens propre) se tourner résolument dans une certaine direction, ou (au sens figuré) confirmer",
    "xlit": "stērízō"
}