{
    "derivation": "à partir d'un dérivé de (à portée en ligne régulière) ;",
    "frequency": 5,
    "kjv_def": "marche (ordonnée)",
    "lemma": "στοιχέω",
    "outline": "<ol><li> avancer en rang comme la marche d'un soldat, aller en ordre<ol><li> métaph. continuer à prospérer, bien tourner</li></ol><li> marcher<ol><li> pour diriger sa vie, vivre</li></ol></li></ol>",
    "pron": "stoy-kheh'-o",
    "strongs_def": " marcher au pas (militaire), c'est-à-dire (au sens figuré) se conformer à la vertu et à la piété",
    "xlit": "stoichéō"
}