{
    "derivation": "voix moyenne de la base de G4756 (στρατεύομαι) ;",
    "frequency": 7,
    "kjv_def": "soldat, (aller à) la guerre(-fare)",
    "lemma": "στρατεύομαι",
    "outline": "<ol><li> faire une expédition militaire, conduire des soldats à la guerre ou au combat, (se dit d'un commandant)</li><li> faire son devoir militaire, être en service actif, être un soldat</li><li> combattre</li></ol>",
    "pron": "strat-yoo'-om-ahee",
    "strongs_def": " servir dans une campagne militaire ; au sens figuré, exercer l'apostolat (avec ses devoirs et fonctions ardus), lutter contre les penchants charnels",
    "xlit": "strateúomai"
}