{
    "derivation": "de la base de G4756 (στρατηγός) et G71 (στρατηγός) ou G2233 (στρατηγός) ;",
    "frequency": 10,
    "kjv_def": "capitaine, magistrat",
    "lemma": "στρατηγός",
    "outline": "<ol><li> le commandant d'une armée</li><li> dans le NT un commandant civique, un gouverneur<ol><li> nom du plus haut magistrat dans les municipia ou les colonies ; ils avaient le pouvoir d'administrer la justice dans les cas les moins importants</li><li> des magistrats civils</li></ol><li> capitaine du temple, c'est-à-dire le commandant des lévites qui montaient la garde dans le temple et autour de celui-ci</li></ol>",
    "pron": "strat-ay-gos'",
    "strongs_def": " un général, c'est-à-dire (par implication ou analogie) un gouverneur (militaire) (prætor), le chef (præfect) des gardiens du temple (lévitiques)",
    "xlit": "stratēgós"
}