{
    "derivation": "du même que G4767 (στυγνάζω) ;",
    "frequency": 2,
    "kjv_def": "plus bas, être triste",
    "lemma": "στυγνάζω",
    "outline": "<ol><li> être triste, chagrin</li><li> métaph. du ciel couvert de nuages</li></ol>",
    "pron": "stoog-nad'-zo",
    "strongs_def": " rendre lugubre, c'est-à-dire (implicitement) faire miroiter (être couvert de nuages, ou de sombres paroles)",
    "xlit": "stygnázō"
}