{
    "derivation": "d'un dérivé de G4762 (στρεβλόω) ;",
    "frequency": 1,
    "kjv_def": " lutte",
    "lemma": "στρεβλόω",
    "outline": "<ol><li> tordre, tourner à l'envers</li><li> torturer, mettre au supplice</li><li> métaph. pervertir, de celui qui arrache ou torture le langage dans un faux sens</li></ol>",
    "pron": "streb-lo'-o",
    "strongs_def": " arracher, c'est-à-dire (spécialement), torturer (par le chevalet), mais seulement au sens figuré, pervertir",
    "xlit": "streblóō"
}