{
    "derivation": "de (raidir ;",
    "frequency": 4,
    "kjv_def": "pilier",
    "lemma": "στῦλος",
    "outline": "<ol><li> un pilier</li><li> une colonne<ol><li> des colonnes de feu, c'est-à-dire des flammes qui s'élèvent comme des piliers</li></ol><li> un étai ou un support</li></ol>",
    "pron": "stoo'-los",
    "strongs_def": " proprement apparenté à la base de G2476 (στῦλος)) ; un poteau (\" style \"), c'est-à-dire (au sens figuré) un support",
    "xlit": "stŷlos"
}