{
    "derivation": "de G4862 (συγκλείω) et G2808 (συγκλείω) ;",
    "frequency": 4,
    "kjv_def": "conclure, fermer, se taire",
    "lemma": "συγκλείω",
    "outline": "<ol><li> enfermer ensemble, enfermer<ol><li> d'un banc de poissons dans un filet</li></ol><li> enfermer de tous côtés, enfermer complètement</li></ol>",
    "pron": "soong-kli'-o",
    "strongs_def": " fermer ensemble, c'est-à-dire inclure ou (au sens figuré) embrasser dans une sujétion commune à..",
    "xlit": "synkleíō"
}