{
    "derivation": "de G4862 (συγκαλύπτω) et G2572 (συγκαλύπτω) ;",
    "frequency": 1,
    "kjv_def": "couverture",
    "lemma": "συγκαλύπτω",
    "outline": "<ol><li> couvrir de tous côtés, dissimuler entièrement, recouvrir complètement</li></ol>",
    "pron": "soong-kal-oop'-to",
    "strongs_def": " de dissimuler complètement",
    "xlit": "synkalýptō"
}