{
    "derivation": "de G4862 (συγκεράννυμι) et G2767 (συγκεράνυμι) ;",
    "frequency": 3,
    "kjv_def": "mélanger avec, tempérer ensemble",
    "lemma": "συγκεράννυμι",
    "outline": "<ol><li> mélanger, mêler</li><li> unir<ol><li> faire en sorte que les différentes parties se combinent en une structure organique, qui est le corps</li><li> unir une chose à une autre</li></ol></li></ol>",
    "pron": "soong-ker-an'-noo-mee",
    "strongs_def": " mélanger, c'est-à-dire (au sens figuré) combiner ou assimiler",
    "xlit": "synkeránnymi"
}