{
    "derivation": "de G4862 (συγκάμπτω) et G2578 (συγκάμπτω) ;",
    "frequency": 1,
    "kjv_def": "se prosterner",
    "lemma": "συγκάμπτω",
    "outline": "<ol><li> plier ensemble, plier complètement</li><li> métaph. soumettre quelqu'un à l'erreur et à la dureté de cœur, figure tirée de la courbure du dos par les captifs contraints de passer sous le joug</li></ol>",
    "pron": "soong-kamp'-to",
    "strongs_def": " plier ensemble, c'est-à-dire (au sens figuré) affliger",
    "xlit": "synkámptō"
}