{
    "derivation": "de G4797 (σύγχυσις) ;",
    "frequency": 1,
    "kjv_def": "confusion",
    "lemma": "σύγχυσις",
    "outline": "<ol><li> confusion, perturbation<ol><li> de personnes émeutières</li></ol></li></ol>",
    "pron": "soong'-khoo-sis",
    "strongs_def": " mélange, c.-à-d. (au sens figuré) trouble émeutier",
    "xlit": "sýnchysis"
}