{
    "derivation": "de G4862 (συγκοινωνός) et G2844 (συγκοινωνός) ;",
    "frequency": 5,
    "kjv_def": "compagnon, participer(-r, -r avec)",
    "lemma": "συγκοινωνός",
    "outline": "<ol><li> participant avec d'autres à quelque chose, partenaire conjoint</li></ol>",
    "pron": "soong-koy-no-nos'",
    "strongs_def": " un co-participant",
    "xlit": "synkoinōnós"
}