{
    "derivation": "de G4862 (συζάω) et G2198 (συζάω) ;",
    "frequency": 2,
    "kjv_def": "vivre avec",
    "lemma": "συζάω",
    "outline": "<ol><li> vivre ensemble avec un<ol><li> de la vie physique sur terre</li><li> vivre une vie nouvelle en union avec le Christ, c'est-à-dire consacrée à Dieu</li></ol></li></ol>",
    "pron": "sood-zah'-o",
    "strongs_def": " continuer à vivre en commun avec, c'est-à-dire co-survivre (au sens propre ou figuré)",
    "xlit": "syzáō"
}