{
    "derivation": "de G4862 (συζητέω) et G2212 (συζητέω) ;",
    "frequency": 10,
    "kjv_def": "contester (avec), enquêter, questionner (avec), raisonner (ensemble)",
    "lemma": "συζητέω",
    "outline": "<ol><li> chercher ou examiner ensemble</li><li> dans le NT, discuter, contester, remettre en question</li></ol>",
    "pron": "sood-zay-teh'-o",
    "strongs_def": " enquêter conjointement, c'est-à-dire discuter, controverser, ergoter",
    "xlit": "syzētéō"
}