{
    "derivation": "de G4801 (σύζυγος) ;",
    "frequency": 1,
    "kjv_def": "compagnon d'attelage",
    "lemma": "σύζυγος",
    "outline": "<ol><li> uni par le joug<ol><li> de ceux qui sont unis par les liens du mariage, d'une relation, d'une fonction, d'un travail, d'une étude, d'une affaire, etc</li><li> d'un compagnon de joug, consort, camarade, collègue, partenaire</li></ol></li></ol>",
    "pron": "sood'-zoo-gos",
    "strongs_def": " coéquipier, c'est-à-dire (au sens figuré) comme substantif, un collègue ; probablement plutôt comme nom propre ; Syzygus, un chrétien",
    "xlit": "sýzygos"
}