{
    "derivation": "de G4862 (συμβαίνω) et la base de G939 (συμβαίνω) ;",
    "frequency": 9,
    "kjv_def": "être (-chute), arriver (à)",
    "lemma": "συμβαίνω",
    "outline": "<ol><li> marcher avec les pieds rapprochés</li><li> se réunir, se rencontrer</li><li> de choses qui tombent en même temps, arriver, tourner, se réaliser</li></ol>",
    "pron": "soom-bah'-ee-no",
    "strongs_def": " marcher (au sens figuré, transpirer) ensemble, c'est-à-dire concourir (prendre place)",
    "xlit": "symbaínō"
}