{
    "derivation": "de la base de G4813 (συλαγωγέω) et (la forme rédupliquée de) G71 (συλαγωγέω) ;",
    "frequency": 1,
    "kjv_def": "gâcher",
    "lemma": "συλαγωγέω",
    "outline": "<ol><li> emporter un butin<ol><li> emmener quelqu'un comme captif (et esclave)</li><li> détourner de la vérité et soumettre à son emprise</li></ol></li></ol>",
    "pron": "soo-lag-ogue-eh'-o",
    "strongs_def": " emmener comme un butin, c'est-à-dire séduire (au sens figuré)",
    "xlit": "sylagōgéō"
}