{
    "derivation": "voix moyenne de G4862 (συμμερίζομαι) et G3307 (συμμερίζομαι) ;",
    "frequency": 2,
    "kjv_def": "participer à",
    "lemma": "συμμερίζομαι",
    "outline": "<ol><li> diviser en même temps, diviser ensemble</li><li> attribuer une part</li><li> partager avec quelqu'un (pour qu'une partie me revienne, une partie lui revienne)</li></ol>",
    "pron": "soom-mer-id'-zom-ahee",
    "strongs_def": " de partager conjointement, c'est-à-dire de participer à",
    "xlit": "symmerízomai"
}