{
    "derivation": "à partir d'un composé présumé du G4862 (συμμιμητής) et du G3401 (συμμιμητής) ;",
    "frequency": 1,
    "kjv_def": "suivre ensemble",
    "lemma": "συμμιμητής",
    "outline": "<ol><li> un imitateur des autres</li></ol>",
    "pron": "soom-mim-ay-tace'",
    "strongs_def": " un co-imitateur, c'est-à-dire un co-votant",
    "xlit": "symmimētḗs"
}