{
    "derivation": "de G4841 (συμπαθής) ;",
    "frequency": 1,
    "kjv_def": "avoir de la compassion l'un pour l'autre",
    "lemma": "συμπαθής",
    "outline": "<ol><li> souffrir ou ressentir la même chose avec une autre personne, sympathisante</li></ol>",
    "pron": "soom-path-ace'",
    "strongs_def": " avoir un sentiment d'appartenance (\"sympathie\"), c'est-à-dire (implicitement) une commisération mutuelle",
    "xlit": "sympathḗs"
}