{
    "derivation": "de G4856 (συμφώνησις) ;",
    "frequency": 0,
    "kjv_def": "concorde",
    "lemma": "συμφώνησις",
    "outline": "<ol><li> concorde, accord</li></ol>",
    "pron": "soom-fo'-nay-sis",
    "strongs_def": " conformité",
    "xlit": "symphṓnēsis"
}