{
    "derivation": "de G4862 (συναυξάνω) et G837 (συναυξάνω) ;",
    "frequency": 1,
    "kjv_def": "grandir ensemble",
    "lemma": "συναυξάνω",
    "outline": "<ol><li> faire grandir ensemble</li><li> se développer ensemble</li></ol>",
    "pron": "soon-owx-an'-o",
    "strongs_def": " augmenter (grandir) ensemble",
    "xlit": "synauxánō"
}