{
    "derivation": "à partir d'un composé de G473 (ἀντιμισθία) et G3408 (ἀντιμισθία) ;",
    "frequency": 1,
    "kjv_def": "récompense",
    "lemma": "ἀντιμισθία",
    "outline": "<ol><li> une récompense donnée en compensation, requital, recompence</li></ol>",
    "pron": "an-tee-mis-thee'-ah",
    "strongs_def": " requit, correspondance",
    "xlit": "antimisthía"
}