{
    "derivation": "de (l'alternatif de) G4936 (συνδρομή) ;",
    "frequency": 1,
    "kjv_def": "courir ensemble",
    "lemma": "συνδρομή",
    "outline": "<ol><li> un rassemblement, un concours, en particulier hostile ou séditieux</li></ol>",
    "pron": "soon-drom-ay'",
    "strongs_def": " une course, c'est-à-dire une cohue (émeute)",
    "xlit": "syndromḗ"
}