{
    "derivation": "neutre d'un dérivé présumé d'un composé de G4862 (συνέδριον) et de la base de G1476 (συνέδριον) ;",
    "frequency": 22,
    "kjv_def": "conseil",
    "lemma": "συνέδριον",
    "outline": "<ol><li> toute assemblée (notamment de magistrats, de juges, d'ambassadeurs), qu'elle soit convoquée pour délibérer ou rendre un jugement</li><li> toute session ou assemblée ou peuple délibérant ou statuant<ol><li> le Sanhédrin, le grand conseil de Jérusalem, composé de soixante et onze membres, à savoir les scribes, les anciens, les membres éminents des familles sacerdotales et le grand prêtre, président de l'assemblée. Les causes les plus importantes étaient portées devant ce tribunal, dans la mesure où les dirigeants romains de Judée lui avaient laissé le pouvoir de juger de telles affaires, et aussi de prononcer la sentence de mort, avec cette restriction qu'une sentence capitale prononcée par le Sanhédrin n'était pas valide à moins d'être confirmée par le procurateur romain.</li><li> un tribunal ou un conseil plus restreint dont disposait chaque ville juive pour décider des affaires moins importantes.</li></ol></li></ol>",
    "pron": "soon-ed'-ree-on",
    "strongs_def": " une séance commune, c'est-à-dire (spécialement) le Sanhédrin juif ; par analogie, un tribunal subordonné",
    "xlit": "synédrion"
}