{
    "derivation": "de G4862 (συνεσθίω) et G2068 (συνεσθίω) (y compris son suppléant) ;",
    "frequency": 6,
    "kjv_def": "manger avec",
    "lemma": "συνεσθίω",
    "outline": "<ol><li> manger avec, prendre de la nourriture avec</li></ol>",
    "pron": "soon-es-thee'-o",
    "strongs_def": " prendre de la nourriture en compagnie de",
    "xlit": "synesthíō"
}