{
    "derivation": "d'un composé présumé de G4862 (συνεργός) et de la base de G2041 (συνεργός) ;",
    "frequency": 11,
    "kjv_def": "compagnon de travail, aide (-labourer, -travailleur), travailleur avec, compagnon de travail",
    "lemma": "συνεργός",
    "outline": "<ol><li> un compagnon de travail, un collègue de travail</li></ol>",
    "pron": "soon-er-gos'",
    "strongs_def": " un co-laborateur, c'est-à-dire un coadjuteur",
    "xlit": "synergós"
}