{
    "derivation": "de G4862 (συνεπιμαρτυρέω) et G1957 (συνεπιμαρτυρέω) ;",
    "frequency": 1,
    "kjv_def": "témoignent également",
    "lemma": "συνεπιμαρτυρέω",
    "outline": "<ol><li> à attester avec</li><li> s'unir pour témoigner, s'unir pour ajouter un témoignage</li></ol>",
    "pron": "soon-ep-ee-mar-too-reh'-o",
    "strongs_def": " de témoigner à nouveau conjointement, c'est-à-dire de s'unir pour ajouter des éléments de preuve",
    "xlit": "synepimartyréō"
}