{
    "derivation": "de G4904 (συνεργέω) ;",
    "frequency": 5,
    "kjv_def": "aider (travailler) avec, travailler (-er) ensemble",
    "lemma": "συνεργέω",
    "outline": "<ol><li> travailler ensemble, aider dans le travail, être partenaire dans le travail</li><li> mettre la puissance en commun avec et ainsi aider</li></ol>",
    "pron": "soon-erg-eh'-o",
    "strongs_def": " être un compagnon de travail, c'est-à-dire coopérer",
    "xlit": "synergéō"
}