{
    "derivation": "voix moyenne de G4862 (συνέπομαι) et une primaire (à suivre) ;",
    "frequency": 1,
    "kjv_def": "accompagner",
    "lemma": "συνέπομαι",
    "outline": "<ol><li> suivre avec, accompagner</li></ol>",
    "pron": "soon-ep'-om-ahee",
    "strongs_def": " assister (voyager) en compagnie de",
    "xlit": "synépomai"
}