{
    "derivation": "de G4862 (συνθάπτω) et G2290 (συνθάπτω) ;",
    "frequency": 2,
    "kjv_def": "enterrer avec",
    "lemma": "συνθάπτω",
    "outline": "<ol><li> à enterrer ensemble avec</li></ol>",
    "pron": "soon-thap'-to",
    "strongs_def": " intervenir en compagnie de, c'est-à-dire (au sens figuré) assimiler spirituellement (au Christ par une sépulture comme au péché)",
    "xlit": "syntháptō"
}