{
    "derivation": "de G4862 (συνίημι) et (envoyer) ;",
    "frequency": 25,
    "kjv_def": " considérer, comprendre, être sage",
    "lemma": "συνίημι",
    "outline": "<ol><li> mettre ou réunir<ol><li> dans un sens hostile, de combattants</li></ol><li> mettre (pour ainsi dire) la perception avec la chose perçue<ol><li> mettre ou joindre ensemble dans l'esprit</li></ol>, c<ol><li><ol><li> 'est-à-dire comprendre : l'homme de l'intelligence</li><li> idiome pour : un homme bon et droit (ayant la connaissance des choses qui appartiennent au salut)</li></ol></li></ol></li></ol>",
    "pron": "soon-ee'-ay-mee",
    "strongs_def": " mettre ensemble, c'est-à-dire (mentalement) comprendre ; implicitement, agir pieusement",
    "xlit": "syníēmi"
}