{
    "derivation": "contracté pour un composé de G473 (Ἀντίπας) et un dérivé de G3962 (Ἀντίπας) ;",
    "frequency": 1,
    "kjv_def": "Antipas",
    "lemma": "Ἀντίπας",
    "outline": "<span class=\"literal-meaning\">Antipas = &quot;comme le père&quot;</span><ol><li> un chrétien de Pergame qui a souffert le martyre</li></ol>",
    "pron": "an-tee'-pas",
    "strongs_def": " Antipas, un chrétien",
    "xlit": "Antípas"
}