{
    "derivation": "adverbe issu d'un dérivé de G4932 (συντόμως) ;",
    "frequency": 1,
    "kjv_def": "quelques mots",
    "lemma": "συντόμως",
    "outline": "<ol><li> de manière concise, brève, en quelques mots</li></ol>",
    "pron": "soon-tom'-oce",
    "strongs_def": " de façon concise (brièvement)",
    "xlit": "syntómōs"
}