{
    "derivation": "de G4862 (συντηρέω) et G5083 (συντηρέω) ;",
    "frequency": 3,
    "kjv_def": "garder, observer, préserver",
    "lemma": "συντηρέω",
    "outline": "<ol><li> préserver (une chose de périr ou d'être perdue)</li><li> garder en soi, garder à l'esprit (une chose, de peur qu'elle ne soit oubliée)</li></ol>",
    "pron": "soon-tay-reh'-o",
    "strongs_def": " maintenir étroitement ensemble, c'est-à-dire (implicitement) conserver (de la ruine) ; mentalement, se souvenir (et obéir)",
    "xlit": "syntēréō"
}