{
    "derivation": "à partir d'un composé de G4862 (συνωμοσία) et G3660 (συνωμοσία) ;",
    "frequency": 1,
    "kjv_def": "complot",
    "lemma": "συνωμοσία",
    "outline": "<ol><li> un serment ensemble</li><li> une conspiration</li></ol>",
    "pron": "soon-o-mos-ee'-ah",
    "strongs_def": " un ensemble de jurons, c'est-à-dire (implicitement) un complot",
    "xlit": "synōmosía"
}