{
    "derivation": "de G4940 (Συντύχη) ;",
    "frequency": 1,
    "kjv_def": "Syntyche",
    "lemma": "Συντύχη",
    "outline": "<span class=\"literal-meaning\">Syntyche = &quot;avec le destin&quot;</span><ol><li> une femme membre de l'église de Philippes</li></ol>",
    "pron": "soon-too'-khay",
    "strongs_def": " un accident ; Syntyche, une femme chrétienne",
    "xlit": "Syntýchē"
}