{
    "derivation": "féminin d'un composé de G4948 (Συροφοίνισσα) et le même que G5403 (Συροφοίνισσα) ;",
    "frequency": 1,
    "kjv_def": "Syrophénicien",
    "lemma": "Συροφοίνισσα",
    "outline": "<span class=\"literal-meaning\">Syrophénicien = \"palme exaltée\"</span><ol><li> nom d'une nation mixte, moitié phéniciens et moitié syriens</li></ol>",
    "pron": "soo-rof-oy'-nis-sah",
    "strongs_def": " une Syro-phénicienne, c'est-à-dire une femme originaire de Phœnicie en Syrie",
    "xlit": "Syrophoínissa"
}