{
    "derivation": "probablement d'origine hébraïque (H06865) ;",
    "frequency": 8,
    "kjv_def": "Syrie",
    "lemma": "Συρία",
    "outline": "<span class=\"literal-meaning\">Syrie = &quot;exalté</span><ol><li> région d'Asie délimitée au nord par les chaînes du Taurus et de l'Amanus, à l'est par l'Euphrate et l'Arabie, au sud par la Palestine, et à l'ouest par la Phénicie et la Méditerranée</li></ol>",
    "pron": "soo-ree'-ah",
    "strongs_def": " Syrie (c'est-à-dire Tsyria ou Tyr), une région d'Asie",
    "xlit": "Syría"
}