{
    "derivation": "de G4862 (συνυπουργέω) et d'un dérivé d'un composé de G5259 (συνυπουργέω) et de la base de G2041 (συνυπουργέω) ;",
    "frequency": 0,
    "kjv_def": "aider ensemble",
    "lemma": "συνυπουργέω",
    "outline": "<ol><li> pour aider ensemble</li></ol>",
    "pron": "soon-oop-oorg-eh'-o",
    "strongs_def": " d'être un co-auxiliaire, c'est-à-dire d'assister",
    "xlit": "synypourgéō"
}