{
    "derivation": "de G473 (ἀντιπέραν) et G4008 (ἀντιπέραν) ;",
    "frequency": 1,
    "kjv_def": "sur contre",
    "lemma": "ἀντιπέραν",
    "outline": "<ol><li> contre, sur la rive opposée, sur l'autre côté</li></ol>",
    "pron": "an-tee-per'-an",
    "strongs_def": " sur le côté opposé",
    "xlit": "antipéran"
}