{
    "derivation": "de G4862 (συσχηματίζω) et un dérivé de G4976 (συσχηματίζω) ;",
    "frequency": 2,
    "kjv_def": "se conformer à, se façonner selon",
    "lemma": "συσχηματίζω",
    "outline": "<ol><li> se conformer (c'est-à-dire l'esprit et le caractère) au modèle d'un autre, (se façonner selon)</li></ol>",
    "pron": "soos-khay-mat-id'-zo",
    "strongs_def": " façonner de la même manière, c'est-à-dire se conformer au même modèle (au sens figuré)",
    "xlit": "syschēmatízō"
}