{
    "derivation": "de G4969 (σφαγή) ;",
    "frequency": 3,
    "kjv_def": "abattage",
    "lemma": "σφαγή",
    "outline": "<ol><li> abattage<ol><li> de moutons destinés à l'abattage</li><li> du jour de la destruction</li></ol></li></ol>",
    "pron": "sfag-ay'",
    "strongs_def": " boucherie (d'animaux pour la nourriture ou le sacrifice, ou (au sens figuré) d'hommes (destruction))",
    "xlit": "sphagḗ"
}