{
    "derivation": "de G4862 (συστρατιώτης) et G4757 (συστρατιώτης) ;",
    "frequency": 2,
    "kjv_def": "fellowsoldier",
    "lemma": "συστρατιώτης",
    "outline": "<ol><li> un compagnon d'armes</li><li> un associé dans les travaux et les conflits pour la cause du Christ</li></ol>",
    "pron": "soos-trat-ee-o'-tace",
    "strongs_def": " un co-campagnard, c'est-à-dire (au sens figuré) un associé dans le labeur chrétien",
    "xlit": "systratiṓtēs"
}