{
    "derivation": "de G4977 (σχίσμα) ;",
    "frequency": 11,
    "kjv_def": "division, loyer, schisme",
    "lemma": "σχίσμα",
    "outline": "<ol><li> un loyer</li><li> métaph. une division, une dissension</li></ol>",
    "pron": "skhis'-mah",
    "strongs_def": " une division ou un écart (\"schisme\"), au sens propre ou figuré",
    "xlit": "schísma"
}