{
    "derivation": "neutre d'un dérivé présumé probablement du même que (une boule, \"sphère\") ;",
    "frequency": 1,
    "kjv_def": "os de l'ancre",
    "lemma": "σφυρόν",
    "outline": "<ol><li> la cheville</li></ol>",
    "pron": "sfoo-ron'",
    "strongs_def": " comparer avec le féminin , un marteau) ; la cheville (comme globulaire)",
    "xlit": "sphyrón"
}