{
    "derivation": "pluriel d'origine latine ;",
    "frequency": 1,
    "kjv_def": "tavernes",
    "lemma": "Ταβέρναι",
    "outline": "<ol><li> tavernes</li><li> Les trois tavernes, nom d'une halte sur la voie Appienne entre Rome et le marché d'Appius, à 16 km de ce dernier et à 50 km de Rome</li></ol>",
    "pron": "tab-er'-nahee",
    "strongs_def": " cabanes ou bâtiments à parois de bois ; Tabernæ",
    "xlit": "Tabérnai"
}