{
    "derivation": "de G4998 (σωφροσύνη) ;",
    "frequency": 3,
    "kjv_def": "sobriété, sobriété",
    "lemma": "σωφροσύνη",
    "outline": "<ol><li> la solidité d'esprit</li><li> maîtrise de soi, sobriété</li></ol>",
    "pron": "so-fros-oo'-nay",
    "strongs_def": " la solidité d'esprit, c'est-à-dire (au sens propre) la santé mentale ou (au sens figuré) la maîtrise de soi",
    "xlit": "sōphrosýnē"
}