{
    "derivation": "neutre d'un composé de G473 (ἀντίτυπον) et G5179 (ἀντίτυπον) ;",
    "frequency": 2,
    "kjv_def": "(comme) figure (où)",
    "lemma": "ἀντίτυπον",
    "outline": "<ol><li> une chose formée d'après un modèle</li><li> une chose ressemblant à une autre, sa contrepartie<ol><li> quelque chose dans les temps messianiques qui répond au type, comme le baptême correspond au déluge (1 P 3,21)</li></ol></li></ol>",
    "pron": "an-teet'-oo-pon",
    "strongs_def": " correspondant (\"antitype\"), c'est-à-dire un représentant, une contrepartie",
    "xlit": "antítypon"
}