{
    "derivation": "neutre d'un dérivé présumé de la forme originale de (to bear ;",
    "frequency": 15,
    "kjv_def": "talent",
    "lemma": "τάλαντον",
    "outline": "<ol><li> la balance d'une balance, une balance, un couple de balances</li><li> ce qui est pesé, un talent<ol><li> un poids qui varie selon les lieux et les époques</li><li> une somme d'argent pesant un talent et variant dans les différents états et selon les changements des lois régissant la monnaie<ol><li> le talent attique était égal à 60 minae attiques ou 6000 drachmes</li><li> un talent d'argent en Israël pesait environ 100 livres (45 kg)</li><li> un talent d'or en Israël pesait environ 200 livres (91 kg)</li></ol></li></ol></li></ol>",
    "pron": "tal'-an-ton",
    "strongs_def": " équivalent à G5342 (τάλαντον)) ; une balance (comme support de poids), c'est-à-dire (implicitement) un certain poids (et donc une pièce de monnaie ou une somme d'argent) ou un \"talent\"",
    "xlit": "tálanton"
}