{
    "derivation": "d'origine araméenne (voir H06646) ;",
    "frequency": 2,
    "kjv_def": "Tabitha",
    "lemma": "Ταβιθά",
    "outline": "<span class=\"literal-meaning\">Tabitha = &quot;gazelle femelle&quot;</span><ol><li> le nom de la femme que Pierre a ressuscitée des morts</li></ol>",
    "pron": "tab-ee-thah'",
    "strongs_def": " la gazelle ; Tabitha (i.e. Tabjetha), une femme chrétienne",
    "xlit": "Tabithá"
}