{
    "derivation": "de G5021 (τάγμα) ;",
    "frequency": 2,
    "kjv_def": "commander",
    "lemma": "τάγμα",
    "outline": "<ol><li> ce qui a été arrangé, ce qui a été mis en ordre</li><li> un corps de soldats, un corps d'armée</li><li> bande, troupe, classe</li></ol>",
    "pron": "tag'-mah",
    "strongs_def": " quelque chose d'ordonné dans la disposition (une troupe), c'est-à-dire (au sens figuré) une série ou une succession",
    "xlit": "tágma"
}