{
    "derivation": "contraction neutre d'un dérivé présumé de (un distributeur ou une distributrice ;",
    "frequency": 4,
    "kjv_def": "chambre secrète, placard, entrepôt",
    "lemma": "ταμεῖον",
    "outline": "<ol><li> une chambre de stockage, un débarras</li><li> une chambre, notamment une chambre intérieure</li><li> une pièce secrète</li></ol>",
    "pron": "tam-i'-on",
    "strongs_def": " apparenté à , couper) ; une officine ou un magasin, c'est-à-dire une chambre au rez-de-chaussée ou à l'intérieur d'une maison orientale (généralement utilisée pour le stockage ou l'intimité, un lieu de retraite)",
    "xlit": "tameîon"
}