{
    "derivation": "masculin de G5015 (τάραχος) ;",
    "frequency": 2,
    "kjv_def": "remuer",
    "lemma": "τάραχος",
    "outline": "<ol><li> commotion, agitation (de l'esprit)</li><li> tumulte</li></ol>",
    "pron": "tar'-akh-os",
    "strongs_def": " une perturbation, c'est-à-dire un tumulte (populaire)",
    "xlit": "tárachos"
}