{
    "derivation": "de (la cale d'un navire) ;",
    "frequency": 4,
    "kjv_def": "tirer (out)",
    "lemma": "ἀντλέω",
    "outline": "<ol><li> tirer l'eau de la cale d'un navire, la mettre en balles ou la pomper</li><li> tirer de l'eau</li></ol>",
    "pron": "ant-leh-o",
    "strongs_def": " mettre en ballottage (proprement, eau de cale), c'est-à-dire tremper de l'eau (avec un seau, une cruche, etc.)",
    "xlit": "antléō"
}