{
    "derivation": "de G5019 (Ταρσεύς) ;",
    "frequency": 2,
    "kjv_def": "de Tarse",
    "lemma": "Ταρσεύς",
    "outline": "<span class=\"literal-meaning\">Tarsus = &quot;un panier plat&quot;</span><ol><li> appartenir à Tarsus, être originaire de Tarsus</li></ol>",
    "pron": "tar-syoos'",
    "strongs_def": " un Tarsean, c'est-à-dire originaire de Tarsus",
    "xlit": "Tarseús"
}