{
    "derivation": "datif cas et accusatif cas féminin pluriel respectivement de G3778 (ταύτας) ;",
    "frequency": 0,
    "kjv_def": "donc, que, alors, ceux-ci, ceux-là",
    "lemma": "ταύτας",
    "outline": "<ol><li> ceux, ceux</li></ol>",
    "pron": "tow'-tas",
    "strongs_def": " (à ou avec ou par, etc.) ceux-ci",
    "xlit": "taútais"
}