{
    "derivation": "apparemment un mot primaire (comparer H08450, \"diriger\") ;",
    "frequency": 4,
    "kjv_def": "taureau, bœuf",
    "lemma": "ταῦρος",
    "outline": "<ol><li> un taureau ou un bœuf</li></ol>",
    "pron": "tow'-ros",
    "strongs_def": " un bœuf",
    "xlit": "taûros"
}