{
    "derivation": "adverbe de G5036 (ταχέως) ;",
    "frequency": 11,
    "kjv_def": "hâtivement, rapidement, peu de temps, bientôt, soudainement",
    "lemma": "ταχέως",
    "outline": "<ol><li> rapidement, sous peu</li></ol>",
    "pron": "takh-eh'-oce",
    "strongs_def": " brièvement, c'est-à-dire (dans le temps) avec rapidité, ou (de manière) rapidement",
    "xlit": "tachéōs"
}