{
    "derivation": "pluriel neutre du superlatif de G5036 (τάχιστα) (comme adverbe) ;",
    "frequency": 1,
    "kjv_def": "+ avec toute la rapidité nécessaire",
    "lemma": "τάχιστα",
    "outline": "<ol><li> très rapidement</li></ol>",
    "pron": "takh'-is-tah",
    "strongs_def": " le plus rapidement, c'est-à-dire (avec G5613 (τάχιστα) préfixé) le plus tôt possible",
    "xlit": "táchista"
}