{
    "derivation": "une particule primaire (enclitique) de connexion ou d'addition ;",
    "frequency": 215,
    "kjv_def": "aussi, et, les deux, même, alors, si",
    "lemma": "τέ",
    "outline": "<ol><li> non seulement ... mais aussi</li><li> les deux ... et</li><li> comme ... donc</li></ol>",
    "pron": "teh",
    "strongs_def": " les deux ou aussi (proprement, comme corrélation de G2532 (τέ))",
    "xlit": "té"
}