{
    "derivation": "apparenté à la base de G5088 (τεῖχος) ;",
    "frequency": 8,
    "kjv_def": "mur",
    "lemma": "τεῖχος",
    "outline": "<ol><li> le mur autour d'une ville, le mur de la ville</li></ol>",
    "pron": "ti'-khos",
    "strongs_def": " un mur (en tant que formateur d'une maison)",
    "xlit": "teîchos"
}