{
    "derivation": "diminutif de G5043 (τεκνίον) ;",
    "frequency": 8,
    "kjv_def": "les petits enfants",
    "lemma": "τεκνίον",
    "outline": "<ol><li> un petit enfant</li><li> dans le NT, utilisé comme un terme d'adresse aimable par les enseignants à leurs disciples</li></ol>",
    "pron": "tek-nee'-on",
    "strongs_def": " un nourrisson, c'est-à-dire (au pluriel et au sens figuré) des chéris (des chrétiens convertis)",
    "xlit": "tekníon"
}