{
    "derivation": "d'un dérivé présumé de G5055 (τελευτάω) ;",
    "frequency": 11,
    "kjv_def": "être mort, mourir, mourir",
    "lemma": "τελευτάω",
    "outline": "<ol><li> terminer, mettre un terme, clôturer</li><li> avoir une fin ou fermer, se terminer</li></ol>",
    "pron": "tel-yoo-tah'-o",
    "strongs_def": " terminer la vie (par implication, de G979 (τελευτάω)), c'est-à-dire expirer (démise)",
    "xlit": "teleutáō"
}