{
    "derivation": "de G5053 (τελευτή) ;",
    "frequency": 1,
    "kjv_def": "décès",
    "lemma": "τελευτή",
    "outline": "<ol><li> la fin de la vie, le décès, la mort</li></ol>",
    "pron": "tel-yoo-tay'",
    "strongs_def": " décès",
    "xlit": "teleutḗ"
}