{
    "derivation": "de G1 (ἀνυπόκριτος) (adverbe de négation) et un dérivé présumé de G5271 (ἀνυπόκριτος) ;",
    "frequency": 5,
    "kjv_def": "sans dissimulation (hypocrisie), sans feinte",
    "lemma": "ἀνυπόκριτος",
    "outline": "<ol><li> non feinte, non déguisée, sincère</li></ol>",
    "pron": "an-oo-pok'-ree-tos",
    "strongs_def": " non démonté, c'est-à-dire sincère",
    "xlit": "anypókritos"
}