{
    "derivation": "de G5448 (τελείωσις) ;",
    "frequency": 2,
    "kjv_def": "perfection, performance",
    "lemma": "τελείωσις",
    "outline": "<ol><li> un achèvement, un perfectionnement<ol><li> réalisation, accomplissement</li><li> l'événement qui vérifie la promesse</li><li> consommation, perfection</li></ol></li></ol>",
    "pron": "tel-i'-o-sis",
    "strongs_def": " (l'acte) l'achèvement, c'est-à-dire (de la prophétie) la vérification, ou (de l'expiation) l'absolution",
    "xlit": "teleíōsis"
}