{
    "derivation": "de G1 (ἀνυπότακτος) (adverbe de négation) et un dérivé présumé de G5293 (ἀνυπότακτος) ;",
    "frequency": 4,
    "kjv_def": "désobéissant, qui n'est pas mis sous, indiscipliné",
    "lemma": "ἀνυπότακτος",
    "outline": "<ol><li> qui n'est pas soumis, insoumis</li><li> qui ne peut être soumis à un contrôle, désobéissant, indiscipliné, réfractaire</li></ol>",
    "pron": "an-oo-pot'-ak-tos",
    "strongs_def": " insoumis, c'est-à-dire insubordonné (de fait ou d'humeur)",
    "xlit": "anypótaktos"
}