{
    "derivation": "d'origine latine ;",
    "frequency": 1,
    "kjv_def": "Tertius",
    "lemma": "Τέρτιος",
    "outline": "<span class=\"literal-meaning\">Tertius = &quot;troisième&quot;</span><ol><li> amanuensis de Paul pour la rédaction de l'épître aux Romains</li></ol>",
    "pron": "ter'-tee-os",
    "strongs_def": " troisième ; Tertius, un chrétien",
    "xlit": "Tértios"
}