{
    "derivation": "de G5078 (τεχνίτης) ;",
    "frequency": 4,
    "kjv_def": "constructeur, artisan",
    "lemma": "τεχνίτης",
    "outline": "<ol><li> un artificier, un artisan</li></ol>",
    "pron": "tekh-nee'-tace",
    "strongs_def": " un artisan ; au sens figuré, un fondateur (Créateur)",
    "xlit": "technítēs"
}