{
    "derivation": "de G5076 (τετραρχέω) ;",
    "frequency": 3,
    "kjv_def": "(être) tétrarque",
    "lemma": "τετραρχέω",
    "outline": "<ol><li> être gouverneur d'une tétrarchie, être tétrarque d'une région</li></ol>",
    "pron": "tet-rar-kheh'-o",
    "strongs_def": " pour être un tétrarque",
    "xlit": "tetrarchéō"
}