{
    "derivation": "de G5064 (τετράρχης) et G757 (τετράρχης) ;",
    "frequency": 4,
    "kjv_def": "tétrarque",
    "lemma": "τετράρχης",
    "outline": "<ol><li> un tétrarque<ol><li> un gouverneur de la quatrième partie d'une région. Ainsi, Strabon affirme que la Galactie était autrefois divisée en trois parties, chacune d'elles étant distribuée en quatre subdivisions plus petites, chacune étant gouvernée par un tétrarque. Strabon raconte que la Thessalie, avant l'époque de Philippe de Macédoine, avait été divisée en quatre tétrarchies, chacune ayant son propre tétrarque.</li><li> le gouverneur d'un tiers ou de la moitié d'un pays, ou même le dirigeant d'un pays ou d'un district entier, à condition qu'il ait des limites relativement étroites ; un petit prince. C'est ainsi qu'Antoine fit d'Hérode (devenu roi) et de Phasaël, fils d'Antipater, des tétrarques de Palestine. Après la mort d'Hérode le Grand, ses fils, Achelaus, qualifié d'ethnarque, Antipas et Philippe, portant le titre de tétrarques, se partagèrent et gouvernèrent le royaume laissé par leur père.</li></ol></li></ol>",
    "pron": "tet-rar'-khace",
    "strongs_def": " le souverain d'une quatrième partie d'un pays (\"tétrarque\")",
    "xlit": "tetrárchēs"
}