{
    "derivation": "de G507 (ἀνώγεον) et G1093 (ἀνώγεον) ;",
    "frequency": 2,
    "kjv_def": "salle supérieure",
    "lemma": "ἀνώγεον",
    "outline": "<ol><li> tout ce qui se trouve au-dessus du sol</li><li> une pièce dans la partie supérieure d'une maison</li></ol>",
    "pron": "an-ogue'-eh-on",
    "strongs_def": " au-dessus du sol, c'est-à-dire (proprement) le deuxième étage d'un bâtiment ; utilisé pour un dôme ou un balcon à l'étage supérieur",
    "xlit": "anṓgeon"
}