{
    "derivation": "à partir d'un composé de G3588 (τηλικαύτη) avec G2245 (τηλικαύτη) et G3778 (τηλικαύτη) ;",
    "frequency": 3,
    "kjv_def": "si grand, si puissant",
    "lemma": "τηλικαύτη",
    "outline": "<ol><li> d'âge<ol><li> d'un tel âge</li><li> d'un si grand âge, si vieux</li><li> si jeune</li></ol> d'une<li> si grande taille, d'un tel volume,</li>d'une telle<li> grandeur</li></ol>",
    "pron": "tay-lik-ow'-tay",
    "strongs_def": " comme ceci, c'est-à-dire (en grandeur (figurative)) si vaste",
    "xlit": "tēlikoûtos"
}