{
    "derivation": "apparemment un verbe primaire ;",
    "frequency": 1,
    "kjv_def": "fondre",
    "lemma": "τήκω",
    "outline": "<ol><li> rendre liquide</li><li> devenir liquide, fondre</li><li> périr ou être détruit par la fonte</li></ol>",
    "pron": "tay'-ko",
    "strongs_def": " liquéfier",
    "xlit": "tḗkō"
}