{
    "derivation": "une forme prolongée d'un primaire (qui n'est utilisé que comme alternatif dans certains temps) ;",
    "frequency": 104,
    "kjv_def": "+ conseiller, nommer, s'incliner, s'engager, concevoir, donner, X s'agenouiller, poser (sur le côté, en bas, en haut), faire, ordonner, avoir pour but, mettre, établir (en avant), régler, s'enfoncer",
    "lemma": "τίθημι",
    "outline": "<ol><li> mettre, poser, placer<ol><li> placer ou déposer</li><li> poser, déposer<ol><li> se pencher vers le bas</li><li> déposer ou mettre de côté, ne plus porter ou transporter</li><li> déposer, mettre de côté de l'argent</li></ol><li> mettre sur (servir) quelque chose à manger ou à boire</li><li> mettre en avant, quelque chose à expliquer par le discours</li></ol><li>faire<ol><li> faire (ou mettre) pour soi ou pour son usage</li></ol><li> fixer, fixer établir établir</li>mettre<li><ol><li> en avant</li><li> établir, ordonner</li></ol></li></li> </ol>",
    "pron": "theh'-o",
    "strongs_def": " placer (dans l'application la plus large, littéralement et figurativement ; proprement, dans une posture passive ou horizontale, et donc différent de G2476 (τίθημι), qui désigne proprement une position droite et active, tandis que G2749 (τίθημι) est proprement réflexif et complètement prostré)",
    "xlit": "títhēmi"
}