{
    "derivation": "renforcée pour une primaire (qui n'est utilisée comme alternative que dans certains temps) ;",
    "frequency": 1,
    "kjv_def": "être puni par",
    "lemma": "τίνω",
    "outline": "<ol><li> payer, récompenser</li><li> payer une pénalité, subir une punition</li></ol>",
    "pron": "tee'-o",
    "strongs_def": " payer un prix, c'est-à-dire une pénalité",
    "xlit": "tínō"
}