{
    "derivation": "de G5093 (τιμάω) ;",
    "frequency": 21,
    "kjv_def": "honneur, valeur",
    "lemma": "τιμάω",
    "outline": "<ol><li> estimer, fixer la valeur<ol><li> pour la valeur de quelque chose qui appartient à soi-même</li></ol><li> honorer, avoir en honneur, révérer, vénérer</li></ol>",
    "pron": "tim-ah'-o",
    "strongs_def": " attacher de l'importance, c'est-à-dire fixer une valeur ; implicitement, vénérer",
    "xlit": "timáō"
}