{
    "derivation": "de G511 (ἀνωτερικός) ;",
    "frequency": 1,
    "kjv_def": "supérieur",
    "lemma": "ἀνωτερικός",
    "outline": "<ol><li> supérieur</li></ol>",
    "pron": "an-o-ter-ee-kos'",
    "strongs_def": " supérieur, c'est-à-dire (localement) plus éloigné",
    "xlit": "anōterikós"
}