{
    "derivation": "(y compris les autres flexions) ; d'un dérivé de 5104 et G1161 (τοιόσδε) ;",
    "frequency": 1,
    "kjv_def": "tel",
    "lemma": "τοιόσδε",
    "outline": "<ol><li> tel</li></ol>",
    "pron": "toy-os'-deh",
    "strongs_def": " tel que, alors, c'est-à-dire si grand",
    "xlit": "toiósde"
}