{
    "derivation": "une autre forme de G5038 (τοῖχος) ;",
    "frequency": 1,
    "kjv_def": "mur",
    "lemma": "τοῖχος",
    "outline": "<ol><li> un mur (d'une maison)</li></ol>",
    "pron": "toy'-khos",
    "strongs_def": " un mur",
    "xlit": "toîchos"
}