{
    "derivation": "(y compris les autres flexions) ; de G5104 (τοιοῦτος) et G3778 (τοιοῦτος) ;",
    "frequency": 57,
    "kjv_def": "comme, tel (un)",
    "lemma": "τοιοῦτος",
    "outline": "<ol><li> comme ceci, de ce genre ou de cette sorte</li></ol>",
    "pron": "toy-oo'-tos",
    "strongs_def": " vraiment cela, c'est-à-dire de cette sorte (pour indiquer le caractère ou l'individualité)",
    "xlit": "toioûtos"
}