{
    "derivation": "probablement pour le cas datif de G3588 (τοί) ;",
    "frequency": 0,
    "kjv_def": "(utilisé uniquement avec d'autres particules dans le comparatif, comme G2544 (τοί), G3305 (τοί), G5105 (τοί), G5106 (τοί), etc",
    "lemma": "τοί",
    "outline": "<ol><li> certainement, vraiment</li></ol>",
    "pron": "toy",
    "strongs_def": " une particule enclitique d'assertion à titre de contraste ; en outre",
    "xlit": "toí"
}