{
    "derivation": "de (l'audace ;",
    "frequency": 13,
    "kjv_def": "être audacieux, audacieusement, oser, durst",
    "lemma": "τολμάω",
    "outline": "<ol><li> ne pas craindre ou fuir par peur</li><li> supporter, endurer</li><li> s'amener à</li><li> être audacieux</li><li> se porter hardiment, agir hardiment</li></ol>",
    "pron": "tol-mah'-o",
    "strongs_def": " probablement lui-même de la base de G5056 (τολμάω) par l'idée de conduite extrême) ; s'aventurer (objectivement ou en acte ; alors que G2292 (τολμάω) est plutôt subjectif ou en sentiment) ; par implication, être courageux",
    "xlit": "tolmáō"
}