{
    "derivation": "de G5111 (τολμητής) ;",
    "frequency": 1,
    "kjv_def": "présomptueux",
    "lemma": "τολμητής",
    "outline": "<ol><li> un homme audacieux</li></ol>",
    "pron": "tol-may-tace'",
    "strongs_def": " un homme audacieux (audacieuse)",
    "xlit": "tolmētḗs"
}