{
    "derivation": "de la base de (à la blessure ;",
    "frequency": 1,
    "kjv_def": "blessure",
    "lemma": "τραῦμα",
    "outline": "<ol><li> une blessure</li></ol>",
    "pron": "trow'-mah",
    "strongs_def": " apparenté à la base de G2352 (τραῦμα), G5147 (τραῦμα), G5149 (τραῦμα), etc.) ; une blessure",
    "xlit": "traûma"
}