{
    "derivation": "de G5140 (τρίβολος) et G956 (τρίβολος) ;",
    "frequency": 2,
    "kjv_def": "baies, chardons",
    "lemma": "τρίβολος",
    "outline": "<ol><li> un chardon, une plante sauvage piquante, nuisible aux autres plantes</li></ol>",
    "pron": "trib'-ol-os",
    "strongs_def": " à proprement parler, une patte d'oie (obstacle à trois branches à la guerre), c'est-à-dire (par analogie) une plante épineuse (caltrop)",
    "xlit": "tríbolos"
}