{
    "derivation": "de G5141 (τρόμος) ;",
    "frequency": 5,
    "kjv_def": "+ trembler (-ing)",
    "lemma": "τρόμος",
    "outline": "<ol><li> un tremblement ou une secousse de peur</li><li> avec crainte et tremblement, utilisé pour décrire l'anxiété de quelqu'un qui doute de sa capacité à remplir toutes les exigences, mais qui fait religieusement tout son possible pour remplir son devoir</li></ol>",
    "pron": "trom'-os",
    "strongs_def": " un \"tremblement\", c'est-à-dire un tremblement de peur",
    "xlit": "trómos"
}