{
    "derivation": "de G5151 (τρισχίλιοι) et G5507 (τρισχίλιοι) ;",
    "frequency": 1,
    "kjv_def": "trois mille",
    "lemma": "τρισχίλιοι",
    "outline": "<ol><li> trois mille</li></ol>",
    "pron": "tris-khil'-ee-oy",
    "strongs_def": " trois fois mille",
    "xlit": "trischílioi"
}