{
    "derivation": "d'une apparence primaire à tourner ;",
    "frequency": 1,
    "kjv_def": "tournant",
    "lemma": "τροπή",
    "outline": "<ol><li> un tournage<ol><li> des corps célestes</li></ol></li></ol>",
    "pron": "trop-ay'",
    "strongs_def": " un tournant (\"trope\"), c'est-à-dire une révolution (au sens figuré, une variation)",
    "xlit": "tropḗ"
}