{
    "derivation": "neutre d'un composé de G5140 (τρίστεγον) et G4721 (τρίστεγον) comme nom ;",
    "frequency": 1,
    "kjv_def": "troisième loft",
    "lemma": "τρίστεγον",
    "outline": "<ol><li> ayant trois toits ou étages, le troisième étage</li></ol>",
    "pron": "tris'-teg-on",
    "strongs_def": " un troisième toit (histoire)",
    "xlit": "trístegon"
}