{
    "derivation": "ordinal de G5140 (τρίτος) ;",
    "frequency": 55,
    "kjv_def": "troisième(-ly)",
    "lemma": "τρίτος",
    "outline": "<ol><li> le troisième</li></ol>",
    "pron": "tree'-tos",
    "strongs_def": " troisième ; neutre (comme nom) une troisième partie, ou (comme adverbe) une (ou la) troisième fois, troisièmement",
    "xlit": "trítos"
}