{
    "derivation": "d'un dérivé de (sécher) signifiant fruit mûr (comme sec) ;",
    "frequency": 3,
    "kjv_def": "rassembler",
    "lemma": "τρυγάω",
    "outline": "<ol><li> cueillir des fruits mûrs</li><li> cueillir la récolte ou le millésime<ol><li> de fruits cueillis</li></ol></li></ol>",
    "pron": "troo-gah'-o",
    "strongs_def": " pour collecter le millésime",
    "xlit": "trygáō"
}