{
    "derivation": "de dérivation incertaine ;",
    "frequency": 0,
    "kjv_def": "Trogyllium",
    "lemma": "Τρωγύλλιον",
    "outline": "<span class=\"literal-meaning\">Trogyllium = &quot;une cache&quot;</span><ol><li> nom d'une ville et d'un promontoire d'Ionie, non loin de l'île de Samos, au pied du mont Mycale, entre Éphèse et l'embouchure du fleuve Méandre</li></ol>",
    "pron": "tro-gool'-lee-on",
    "strongs_def": " Trogyllium, un lieu en Asie Mineure",
    "xlit": "Trōgýllion"
}