{
    "derivation": "du (latin turba, une foule ;",
    "frequency": 1,
    "kjv_def": "problème",
    "lemma": "τυρβάζω",
    "outline": "<ol><li> perturber, troubler</li><li> avoir l'esprit troublé, être inquiet</li></ol>",
    "pron": "toor-bad'-zo",
    "strongs_def": " apparenté à G2351 (τυρβάζω)) ; rendre \"trouble\", c'est-à-dire troubler",
    "xlit": "tyrbázō"
}