{
    "derivation": "de G5185 (τυφλόω) ;",
    "frequency": 2,
    "kjv_def": "aveugle",
    "lemma": "τυφλόω",
    "outline": "<ol><li> aveugler, rendre aveugle</li><li> dans le NT, métaphore : émousser le discernement mental, obscurcir l'esprit</li></ol>",
    "pron": "toof-lo'-o",
    "strongs_def": " rendre aveugle, c'est-à-dire (au sens figuré) obscurcir",
    "xlit": "typhlóō"
}