{
    "derivation": "de G575 (ἀπαγγέλλω) et la base de G32 (ἀπαγγέλλω) ;",
    "frequency": 47,
    "kjv_def": "apporter la parole (encore), déclarer, rapporter, montrer (encore), dire",
    "lemma": "ἀπαγγέλλω",
    "outline": "<ol><li> apporter des nouvelles (d'une personne ou d'une chose), apporter une parole, rapporter</li><li> proclamer, faire connaître ouvertement, déclarer</li></ol>",
    "pron": "ap-ang-el'-lo",
    "strongs_def": " d'annoncer",
    "xlit": "apangéllō"
}