{
    "derivation": "un verbe primaire (sous une forme renforcée) ;",
    "frequency": 14,
    "kjv_def": "battre, frapper, frapper, blesser",
    "lemma": "τύπτω",
    "outline": "<ol><li> frapper, battre, frapper<ol><li> avec un bâton, un fouet, le poing, la main</li><li> des pleureurs, leur frapper la poitrine</li></ol><li> frapper celui à qui il inflige un mal punitif</li><li> frapper<ol><li> métaphoriquement, c'est-à-dire blesser, troubler sa conscience</li></ol></li></ol>",
    "pron": "toop'-to",
    "strongs_def": " frapper\", c'est-à-dire avec un bâton ou un bastinado, mais dans tous les cas par des coups répétés ; ce qui diffère de G3817 (τύπτω) et G3960 (τύπτω), qui désignent un coup (généralement unique) avec la main ou un instrument quelconque, ou G4141 (τύπτω) avec le poing (ou un marteau), ou G4474 (τύπτω) avec la paume ; ainsi que de G5177 (τύπτω), une collision accidentelle) ; par implication, punir ; au sens figuré, offenser (la conscience)",
    "xlit": "týptō"
}