{
    "derivation": "de G5184 (Τύριος) ;",
    "frequency": 1,
    "kjv_def": "de Tyr",
    "lemma": "Τύριος",
    "outline": "<ol><li> un résident de Tyr</li></ol>",
    "pron": "too'-ree-os",
    "strongs_def": " un Tyrien, c'est-à-dire un habitant de Tyrus",
    "xlit": "Týrios"
}