{
    "derivation": "de G575 (ἀπάγχομαι) et (étouffer ;",
    "frequency": 1,
    "kjv_def": "se pendre",
    "lemma": "ἀπάγχομαι",
    "outline": "<ol><li> étouffer, étrangler, afin de mettre hors d'état de nuire ou de tuer</li><li> se pendre, mettre fin à sa vie par pendaison</li></ol>",
    "pron": "ap-ang'-khom-ahee",
    "strongs_def": " apparenté à la base de G43 (ἀπάγχομαι)) ; s'étrangler (c'est-à-dire à mort)",
    "xlit": "apánchomai"
}