{
    "derivation": "de G50 (ἄγνοια) ;",
    "frequency": 4,
    "kjv_def": "ignorance",
    "lemma": "ἄγνοια",
    "outline": "<ol><li> manque de connaissance, ignorance<ol><li> surtout des choses divines</li><li> d'aveuglement moral</li></ol></li></ol>",
    "pron": "ag'-noy-ah",
    "strongs_def": " l'ignorance (proprement, la qualité)",
    "xlit": "ágnoia"
}