{
    "derivation": "de la base de G5205 (ὑγρός) ;",
    "frequency": 1,
    "kjv_def": "vert",
    "lemma": "ὑγρός",
    "outline": "<ol><li> humide, mouillé, mouillé</li><li> plein de sève, vert</li></ol>",
    "pron": "hoo-gros'",
    "strongs_def": " mouillé (comme s'il y avait eu de la pluie), c'est-à-dire (par implication) sappy (frais)",
    "xlit": "hygrós"
}