{
    "derivation": "peut-être apparenté à G3586 (ὕλη) ;",
    "frequency": 1,
    "kjv_def": "matière",
    "lemma": "ὕλη",
    "outline": "<ol><li> une forêt, un bois</li><li> bois abattu, combustible</li></ol>",
    "pron": "hoo-lay'",
    "strongs_def": " une forêt, c'est-à-dire (implicitement) un combustible",
    "xlit": "hýlē"
}