{
    "derivation": "cas accusatif de G5210 (ὑμᾶς) ;",
    "frequency": 0,
    "kjv_def": "ye, you (+ -ward), your (+ own)",
    "lemma": "ὑμᾶς",
    "outline": "<ol><li> vous</li></ol>",
    "pron": "hoo-mas'",
    "strongs_def": " vous (comme objectif d'un verbe ou d'une préposition)",
    "xlit": "hymâs"
}