{
    "derivation": "de G1 (ἀπαίδευτος) (adverbe de négation) et un dérivé de G3811 (ἀπαίδευτος) ;",
    "frequency": 1,
    "kjv_def": "non apprises",
    "lemma": "ἀπαίδευτος",
    "outline": "<ol><li> sans instruction, et disciple, sans éducation, ignorant, grossier</li></ol>",
    "pron": "ap-ah'-ee-dyoo-tos",
    "strongs_def": " non instruit, c'est-à-dire (au sens figuré) stupide",
    "xlit": "apaídeutos"
}