{
    "derivation": "de G5259 (ὑπάγω) et G71 (ὑπάγω) ;",
    "frequency": 81,
    "kjv_def": "partir, s'en aller, partir (a-)loin",
    "lemma": "ὑπάγω",
    "outline": "<ol><li> conduire sous, amener sous</li><li> se retirer, s'éloigner, partir</li></ol>",
    "pron": "hoop-ag'-o",
    "strongs_def": " s'enfoncer, c'est-à-dire se retirer ou se retirer (comme si l'on s'enfonçait à l'abri des regards), au sens propre ou figuré",
    "xlit": "hypágō"
}