{
    "derivation": "de G5259 (ὑπαντάω) et un dérivé de G473 (ὑπαντάω) ;",
    "frequency": 11,
    "kjv_def": "(aller à) rencontrer",
    "lemma": "ὑπαντάω",
    "outline": "<ol><li> d'aller à la rencontre, de se rencontrer</li><li> en référence militaire<ol><li> d'une rencontre hostile</li></ol></li></ol>",
    "pron": "hoop-an-tah'-o",
    "strongs_def": " aller à l'opposé (rencontrer) en dessous (tranquillement), c'est-à-dire rencontrer, s'associer avec",
    "xlit": "hypantáō"
}