{
    "derivation": "de G5259 (ὑπάρχω) et G756 (ὑπάρχω) ;",
    "frequency": 49,
    "kjv_def": "après, se comporter, vivre",
    "lemma": "ὑπάρχω",
    "outline": "<ol><li> commencer en bas, faire un début<ol><li> commencer</li></ol><li> venir, d'où être là, être prêt, être à portée de main</li><li> être</li></ol>",
    "pron": "hoop-ar'-kho",
    "strongs_def": " commencer sous (tranquillement), c'est-à-dire venir à l'existence (être présent ou à portée de main) ; de manière explétive, exister (comme copule ou subordonné à un adjectif, un participe, un adverbe ou une préposition, ou comme auxiliaire d'un principal (verbe)",
    "xlit": "hypárchō"
}