{
    "derivation": "de G5259 (ὕπανδρος) et G435 (ὕπανδρος) ;",
    "frequency": 1,
    "kjv_def": "qui a un mari",
    "lemma": "ὕπανδρος",
    "outline": "<ol><li> sous, c'est-à-dire soumise à un homme : mariée</li></ol>",
    "pron": "hoop'-an-dros",
    "strongs_def": " dans la soumission à un homme, c'est-à-dire une femme mariée",
    "xlit": "hýpandros"
}