{
    "derivation": "de G5228 (ὑπέρογκος) et G3591 (ὑπέρογκος) ;",
    "frequency": 2,
    "kjv_def": "grand gonflement",
    "lemma": "ὑπέρογκος",
    "outline": "<ol><li> débordant</li><li> métaph. immodéré, extravagant</li></ol>",
    "pron": "hoop-er'-ong-kos",
    "strongs_def": " débordant, c'est-à-dire (au sens figuré) insolent",
    "xlit": "hypéronkos"
}