{
    "derivation": "de G5228 (ὑπερεκχύνω) et la forme alternative de G1632 (ὑπερεκχύνω) ;",
    "frequency": 1,
    "kjv_def": "écraser",
    "lemma": "ὑπερεκχύνω",
    "outline": "<ol><li> déverser au-delà de la mesure</li><li> déborder, s'écouler</li></ol>",
    "pron": "hoop-er-ek-khoo'-no",
    "strongs_def": " verser sur, c'est-à-dire (passivement) déborder",
    "xlit": "hyperekchýnō"
}