{
    "derivation": "de G5257 (ὑπηρετέω) ;",
    "frequency": 3,
    "kjv_def": "servir (à), servir",
    "lemma": "ὑπηρετέω",
    "outline": "<ol><li> agir comme un rameur, ramer</li><li> servir, rendre des services</li></ol>",
    "pron": "hoop-ay-ret-eh'-o",
    "strongs_def": " être un subalterne, c'est-à-dire (implicitement) servir",
    "xlit": "hypēretéō"
}