{
    "derivation": "de G575 (ἀπαλλάσσω) et G236 (ἀπαλλάσσω) ;",
    "frequency": 3,
    "kjv_def": "livrer, quitter",
    "lemma": "ἀπαλλάσσω",
    "outline": "<ol><li> enlever, libérer, être enlevé, partir</li><li> libérer, délivrer</li></ol>",
    "pron": "ap-al-las'-so",
    "strongs_def": " changer, c'est-à-dire libérer, enlever (par réflexe)",
    "xlit": "apallássō"
}