{
    "derivation": "de G5259 (ὑποδέχομαι) et G1209 (ὑποδέχομαι) ;",
    "frequency": 4,
    "kjv_def": "recevoir",
    "lemma": "ὑποδέχομαι",
    "outline": "<ol><li> à recevoir en tant qu'invité</li></ol>",
    "pron": "hoop-od-ekh'-om-ahee",
    "strongs_def": " accueillir sous son toit, c'est-à-dire recevoir de manière hospitalière",
    "xlit": "hypodéchomai"
}