{
    "derivation": "de G575 (ἀπαλλοτριόω) et un dérivé de G245 (ἀπαλλοτριόω) ;",
    "frequency": 3,
    "kjv_def": " aliéner, être étranger",
    "lemma": "ἀπαλλοτριόω",
    "outline": "<ol><li> aliéner, éloigner</li><li> être exclu de la communauté et de l'intimité d'une personne</li></ol>",
    "pron": "ap-al-lot-ree-o'-o",
    "strongs_def": " s'éloigner, c'est-à-dire (au passif et au figuré) ne pas participer à la vie de la société",
    "xlit": "apallotrióō"
}