{
    "derivation": "de dérivation incertaine ;",
    "frequency": 2,
    "kjv_def": "offre",
    "lemma": "ἀπαλός",
    "outline": "<ol><li> tendre<ol><li> d'une branche d'un arbre qui est pleine de sève</li></ol></li></ol>",
    "pron": "ap-al-os'",
    "strongs_def": " doux",
    "xlit": "apalós"
}