{
    "derivation": "de G5288 (ὑποστολή) ;",
    "frequency": 1,
    "kjv_def": "se retirer",
    "lemma": "ὑποστολή",
    "outline": "<ol><li> la timidité d'une personne qui se retire furtivement</li></ol>",
    "pron": "hoop-os-tol-ay'",
    "strongs_def": " le rétrécissement (la timidité), c'est-à-dire (implicitement) l'apostasie",
    "xlit": "hypostolḗ"
}