{
    "derivation": "de G5259 (ὑποτρέχω) et G5143 (ὑποτρέχω) (y compris son alternatif) ;",
    "frequency": 1,
    "kjv_def": "courir sous",
    "lemma": "ὑποτρέχω",
    "outline": "<ol><li> courir sous le vent<ol><li> des navigateurs<ol><li> passer devant un endroit sur le rivage, et donc dans une position plus élevée</li><li> courir sous le vent de</li></ol></li></ol></li></ol>",
    "pron": "hoop-ot-rekh'-o",
    "strongs_def": " passer sous, c'est-à-dire (surtout), passer devant",
    "xlit": "hypotréchō"
}