{
    "derivation": "apparemment un mot primaire ;",
    "frequency": 1,
    "kjv_def": "semer",
    "lemma": "ὗς",
    "outline": "<ol><li> porcine</li></ol>",
    "pron": "hoos",
    "strongs_def": " un porc (\"swine\")",
    "xlit": "hŷs"
}