{
    "derivation": "à partir d'un composé de G5308 (ὑψηλοφρονέω) et G5424 (ὑψηλοφρονέω) ;",
    "frequency": 0,
    "kjv_def": "avoir de l'esprit",
    "lemma": "ὑψηλοφρονέω",
    "outline": "<ol><li> avoir un esprit élevé, être fier</li></ol>",
    "pron": "hoop-say-lo-fron-eh'-o",
    "strongs_def": " être hautain dans son esprit, c'est-à-dire arrogant",
    "xlit": "hypsēlophronéō"
}