{
    "derivation": "de G5311 (ὑψηλός) ;",
    "frequency": 12,
    "kjv_def": "élevé (-er, -ly) (estimé)",
    "lemma": "ὑψηλός",
    "outline": "<ol><li> haut, élevé<ol><li> exalté en haut</li><li> avec un bras levé, c'est-à-dire avec une puissance de signal</li></ol><li> métaph. éminent, exalté<ol><li> dans l'influence et l'honneur</li><li> se fixer sur, rechercher, des choses élevées (comme les honneurs et les richesses), être aspirant</li></ol></li></ol>",
    "pron": "hoop-say-los'",
    "strongs_def": " noble (par sa place ou son caractère)",
    "xlit": "hypsēlós"
}