{
    "derivation": "prolongement pour la base de G5457 (φαίνω) ;",
    "frequency": 30,
    "kjv_def": " apparaître, sembler, être vu, briller, X penser",
    "lemma": "φαίνω",
    "outline": "<ol><li> mettre en lumière, faire briller, éclairer</li><li> briller<ol><li> briller, être brillant ou resplendissant</li><li> devenir évident, être mis en lumière, venir à la vue, apparaître<ol><li> de la végétation en croissance, venir à la lumière</li><li> apparaître, être vu</li><li> exposé à la vue</li></ol><li>rencontrer les yeux, frapper la vue, devenir clair ou manifeste<ol><li> pour être vu, apparaître</li></ol><li> apparaître à l'esprit, sembler à son jugement ou à son opinion</li></li> </ol></li></ol>",
    "pron": "fah'-ee-no",
    "strongs_def": " éclairer (briller), c'est-à-dire montrer (transitif ou intransitif, littéral ou figuratif)",
    "xlit": "phaínō"
}