{
    "derivation": "de G5311 (ὑψόω) ;",
    "frequency": 19,
    "kjv_def": "exalter, élever",
    "lemma": "ὑψόω",
    "outline": "<ol><li> élever en haut, exalter</li><li> métaph.<ol><li> élever au sommet de l'opulence et de la prospérité</li><li> exalter, élever à la dignité, à l'honneur et au bonheur</li></ol></li></ol>",
    "pron": "hoop-so'-o",
    "strongs_def": " élever (au sens propre ou au sens figuré)",
    "xlit": "hypsóō"
}