{
    "derivation": "proprement, renforcé de la base de G4008 (φάραγξ) ou plutôt de G4486 (φάραγξ) ;",
    "frequency": 1,
    "kjv_def": "vallée",
    "lemma": "φάραγξ",
    "outline": "<ol><li> une vallée fermée par des falaises et des précipices</li><li> un ravin</li></ol>",
    "pron": "far'-anx",
    "strongs_def": " une brèche ou un gouffre, c'est-à-dire un ravin (hiver-torrent)",
    "xlit": "pháranx"
}