{
    "derivation": "de G5324 (φάντασμα) ;",
    "frequency": 2,
    "kjv_def": "esprit",
    "lemma": "φάντασμα",
    "outline": "<ol><li> une apparition</li><li> une apparition, un spectre</li></ol>",
    "pron": "fan'-tas-mah",
    "strongs_def": " (proprement concret) un (simple) spectacle (\"phantasme\"), c'est-à-dire un spectre",
    "xlit": "phántasma"
}