{
    "derivation": "apparemment un mot primaire ;",
    "frequency": 5,
    "kjv_def": "maléfique",
    "lemma": "φαῦλος",
    "outline": "<ol><li> facile, léger, ordinaire, moyen, sans valeur, sans intérêt</li><li> éthiquement, mauvais, bas, méchant</li></ol>",
    "pron": "fow'-los",
    "strongs_def": " \"vicié\" ou \"défectueux\", c'est-à-dire (au sens figuré) méchant",
    "xlit": "phaûlos"
}