{
    "derivation": "apparemment un verbe primaire ;",
    "frequency": 6,
    "kjv_def": "(déjà) atteindre, venir, empêcher",
    "lemma": "φθάνω",
    "outline": "<ol><li> venir avant, précéder, anticiper</li><li> arriver à, arriver à</li><li> atteindre, parvenir à</li></ol>",
    "pron": "fthan'-o",
    "strongs_def": " être en avance, c'est-à-dire anticiper ou précéder ; par extension, être parvenu à",
    "xlit": "phthánō"
}