{
    "derivation": "d'une affinité incertaine ;",
    "frequency": 12,
    "kjv_def": "flacon",
    "lemma": "φιάλη",
    "outline": "<ol><li> un large bol peu profond, une soucoupe profonde</li></ol>",
    "pron": "fee-al'-ay",
    "strongs_def": " une tasse large et peu profonde (\"ampoule\")",
    "xlit": "phiálē"
}