{
    "derivation": "probablement apparenté à la base de G5351 (φθόνος) ;",
    "frequency": 9,
    "kjv_def": "envie",
    "lemma": "φθόνος",
    "outline": "<ol><li> envie</li><li> pour l'envie, c'est-à-dire poussé par l'envie</li></ol>",
    "pron": "fthon'-os",
    "strongs_def": " la mauvaise volonté (en tant que détracteur), c'est-à-dire la jalousie (la rancune)",
    "xlit": "phthónos"
}