{
    "derivation": "de G5368 (Φίλητος) ;",
    "frequency": 1,
    "kjv_def": "Philetus",
    "lemma": "Φίλητος",
    "outline": "<span class=\"literal-meaning\">Philetus = &quot;bien-aimé&quot;</span><ol><li> un hérétique et un disciple d'Hyménée,</li></ol>",
    "pron": "fil-ay-tos'",
    "strongs_def": " aimable ; Philetus, un opposant au christianisme",
    "xlit": "Phílētos"
}