{
    "derivation": "de G5384 (Φίλιππος) et G2462 (Φίλιππος) ;",
    "frequency": 36,
    "kjv_def": "Philip",
    "lemma": "Φίλιππος",
    "outline": "<span class=\"literal-meaning\">Philippe = &quot;amoureux des chevaux&quot;</span><ol><li> un apôtre du Christ</li><li> un évangéliste et l'un des sept diacres de l'église de Jérusalem</li><li> tétrarque de Trachonite, était frère d'Hérode Antipas, par le côté paternel, mais pas par le côté maternel. Philippe était né de Cléopâtre, de Jérusalem, et d'Hérode de Malthace, un Samaritain : il mourut la vingtième année de Tibériade, cinq ans après sa mention dans Lc. 3:1. Il a construit Césarée de Philippe. Son demi-frère Hérode Antipas, épousa sa femme illégalement. (Gill)</li><li> voir 2542, Césarée de Philippe</li></ol>",
    "pron": "fil'-ip-pos",
    "strongs_def": " qui aimait les chevaux ; Philippus, le nom de quatre Israélites",
    "xlit": "Phílippos"
}