{
    "derivation": "de G5375 (Φιλιππήσιος) ;",
    "frequency": 1,
    "kjv_def": "Philippine",
    "lemma": "Φιλιππήσιος",
    "outline": "<ol><li> un habitant de la ville de Philippes</li></ol>",
    "pron": "fil-ip-pay'-see-os",
    "strongs_def": " un Philippois (Philippienne), c'est-à-dire originaire de Philippes",
    "xlit": "Philippḗsios"
}