{
    "derivation": "de G5368 (Φιλήμων) ;",
    "frequency": 1,
    "kjv_def": "Philémon",
    "lemma": "Φιλήμων",
    "outline": "<span class=\"literal-meaning\">Philémon = &quot; celui qui embrasse &quot;.</span><ol><li> habitant de Colosses, converti au christianisme par Paul et destinataire de la lettre qui porte son nom</li></ol>",
    "pron": "fil-ay'-mone",
    "strongs_def": " amical ; Philémon, un chrétien",
    "xlit": "Philḗmōn"
}