{
    "derivation": "à partir d'un composé de G5384 (φιλοπρωτεύω) et G4413 (φιλοπρωτεύω) ;",
    "frequency": 1,
    "kjv_def": "aiment avoir la prééminence",
    "lemma": "φιλοπρωτεύω",
    "outline": "<ol><li> aspirer à la prééminence, désirer être le premier</li></ol>",
    "pron": "fil-op-rote-yoo'-o",
    "strongs_def": " aimer être le premier, c'est-à-dire ambitionner la distinction",
    "xlit": "philoprōteúō"
}