{
    "derivation": "participe actif de la base de G5395 (Φλέγων) ;",
    "frequency": 1,
    "kjv_def": "Phlegon",
    "lemma": "Φλέγων",
    "outline": "<span class=\"literal-meaning\">Phlegon = &quot;brûler&quot;</span><ol><li> un habitant de Rome salué par Paul dans le livre des Romains</li></ol>",
    "pron": "fleg'-one",
    "strongs_def": " flamboyant ; Phlegon, un chrétien",
    "xlit": "Phlégōn"
}