{
    "derivation": "de (une muselière) ;",
    "frequency": 9,
    "kjv_def": "museau",
    "lemma": "φιμόω",
    "outline": "<ol><li> fermer la bouche avec une muselière, museler</li><li> métaph.<ol><li> fermer la bouche, rendre muet, réduire au silence</li><li> devenir muet</li></ol><li> être tenu en échec</li></ol>",
    "pron": "fee-mo'-o",
    "strongs_def": " de museler",
    "xlit": "phimóō"
}