{
    "derivation": "de G53 (ἁγνότης) ;",
    "frequency": 0,
    "kjv_def": "pureté",
    "lemma": "ἁγνότης",
    "outline": "<ol><li> pureté, chasteté, droiture de vie</li></ol>",
    "pron": "hag-not'-ace",
    "strongs_def": " la propreté (l'état), c'est-à-dire (au sens figuré) l'irréprochabilité",
    "xlit": "hagnótēs"
}