{
    "derivation": "de G1 (ἀπάτωρ) (adverbe de négation) et G3962 (ἀπάτωρ) ;",
    "frequency": 1,
    "kjv_def": "sans père",
    "lemma": "ἀπάτωρ",
    "outline": "<ol><li> dont le père n'est pas enregistré dans les généalogies</li></ol>",
    "pron": "ap-at'-ore",
    "strongs_def": " sans père, c'est-à-dire de paternité non enregistrée",
    "xlit": "apátōr"
}