{
    "derivation": "neutre d'un dérivé de la base de G5417 (φραγέλλιον) ;",
    "frequency": 1,
    "kjv_def": "fléau",
    "lemma": "φραγέλλιον",
    "outline": "<ol><li> un fléau ou un fouet</li></ol>",
    "pron": "frag-el'-le-on",
    "strongs_def": " un fouet, c'est-à-dire le fouet romain comme punition publique",
    "xlit": "phragéllion"
}