{
    "derivation": "probablement apparenté à G5420 (φράζω) par l'idée de définir ;",
    "frequency": 2,
    "kjv_def": " déclarer",
    "lemma": "φράζω",
    "outline": "<ol><li> indiquer clairement, faire connaître, déclarer, soit par le geste, soit par l'écriture, soit par la parole, soit de toute autre manière</li><li> expliquer</li></ol>",
    "pron": "frad'-zo",
    "strongs_def": " indiquer (par la parole ou l'acte), c'est-à-dire (spécialement), exposer",
    "xlit": "phrázō"
}