{
    "derivation": "de G5424 (φρεναπάτης) et G539 (φρεναπάτης) ;",
    "frequency": 1,
    "kjv_def": "trompeur",
    "lemma": "φρεναπάτης",
    "outline": "<ol><li> un trompeur d'esprit, un séducteur</li></ol>",
    "pron": "fren-ap-at'-ace",
    "strongs_def": " un meneur d'esprit, c'est-à-dire un séducteur",
    "xlit": "phrenapátēs"
}