{
    "derivation": "apparemment une forme de renforcement de la base de G5424 (φράσσω) ;",
    "frequency": 2,
    "kjv_def": "arrêter",
    "lemma": "φράσσω",
    "outline": "<ol><li> clôturer, bloquer, arrêter, fermer</li><li> réduire au silence</li></ol>",
    "pron": "fras'-so",
    "strongs_def": " clôturer ou enfermer, c'est-à-dire (spécialement), bloquer (au sens figuré, faire taire)",
    "xlit": "phrássō"
}