{
    "derivation": "de G5424 (φρονέω) ;",
    "frequency": 27,
    "kjv_def": "s'attacher, (être) attentif(-ve), (être comme-, + être d'un seul, + être du même, + laisser cela) penser(-ed), considérer, savourer, penser",
    "lemma": "φρονέω",
    "outline": "<ol><li> avoir de l'intelligence, être sage</li><li> sentir, penser<ol><li> avoir une opinion de soi, penser à soi, être modeste, ne pas laisser l'opinion (pourtant juste) que l'on a de soi dépasser les limites de la modestie</li><li> penser ou juger ce qu'est l'opinion de quelqu'un</li><li> être d'un même avis, c'est-à-dire être d'accord, avoir les mêmes opinions, être harmonieux</li></ol><li> diriger son esprit vers une chose, chercher, s'efforcer de<ol><li> chercher son intérêt ou son avantage</li><li> être de son parti, se ranger à ses côtés (dans les affaires publiques)</li></ol></li></ol>",
    "pron": "fron-eh'-o",
    "strongs_def": " exercer l'esprit, c'est-à-dire avoir un sentiment ou une opinion ; implicitement, être (mentalement) disposé (plus ou moins sérieusement dans une certaine direction) ; intensivement, s'intéresser à (avec préoccupation ou obéissance)",
    "xlit": "phronéō"
}