{
    "derivation": "de G5441 (φυλακίζω) ;",
    "frequency": 1,
    "kjv_def": "emprisonner",
    "lemma": "φυλακίζω",
    "outline": "<ol><li> jeter en prison, emprisonner</li></ol>",
    "pron": "foo-lak-id'-zo",
    "strongs_def": " d'incarcérer",
    "xlit": "phylakízō"
}