{
    "derivation": "de G545 (ἀπείθεια) ;",
    "frequency": 6,
    "kjv_def": "désobéissance, incrédulité",
    "lemma": "ἀπείθεια",
    "outline": "<ol><li> l'obstination, l'opposition obstinée à la volonté divine</li></ol>",
    "pron": "ap-i'-thi-ah",
    "strongs_def": " incrédulité (obstinée et rebelle)",
    "xlit": "apeítheia"
}