{
    "derivation": "d'un dérivé de G5424 (φροντίζω) ;",
    "frequency": 1,
    "kjv_def": "soyez prudent",
    "lemma": "φροντίζω",
    "outline": "<ol><li> penser, faire attention</li><li> être réfléchi ou inquiet</li></ol>",
    "pron": "fron-tid'-zo",
    "strongs_def": " exercer la pensée, c'est-à-dire être inquiet",
    "xlit": "phrontízō"
}