{
    "derivation": "de G545 (ἀπειθέω) ;",
    "frequency": 14,
    "kjv_def": "ne pas croire, désobéir, ne pas obéir, incrédule",
    "lemma": "ἀπειθέω",
    "outline": "<ol><li> ne pas se laisser persuader soi-même<ol><li> refuser ou retenir la croyance</li><li> refuser la croyance et l'obéissance</li></ol><li> ne pas se conformer à</li></ol>",
    "pron": "ap-i-theh'-o",
    "strongs_def": " ne pas croire (volontairement et perversement)",
    "xlit": "apeithéō"
}