{
    "derivation": "du même que G5443 (φύλλον) ;",
    "frequency": 6,
    "kjv_def": "feuille",
    "lemma": "φύλλον",
    "outline": "<ol><li> une feuille</li></ol>",
    "pron": "fool'-lon",
    "strongs_def": " un germe, c'est-à-dire une feuille",
    "xlit": "phýllon"
}