{
    "derivation": "de G5448 (φυσίωσις) ;",
    "frequency": 0,
    "kjv_def": "gonflement",
    "lemma": "φυσίωσις",
    "outline": "<ol><li> l'exaltation de l'âme, l'orgueil et la fierté</li></ol>",
    "pron": "foo-see'-o-sis",
    "strongs_def": " l'inflation, c'est-à-dire (au sens figuré) la fierté",
    "xlit": "physíōsis"
}