{
    "derivation": "un verbe primaire ;",
    "frequency": 3,
    "kjv_def": "ressort (vers le haut)",
    "lemma": "φύω",
    "outline": "<ol><li> engendrer, faire naître, produire</li><li> naître, jaillir, croître</li><li> pousser, jaillir</li></ol>",
    "pron": "foo'-o",
    "strongs_def": " probablement à l'origine, \"gonfler\" ou souffler, c'est-à-dire se gonfler ; mais seulement utilisé dans le sens implicite, germer ou croître (germer, produire), littéralement ou figurativement",
    "xlit": "phýō"
}