{
    "derivation": "de la base de G5490 (χαλάω) ;",
    "frequency": 6,
    "kjv_def": "laisser tomber, frapper",
    "lemma": "χαλάω",
    "outline": "<ol><li> détendre, relâcher, relaxer</li><li> laisser descendre d'un endroit plus élevé à un endroit plus bas</li></ol>",
    "pron": "khal-ah'-o",
    "strongs_def": " descendre (comme dans le vide)",
    "xlit": "chaláō"
}