{
    "derivation": "de G5485 (χαριτόω) ;",
    "frequency": 2,
    "kjv_def": "se faire accepter, être très favorisé",
    "lemma": "χαριτόω",
    "outline": "<ol><li> rendre gracieux<ol><li> charmant, adorable, agréable</li></ol><li> percer avec grâce, comprimer avec faveur</li><li> honorer avec des bénédictions</li></ol>",
    "pron": "khar-ee-to'-o",
    "strongs_def": " de gracier, c'est-à-dire d'induire avec un honneur particulier",
    "xlit": "charitóō"
}