{
    "derivation": "neutre d'un composé de G5495 (χειρόγραφον) et G1125 (χειρόγραφον) ;",
    "frequency": 1,
    "kjv_def": "écriture manuscrite",
    "lemma": "χειρόγραφον",
    "outline": "<ol><li> une écriture, ce que l'on a écrit de sa propre main</li><li> un billet de main ou d'écriture par lequel on reconnaît que de l'argent a été soit déposé chez soi, soit prêté par un autre, pour être rendu à l'époque convenue</li></ol>",
    "pron": "khi-rog'-raf-on",
    "strongs_def": " quelque chose d'écrit à la main (\"chirographe\"), c'est-à-dire un manuscrit (en particulier, un document juridique ou une obligation (au sens figuré))",
    "xlit": "cheirógraphon"
}