{
    "derivation": "de G5495 (χειραγωγός) et une forme rédupliquée de G71 (χειραγωγός) ;",
    "frequency": 1,
    "kjv_def": "certains à mener par la main",
    "lemma": "χειραγωγός",
    "outline": "<ol><li> en le prenant par la main</li></ol>",
    "pron": "khi-rag-o-gos'",
    "strongs_def": " un chef de main, c'est-à-dire un conducteur personnel (d'une personne aveugle)",
    "xlit": "cheiragōgós"
}