{
    "derivation": "de G5507 (χιλίαρχος) et G757 (χιλίαρχος) ;",
    "frequency": 21,
    "kjv_def": "(chef, haut) capitaine",
    "lemma": "χιλίαρχος",
    "outline": "<ol><li> un chiliarque, le commandant d'un millier de soldats</li><li> le commandant d'une cohorte romaine (un tribunal militaire)</li><li> tout commandant militaire</li></ol>",
    "pron": "khil-ee'-ar-khos",
    "strongs_def": " le commandant de mille soldats (\"chiliarch\", c'est-à-dire colonel)",
    "xlit": "chilíarchos"
}