{
    "derivation": "passé réflexif d'un composé de G575 (ἀπειπόμην) et G2036 (ἀπειπόμην) ;",
    "frequency": 0,
    "kjv_def": "renoncer à",
    "lemma": "ἀπειπόμην",
    "outline": "<ol><li> parler, exposer, déclarer</li><li> interdire</li><li> abandonner, renoncer</li></ol>",
    "pron": "ap-i-pom'-ane",
    "strongs_def": " se défaire de soi-même, c'est-à-dire désavouer",
    "xlit": "apeipómēn"
}