{
    "derivation": "de (à réchauffer) ;",
    "frequency": 1,
    "kjv_def": "tiède",
    "lemma": "χλιαρός",
    "outline": "<ol><li> tiède, tiède</li><li> métaph. de la condition de l'âme qui oscille misérablement entre la torpeur et la ferveur amoureuse</li></ol>",
    "pron": "khlee-ar-os'",
    "strongs_def": " tiède",
    "xlit": "chliarós"
}