{
    "derivation": "de G1 (ἀπείραστος) (adverbe de négation) et dérivé présumé de G3987 (ἀπείραστος) ;",
    "frequency": 1,
    "kjv_def": "ne pas être tenté",
    "lemma": "ἀπείραστος",
    "outline": "<ol><li> qui ne peut être tenté par le mal, qui n'est pas susceptible d'être tenté par le péché</li></ol>",
    "pron": "ap-i'-ras-tos",
    "strongs_def": " non éprouvé, c'est-à-dire non tentable",
    "xlit": "apeírastos"
}