{
    "derivation": "de dérivation incertaine ;",
    "frequency": 2,
    "kjv_def": "mesure",
    "lemma": "χοῖνιξ",
    "outline": "<ol><li> un choenix, une mesure sèche, contenant quatre cotylae ou deux setarii (moins que notre quart, un litre) (ou la quantité nécessaire pour subvenir aux besoins d'un homme d'appétit modéré pendant une journée)</li></ol>",
    "pron": "khoy'-nix",
    "strongs_def": " un chœnix ou une certaine mesure sèche",
    "xlit": "choînix"
}