{
    "derivation": "de G1 (ἄπειρος) (adverbe de négation) et G3984 (ἄπειρος) ;",
    "frequency": 1,
    "kjv_def": "malhabile",
    "lemma": "ἄπειρος",
    "outline": "<ol><li> inexpérimenté dans, sans expérience de</li></ol>",
    "pron": "ap'-i-ros",
    "strongs_def": " inexpérimenté, c'est-à-dire ignorant",
    "xlit": "ápeiros"
}