{
    "derivation": "féminin d'un équivalent peut-être proche du même que le 5514 (de la teinte verdâtre) ;",
    "frequency": 2,
    "kjv_def": "bile",
    "lemma": "χολή",
    "outline": "<ol><li> bile, fiel</li><li> dans l'AT, utilisé pour d'autres choses amères<ol><li> absinthe</li><li> peut-être la myrrhe</li></ol></li></ol>",
    "pron": "khol-ay'",
    "strongs_def": " \"fiel\" ou bile, c'est-à-dire (par analogie) poison ou anodin (absinthe, pavot, etc.)",
    "xlit": "cholḗ"
}