{
    "frequency": 6,
    "kjv_def": "argent, richesse",
    "lemma": "χρῆμα",
    "outline": "<ol><li> une chose, une affaire, une affaire, un événement, des affaires<ol><li> spéc. argent, richesse</li></ol></li></ol>",
    "pron": "khray'-mah",
    "strongs_def": "quelque chose d'utile ou de nécessaire, c'est-à-dire la richesse, le prix",
    "xlit": "chrēma"
}