{
    "derivation": "de la base du G5530 (χρεία) ou du G5534 (χρεία) ;",
    "frequency": 52,
    "kjv_def": "affaires, manque, nécessaire (-ité), besoin (-ful), utiliser, vouloir",
    "lemma": "χρεία",
    "outline": "<ol><li> nécessité, besoin</li><li> devoir, affaire</li></ol>",
    "pron": "khri'-ah",
    "strongs_def": " emploi, c'est-à-dire une liaison ; également (par implication) occasion, demande, exigence ou dénuement",
    "xlit": "chreía"
}