{
    "derivation": "de G575 (ἀπεκδέχομαι) et G1551 (ἀπεκδέχομαι) ;",
    "frequency": 9,
    "kjv_def": "chercher (attendre)",
    "lemma": "ἀπεκδέχομαι",
    "outline": "<ol><li> en attendant assidûment et patiemment</li></ol>",
    "pron": "ap-ek-dekh'-om-ahee",
    "strongs_def": " à attendre pleinement",
    "xlit": "apekdéchomai"
}