{
    "derivation": "de G5530 (χρῆσις) ;",
    "frequency": 2,
    "kjv_def": "utiliser",
    "lemma": "χρῆσις",
    "outline": "<ol><li> utilisation<ol><li> de l'utilisation sexuelle d'une femme</li></ol></li></ol>",
    "pron": "khray'-sis",
    "strongs_def": " l'emploi, c'est-à-dire (spécialement), les rapports sexuels (en tant qu'occupation du corps)",
    "xlit": "chrēsis"
}