{
    "derivation": "de G5530 (χρηστός) ;",
    "frequency": 8,
    "kjv_def": "meilleur, facile, bon (-ness), gracieux, gentil",
    "lemma": "χρηστός",
    "outline": "<ol><li> convenable, apte à l'usage, utile<ol><li> vertueux, bon</li></ol><li> maniable<ol><li> doux, agréable (par opposition à dur, dur, acerbe, amer)</li><li> des choses : plus agréable, des gens, gentil, bienveillant</li></ol></li></ol>",
    "pron": "khrase-tos'",
    "strongs_def": " employé, c'est-à-dire (implicitement) utile (dans la manière ou les mœurs)",
    "xlit": "chrēstós"
}