{
    "derivation": "de G5547 (Χριστιανός) ;",
    "frequency": 3,
    "kjv_def": "Christian",
    "lemma": "Χριστιανός",
    "outline": "<ol><li> Chrétien, un adepte du Christ</li></ol>",
    "pron": "khris-tee-an-os'",
    "strongs_def": " un chrétien, c'est-à-dire un adepte du Christ",
    "xlit": "Christianós"
}