{
    "derivation": "voix moyenne de G5543 (χρηστεύομαι) ;",
    "frequency": 2,
    "kjv_def": "être gentil",
    "lemma": "χρηστεύομαι",
    "outline": "<ol><li> se montrer gentil, être gentil, utiliser la gentillesse</li></ol>",
    "pron": "khraste-yoo'-om-ahee",
    "strongs_def": " se montrer utile, c'est-à-dire agir avec bienveillance",
    "xlit": "chrēsteúomai"
}