{
    "derivation": "de G5557 (χρυσοδακτύλιος) et G1146 (χρυσοδακτύλιος) ;",
    "frequency": 1,
    "kjv_def": "avec une bague en or",
    "lemma": "χρυσοδακτύλιος",
    "outline": "<ol><li> orné d'anneaux d'or, orné d'anneaux d'or</li></ol>",
    "pron": "khroo-sod-ak-too'-lee-os",
    "strongs_def": " bagué d'or, c'est-à-dire portant une bague d'or ou un bijou similaire",
    "xlit": "chrysodaktýlios"
}