{
    "derivation": "de G5557 (χρύσεος) ;",
    "frequency": 18,
    "kjv_def": "d'or, d'or",
    "lemma": "χρύσεος",
    "outline": "<ol><li> d'or</li><li> en or</li><li> recouvert ou couvert d'or</li></ol>",
    "pron": "khroo'-seh-os",
    "strongs_def": " en or",
    "xlit": "chrýseos"
}