{
    "derivation": "diminutif de G5561 (χωρίον) ;",
    "frequency": 10,
    "kjv_def": "champ, terre, parcelle de terrain, lieu, possession",
    "lemma": "χωρίον",
    "outline": "<ol><li> un espace, un lieu, une région, un district</li><li> un terrain, un champ, une terre</li></ol>",
    "pron": "kho-ree'-on",
    "strongs_def": " un endroit ou une parcelle de terrain",
    "xlit": "chōríon"
}