{
    "derivation": "de G5567 (ψαλμός) ;",
    "frequency": 8,
    "kjv_def": "psaume",
    "lemma": "ψαλμός",
    "outline": "<ol><li> d'une frappe, d'un tintement<ol><li> d'une frappe des accords d'un instrument de musique</li><li> d'un chant pieux, d'un psaume</li></ol></li></ol>",
    "pron": "psal-mos'",
    "strongs_def": " un morceau de musique, c'est-à-dire une ode sacrée (accompagnée de la voix, de la harpe ou d'un autre instrument ; un \"psaume\") ; collectivement, le livre des Psaumes",
    "xlit": "psalmós"
}