{
    "derivation": "de G5571 (ψευδάδελφος) et G80 (ψευδάδελφος) ;",
    "frequency": 1,
    "kjv_def": "faux frères",
    "lemma": "ψευδάδελφος",
    "outline": "<ol><li> un faux frère</li><li> celui qui professe ostensiblement être chrétien, mais qui est dépourvu de connaissance chrétienne et de piété</li></ol>",
    "pron": "psyoo-dad'-el-fos",
    "strongs_def": " un faux frère, c'est-à-dire un prétendu associé",
    "xlit": "pseudádelphos"
}