{
    "derivation": "de G5571 (ψευδομάρτυρ) et une forme apparentée de G3144 (ψευδομάρτυρ) ;",
    "frequency": 3,
    "kjv_def": "faux témoin",
    "lemma": "ψευδομάρτυρ",
    "outline": "<ol><li> un faux témoin</li></ol>",
    "pron": "psyoo-dom-ar'-toor",
    "strongs_def": " un faux témoin, c'est-à-dire porteur d'un faux témoignage",
    "xlit": "pseudomártyr"
}