{
    "derivation": "de G5574 (ψευδής) ;",
    "frequency": 3,
    "kjv_def": "faux, menteur",
    "lemma": "ψευδής",
    "outline": "<ol><li> menteur, trompeur, faux</li></ol>",
    "pron": "psyoo-dace'",
    "strongs_def": " faux, c'est-à-dire erroné, trompeur, méchant",
    "xlit": "pseudḗs"
}