{
    "derivation": "de G5574 (ψεῦσμα) ;",
    "frequency": 1,
    "kjv_def": "mentir",
    "lemma": "ψεῦσμα",
    "outline": "<ol><li> une fausseté, un mensonge</li><li> la perfidie par laquelle un homme, en péchant, rompt la foi avec Dieu</li></ol>",
    "pron": "psyoos'-mah",
    "strongs_def": " une fabrication, c'est-à-dire un mensonge",
    "xlit": "pseûsma"
}