{
    "derivation": "de G5571 (ψευδώνυμος) et G3686 (ψευδώνυμος) ;",
    "frequency": 1,
    "kjv_def": "faussement appelé",
    "lemma": "ψευδώνυμος",
    "outline": "<ol><li> faussement nommé</li></ol>",
    "pron": "psyoo-do'-noo-mos",
    "strongs_def": " faussement nommé",
    "xlit": "pseudṓnymos"
}