{
    "derivation": "de G5592 (ψυχρός) ;",
    "frequency": 4,
    "kjv_def": "froid",
    "lemma": "ψυχρός",
    "outline": "<ol><li> froid, frais<ol><li> d'eau fraîche</li></ol><li> métaph.<ol><li> froid, c'est-à-dire léthargique, inerte</li><li> dans l'esprit : de celui qui est dépourvu d'une foi chrétienne chaleureuse et du désir de la sainteté</li></ol></li></ol>",
    "pron": "psoo-chros'",
    "strongs_def": " froid (au sens propre ou figuré)",
    "xlit": "psychrós"
}