{
    "derivation": "d'origine latine ;",
    "frequency": 1,
    "kjv_def": "Apelles",
    "lemma": "Ἀπελλῆς",
    "outline": "<span class=\"literal-meaning\">Apelles = &quot;appelé&quot;</span><ol><li> un certain chrétien</li></ol>",
    "pron": "ap-el-lace'",
    "strongs_def": " Apelles, un chrétien",
    "xlit": "Apellēs"
}