{
    "derivation": "voix moyenne d'un verbe apparemment primaire ;",
    "frequency": 1,
    "kjv_def": "rugissement",
    "lemma": "ὠρύομαι",
    "outline": "<ol><li> rugir, hurler (d'un lion, d'un loup, d'un chien et d'autres bêtes)<ol><li> chez les hommes, pousser un cri fort et inarticulé, soit de chagrin, soit de joie</li></ol><li> chanter d'une voix forte</li></ol>",
    "pron": "o-roo'-om-ahee",
    "strongs_def": " pour \"rugir\"",
    "xlit": "ōrýomai"
}