{
    "derivation": "de G5613 (ὥστε) et G5037 (ὥστε) ;",
    "frequency": 92,
    "kjv_def": "(dans la mesure où) comme, de sorte que (alors), (dans la mesure où) que, donc, à, pour, pourquoi",
    "lemma": "ὥστε",
    "outline": "<ol><li> de sorte que, dans la mesure où</li><li> alors, donc, pourquoi</li></ol>",
    "pron": "hoce'-teh",
    "strongs_def": " ainsi aussi, c'est-à-dire ainsi donc (dans diverses relations de consécution, comme suit)",
    "xlit": "hṓste"
}