{
    "derivation": "adverbe issu d'un composé de G1 (ἀπερισπάστως) (comme participe négatif) et d'un dérivé présumé de G4049 (ἀπερισπάστως) ;",
    "frequency": 2,
    "kjv_def": "sans distraction",
    "lemma": "ἀπερισπάστως",
    "outline": "<ol><li> sans distraction, sans sollicitude, sans anxiété, sans soin</li></ol>",
    "pron": "ap-er-is-pas-toce'",
    "strongs_def": " sans distraction, c'est-à-dire sans sollicitation (domestique)",
    "xlit": "aperispástōs"
}