{
    "derivation": "de G573 (ἁπλότης) ;",
    "frequency": 3,
    "kjv_def": "générosité, libéralité(-ité), simplicité, singularité",
    "lemma": "ἁπλότης",
    "outline": "<ol><li> la simplicité, la sincérité et l'honnêteté mentale<ol><li> la vertu de celui qui est libre de toute prétention et hypocrisie</li></ol><li> pas de recherche de soi, ouverture du cœur se manifestant par la générosité</li></ol>",
    "pron": "hap-lot'-ace",
    "strongs_def": " l'unicité, c'est-à-dire (subjectivement) la sincérité (sans dissimulation ni recherche de soi), ou (objectivement) la générosité (effusion abondante)",
    "xlit": "haplótēs"
}