{
    "derivation": "une particule primaire ;",
    "frequency": 632,
    "kjv_def": "(X here-)after, ago, at, because of, before, by (the space of), for(-th), from, in, (out) of, off, (up-)on(-ce), since, with",
    "lemma": "ἀπό",
    "outline": "<ol><li> de séparation<ol><li> de séparation locale, après des verbes de déplacement d'un lieu, c'est-à-dire de départ, de fuite, ...</li><li> de la séparation d'une partie du tout<ol><li> où d'un tout une partie est prise</li></ol><li> de toute sorte de séparation d'une chose d'une autre par laquelle l'union ou la communion des deux est détruite</li><li>d'un état de séparation, c'est-à-dire de distance<ol><li> physique, de distance de lieu</li><li> temporel, de distance de temps</li></ol><li> d'origine<ol><li> du lieu d'où quelque chose est, vient, arrive, est pris</li><li> d'origine d'une cause</li></ol></li></li> </ol>",
    "pron": "apo'",
    "strongs_def": " \"off\", c'est-à-dire loin (de quelque chose de proche), dans différents sens (de lieu, de temps ou de relation ; au sens propre ou figuré)",
    "xlit": "apó"
}