{
    "derivation": "de G575 (ἀπογράφω) et G1125 (ἀπογράφω) ;",
    "frequency": 4,
    "kjv_def": "taxe, écrire",
    "lemma": "ἀπογράφω",
    "outline": "<ol><li> écrire, copier (d'après un modèle)</li><li> inscrire dans un registre ou des archives<ol><li> spec. inscrire dans les registres publics les noms des hommes, leurs biens et leurs revenus</li><li> inscrire</li></ol></li></ol>",
    "pron": "ap-og-raf'-o",
    "strongs_def": " radier (une copie ou une liste), c'est-à-dire s'inscrire",
    "xlit": "apográphō"
}