{
    "derivation": "de G584 (ἀπόδειξις) ;",
    "frequency": 2,
    "kjv_def": "démonstration",
    "lemma": "ἀπόδειξις",
    "outline": "<ol><li> rendre manifeste, montrer</li><li> une démonstration, une preuve</li></ol>",
    "pron": "ap-od'-ike-sis",
    "strongs_def": " manifestation",
    "xlit": "apódeixis"
}