{
    "derivation": "de G575 (ἀποδίδωμι) et G1325 (ἀποδίδωμι) ;",
    "frequency": 49,
    "kjv_def": "livrer (encore), donner (encore), (re-)payer (-ment être fait), exécuter, récompenser, rendre, requérir, restaurer, récompenser, vendre, céder",
    "lemma": "ἀποδίδωμι",
    "outline": "<ol><li> livrer, céder à son profit ce qui est à soi, vendre</li><li> payer, s'acquitter de ce qui est dû<ol><li> une dette, un salaire, un tribut, des impôts, des produits dus</li><li> les choses promises sous serment</li><li> devoir conjugal</li><li> rendre des comptes</li></ol><li> rendre, restituer,</li><li> requérir, récompenser en bien ou en mal</li></ol>",
    "pron": "ap-od-eed'-o-mee",
    "strongs_def": " pour donner, c'est-à-dire en haut, au-dessus, en arrière, etc. (dans diverses applications)",
    "xlit": "apodídōmi"
}