{
    "derivation": "de G575 (ἀποδιορίζω) et d'un composé de G223 (ἀποδιορίζω) et G3724 (ἀποδιορίζω) ;",
    "frequency": 1,
    "kjv_def": "séparé",
    "lemma": "ἀποδιορίζω",
    "outline": "<ol><li> disjoindre, séparer, séparer d'un autre</li><li> faire des divisions ou des séparations</li></ol>",
    "pron": "ap-od-ee-or-id'-zo",
    "strongs_def": " disjoindre (par une frontière, au sens figuré, un parti)",
    "xlit": "apodiorízō"
}