{
    "derivation": "de G575 (ἀποθλίβω) et G2346 (ἀποθλίβω) ;",
    "frequency": 1,
    "kjv_def": "presse",
    "lemma": "ἀποθλίβω",
    "outline": "<ol><li> presser de tous les côtés, presser, presser fort<ol><li> de presser des raisins et des olives</li></ol></li></ol>",
    "pron": "ap-oth-lee'-bo",
    "strongs_def": " se presser (de tous les côtés)",
    "xlit": "apothlíbō"
}