{
    "derivation": "de G58 (ἀγοραῖος) ;",
    "frequency": 2,
    "kjv_def": "baser le tri, faible",
    "lemma": "ἀγοραῖος",
    "outline": "<ol><li> sur, de ou appartenant à la place du marché</li><li> fréquentant la place du marché<ol><li> les bonimenteurs, les petits trafiquants, les vendeurs au détail</li><li> les fainéants, les paresseux, le commun, le vulgaire bas et méchant</li></ol><li> en général, propre à l'assemblée, adapté à la parole judiciaire, aux transactions commerciales</li></ol>",
    "pron": "ag-or-ah'-yos",
    "strongs_def": " relatif à la place du marché, c'est-à-dire judiciaire (fois) ; par implication, vulgaire",
    "xlit": "agoraîos"
}