{
    "derivation": "de G601 (ἀποκάλυψις) ;",
    "frequency": 19,
    "kjv_def": "apparaître, venir, éclairer, manifestation, être révélé, révélation",
    "lemma": "ἀποκάλυψις",
    "outline": "<ol><li> mettre à nu, rendre nu</li><li> révélation de la vérité, instruction<ol><li> concernant des choses auparavant inconnues</li><li> se dit d'événements par lesquels des choses, des états ou des personnes jusqu'alors soustraits à la vue sont rendus visibles à tous</li></ol><li> manifestation, apparition</li></ol>",
    "pron": "ap-ok-al'-oop-sis",
    "strongs_def": " divulgation",
    "xlit": "apokálypsis"
}