{
    "derivation": "de G611 (ἀπόκριμα) (dans son sens premier de juger) ;",
    "frequency": 0,
    "kjv_def": "phrase",
    "lemma": "ἀπόκριμα",
    "outline": "<ol><li> une réponse<ol><li> 2Co. 1:9 où le sens est &quot;en me demandant si je sortirais sain et sauf du péril mortel, j'ai répondu 'je dois mourir'&quot;.</li></ol></li></ol>",
    "pron": "ap-ok'-ree-mah",
    "strongs_def": " une décision judiciaire",
    "xlit": "apókrima"
}