{
    "derivation": "de G1 (ἀγράμματος) (comme particule négative) et G1121 (ἀγράμματος) ;",
    "frequency": 1,
    "kjv_def": "non apprises",
    "lemma": "ἀγράμματος",
    "outline": "<ol><li> analphabète, non instruit</li></ol>",
    "pron": "ag-ram-mat-os",
    "strongs_def": " non lettré, c'est-à-dire analphabète",
    "xlit": "agrámmatos"
}