{
    "derivation": "de G575 (ἀπολείχω) et (de \"lécher\") ;",
    "frequency": 1,
    "kjv_def": "lécher",
    "lemma": "ἀπολείχω",
    "outline": "<ol><li> pour lécher, lécher</li></ol>",
    "pron": "ap-ol-i'-kho",
    "strongs_def": " à lécher pour nettoyer",
    "xlit": "apoleíchō"
}