{
    "derivation": "de G575 (ἀπονέμω) et la base de G3551 (ἀπονέμω) ;",
    "frequency": 1,
    "kjv_def": "donner",
    "lemma": "ἀπονέμω",
    "outline": "<ol><li> attribuer, répartir</li></ol>",
    "pron": "ap-on-em'-o",
    "strongs_def": " de répartir, c'est-à-dire d'accorder",
    "xlit": "aponémō"
}