{
    "derivation": "de G575 (ἀποσκευάζω) et un dérivé de G4632 (ἀποσκευάζω) ;",
    "frequency": 1,
    "kjv_def": "prendre... des voitures",
    "lemma": "ἀποσκευάζω",
    "outline": "<ol><li> emporter des marchandises et des biens meubles</li><li> emballer et emporter</li><li> emporter ses biens personnels ou faire en sorte qu'ils soient emportés</li></ol>",
    "pron": "ap-osk-yoo-ad'-zo",
    "strongs_def": " emballer (ses) bagages",
    "xlit": "aposkeuázō"
}