{
    "derivation": "à partir d'un composé de G575 (ἀποσκίασμα) et d'un dérivé de G4639 (ἀποσκίασμα) ;",
    "frequency": 1,
    "kjv_def": "ombre",
    "lemma": "ἀποσκίασμα",
    "outline": "<ol><li> une ombre projetée par un objet sur un autre, une ombre</li></ol>",
    "pron": "ap-os-kee'-as-mah",
    "strongs_def": " une atténuation, c'est-à-dire un obscurcissement",
    "xlit": "aposkíasma"
}