{
    "derivation": "de G575 (ἀποστεγάζω) et un dérivé de G4721 (ἀποστεγάζω) ;",
    "frequency": 1,
    "kjv_def": "découvrir",
    "lemma": "ἀποστεγάζω",
    "outline": "<ol><li> pour découvrir, enlever le toit</li></ol>",
    "pron": "ap-os-teg-ad'-zo",
    "strongs_def": " démonter le toit",
    "xlit": "apostegázō"
}