{
    "derivation": "de G649 (ἀποστολή) ;",
    "frequency": 5,
    "kjv_def": "apostolat",
    "lemma": "ἀποστολή",
    "outline": "<ol><li> un envoi<ol><li> de l'envoi d'une flotte</li><li> de consuls avec une armée, c'est-à-dire d'une expédition</li></ol><li> un envoi, c'est-à-dire un renvoi, une libération</li><li> une chose envoyée, en particulier des dons</li><li> dans le NT, la fonction et la dignité des apôtres du Christ, l'apostolat</li></ol>",
    "pron": "ap-os-tol-ay'",
    "strongs_def": " commission, c'est-à-dire (spécialement) apostolat",
    "xlit": "apostolḗ"
}