{
    "derivation": "de G649 (ἀπόστολος) ;",
    "frequency": 83,
    "kjv_def": "apôtre, messager, celui qui est envoyé",
    "lemma": "ἀπόστολος",
    "outline": "<ol><li> un délégué, un messager, une personne envoyée avec des ordres<ol><li> spécifiquement appliqué aux douze apôtres du Christ</li><li> dans un sens plus large, appliqué à d'autres enseignants chrétiens éminents<ol><li> de Barnabé</li><li> de Timothée et de Silvain</li></ol></li></ol></li></ol>",
    "pron": "ap-os'-tol-os",
    "strongs_def": " un délégué ; spécialement, un ambassadeur de l'Évangile ; officiellement un commissaire du Christ (\"apôtre\") (avec des pouvoirs miraculeux)",
    "xlit": "apóstolos"
}