{
    "derivation": "de G575 (ἀποστρέφω) et G4762 (ἀποστρέφω) ;",
    "frequency": 9,
    "kjv_def": "apporter à nouveau, pervertir, se détourner (de)",
    "lemma": "ἀποστρέφω",
    "outline": "<ol><li> se détourner<ol><li> de retirer quelque chose à quelqu'un</li><li> de le détourner de l'allégeance à quelqu'un</li><li> tenter de faire défection</li></ol><li>retourner, rendre, ramener<ol><li> de remettre une épée dans son fourreau</li><li> de Judas rendant de l'argent au temple</li></ol>se<li> détourner, revenir, retourner</li>se détourner<li> de, déserter</li></li> </ol>",
    "pron": "ap-os-tref'-o",
    "strongs_def": " se détourner ou reculer (au sens propre ou figuré)",
    "xlit": "apostréphō"
}