{
    "derivation": "de G575 (ἀποτρέπω) et la base de G5157 (ἀποτρέπω) ;",
    "frequency": 1,
    "kjv_def": "se détourner",
    "lemma": "ἀποτρέπω",
    "outline": "<ol><li> se détourner de soi</li><li> fuir, éviter</li></ol>",
    "pron": "ap-ot-rep'-o",
    "strongs_def": " détourner, c'est-à-dire éviter (par réflexe)",
    "xlit": "apotrépō"
}