{
    "derivation": "du participe de G548 (ἀπουσία) ;",
    "frequency": 1,
    "kjv_def": "absence",
    "lemma": "ἀπουσία",
    "outline": "<ol><li> absence</li></ol>",
    "pron": "ap-oo-see'-ah",
    "strongs_def": " un être lointain",
    "xlit": "apousía"
}