{
    "derivation": "d'origine latine ;",
    "frequency": 1,
    "kjv_def": "Appii",
    "lemma": "Ἄππιος",
    "outline": "<span class=\"literal-meaning\">Appius = \"le marché d'Appius\"</span><ol><li> une ville d'Italie, située à 60 km de Rome sur la voie Appienne</li></ol>",
    "pron": "ap'-pee-os",
    "strongs_def": " (au génitif, c'est-à-dire au cas possessif) d'Appius, le nom d'un Romain",
    "xlit": "Áppios"
}