{
    "derivation": "de G1 (ἀπρόσκοπος) (adverbe de négation) et un dérivé présumé de G4350 (ἀπρόσκοπος) ;",
    "frequency": 4,
    "kjv_def": "aucun (vide de, sans) délit",
    "lemma": "ἀπρόσκοπος",
    "outline": "<ol><li> n'ayant rien à quoi se heurter, ne pas faire trébucher<ol><li> d'une route lisse</li><li> métaph. de ne pas conduire les autres au péché par son mode de vie</li></ol><li>ne pas heurter, ne pas faire trébucher<ol><li> métaphore : ne pas être entraîné dans le péché, être irréprochable</li></ol>, ne pas être<li> troublé par la conscience du péché</li></li> </ol>",
    "pron": "ap-ros'-kop-os",
    "strongs_def": " activement, inoffensif, c'est-à-dire ne conduisant pas au péché ; passivement, sans défaut, c'est-à-dire ne conduisant pas au péché",
    "xlit": "apróskopos"
}