{
    "derivation": "probablement de G142 (ἄρα) (par l'idée de tirer une conclusion) ;",
    "frequency": 39,
    "kjv_def": "haply, (what) manner (of man), no doubt, perhaps, so be, then, therefore, truly, wherefore",
    "lemma": "ἄρα",
    "outline": "<ol><li> donc, donc alors, pourquoi</li></ol>",
    "pron": "ar'-ah",
    "strongs_def": " une particule indiquant une déduction plus ou moins décisive (comme suit)",
    "xlit": "ára"
}