{
    "derivation": "d'origine hébraïque (H06152) ;",
    "frequency": 2,
    "kjv_def": "Arabie",
    "lemma": "Ἀραβία",
    "outline": "<span class=\"literal-meaning\">Arabie = &quot;désert ou stérile</span><ol><li> péninsule d'Asie bien connue, située en direction de l'Afrique et délimitée par l'Égypte, la Palestine, la Syrie, la Mésopotamie, la Babylonie, le golfe d'Arabie, le golfe Persique, la mer Rouge et l'océan Indien</li></ol>",
    "pron": "ar-ab-ee'-ah",
    "strongs_def": " L'Arabie, une région d'Asie",
    "xlit": "Arabía"
}