{
    "derivation": "de G697 (Ἀρεοπαγίτης) ;",
    "frequency": 1,
    "kjv_def": "Aréopagite",
    "lemma": "Ἀρεοπαγίτης",
    "outline": "<ol><li> un membre du tribunal de l'Aréopage, un aréopagite</li></ol>",
    "pron": "ar-eh-op-ag-ee'-tace",
    "strongs_def": " un aréopagite ou membre du tribunal tenu sur la colline de Mars",
    "xlit": "Areopagítēs"
}