{
    "derivation": "peut-être le même que le G730 (ἀρήν) ;",
    "frequency": 1,
    "kjv_def": "agneau",
    "lemma": "ἀρήν",
    "outline": "<ol><li> un mouton, un agneau</li></ol>",
    "pron": "ar-ane'",
    "strongs_def": " un agneau (en tant que mâle)",
    "xlit": "arḗn"
}