{
    "derivation": "apparemment un comparatif du même que G712 (ἀριστερός) ;",
    "frequency": 3,
    "kjv_def": "gauche (main)",
    "lemma": "ἀριστερός",
    "outline": "<ol><li> gauche</li></ol>",
    "pron": "ar-is-ter-os'",
    "strongs_def": " la main gauche (comme deuxième meilleur)",
    "xlit": "aristerós"
}