{
    "derivation": "de G714 (ἀρκετός) ;",
    "frequency": 3,
    "kjv_def": "assez, suffire (-ient)",
    "lemma": "ἀρκετός",
    "outline": "<ol><li> suffisant, assez</li></ol>",
    "pron": "ar-ket-os'",
    "strongs_def": " satisfaisant",
    "xlit": "arketós"
}