{
    "derivation": "répliqué de G71 (ἀγωγή) ;",
    "frequency": 1,
    "kjv_def": "mode de vie",
    "lemma": "ἀγωγή",
    "outline": "<ol><li> a diriger</li><li> métaph. : conduite<ol><li> une conduite, une formation, une éducation, une discipline</li><li> la vie menée, la manière ou le cours de la vie</li></ol></li></ol>",
    "pron": "ag-o-gay'",
    "strongs_def": " une éducation, c'est-à-dire un mode de vie",
    "xlit": "agōgḗ"
}