{
    "derivation": "de G726 (ἁρπαγή) ;",
    "frequency": 3,
    "kjv_def": "extorsion, rapine, gâtisme",
    "lemma": "ἁρπαγή",
    "outline": "<ol><li> l'acte de piller, de voler</li><li> piller, dépouiller</li></ol>",
    "pron": "har-pag-ay'",
    "strongs_def": " pillage (proprement dit)",
    "xlit": "harpagḗ"
}