{
    "derivation": "d'un dérivé du G737 (ἀρτέμων) ;",
    "frequency": 1,
    "kjv_def": "grand-voile",
    "lemma": "ἀρτέμων",
    "outline": "<ol><li> la voile supérieure ou la voile d'avant d'un navire</li></ol>",
    "pron": "ar-tem'-ohn",
    "strongs_def": " proprement, quelque chose de prêt (ou encore plus éloigné de G142 (ἀρτέμων) (comparer G740 (ἀρτέμων)) ; quelque chose d'accroché), c'est-à-dire (spécialement) le hunier (plutôt la misaine ou le foc) d'un navire",
    "xlit": "artémōn"
}