{
    "derivation": "du G737 (ἄρτιος) ;",
    "frequency": 1,
    "kjv_def": "parfait",
    "lemma": "ἄρτιος",
    "outline": "<ol><li> adapté</li><li> complet, parfait<ol><li> faisant apparemment référence à &quot;une aptitude particulière pour des usages donnés&quot;.</li></ol></li></ol>",
    "pron": "ar'-tee-os",
    "strongs_def": " fraîche, c'est-à-dire (par implication) complète",
    "xlit": "ártios"
}