{
    "derivation": "de G73 (ἀγωνία) ;",
    "frequency": 1,
    "kjv_def": "agonie",
    "lemma": "ἀγωνία",
    "outline": "<ol><li> une lutte pour la victoire<ol><li> exercice de gymnastique, lutte</li></ol><li> de sévères luttes mentales et d'émotions, agonie, angoisse</li></ol>",
    "pron": "ag-o-nee'-ah",
    "strongs_def": " une lutte (proprement, l'état), c'est-à-dire (au sens figuré) l'angoisse",
    "xlit": "agōnía"
}