{
    "derivation": "de G756 (ἀρχή) ;",
    "frequency": 57,
    "kjv_def": "début, coin, (au, à la) premier (domaine), magistrat, pouvoir, principauté, principe, règle",
    "lemma": "ἀρχή",
    "outline": "<ol><li> début, origine</li><li> la personne ou la chose qui commence, la première personne ou la première chose d'une série, le chef de file</li><li> ce par quoi une chose commence à être, l'origine, la cause active</li><li> l'extrémité d'une chose<ol><li> des coins d'une voile</li></ol><li> le premier lieu, la principauté, la règle, la magistrature<ol><li> des anges et des démons</li></ol></li></ol>",
    "pron": "ar-khay'",
    "strongs_def": " (proprement abstrait) un commencement, ou (concrètement) le chef (dans diverses applications de l'ordre, du temps, de la place ou du rang)",
    "xlit": "archḗ"
}