{
    "derivation": "de G746 (ἀρχιτελώνης) et G5057 (ἀρχιτελώνης) ;",
    "frequency": 1,
    "kjv_def": "chef des publicains",
    "lemma": "ἀρχιτελώνης",
    "outline": "<ol><li> un chef des collecteurs d'impôts, un chef des publicains</li></ol>",
    "pron": "ar-khee-tel-o'-nace",
    "strongs_def": " un collecteur d'impôts de principe",
    "xlit": "architelṓnēs"
}