{
    "derivation": "d'origine hébraïque (H0609) ;",
    "frequency": 2,
    "kjv_def": "Asa",
    "lemma": "Ἀσά",
    "outline": "<span class=\"literal-meaning\">Asa = \"médecin, ou guérisseur\"</span><ol><li> fils d'Abijah et roi de Juda</li></ol>",
    "pron": "as-ah'",
    "strongs_def": " Asa, un Israélite",
    "xlit": "Asá"
}