{
    "derivation": "à partir d'un composé de G1 (ἀσέλγεια) (adverbe de négation) et d'un présumé (de dérivation incertaine, mais signifiant apparemment continent) ;",
    "frequency": 9,
    "kjv_def": "sale, lascif, dévergondé",
    "lemma": "ἀσέλγεια",
    "outline": "<ol><li> luxure effrénée, excès, licence, lascivité, dévergondage, outrance, impudeur, insolence..</li></ol>",
    "pron": "as-elg'-i-a",
    "strongs_def": " la licéité (incluant parfois d'autres vices)",
    "xlit": "asélgeia"
}