{
    "derivation": "de G1 (ἀδάπανος) (comme particule négative) ;",
    "frequency": 2,
    "kjv_def": "sans frais",
    "lemma": "ἀδάπανος",
    "outline": "<ol><li> sans frais, ne nécessitant aucune dépense, ne coûtant rien</li></ol>",
    "pron": "ad-ap'-an-os",
    "strongs_def": " et G1160 (ἀδάπανος) ; sans frais, c'est-à-dire gratuit",
    "xlit": "adápanos"
}