{
    "derivation": "du même que G778 (ἀσκός) ;",
    "frequency": 11,
    "kjv_def": "bouteille",
    "lemma": "ἀσκός",
    "outline": "<ol><li> un sac ou une bouteille en cuir, dans lequel on conservait de l'eau ou du vin</li></ol>",
    "pron": "as-kos'",
    "strongs_def": " un sac en cuir (ou en peau) utilisé comme une bouteille",
    "xlit": "askós"
}