{
    "derivation": "comparatif neutre de la base de G1451 (ἆσσον) ;",
    "frequency": 1,
    "kjv_def": "fermer",
    "lemma": "ἆσσον",
    "outline": "<ol><li> plus près</li></ol>",
    "pron": "as'-son",
    "strongs_def": " plus proche, c'est-à-dire très proche",
    "xlit": "âsson"
}