{
    "derivation": "probablement d'origine étrangère ;",
    "frequency": 2,
    "kjv_def": "Assos",
    "lemma": "Ἄσσος",
    "outline": "<span class=\"literal-meaning\">Assos = &quot;qui s'approche&quot;.</span><ol><li> un port maritime de la province romaine d'Asie dans le district anciennement appelé Mysia, sur la rive nord du golfe d'Adramyttium, et à environ 7 miles (11 km) de Lesbos</li></ol>",
    "pron": "as'-sos",
    "strongs_def": " Assus, une ville d'Asie Mineure",
    "xlit": "Ássos"
}