{
    "derivation": "féminin de G80 (ἀδελφή) ;",
    "frequency": 28,
    "kjv_def": "sœur",
    "lemma": "ἀδελφή",
    "outline": "<ol><li> une sœur à part entière</li><li> liée par le lien de la religion chrétienne</li></ol>",
    "pron": "ad-el-fay'",
    "strongs_def": " une sœur (naturelle ou ecclésiastique)",
    "xlit": "adelphḗ"
}