{
    "derivation": "probablement de G792 (ἀστράπτω) ;",
    "frequency": 2,
    "kjv_def": "éclaircir, briller",
    "lemma": "ἀστράπτω",
    "outline": "<ol><li> pour éclairer<ol><li> d'objets éblouissants</li></ol></li></ol>",
    "pron": "as-trap'-to",
    "strongs_def": " se mettre à clignoter comme un éclair",
    "xlit": "astráptō"
}