{
    "derivation": "neutre de G792 (ἄστρον) ;",
    "frequency": 4,
    "kjv_def": "étoile",
    "lemma": "ἄστρον",
    "outline": "<ol><li> un groupe d'étoiles, une constellation</li><li> une étoile</li></ol>",
    "pron": "as'-tron",
    "strongs_def": " proprement dit, une constellation ; mis pour une seule étoile (naturelle ou artificielle)",
    "xlit": "ástron"
}