{
    "derivation": "de G1 (Ἀσύγκριτος) (adverbe de négation) et un dérivé de G4793 (Ἀσύγκριτος) ;",
    "frequency": 1,
    "kjv_def": "Asyncrits",
    "lemma": "Ἀσύγκριτος",
    "outline": "<span class=\"literal-meaning\">Asyncritus = &quot;incomparable&quot;</span><ol><li> un chrétien inconnu à Rome, salué par Paul</li></ol>",
    "pron": "as-oong'-kree-tos",
    "strongs_def": " incomparable ; Asyncritus, un chrétien",
    "xlit": "Asýnkritos"
}