{
    "derivation": "de G1 (ἀσύνθετος) (adverbe de négation) et un dérivé de G4934 (ἀσύνθετος) ;",
    "frequency": 1,
    "kjv_def": " briseur d'alliance",
    "lemma": "ἀσύνθετος",
    "outline": "<ol><li> non composé, simple</li><li> rupture d'alliance, sans foi</li></ol>",
    "pron": "as-oon'-thet-os",
    "strongs_def": " correctement, non convenu, c'est-à-dire traître aux compacts",
    "xlit": "asýnthetos"
}