{
    "derivation": "de G1 (ἀσφαλής) (adverbe de négation) et sphallo (échouer) ;",
    "frequency": 5,
    "kjv_def": "certain(-ty), sûr, certain",
    "lemma": "ἀσφαλής",
    "outline": "<ol><li> ferme (ce sur quoi on peut compter)</li><li> certain, vrai</li><li> apte à confirmer</li></ol>",
    "pron": "as-fal-ace'",
    "strongs_def": " sécuriser (au sens propre ou figuré)",
    "xlit": "asphalḗs"
}