{
    "derivation": "de G809 (ἀσχημοσύνη) ;",
    "frequency": 2,
    "kjv_def": "la honte, ce qui est inconvenant",
    "lemma": "ἀσχημοσύνη",
    "outline": "<ol><li> inconvenance, acte inconvenant<ol><li> des organes génitaux d'une femme</li><li> de sa nudité, de sa honte</li></ol></li></ol>",
    "pron": "as-kay-mos-oo'-nay",
    "strongs_def": " une indécence ; par implication, le pudenda",
    "xlit": "aschēmosýnē"
}