{
    "derivation": "de G80 (ἀδελφότης) ;",
    "frequency": 2,
    "kjv_def": "frères, fraternité",
    "lemma": "ἀδελφότης",
    "outline": "<ol><li> fraternité, bonté fraternelle</li><li> une famille de frères, la fraternité</li></ol>",
    "pron": "ad-el-fot'-ace",
    "strongs_def": " la fraternité (proprement, le sentiment de fraternité), c'est-à-dire la fraternité (chrétienne)",
    "xlit": "adelphótēs"
}