{
    "derivation": "de G820 (ἀτιμία) ;",
    "frequency": 7,
    "kjv_def": "déshonneur, reproche, honte, vilain",
    "lemma": "ἀτιμία",
    "outline": "<ol><li> déshonneur, ignominie, disgrâce</li></ol>",
    "pron": "at-ee-mee'-ah",
    "strongs_def": " infamie, c'est-à-dire (subjectivement) indignité comparative, (objectivement) disgrâce",
    "xlit": "atimía"
}