{
    "derivation": "de (un roi de Pergame) ;",
    "frequency": 1,
    "kjv_def": "Attalia",
    "lemma": "Ἀττάλεια",
    "outline": "<span class=\"literal-meaning\">Attalia = &quot;le temps de Jah&quot;.</span><ol><li> ville maritime de Pamphylie en Asie, très proche des frontières de la Lycie, construite et nommée par Attale Philadelphe, roi de Pergame, aujourd'hui appelée Antali</li></ol>",
    "pron": "at-tal'-i-ah",
    "strongs_def": " Attaleia, un lieu en Pamphylie",
    "xlit": "Attáleia"
}