{
    "derivation": "d'un composé de G846 (αὐθεντέω) et d'un obsolète (un ouvrier) ;",
    "frequency": 1,
    "kjv_def": "usurper l'autorité sur",
    "lemma": "αὐθεντέω",
    "outline": "<ol><li> celui qui, de ses propres mains, tue un autre ou se tue lui-même</li><li> celui qui agit de sa propre autorité, autocratique</li><li> un maître absolu</li><li> gouverner, exercer une domination sur quelqu'un</li></ol>",
    "pron": "ow-then-teh'-o",
    "strongs_def": " agir de soi-même, c'est-à-dire (au sens figuré) dominer",
    "xlit": "authentéō"
}