{
    "derivation": "d'un dérivé du même que G109 (αὔριον) (signifiant une brise, c'est-à-dire l'air du matin) ;",
    "frequency": 15,
    "kjv_def": "(to-)morrow, le jour suivant",
    "lemma": "αὔριον",
    "outline": "<ol><li> demain</li></ol>",
    "pron": "ow'-ree-on",
    "strongs_def": " proprement, frais, c'est-à-dire (adverbe avec ellipse de G2250 (αὔριον)) demain",
    "xlit": "aúrion"
}