{
    "derivation": "de G846 (αὐτάρκης) et G714 (αὐτάρκης) ;",
    "frequency": 1,
    "kjv_def": "contenu",
    "lemma": "αὐτάρκης",
    "outline": "<ol><li> se suffisant à lui-même, suffisamment fort ou transformé pour ne pas avoir besoin d'aide ou de soutien</li><li> indépendant des circonstances extérieures</li><li> satisfait de son sort, de ses moyens, même les plus minces</li></ol>",
    "pron": "ow-tar'-kace",
    "strongs_def": " complaisant, c'est-à-dire content de soi",
    "xlit": "autárkēs"
}