{
    "derivation": "à partir d'un composé de G575 (ἀφεδρών) et de la base de G1476 (ἀφεδρών) ;",
    "frequency": 2,
    "kjv_def": "tiré à part",
    "lemma": "ἀφεδρών",
    "outline": "<ol><li> un endroit où sont déversés les déchets humains<ol><li> une latrine, un évier, des toilettes</li></ol></li></ol>",
    "pron": "af-ed-rone'",
    "strongs_def": " un lieu où l'on s'assoit à l'écart, c'est-à-dire un lieu d'aisance",
    "xlit": "aphedrṓn"
}