{
    "derivation": "de G680 (ἁφή) ;",
    "frequency": 2,
    "kjv_def": "joint",
    "lemma": "ἁφή",
    "outline": "<ol><li> lien, connexion</li></ol>",
    "pron": "haf-ay'",
    "strongs_def": " probablement un ligament (comme fixation)",
    "xlit": "haphḗ"
}