{
    "derivation": "de G575 (ἀφικνέομαι) et la base de G2425 (ἀφικνέομαι) ;",
    "frequency": 1,
    "kjv_def": "venir à l'étranger",
    "lemma": "ἀφικνέομαι",
    "outline": "<ol><li> venir d'un endroit</li><li> venir à, arriver</li></ol>",
    "pron": "af-ik-neh'-om-ahee",
    "strongs_def": " aller (i.e. se répandre) en avant (par rumeur)",
    "xlit": "aphiknéomai"
}