{
    "derivation": "de G1 (ἀφιλάγαθος) (adverbe de négation) et G5358 (ἀφιλάγαθος) ;",
    "frequency": 1,
    "kjv_def": "dédaigneux de ceux qui sont bons",
    "lemma": "ἀφιλάγαθος",
    "outline": "<ol><li> opposé à la bonté et aux hommes de bien</li></ol>",
    "pron": "af-il-ag'-ath-os",
    "strongs_def": " hostile à la vertu",
    "xlit": "aphilágathos"
}