{
    "derivation": "de G864 (ἄφιξις) ;",
    "frequency": 1,
    "kjv_def": "départ de",
    "lemma": "ἄφιξις",
    "outline": "<ol><li> arrivée</li><li> départ</li></ol>",
    "pron": "af'-ix-is",
    "strongs_def": " proprement, l'arrivée, c'est-à-dire (par implication) le départ",
    "xlit": "áphixis"
}