{
    "derivation": "de G1 (ἀδιάκριτος) (adverbe de négation) et un dérivé de G1252 (ἀδιάκριτος) ;",
    "frequency": 1,
    "kjv_def": "sans partialité",
    "lemma": "ἀδιάκριτος",
    "outline": "<ol><li> indistinct, inintelligible</li><li> sans doute, ambiguïté ou incertitude</li></ol>",
    "pron": "ad-ee-ak'-ree-tos",
    "strongs_def": " proprement, sans distinction, c'est-à-dire (activement) impartial",
    "xlit": "adiákritos"
}