{
    "derivation": "de G575 (ἀφοράω) et G3708 (ἀφοράω) ;",
    "frequency": 2,
    "kjv_def": "regardez",
    "lemma": "ἀφοράω",
    "outline": "<ol><li> détourner les yeux d'autres choses et les fixer sur quelque chose</li></ol>",
    "pron": "af-or-ah'-o",
    "strongs_def": " considérer attentivement",
    "xlit": "aphoráō"
}