{
    "derivation": "apparemment un mot primaire ;",
    "frequency": 1,
    "kjv_def": "moussant",
    "lemma": "ἀφρός",
    "outline": "<ol><li> mousse</li></ol>",
    "pron": "af-ros'",
    "strongs_def": " l'écume, c'est-à-dire l'esclave",
    "xlit": "aphrós"
}