{
    "derivation": "de G1 (ἀχάριστος) (adverbe de négation) et dérivé présumé de G5483 (ἀχάριστος) ;",
    "frequency": 2,
    "kjv_def": "non reconnaissant",
    "lemma": "ἀχάριστος",
    "outline": "<ol><li> disgracieux<ol><li> désagréable</li><li> ingrat</li></ol></li></ol>",
    "pron": "ach-ar'-is-tos",
    "strongs_def": " ingrats, c'est-à-dire ingrats",
    "xlit": "acháristos"
}