{
    "derivation": "adverbe de G88 (ἀδιαλείπτως) ;",
    "frequency": 4,
    "kjv_def": "sans cesse",
    "lemma": "ἀδιαλείπτως",
    "outline": "<ol><li> sans interruption, incessamment, sans cesser</li></ol>",
    "pron": "ad-ee-al-ipe'-toce",
    "strongs_def": " sans interruption, c'est-à-dire sans omission (à une occasion appropriée)",
    "xlit": "adialeíptōs"
}