{
    "derivation": "de G1 (ἄχρηστος) (adverbe de négation) et G5543 (ἄχρηστος) ;",
    "frequency": 1,
    "kjv_def": "non rentable",
    "lemma": "ἄχρηστος",
    "outline": "<ol><li> inutile, non rentable</li></ol>",
    "pron": "akh'-race-tos",
    "strongs_def": " inefficace, c'est-à-dire (implicitement) préjudiciable",
    "xlit": "áchrēstos"
}