{
    "derivation": "apparenté à G206 (ἄχρις) (par l'idée d'un terminus) ;",
    "frequency": 49,
    "kjv_def": "jusqu'à, pour, dans (-to), jusqu'à, (même, un-)to, jusqu'à, tandis que",
    "lemma": "ἄχρις",
    "outline": "<ol><li> jusqu'à, jusqu'à, etc.</li></ol>",
    "pron": "akh'-rece",
    "strongs_def": " (du temps) jusqu'à ou (du lieu) jusqu'à",
    "xlit": "áchri"
}