{
    "derivation": "peut-être à distance de (pour verser) ;",
    "frequency": 2,
    "kjv_def": "paillettes",
    "lemma": "ἄχυρον",
    "outline": "<ol><li> une tige de céréales dont les grains ont été arrachés par battage</li><li> paille brisée par une batteuse, paillettes</li></ol>",
    "pron": "akh'-oo-ron",
    "strongs_def": " paille (en tant que diffuseur)",
    "xlit": "áchyron"
}