{
    "derivation": "de G1 (ἀψευδής) (adverbe de négation) et G5579 (ἀψευδής) ;",
    "frequency": 1,
    "kjv_def": "qui ne peut pas mentir",
    "lemma": "ἀψευδής",
    "outline": "<ol><li> sans mensonge, véridique</li></ol>",
    "pron": "aps-yoo-dace'",
    "strongs_def": " véracité",
    "xlit": "apseudḗs"
}