{
    "derivation": "de dérivation incertaine ;",
    "frequency": 2,
    "kjv_def": "absinthe",
    "lemma": "ἄψινθος",
    "outline": "<ol><li> absinthe</li><li> nom d'une étoile qui tombait dans les eaux et les rendait amères</li></ol>",
    "pron": "ap'-sin-thos",
    "strongs_def": " l'absinthe (comme type d'amertume, c'est-à-dire (au sens figuré) de calamité)",
    "xlit": "ápsinthos"
}