{
    "derivation": "du même que G901 (βάθος) ;",
    "frequency": 8,
    "kjv_def": "profondeur(-ness, choses), profondeur",
    "lemma": "βάθος",
    "outline": "<ol><li> profondeur, hauteur<ol><li> de la mer &quot;profonde</li><li> métaph.<ol><li> profond, extrême, pauvreté</li><li> des choses profondes de Dieu</li></ol></li></ol></li></ol>",
    "pron": "bath'-os",
    "strongs_def": " profondeur, c'est-à-dire (implicitement) étendue ; (au sens figuré) mystère",
    "xlit": "báthos"
}