{
    "derivation": "de G94 (ἀδικέω) ;",
    "frequency": 26,
    "kjv_def": "faire mal, blesser, être un délinquant, être injuste, (faire, subir, prendre) mal",
    "lemma": "ἀδικέω",
    "outline": "<ol><li> absolument<ol><li> agir injustement ou méchamment, pécher,</li><li> être un criminel, avoir violé les lois d'une certaine manière</li><li> faire du mal</li><li> faire du mal</li></ol><li> transitivement<ol><li> faire quelque chose de mal ou pécher à quelque égard</li></ol>faire<ol><li> du tort à quelqu'un, agir méchamment envers lui</li><li> blesser, endommager, nuire</li></ol></li></ol>",
    "pron": "ad-ee-keh'-o",
    "strongs_def": " être injuste, c'est-à-dire (activement) faire le mal (moralement, socialement ou physiquement)",
    "xlit": "adikéō"
}