{
    "derivation": "d'origine hébraïque (H01296) ;",
    "frequency": 1,
    "kjv_def": "Barachias",
    "lemma": "Βαραχίας",
    "outline": "<span class=\"literal-meaning\">Barachiah = &quot;Jéhovah bénit&quot;</span><ol><li> serait le père de Zachariah, tué dans le temple</li></ol>",
    "pron": "bar-akh-ee'-as",
    "strongs_def": " Barachias (c'est-à-dire Berechijah), un Israélite",
    "xlit": "Barachías"
}