{
    "derivation": "d'origine araméenne (H01247 et H08526) ;",
    "frequency": 4,
    "kjv_def": "Bartholomeus",
    "lemma": "Βαρθολομαῖος",
    "outline": "<span class=\"literal-meaning\">Barthélemy = &quot;fils de Tolmai&quot;.</span><ol><li> l'un des douze apôtres du Christ</li></ol>",
    "pron": "bar-thol-om-ah'-yos",
    "strongs_def": " fils de Tolmai ; Bar-tholomæus, un apôtre chrétien",
    "xlit": "Bartholomaîos"
}