{
    "derivation": "de G91 (ἀδίκημα) ;",
    "frequency": 3,
    "kjv_def": "mal faire, iniquité, affaire de mal faire",
    "lemma": "ἀδίκημα",
    "outline": "<ol><li> un méfait, une mauvaise action, une iniquité</li></ol>",
    "pron": "ad-eek'-ay-mah",
    "strongs_def": " un mal fait",
    "xlit": "adíkēma"
}