{
    "derivation": "d'origine araméenne (H01247 et probablement H06634) ;",
    "frequency": 2,
    "kjv_def": "Barsabas",
    "lemma": "Βαρσαβᾶς",
    "outline": "<span class=\"literal-meaning\">Barsabas = \" fils de Sabas \"</span><ol><li> nom de famille d'un certain Joseph (Actes 1:23)</li><li> le nom de famille d'un certain Judas (Actes 15:22)</li></ol>",
    "pron": "bar-sab-as'",
    "strongs_def": " fils de Sabas (ou Tsaba) ; Bar-sabas, le nom de deux Israélites",
    "xlit": "Barsabâs"
}