{
    "derivation": "de G926 (βαρύτιμος) et G5092 (βαρύτιμος) ;",
    "frequency": 0,
    "kjv_def": "très précieux",
    "lemma": "βαρύτιμος",
    "outline": "<ol><li> de poids, de grande valeur, très précieux, coûteux</li></ol>",
    "pron": "bar-oo'-tim-os",
    "strongs_def": " de grande valeur",
    "xlit": "barýtimos"
}