{
    "derivation": "de G928 (βασανισμός) ;",
    "frequency": 6,
    "kjv_def": "tourmente",
    "lemma": "βασανισμός",
    "outline": "<ol><li> torturer, une épreuve par la pierre de touche, qui est une pierre siliceuse noire utilisée pour tester la pureté de l'or ou de l'argent par la couleur de la strie produite sur elle en la frottant avec l'un ou l'autre métal</li><li> tourment, torture<ol><li> l'action de tourmenter</li><li> l'état ou la condition de ceux qui sont tourmentés</li></ol></li></ol>",
    "pron": "bas-an-is-mos'",
    "strongs_def": " torture",
    "xlit": "basanismós"
}