{
    "derivation": "de G928 (βασανιστής) ;",
    "frequency": 1,
    "kjv_def": "tourmenteur",
    "lemma": "βασανιστής",
    "outline": "<ol><li> celui qui obtient la vérité par l'usage du chevalet<ol><li> inquisiteur, tortionnaire également utilisé pour désigner un geôlier, sans doute parce que l'activité de torture lui était également confiée</li></ol></li></ol>",
    "pron": "bas-an-is-tace'",
    "strongs_def": " un tortionnaire",
    "xlit": "basanistḗs"
}