{
    "derivation": "peut-être à distance du même que G939 (βάσανος) (par la notion d'aller au fond) ;",
    "frequency": 3,
    "kjv_def": "tourmente",
    "lemma": "βάσανος",
    "outline": "<ol><li> la pierre de touche, qui est une pierre siliceuse noire utilisée pour tester la pureté de l'or ou de l'argent par la couleur de la trace qu'elle produit en la frottant avec l'un ou l'autre métal</li><li> le râtelier ou l'instrument de torture par lequel on oblige quelqu'un à divulguer la vérité</li><li> torture, tourment, douleurs aiguës<ol><li> des douleurs d'une maladie</li><li> de ceux qui sont en enfer après la mort</li></ol></li></ol>",
    "pron": "bas'-an-os",
    "strongs_def": " une pierre de touche, c'est-à-dire (par analogie) la torture",
    "xlit": "básanos"
}