{
    "derivation": "de G948 (βδελυκτός) ;",
    "frequency": 1,
    "kjv_def": "abominable",
    "lemma": "βδελυκτός",
    "outline": "<ol><li> abominable, détestable</li></ol>",
    "pron": "bdel-ook-tos'",
    "strongs_def": " détestable, c'est-à-dire (spécialement) idolâtre",
    "xlit": "bdelyktós"
}