{
    "derivation": "de la base de G939 (βέβαιος) (par l'idée de basalité) ;",
    "frequency": 8,
    "kjv_def": "ferme, de force, stedfast, sûr",
    "lemma": "βέβαιος",
    "outline": "<ol><li> stable, rapide, ferme</li><li> métaph. sûr, fiable</li></ol>",
    "pron": "beb'-ah-yos",
    "strongs_def": " stable (au sens propre ou figuré)",
    "xlit": "bébaios"
}