{
    "derivation": "de G949 (βεβαιόω) ;",
    "frequency": 9,
    "kjv_def": "confirmer, (e-)établir",
    "lemma": "βεβαιόω",
    "outline": "<ol><li> rendre ferme, établir, confirmer, assurer</li></ol>",
    "pron": "beb-ah-yo'-o",
    "strongs_def": " stabiliser (au sens figuré)",
    "xlit": "bebaióō"
}