{
    "derivation": "neutre d'un composé d'un dérivé de G906 (βελτίον) (utilisé pour le comparatif de G18 (βελτίον)) ;",
    "frequency": 1,
    "kjv_def": "très bien",
    "lemma": "βελτίον",
    "outline": "<ol><li> meilleur</li></ol>",
    "pron": "bel-tee'-on",
    "strongs_def": " meilleur",
    "xlit": "beltíon"
}