{
    "derivation": "de G960 (Βεροιαῖος) ;",
    "frequency": 1,
    "kjv_def": "de Berea",
    "lemma": "Βεροιαῖος",
    "outline": "<ol><li> un résident de Berea</li></ol>",
    "pron": "ber-oy-ah'-yos",
    "strongs_def": " un Béroéen ou un natif de Béroé",
    "xlit": "Beroiaîos"
}