{
    "derivation": "de la base de G939 (βῆμα) ;",
    "frequency": 11,
    "kjv_def": "siège du jugement, mettre (pied) sur, trône",
    "lemma": "βῆμα",
    "outline": "<ol><li> un pas, une allure, l'espace que couvre un pied, un souffle de pied</li><li> une place surélevée montée par des marches<ol><li> une plate-forme, une tribune<ol><li> du siège officiel d'un juge</li><li> du siège du jugement du Christ</li><li> Hérode a construit à Césarée une structure ressemblant à un trône, d'où il assistait aux jeux et prononçait des discours devant le peuple</li></ol></li></ol></li></ol>",
    "pron": "bay'-ma",
    "strongs_def": " un pas, c'est-à-dire un souffle de pied ; implicitement, une tribune, c'est-à-dire un tribunal",
    "xlit": "bēma"
}