{
    "derivation": "probablement apparenté à G979 (βία) (par l'idée d'activité vitale) ;",
    "frequency": 3,
    "kjv_def": "violence",
    "lemma": "βία",
    "outline": "<ol><li> la force, qu'elle soit corporelle ou mentale</li><li> force dans l'action violente, force</li></ol>",
    "pron": "bee'-ah",
    "strongs_def": " force",
    "xlit": "bía"
}