{
    "derivation": "un diminutif de G976 (βιβλίον) ;",
    "frequency": 32,
    "kjv_def": "facture, livre, parchemin, écriture",
    "lemma": "βιβλίον",
    "outline": "<ol><li> un petit livre, un parchemin, un document écrit</li><li> une feuille sur laquelle quelque chose a été écrit<ol><li> un acte de divorce</li></ol></li></ol>",
    "pron": "bib-lee'-on",
    "strongs_def": " un rouleau",
    "xlit": "biblíon"
}