{
    "derivation": "peut-être la même que la base de G985 (Βλάστος) ;",
    "frequency": 1,
    "kjv_def": "Blastus",
    "lemma": "Βλάστος",
    "outline": "<span class=\"literal-meaning\">Blastus = &quot;pousse&quot;</span><ol><li> le chambellan d'Hérode Agrippa Ier</li></ol>",
    "pron": "blas'-tos",
    "strongs_def": " Blastus, un officier d'Hérode Agrippa",
    "xlit": "Blástos"
}