{
    "derivation": "de G989 (βλασφημέω) ;",
    "frequency": 35,
    "kjv_def": "(parler) blasphémer (-er, -mously, -my), diffamer, se moquer, injurier, dire le mal",
    "lemma": "βλασφημέω",
    "outline": "<ol><li> dire du mal, râler, injurier, calomnier, blasphémer</li><li> être injurié, injurié, calomnié, blasphémé</li></ol>",
    "pron": "blas-fay-meh'-o",
    "strongs_def": " vilipender ; en particulier, parler de manière impie",
    "xlit": "blasphēméō"
}