{
    "derivation": "de G994 (βοή) ;",
    "frequency": 1,
    "kjv_def": "pleurer",
    "lemma": "βοή",
    "outline": "<ol><li> un cri</li></ol>",
    "pron": "bo-ay'",
    "strongs_def": " un halo, c'est-à-dire un appel (à l'aide, etc.)",
    "xlit": "boḗ"
}