{
    "derivation": "de G998 (βοηθέω) ;",
    "frequency": 7,
    "kjv_def": "aider, secourir",
    "lemma": "βοηθέω",
    "outline": "<ol><li> aider, secourir, apporter de l'aide</li></ol>",
    "pron": "bo-ay-theh'-o",
    "strongs_def": " aider ou soulager",
    "xlit": "boēthéō"
}