{
    "derivation": "identique à H9 (אֲבֵדָה), mal écrit pour H11 (אֲבַדּוֹן) ;",
    "frequency": 1,
    "kjv_def": "destruction.",
    "lemma": "אֲבַדֹּה",
    "outline": "<ol><li> une chose perdue, quelque chose de perdu, une perdition</li></ol>",
    "pron": "ab-ad-do'",
    "strongs_def": "une percée",
    "xlit": "ʼăbaddôh"
}