{
    "derivation": "identique à H1004 (בַּיִת) ;",
    "frequency": 0,
    "kjv_def": "Bajith.",
    "lemma": "בַּיִת",
    "outline": "<span class=\"literal-meaning\">Bajith = &quot;maison</span><ol><li> un lieu en Palestine</li></ol>",
    "pron": "bah'-yith",
    "strongs_def": "Bajith, un lieu en Palestine",
    "xlit": "Bayith"
}