{
    "derivation": "(Araméen) correspondant à H1004 (בַּיִת)",
    "frequency": 44,
    "kjv_def": "maison.",
    "lemma": "בַּיִת",
    "outline": "<ol><li> maison (des hommes)</li><li> maison (de Dieu)</li></ol>",
    "pron": "bah-yith",
    "strongs_def": "{une maison (dans la plus grande variation d'applications, notamment famille, etc.)}",
    "xlit": "bayith"
}