{
    "derivation": "de H1004 (בַּיִת) et H1537 (גִּלְגָּל) avec l'article intercalé ; maison de Gilgal (ou de roulement) ;",
    "frequency": "",
    "kjv_def": "Beth-Gilgal.",
    "lemma": "בֵּית הַגִּלְגָּל",
    "outline": "",
    "pron": "bayth hag-gil gawl'",
    "strongs_def": "Beth-hag-Gilgal, un lieu en Palestine",
    "xlit": "Bêyth hag-Gilgâl"
}