{
    "derivation": "de H1004 (בַּיִת) et H7848 (שִׁטָּה) avec l'article interposé ; maison de l'acacia ;",
    "frequency": "",
    "kjv_def": "Beth-shittah.",
    "lemma": "בֵּית הַשִּׁטָּה",
    "outline": "",
    "pron": "bayth hash-shit-taw'",
    "strongs_def": "Beth-hash-Shittah, un lieu en Palestine",
    "xlit": "Bêyth hash-Shiṭṭâh"
}