{
    "derivation": "de H1004 (בַּיִת) et H3754 (כֶּרֶם) avec l'article interposé ; maison de la vigne ;",
    "frequency": "",
    "kjv_def": "Beth-haccerem.",
    "lemma": "בֵּית הַכֶּרֶם",
    "outline": "",
    "pron": "bayth hak-keh'-rem",
    "strongs_def": "Beth-hak-Kerem, un lieu en Palestine",
    "xlit": "Bêyth hak-Kerem"
}