{
    "derivation": "de H1004 (בַּיִת) et H4601 (מַעֲכָה) ; maison de Maakah ;",
    "frequency": "",
    "kjv_def": "Beth-maachah.",
    "lemma": "בֵּית מַעֲכָה",
    "outline": "",
    "pron": "bayth mah-ak-aw'",
    "strongs_def": "Beth-Maakah, un lieu en Palestine",
    "xlit": "Bêyth Maʻăkâh"
}