{
    "derivation": "de H1004 (בַּיִת) et H2356 (חוֹר) ; maison de creux ;",
    "frequency": "",
    "kjv_def": "Beth-horon.",
    "lemma": "בֵּית חוֹרוֹן",
    "outline": "",
    "pron": "bayth kho-rone'",
    "strongs_def": "Beth-Choron, le nom de deux endroits contigus en Palestine",
    "xlit": "Bêyth Chôwrôwn"
}