{
    "derivation": "de H1004 (בַּיִת) et H3899 (לֶחֶם) ; maison du pain ;",
    "frequency": "",
    "kjv_def": "Bethléem.",
    "lemma": "בֵּית לֶחֶם",
    "outline": "",
    "pron": "bayth leh'-khem",
    "strongs_def": "Beth-Lechem, un lieu en Palestine",
    "xlit": "Bêyth Lechem"
}