{
    "derivation": "de H1004 (בַּיִת) et H5820 (עַזְמָוֶת) ;",
    "frequency": "",
    "kjv_def": "Bethaz-maveth. Comparez H5820 (עַזְמָוֶת).",
    "lemma": "בֵּית עַזְמָוֶת",
    "outline": "",
    "pron": "bayth az-maw'-veth",
    "strongs_def": "maison d'Azmaveth, un endroit en Palestine",
    "xlit": "Bêyth ʻAzmâveth"
}