{
    "derivation": "une variation orthographique pour H1042 (בֵּית עֲנוֹת) ;",
    "frequency": "",
    "kjv_def": "Beth-anath.",
    "lemma": "בֵּית עֲנָת",
    "outline": "",
    "pron": "bayth an-awth'",
    "strongs_def": "Beth-Anath, un lieu en Palestine",
    "xlit": "Bêyth ʻĂnâth"
}