{
    "derivation": "de H1004 (בַּיִת) et un pluriel de H6030 (עָנָה) ; maison de réponses ;",
    "frequency": "",
    "kjv_def": "Beth-anoth.",
    "lemma": "בֵּית עֲנוֹת",
    "outline": "",
    "pron": "bayth an-oth'",
    "strongs_def": "Beth-Anoth, un lieu en Palestine",
    "xlit": "Bêyth ʻĂnôwth"
}