{
    "derivation": "de H1004 (בַּיִת) et H7339 (רְחֹב) ; maison de (la) rue ;",
    "frequency": "",
    "kjv_def": "Beth-rehob.",
    "lemma": "בֵּית רְחוֹב",
    "outline": "",
    "pron": "bayth re-khobe'",
    "strongs_def": "Beth-Rechob, un lieu en Palestine",
    "xlit": "Bêyth Rᵉchôwb"
}