{
    "derivation": "une racine primitive ;",
    "frequency": 116,
    "kjv_def": "du tout, se lamenter, se plaindre, faire des lamentations, [idiome] plus, se lamenter, [idiome] douloureux, [idiome] avec des larmes, pleurer.",
    "lemma": "בָּכָה",
    "outline": "<ol><li> pleurer, se lamenter, pleurer, verser des larmes<ol><li> (Qal)<ol><li> pleurer (de chagrin, d'humiliation ou de joie)</li><li> pleurer amèrement (avec acc. connexe)</li><li> pleurer sur (embrasser et pleurer)</li><li> pleurer</li></ol><li> (Piel) participe<ol><li> lamenter se plain</li></ol>dre<ol><li> se lamenter</li></ol></li></ol></li></ol>",
    "pron": "baw-kaw'",
    "strongs_def": "pleurer ; généralement se lamenter",
    "xlit": "bâkâh"
}