{
    "derivation": "identique à H1056 (בָּכָא) ;",
    "frequency": 4,
    "kjv_def": "mûrier.",
    "lemma": "בָּכָא",
    "outline": "<ol><li> balsamier - arbuste qui laisse échapper de la sève lorsqu'il est coupé</li><li> nom possible d'une vallée de baumiers dans Ps. 84:6</li></ol>",
    "pron": "baw-kaw'",
    "strongs_def": "l'arbre pleureur (un arbre distillant de la gomme, peut-être le balsam)",
    "xlit": "bâkâʼ"
}