{
    "derivation": "de H1058 (בָּכָה) ;",
    "frequency": 28,
    "kjv_def": "déborder, [idiome] douloureux, pleurer (continuellement), pleurer.",
    "lemma": "בְּכִי",
    "outline": "<ol><li> une pleureuse, une pleureuse</li></ol>",
    "pron": "bek-ee'",
    "strongs_def": "un pleurage ; par analogie, un égouttement",
    "xlit": "Bᵉkîy"
}