{
    "derivation": "ou (court) בְּכֹרָה ; féminin de H1060 (בְּכוֹר) ;",
    "frequency": 14,
    "kjv_def": "droit de naissance, premier-né (-ling).",
    "lemma": "בְּכוֹרָה",
    "outline": "<ol><li> droit d'aînesse, primogéniture, droit du premier-né</li></ol>",
    "pron": "bek-o-raw'",
    "strongs_def": "le premier né de l'homme ou de la bête ; abstraitement, la primogéniture",
    "xlit": "bᵉkôwrâh"
}