{
    "derivation": "par variation orthographique pour H1063 (בִּכּוּרָה) ;",
    "frequency": 1,
    "kjv_def": "firstripe.",
    "lemma": "בַּכֻּרָה",
    "outline": "<ol><li> première figue mûre, figue précoce</li><li> (TWOT) prémices</li></ol>",
    "pron": "bak-koo-raw'",
    "strongs_def": "une figue de première maturité",
    "xlit": "bakkurâh"
}