{
    "derivation": "par contraction pour H1168 (בַּעַל) ;",
    "frequency": 3,
    "kjv_def": "Bel.",
    "lemma": "בֵּל",
    "outline": "<span class=\"literal-meaning\">Bel = &quot;seigneur&quot;</span><ol><li> une divinité principale de Babylone</li></ol>",
    "pron": "bale",
    "strongs_def": "Bel, le Baal des Babyloniens",
    "xlit": "Bêl"
}