{
    "derivation": "patronymiquement de H1071 (בֶכֶר) ;",
    "frequency": 1,
    "kjv_def": "Bachrites.",
    "lemma": "בַּכְרִי",
    "outline": "<span class=\"literal-meaning\">Bachrites - &quot;un dromadaire : premier-né&quot;.</span><ol><li> un membre de la famille de Becher</li></ol>",
    "pron": "bak-ree'",
    "strongs_def": "un Bakrite (collectivement) ou des descendants de Beker",
    "xlit": "Bakrîy"
}