{
    "derivation": "de H1086 (בָּלָה) ;",
    "frequency": 72,
    "kjv_def": "de peur que, ni, ni, ni, ni (que...), ni (aucun), rien.",
    "lemma": "בַּל",
    "outline": "<ol><li> pas, à peine, autrement</li></ol>",
    "pron": "bal",
    "strongs_def": "à proprement parler, un échec ; implicitement, rien ; généralement (adverbe) pas du tout ; également de peur",
    "xlit": "bal"
}