{
    "derivation": "féminin de H104 (אִגְּרָא) ;",
    "frequency": 10,
    "kjv_def": "lettre.",
    "lemma": "אִגֶּרֶת",
    "outline": "<ol><li> lettre, missive</li></ol>",
    "pron": "ig-eh'-reth",
    "strongs_def": "une épître",
    "xlit": "ʼiggereth"
}