{
    "derivation": "de dérivation incertaine ;",
    "frequency": 5,
    "kjv_def": "Bildad.",
    "lemma": "בִּלְדַּד",
    "outline": "<span class=\"literal-meaning\">Bildad = &quot;confondre (en mêlant) l'amour&quot;.</span><ol><li> le deuxième ami de Job</li></ol>",
    "pron": "bil-dad'",
    "strongs_def": "Bildad, l'un des amis de Job",
    "xlit": "Bildad"
}