{
    "derivation": "de H1101 (בָּלַל) ;",
    "frequency": 3,
    "kjv_def": "maïs, fourrage, provende.",
    "lemma": "בְּלִיל",
    "outline": "<ol><li> fourrage</li></ol>",
    "pron": "bel-eel'",
    "strongs_def": "mélangés, c'est-à-dire (spécifiquement) des aliments pour animaux (pour le bétail)",
    "xlit": "bᵉlîyl"
}