{
    "derivation": "de dérivation étrangère ;",
    "frequency": 2,
    "kjv_def": "Belteshazzar.",
    "lemma": "בֵּלְטְשַׁאצַּר",
    "outline": "<span class=\"literal-meaning\">Belteshazzar = &quot;seigneur du trésor de l'étroitesse&quot;.</span><ol><li> le 4ème des plus grands prophètes, pris en otage lors de la première déportation à Babylone ; grâce au don de Dieu de l'interprétation des rêves, il devint le 2ème commandant de l'empire de Babylone et dura jusqu'à la fin de l'empire babylonien et dans l'empire perse. Ses prophéties sont la clé de la compréhension des événements de la fin des temps. Remarqué pour sa pureté et sa sainteté par le prophète contemporain Ézéchiel<ol><li> aussi, \"Daniel\" (01840 ou 01841)</li></ol></li></ol>",
    "pron": "bale-tesh-ats-tsar'",
    "strongs_def": "Belteshatstsar, le nom babylonien de Daniel",
    "xlit": "Bêlṭᵉshaʼtstsar"
}