{
    "derivation": "de H1089 (בָּלַהּ) ;",
    "frequency": 10,
    "kjv_def": "la terreur, les problèmes.",
    "lemma": "בַּלָּהָה",
    "outline": "<ol><li> terreur, destruction, calamité, événement redoutable</li></ol>",
    "pron": "bal-law-haw'",
    "strongs_def": "alarme ; d'où la destruction",
    "xlit": "ballâhâh"
}