{
    "derivation": "de H1086 (בָּלָה) ;",
    "frequency": 58,
    "kjv_def": "corruption, ig(norantly), par manque de, où aucun...est, de sorte que aucun, aucun, pas, un(awares), sans.",
    "lemma": "בְּלִי",
    "outline": "<ol><li> s'épuiser</li><li> sans, non, pas</li></ol>",
    "pron": "bel-ee'",
    "strongs_def": "proprement, échec, c'est-à-dire rien ou destruction ; généralement (avec préposition) sans, pas encore, parce que pas, tant que, etc.",
    "xlit": "bᵉlîy"
}