{
    "derivation": "intensive de H6 (אָבַד) ;",
    "frequency": 5,
    "kjv_def": "destruction.",
    "lemma": "אֲבַדּוֹן",
    "outline": "<ol><li> lieu de destruction, destruction, ruine, Abaddon</li></ol>",
    "pron": "ab-ad-done'",
    "strongs_def": "abstrait, une perdition ; concret, Hadès",
    "xlit": "ʼăbaddôwn"
}