{
    "derivation": "ou בַּלְעֲדֵי ; pluriel constructif à partir de H1077 (בַּל) et H5703 (עַד), pas jusqu'à, c'est-à-dire (comme préposition ou adverbe)",
    "frequency": 17,
    "kjv_def": "à côté de, pas (dans), sauver, sans.",
    "lemma": "בִּלְעֲדֵי",
    "outline": "<ol><li> à part, sauf, sans, en plus</li></ol>",
    "pron": "bil-ad-ay'",
    "strongs_def": "sauf, sans, en plus",
    "xlit": "bilʻădêy"
}