{
    "derivation": "une racine primitive ;",
    "frequency": "",
    "kjv_def": "se dérouleront.",
    "lemma": "בָּלַם",
    "outline": "",
    "pron": "baw-lam'",
    "strongs_def": "de museler",
    "xlit": "bâlam"
}