{
    "derivation": "une racine primitive ;",
    "frequency": "",
    "kjv_def": "cueilleur.",
    "lemma": "בָּלַס",
    "outline": "",
    "pron": "baw-las'",
    "strongs_def": "pour pincer les figues sycomores (opération nécessaire pour les faire mûrir)",
    "xlit": "bâlaç"
}