{
    "derivation": "patronymiquement de H1106 (בֶּלַע) ;",
    "frequency": 1,
    "kjv_def": "Belaites.",
    "lemma": "בַּלְעִי",
    "outline": "<span class=\"literal-meaning\">Belaites = &quot;avaler&quot;</span><ol><li> descendants de Bela</li></ol>",
    "pron": "bel-ee'",
    "strongs_def": "un Belaite (collectivement) ou des descendants de Bela",
    "xlit": "Balʻîy"
}