{
    "derivation": "(Araméen) correspondant à H1112 (בֵּלְשַׁאצַּר)",
    "frequency": 7,
    "kjv_def": "Belshazzar.",
    "lemma": "בֵּלְשַׁאצַּר",
    "outline": "<span class=\"literal-meaning\">Belshazzar = &quot;Bel protège le roi&quot;</span><ol><li> roi de Babylone au moment de sa chute ; c'est à lui que Daniel a expliqué l'écriture sur la muraille</li></ol>",
    "pron": "bale-shats-tsar'",
    "strongs_def": "Belshatstsar, un roi babylonien",
    "xlit": "Bêlshaʼtstsar"
}