{
    "derivation": "probablement de H4107 (מָהַל) avec préfixe prépositionnel ; avec élagage ;",
    "frequency": 1,
    "kjv_def": "Bimhal.",
    "lemma": "בִּמְהָל",
    "outline": "<span class=\"literal-meaning\">Bimhal = &quot;dans la circoncision : dans la faiblesse (par mélange)&quot;</span><ol><li> un descendant d'Asher</li></ol>",
    "pron": "bim-hawl'",
    "strongs_def": "Bimhal, un Israélite",
    "xlit": "Bimhâl"
}