{
    "derivation": "ou בֵּלְאשַׁצַּרlemma בֵּלְאשַׁצּר voyelle manquante, corrigée en בֵּלְאשַׁצַּר ; d'origine étrangère (comparer H1095 (בֵּלְטְשַׁאצַּר)) ;",
    "frequency": 1,
    "kjv_def": "Belshazzar.",
    "lemma": "בֵּלְשַׁאצַּר",
    "outline": "<span class=\"literal-meaning\">Belshazzar = &quot;Bel protège le roi&quot;</span><ol><li> roi de Babylone au moment de sa chute ; c'est à lui que Daniel a expliqué l'écriture sur la muraille</li></ol>",
    "pron": "bale-shats-tsar'",
    "strongs_def": "Belshatstsar, un roi babylonien",
    "xlit": "Bêlshaʼtstsar"
}