{
    "derivation": "une racine primitive ;",
    "frequency": 375,
    "kjv_def": "(commencer à) construire(-er), obtenir des enfants, faire, réparer, mettre (en place), [idiome] sûrement.",
    "lemma": "בָּנָה",
    "outline": "<ol><li> construire, reconstruire, établir, faire durer<ol><li> (Qal)<ol><li> construire, reconstruire</li><li> construire une maison (c'est-à-dire fonder une famille)</li></ol><li> (Niphal)<ol><li> être construit</li><li> être reconstruit</li><li> établi (d'exilés restaurés) (fig.)</li><li> établi (rendu permanent)</li><li> être construit (d'une femme sans enfant devenant la mère d'une famille grâce aux enfants d'une concubine)</li></ol></li></ol></li></ol>",
    "pron": "baw-naw'",
    "strongs_def": "construire (au sens propre comme au sens figuré)",
    "xlit": "bânâh"
}