{
    "derivation": "identique à H1121 (בֵּן) ;",
    "frequency": "",
    "kjv_def": "Ben.",
    "lemma": "בֵּן",
    "outline": "",
    "pron": "bane",
    "strongs_def": "Ben, un Israélite",
    "xlit": "Bên"
}