{
    "derivation": "de H1121 (בֵּן) et H40 (אֲבִימֶלֶךְ) ; (le) fils d'Abinadab ;",
    "frequency": "",
    "kjv_def": "le fils d'Abinadab.",
    "lemma": "בֶּן־אֲבִינָדָב",
    "outline": "",
    "pron": "ben-ab-ee''-naw-dawb'",
    "strongs_def": "Ben-Abinadab, un Israélite",
    "xlit": "Ben-ʼĂbîynâdâb"
}