{
    "derivation": "de H1129 (בָּנָה) ; construit ;",
    "frequency": 7,
    "kjv_def": "Binnui.",
    "lemma": "בִּנּוּי",
    "outline": "<span class=\"literal-meaning\">Binnui = &quot;construit&quot;.</span><ol><li> un exilé de retour avec Zerubbabel, fils de Henadad, qui a assisté à la réparation de la muraille de Jérusalem, sous Néhémie</li><li> un lévite au temps d'Esdras, père de Noadia</li><li> un autre lévite du temps d'Esdras, qui prit une femme étrangère</li><li> un autre Lévite du temps d'Esdras, qui prit une femme étrangère</li></ol>",
    "pron": "bin-noo'-ee",
    "strongs_def": "Binnui, un Israélite",
    "xlit": "Binnûwy"
}