{
    "derivation": "de H1121 (בֵּן) et H2105 (זוֹחֵת) ; fils de Zocheth ;",
    "frequency": "",
    "kjv_def": "Ben-zoketh.",
    "lemma": "בֶּן־זוֹחֵת",
    "outline": "",
    "pron": "ben-zo-khayth'",
    "strongs_def": "Ben-Zocheth, un Israélite",
    "xlit": "Ben-Zôwchêth"
}