{
    "derivation": "ou (abrégé) אָדֹן ; d'une racine inutilisée (signifiant régner) ;",
    "frequency": 325,
    "kjv_def": "seigneur, maître, propriétaire. Comparez aussi les noms commençant par 'Adoni-'.",
    "lemma": "אָדוֹן",
    "outline": "<ol><li> ferme, fort, seigneur, maître<ol><li> seigneur, maître<ol><li> référence aux hommes<ol><li> surintendant du ménage, des affaires</li><li> maître</li><li> roi</li></ol><li>référence à Dieu<ol><li> le Seigneur Dieu</li><li> Seigneur de toute la terre</li></ol><li> seigneurs, rois<ol><li>référence aux hommes<ol><li> propriétaire de la colline de Samarie</li><li> maître</li><li> mari</li><li> prophète</li><li> gouverneur</li><li> prince</li><li> roi</li></ol><li>référence à Dieu<ol><li> Seigneur des seigneurs (probablement = &quot;ton mari, Yahweh&quot;) mon seigneur,</li></ol><li> mon maître référence<ol><li>aux hommes maître<ol><li> mari</li><li> prophète</li><li> prince</li><li> roi</li><li> père</li><li> Moïse</li><li> prêtre</li><li> ange</li><li> théophanique</li><li> capitaine</li><li> reconnaissance</li><li> générale</li><li> de supériorité référence</li></ol><li> à Dieu mon Seigneur,<ol><li> mon Seigneur et mon Dieu Adonaï (</li><li> parallèle avec Yahweh)</li></ol></li></li></ol></li></li></li></ol></li></li> </ol>",
    "pron": "aw-done'",
    "strongs_def": "souverain, c'est-à-dire contrôleur (humain ou divin)",
    "xlit": "ʼâdôwn"
}