{
    "derivation": "de H1129 (בָּנָה) ;",
    "frequency": 7,
    "kjv_def": "bâtiment.",
    "lemma": "בִּנְיָן",
    "outline": "<ol><li> structure, bâtiment</li></ol>",
    "pron": "bin-yawn'",
    "strongs_def": "un édifice",
    "xlit": "binyân"
}