{
    "derivation": "parfois (avec l'article inséré) בֵּן-הַיּמִינִי ; avec H376 (אִישׁ) inséré (1 Samuel 9:1) בֶּן-אִישׁ ימִינִי ; fils d'un homme de Jemini ; ou raccourci אִישׁ יְמִינִי ; (1 Samuel 9:4 ; Esther 2 :5) un homme de Jemini, ou (1 Samuel 20:1) simplement יְמִינִיxlit Yᵉmînîy corrigé en Yᵉmîynîy ; un Jeminite ; (pluriel) בְּנֵי יְמִינִיxlit Bᵉnîy corrigé en Bᵉnêy ; patron de H1144 (בִּנְיָמִין) ;",
    "frequency": 9,
    "kjv_def": "Benjamite, de Benjamin.",
    "lemma": "בֶּן־יְמִינִי",
    "outline": "<span class=\"literal-meaning\">Benjamite - &quot;un fils de la main droite&quot;.</span><ol><li> de la tribu de Benjamin</li></ol>",
    "pron": "ben-yem-ee-nee'",
    "strongs_def": "un Benjaminite, ou un descendant de Benjamin",
    "xlit": "Ben-yᵉmîynîy"
}