{
    "derivation": "une racine primitive ;",
    "frequency": 5,
    "kjv_def": "causer, s'enquérir, chercher, se gonfler.",
    "lemma": "בָּעָה",
    "outline": "<ol><li> chercher, gonfler, faire gonfler, faire bouillir, enquêter<ol><li> (Qal)<ol><li> chercher, enquêter</li><li> faire bouillir</li></ol><li> (Niphal)<ol><li> être recherché</li><li> se gonfler, se gonfler, se faire gonfler</li></ol></li></ol></li></ol>",
    "pron": "baw-aw'",
    "strongs_def": "jaillir, c'est-à-dire se gonfler ; (au sens figuré) désirer ardemment ; implicitement, demander",
    "xlit": "bâʻâh"
}