{
    "derivation": "(araméen) ou בְּעָה ; (araméen), correspondant à H1158 (בָּעָה) ;",
    "frequency": 12,
    "kjv_def": "demander, désirer, faire (pétition), prier, demander, chercher.",
    "lemma": "בְּעָא",
    "outline": "<ol><li> demander, chercher, requérir, désirer, prier, faire une pétition<ol><li> (P'al)<ol><li> demander, solliciter</li><li> rechercher (une faveur)</li></ol></li></ol></li></ol>",
    "pron": "beh-aw'",
    "strongs_def": "chercher ou demander",
    "xlit": "bᵉʻâʼ"
}