{
    "derivation": "de H947 (בּוּס) ; dominateur ;",
    "frequency": 2,
    "kjv_def": "Besai.",
    "lemma": "בְּסַי",
    "outline": "<span class=\"literal-meaning\">Besai = &quot;ma foulée&quot;</span><ol><li> un esclave du temple (ou un groupe d'esclaves) qui est revenu avec Zerubbabel</li></ol>",
    "pron": "bes-ah'-ee",
    "strongs_def": "Besai, un des Nethinim",
    "xlit": "Bᵉçay"
}