{
    "derivation": "de H1197 (בָּעַר) (dans le sens de manger) ;",
    "frequency": 6,
    "kjv_def": "bête, bétail.",
    "lemma": "בְּעִיר",
    "outline": "<ol><li> bêtes, bétail</li></ol>",
    "pron": "beh-ere'",
    "strongs_def": "bovins",
    "xlit": "bᵉʻîyr"
}