{
    "derivation": "féminin de H1167 (בַּעַל) ;",
    "frequency": 4,
    "kjv_def": "qu'il a, maîtresse.",
    "lemma": "בַּעֲלָה",
    "outline": "<ol><li> maîtresse, femme propriétaire</li><li> sorcière, nécromancienne (nom de relation)</li></ol>",
    "pron": "bah-al-aw'",
    "strongs_def": "une maîtresse",
    "xlit": "baʻălâh"
}