{
    "derivation": "identique à H1172 (בַּעֲלָה) ;",
    "frequency": 5,
    "kjv_def": "Baalah.",
    "lemma": "בַּעֲלָה",
    "outline": "<span class=\"literal-meaning\">Baalah = &quot;maîtresse</span><ol><li> autre nom pour Kirjath-jearim ou Kirjath-baal ; moderne Kuriet el Enab</li><li> une ville du sud de Juda, également appelée Balah et Bilhah</li></ol>",
    "pron": "bah-al-aw'",
    "strongs_def": "Baalah, le nom de trois lieux en Palestine",
    "xlit": "Baʻălâh"
}