{
    "derivation": "de H1168 (בַּעַל) et H6828 (צָפוֹן) (dans le sens de froid) (selon d'autres une forme égyptienne de Typhon, le destructeur) ; Baal de l'hiver ;",
    "frequency": "",
    "kjv_def": "Baal-zephon.",
    "lemma": "בַּעַל צְפוֹן",
    "outline": "",
    "pron": "bah'-al tsef-one'",
    "strongs_def": "Baal-Tsephon, un lieu en Éqypt",
    "xlit": "Baʻal Tsᵉphôwn"
}