{
    "derivation": "de H1197 (בָּעַר) ;",
    "frequency": 4,
    "kjv_def": "brutal (personne), stupide.",
    "lemma": "בַּעַר",
    "outline": "<ol><li> brutalité, stupidité, brutal (personne)</li></ol>",
    "pron": "bah'-ar",
    "strongs_def": "proprement, pied (comme consommé) ; c'est-à-dire (par exten.) de la brutalité bovine ; (concrètement) stupide",
    "xlit": "baʻar"
}