{
    "derivation": "d'un dérivé de H6031 (עָנָה) avec préfixe prépositionnel ; dans l'affliction",
    "frequency": 9,
    "kjv_def": "Baanah.",
    "lemma": "בַּעֲנָה",
    "outline": "<span class=\"literal-meaning\">Baana ou Baanah = &quot;dans l'affliction&quot;.</span><ol><li> un Benjamite, fils de Rimmon, qui avec son frère Rechab assassina Ish-bosheth. Pour cela, il fut tué par David et ses corps mutilés furent suspendus au-dessus de la piscine d'Hébron</li><li> un Netophathite, père de Heleb ou Heled, l'un des puissants guerriers de David</li><li> chef d'une famille d'exilés revenant avec Zorobabel</li><li> un chef du peuple</li></ol>",
    "pron": "bah-an-aw'",
    "strongs_def": "Baanah, le nom de quatre Israélites",
    "xlit": "Baʻănâh"
}