{
    "derivation": "une racine primitive ;",
    "frequency": 16,
    "kjv_def": "effrayer, avoir (faire) peur, terrifier, troubler.",
    "lemma": "בָּעַת",
    "outline": "<ol><li> terrifier, sursauter, tomber sur, consterner, être rattrapé par une terreur soudaine<ol><li> (Niphal) être terrifié</li><li> (Piel)<ol><li> tomber sur, accabler</li><li> terrifier</li></ol></li></ol></li></ol>",
    "pron": "baw-ath'",
    "strongs_def": "à craindre",
    "xlit": "bâʻath"
}