{
    "derivation": "de H1219 (בָּצַר) ;",
    "frequency": 7,
    "kjv_def": "vintage.",
    "lemma": "בָּצִיר",
    "outline": "<ol><li> vintage</li></ol>",
    "pron": "baw-tseer'",
    "strongs_def": "coupée, c'est-à-dire la récolte de raisins",
    "xlit": "bâtsîyr"
}