{
    "derivation": "une autre forme pour H1220 (בֶּצֶר) ;",
    "frequency": 1,
    "kjv_def": "or.",
    "lemma": "בְּצַר",
    "outline": "<ol><li> minerai précieux, or, anneau d'or</li></ol>",
    "pron": "bets-ar'",
    "strongs_def": "or",
    "xlit": "bᵉtsar"
}