{
    "derivation": "de H1234 (בָּקַע) ;",
    "frequency": 2,
    "kjv_def": "bekah, la moitié d'un shekel.",
    "lemma": "בֶּקַע",
    "outline": "<ol><li> moitié, partie appelée aussi &quot;shekel du sanctuaire&quot; ou &quot;saint shekel&quot;.</li><li> la moitié d'un shekel (meton) Il semble y avoir au moins trois shekels différents, un d'argent, un d'or et un de cuivre. Voir un dictionnaire biblique pour un traitement complet du sujet.</li></ol>",
    "pron": "beh'-kah",
    "strongs_def": "une section (moitié) d'ashekel, c'est-à-dire une beka (un poids et une pièce de monnaie)",
    "xlit": "beqaʻ"
}