{
    "derivation": "une racine primitive ;",
    "frequency": 51,
    "kjv_def": "faire une brèche, se briser (en, hors, en morceaux, à travers, vers le haut), être prêt à éclater, fendre (asunder), couper, diviser, éclore, rendre (asunder), arracher, déchirer, gagner.",
    "lemma": "בָּקַע",
    "outline": "<ol><li> fendre, cliver, rompre, diviser, percer, déchirer, briser, déchirer<ol><li> (Qal)<ol><li> clivage, ouverture</li><li> percer à travers, percer dans</li></ol><li>(Niphal)<ol><li> to be cleft, be rent open, be split open</li><li> to be broken into</li></ol><li>(Piel)<ol><li> to cleave, cut to pieces, rend open</li><li> to break through, break down</li></ol><li>(Pual)<ol><li> to be ripped open, be torn open</li><li> to be rent</li><li> to be broken into</li></ol><li>(Hiphil)<ol><li> to break into</li></ol></li></li></li> to<li><li><li><ol><li> break through</li></ol><li> (Hophal) to be broken into</li><li> (Hithpael) to burst (themselves) open, cleave asunder</li></li></li></li></li> </ol></li></ol>",
    "pron": "baw-kah'",
    "strongs_def": "fendre ; généralement, déchirer, briser, arracher ou ouvrir",
    "xlit": "bâqaʻ"
}