{
    "derivation": "de H1239 (בָּקַר) ;",
    "frequency": 1,
    "kjv_def": "flagellé.",
    "lemma": "בִּקֹּרֶת",
    "outline": "<ol><li> sanction (après enquête judiciaire), indemnisation</li></ol>",
    "pron": "bik-ko-reth",
    "strongs_def": "proprement, examen, c'est-à-dire (implicitement) punition",
    "xlit": "biqqôreth"
}