{
    "derivation": "de H1305 (בָּרַר) (dans ses différents sens) ;",
    "frequency": 7,
    "kjv_def": "choix, propre, clair, pur.",
    "lemma": "בַּר",
    "outline": "<ol><li> pur, clair, sincère</li><li> propre, vide</li><li> purement</li></ol>",
    "pron": "bar",
    "strongs_def": "aimé ; également pur, vide",
    "xlit": "bar"
}