{
    "derivation": "(araméen) correspondant à H1121 (בֵּן) ;",
    "frequency": 8,
    "kjv_def": "[idiome] vieux, fils.",
    "lemma": "בַּר",
    "outline": "<ol><li> fils</li></ol>",
    "pron": "bar",
    "strongs_def": "un fils, un petit-fils, etc.",
    "xlit": "bar"
}