{
    "derivation": "identique à H1252 (בֹּר) ;",
    "frequency": 1,
    "kjv_def": "jamais ainsi, purement.",
    "lemma": "בֹּר",
    "outline": "<ol><li> la lessive, la potasse, l'alcali utilisé dans la fusion des métaux</li></ol>",
    "pron": "bore",
    "strongs_def": "soude végétale (d'après son pouvoir nettoyant) ; utilisée comme savon pour le lavage ou comme fondant pour les métaux",
    "xlit": "bôr"
}