{
    "derivation": "de H1254 (בָּרָא) et H8050 (שְׁמוּאֵל) ; Jah a créé ;",
    "frequency": 1,
    "kjv_def": "Beraiah.",
    "lemma": "בְּרָאיָה",
    "outline": "<span class=\"literal-meaning\">Beraiah = &quot;Jéhovah a créé&quot;</span><ol><li> fils de Shimhi, chef de Benjamin</li></ol>",
    "pron": "ber-aw-yaw'",
    "strongs_def": "Berajah, un Israélite",
    "xlit": "Bᵉrâʼyâh"
}