{
    "derivation": "ou בַּר ; de H1305 (בָּרַר) (dans le sens de vannage) ;",
    "frequency": 14,
    "kjv_def": "maïs, blé.",
    "lemma": "בָּר",
    "outline": "<ol><li> maïs, grain</li></ol>",
    "pron": "bawr",
    "strongs_def": "les céréales de toute sorte (même en restant dans le champ) ; par extension, la pleine campagne",
    "xlit": "bâr"
}