{
    "derivation": "probablement féminin pluriel issu d'une racine inutilisée (signifiant apparemment percer) ; trous ;",
    "frequency": 1,
    "kjv_def": "Birzavith (du marg.).",
    "lemma": "בִּרְזוֹת",
    "outline": "<span class=\"literal-meaning\">Birzavith ou Birzath = &quot;dans la maigreur : olive de choix&quot;.</span><ol><li> un descendant d'Asher</li></ol>",
    "pron": "beer-zoth'",
    "strongs_def": "Birzoth, un Israélite",
    "xlit": "Birzôwth"
}