{
    "derivation": "de dérivation incertaine ;",
    "frequency": 20,
    "kjv_def": "sapin (arbre).",
    "lemma": "בְּרוֹשׁ",
    "outline": "<ol><li> cyprès, sapin, genévrier, pin<ol><li> un arbre noble (lit.)</li><li> de majesté (fig.)</li><li> matériau pour le temple</li></ol></li></ol>",
    "pron": "ber-osh'",
    "strongs_def": "un cyprès ( ?); d'où une lance ou un instrument de musique (fabriqué dans ce bois)",
    "xlit": "bᵉrôwsh"
}