{
    "derivation": "ou בֵּרֹתַי ; probablement de H1266 (בְּרוֹת)lemma בֻּרוֹת première voyelle, corrigé en בְּרוֹת ; cyprès ou semblable à un cyprès ;",
    "frequency": 2,
    "kjv_def": "Berothah, Berothai.",
    "lemma": "בֵּרוֹתָה",
    "outline": "<span class=\"literal-meaning\">Berothah ou Berothai = &quot;cyprès&quot;.</span><ol><li> un endroit près de Hamath</li><li> une ville appartenant à Hadadezer</li></ol>",
    "pron": "bay-ro-thaw'",
    "strongs_def": "Berothah ou Berothai, un lieu au nord de la Palestine",
    "xlit": "Bêrôwthâh"
}