{
    "derivation": "probablement d'origine étrangère ;",
    "frequency": 1,
    "kjv_def": "des vêtements riches.",
    "lemma": "בְּרוֹם",
    "outline": "<ol><li> tissu bigarré, damassé</li></ol>",
    "pron": "ber-ome'",
    "strongs_def": "damas (étoffe de fil bigarré)",
    "xlit": "bᵉrôwm"
}