{
    "derivation": "peut-être de la racine de H1269 (בִּרְזוֹת) ;",
    "frequency": 76,
    "kjv_def": "(ax) tête, fer.",
    "lemma": "בַּרְזֶל",
    "outline": "<ol><li> fer<ol><li> fer<ol><li> minerai de fer</li><li> comme matériau de meubles, d'ustensiles, d'instruments de travail</li></ol><li> outil de fer</li><li> dureté, force, oppression (fig.)</li></ol>",
    "pron": "bar-zel'",
    "strongs_def": "fer (comme coupeur) ; par extension, un outil en fer",
    "xlit": "barzel"
}