{
    "derivation": "de H1254 (בָּרָא) (au sens de H1262 (בָּרָה)) ;",
    "frequency": 14,
    "kjv_def": "gras ((charnu), -ter), nourri, ferme, pléthorique, rang.",
    "lemma": "בָּרִיא",
    "outline": "<ol><li> gras</li><li> (TWOT) gros, gras, nourri, ferme, pléthorique, rangé</li></ol>",
    "pron": "baw-ree'",
    "strongs_def": "gras ou dodu",
    "xlit": "bârîyʼ"
}