{
    "derivation": "patronymiquement de H1283 (בְּרִיעָה) ;",
    "frequency": 1,
    "kjv_def": "Beerites.",
    "lemma": "בְּרִיעִי",
    "outline": "<span class=\"literal-meaning\">Beriites = &quot;dans le mal&quot;</span><ol><li> de la famille de Beriah</li></ol>",
    "pron": "ber-ee-ee'",
    "strongs_def": "un Beriite (collectivement) ou des descendants de Beriah",
    "xlit": "Bᵉrîyʻîy"
}