{
    "derivation": "identique à H1285 (בְּרִית) ;",
    "frequency": "",
    "kjv_def": "Berith.",
    "lemma": "בְּרִית",
    "outline": "",
    "pron": "ber-eeth'",
    "strongs_def": "Berith, une divinité Shechemitish",
    "xlit": "Bᵉrîyth"
}