{
    "derivation": "identique à H127 (אֲדָמָה) ;",
    "frequency": 1,
    "kjv_def": "Adamah.",
    "lemma": "אֲדָמָה",
    "outline": "<span class=\"literal-meaning\">Adamah = &quot;la terre&quot;</span><ol><li> ville de Nephtali</li></ol>",
    "pron": "ad-aw-maw'",
    "strongs_def": "Adamah, un lieu en Palestine",
    "xlit": "ʼĂdâmâh"
}