{
    "derivation": "identique à H1293 (בְּרָכָה) ;",
    "frequency": 3,
    "kjv_def": "Berachah.",
    "lemma": "בְּרָכָה",
    "outline": "<span class=\"literal-meaning\"> Berachah = &quot;bénédiction&quot;</span><ol><li> un Benjamite, l'un des guerriers de David</li><li> une vallée dans le désert près de Tekoa où Josaphat et son peuple se sont rassemblés pour bénir Jéhovah après avoir renversé les armées des Moabites</li></ol>",
    "pron": "ber-aw-kaw'",
    "strongs_def": "Berakah, nom d'un Israélite et d'une vallée en Palestine",
    "xlit": "Bᵉrâkâh"
}