{
    "derivation": "ou בֶּרֶכְיָהוּ ; de H1290 (בֶּרֶךְ) et H3050 (יָהּ) ; genou (i.e. bénédiction) de Jah ;",
    "frequency": 11,
    "kjv_def": "Berachiah, Berechiah.",
    "lemma": "בֶּרֶכְיָה",
    "outline": "<span class=\"literal-meaning\">Berachiah ou Berechiah = &quot;Jéhovah bénit&quot;.</span><ol><li> un fils de Zerubbabel</li><li> un lévite qui revint de l'exil</li><li> père de Meshullam, l'un des chefs de Néhémie qui a aidé à reconstruire les murs de Jérusalem</li><li> père de Zacharie</li><li> lévite gershonite, père d'Asaph, le chanteur, gardien de l'arche</li><li> chef éphraïmite à l'époque d'Achaz</li></ol>",
    "pron": "beh-rek-yaw'",
    "strongs_def": "Berekjah, le nom de six Israélites",
    "xlit": "Berekyâh"
}