{
    "derivation": "de H1299 (בָּרַק) ;",
    "frequency": 21,
    "kjv_def": "brillant, scintillant(-ing épée), éclair.",
    "lemma": "בָּרָק",
    "outline": "<ol><li> foudre<ol><li> éclairs, éclairs de foudre</li><li> de la pointe de flèche clignotante (fig.)</li></ol></li></ol>",
    "pron": "baw-rawk'",
    "strongs_def": "un éclair ; par analogie, une lueur ; concrètement, une épée qui clignote",
    "xlit": "bârâq"
}