{
    "derivation": "probablement de la même que H1327 (בַּתָּה) ;",
    "frequency": 13,
    "kjv_def": "bain.",
    "lemma": "בַּת",
    "outline": "<ol><li> bain, une unité de mesure liquide, égale à la mesure sèche épha (environ 9 gallons impériaux ou 40 litres, les écrits rabbiniques donnent des tailles de la moitié de cette quantité)</li></ol>",
    "pron": "bath",
    "strongs_def": "un bain ou une mesure hébraïque (comme moyen de division) de liquides",
    "xlit": "bath"
}