{
    "derivation": "(Araméen) correspondant à H1320 (בָּשָׂר)",
    "frequency": 3,
    "kjv_def": "la chair.",
    "lemma": "בְּשַׁר",
    "outline": "<ol><li> chair</li></ol>",
    "pron": "bes-ar'",
    "strongs_def": "{chair (de par sa fraîcheur) ; par extension, corps, personne ; également (par euphémisme) le pudenda d'aman}",
    "xlit": "bᵉshar"
}