{
    "derivation": "de H1319 (בָּשַׂר) ;",
    "frequency": 270,
    "kjv_def": "corps, (gras, maigre) chair(-ed), kin, (homme-) genre, [phrase] nudité, soi, peau.",
    "lemma": "בָּשָׂר",
    "outline": "<ol><li> chair<ol><li> du corps<ol><li> d'humains</li><li> des animaux</li></ol><li> le corps lui-même</li><li> organe masculin de génération (euphémisme)</li><li> parenté, liens de sang</li><li> chair comme fragile ou errant (homme contre Dieu)</li><li> tous les êtres vivants</li><li> animaux</li><li> humanité</li></ol></li></ol>",
    "pron": "baw-sawr'",
    "strongs_def": "chair (de sa fraîcheur) ; par extension, corps, personne ; également (par euphémisme) le pudenda d'aman",
    "xlit": "bâsâr"
}