{
    "derivation": "(Araméen) correspondant à H1324 (בַּת)",
    "frequency": 2,
    "kjv_def": "bain.",
    "lemma": "בַּת",
    "outline": "<ol><li> bain, une unité de mesure liquide, environ 40 litres, égale à la mesure sèche ephah</li><li> (TWOT) une mesure liquide, environ 22 litres</li></ol>",
    "pron": "bath",
    "strongs_def": "{bain ou mesure hébraïque (comme moyen de division) de liquides}",
    "xlit": "bath"
}