{
    "derivation": "de H1323 (בַּת) et H3050 (יָהּ) ; fille (c'est-à-dire adoratrice) de Jah ;",
    "frequency": 1,
    "kjv_def": "Bithiah.",
    "lemma": "בִּתְיָה",
    "outline": "<span class=\"literal-meaning\">Bithiah = &quot;fille de Jéhovah&quot;</span><ol><li> fille d'un pharaon et épouse de Mered de Juda</li></ol>",
    "pron": "bith-yaw'",
    "strongs_def": "Bithjah, une femme égyptienne",
    "xlit": "Bithyâh"
}