{
    "derivation": "de H1342 (גָּאָה) ;",
    "frequency": 19,
    "kjv_def": "l'excellence, l'arrogance, la grandeur, l'orgueil, la fierté, l'enflure.",
    "lemma": "גַּאֲוָה",
    "outline": "<ol><li> orgueil, majesté, élévation<ol><li> une montée, un gonflement (de la mer)</li><li> majesté (d'Israël)</li><li> orgueil, fierté</li></ol></li></ol>",
    "pron": "gah-av-aw'",
    "strongs_def": "arrogance ou majesté ; par implication, (concrètement) ornementation",
    "xlit": "gaʼăvâh"
}