{
    "derivation": "féminin de H1342 (גָּאָה) ;",
    "frequency": 1,
    "kjv_def": "fierté.",
    "lemma": "גֵּאָה",
    "outline": "<ol><li> fierté</li></ol>",
    "pron": "gay-aw'",
    "strongs_def": "arrogance",
    "xlit": "gêʼâh"
}