{
    "derivation": "une racine primitive ;",
    "frequency": 7,
    "kjv_def": "glorieusement, grandir, augmenter, être ressuscité, triompher.",
    "lemma": "גָּאָה",
    "outline": "<ol><li> s'élever, grandir, être exalté en triomphe<ol><li> (Qal)<ol><li> s'élever</li><li> grandir</li><li> s'élever, être élevé, être exalté</li></ol></li></ol></li></ol>",
    "pron": "gaw-aw'",
    "strongs_def": "s'élever ; donc, en général, s'élever, (au sens figuré) être majestueux",
    "xlit": "gâʼâh"
}