{
    "derivation": "de H1342 (גָּאָה) ;",
    "frequency": 8,
    "kjv_def": "fier.",
    "lemma": "גֵּאֶה",
    "outline": "<ol><li> fiers</li></ol>",
    "pron": "gay-eh'",
    "strongs_def": "hautain ; au sens figuré, arrogant",
    "xlit": "gêʼeh"
}