{
    "derivation": "de H1342 (גָּאָה) ; identique à H1346 (גַּאֲוָה)xlit gaʻăvâh corrigé en gaʼăvâh",
    "frequency": 8,
    "kjv_def": "choses excellentes, élever, majesté, orgueil, fierté, rage.",
    "lemma": "גֵּאוּת",
    "outline": "<ol><li> majesté<ol><li> un soulèvement (d'une colonne de fumée)</li><li> un gonflement (de la mer)</li><li> majesté (de Dieu)</li><li> orgueil</li></ol></li></ol>",
    "pron": "gay-ooth'",
    "strongs_def": "{arrogance ou majesté ; par implication, (concrètement) ornement}",
    "xlit": "gêʼûwth"
}