{
    "derivation": "de H1461 (גּוּב) ;",
    "frequency": 4,
    "kjv_def": "poutre, fossé, fosse.",
    "lemma": "גֵּב",
    "outline": "<ol><li> fosse, tranchée, fossé, poutre, chevron<ol><li> fosse, tranchée</li><li> poutre, chevron</li></ol></li></ol>",
    "pron": "gabe",
    "strongs_def": "un rondin (tel que découpé) ; également un puits ou une citerne (tel que creusé)",
    "xlit": "gêb"
}