{
    "derivation": "(araméen) d'une racine correspondant à H1461 (גּוּב) ;",
    "frequency": 10,
    "kjv_def": "den.",
    "lemma": "גֹּב",
    "outline": "<ol><li> fosse, tanière (de lions)</li></ol>",
    "pron": "gobe",
    "strongs_def": "une fosse (pour les animaux sauvages) (comme découpée)",
    "xlit": "gôb"
}