{
    "derivation": "ou (entièrement) גּוֹב ; de H1461 (גּוּב) ; pit ;",
    "frequency": 2,
    "kjv_def": "Gob.",
    "lemma": "גֹּב",
    "outline": "<span class=\"literal-meaning\">Gob = &quot;citerne&quot;</span><ol><li> lieu qui a été le théâtre de deux rencontres entre les guerriers de David et les Philistins (aussi ''Gezer'')</li></ol>",
    "pron": "gobe",
    "strongs_def": "Gob, un lieu en Palestine",
    "xlit": "Gôb"
}