{
    "derivation": "ou גְּבֻל ; (raccourci) de H1379 (גָּבַל) ;",
    "frequency": 241,
    "kjv_def": "frontière, limite, côte, [idiome] grand, point de repère, limite, quartier, espace.",
    "lemma": "גְּבוּל",
    "outline": "<ol><li> frontière, territoire<ol><li> frontière</li><li> territoire (enfermé dans une frontière)</li><li> région, territoire (des ténèbres) (fig.)</li></ol></li></ol>",
    "pron": "gheb-ool'",
    "strongs_def": "à proprement parler, une corde (comme torsadée), c'est-à-dire (implicitement) une frontière ; par extension, le territoire inclus",
    "xlit": "gᵉbûwl"
}