{
    "derivation": "de même que H1371 (גִּבֵּחַ) ;",
    "frequency": 4,
    "kjv_def": "front chauve, sans.",
    "lemma": "גַּבַּחַת",
    "outline": "<ol><li> front chauve, chauve, un endroit nu</li></ol>",
    "pron": "gab-bakh'-ath",
    "strongs_def": "calvitie du front ; par analogie, une tache dénudée sur le côté droit du tissu",
    "xlit": "gabbachath"
}