{
    "derivation": "à partir d'une racine inutilisée (signifiant probablement geler) ;",
    "frequency": 1,
    "kjv_def": "perle.",
    "lemma": "גָּבִישׁ",
    "outline": "<ol><li> cristal</li></ol>",
    "pron": "gaw-beesh'",
    "strongs_def": "cristal (de sa ressemblance avec la glace)",
    "xlit": "gâbîysh"
}