{
    "derivation": "de H113 (אָדוֹן) et H966 (בֶּזֶק) ; seigneur de Bezek ;",
    "frequency": "",
    "kjv_def": "Adonibezek.",
    "lemma": "אֲדֹנִי־בֶזֶק",
    "outline": "",
    "pron": "ad-o''-nee-beh'-zek",
    "strongs_def": "Adoni-Bezek, un roi de Canaan",
    "xlit": "ʼĂdônîy-Bezeq"
}