{
    "derivation": "identique à H1380 (גְּבַל) ;",
    "frequency": 1,
    "kjv_def": "Gebal.",
    "lemma": "גְּבָל",
    "outline": "<span class=\"literal-meaning\">Gebal = &quot;une frontière&quot;</span><ol><li> une région montagneuse au sud de la mer Morte</li></ol>",
    "pron": "gheb-awl'",
    "strongs_def": "Gebal, région de l'Idumée",
    "xlit": "Gᵉbâl"
}