{
    "derivation": "par permutation pour H1389 (גִּבְעָה) ; une colline ;",
    "frequency": 1,
    "kjv_def": "Gibeah.",
    "lemma": "גִּבְעָא",
    "outline": "<span class=\"literal-meaning\">Gibea = \"colline\"</span><ol><li> un fils de Caleb</li></ol>",
    "pron": "ghib-aw'",
    "strongs_def": "Giba, un lieu en Palestine",
    "xlit": "Gibʻâʼ"
}