{
    "derivation": "patrie de H1390 (גִּבְעָה) ;",
    "frequency": 1,
    "kjv_def": "Gibeathite.",
    "lemma": "גִּבְעָתִי",
    "outline": "<span class=\"literal-meaning\">Gibeathite = &quot;colline&quot;</span><ol><li> un habitant de Gibéa</li></ol>",
    "pron": "ghib-aw-thee'",
    "strongs_def": "un Gibathite, ou habitant de Gibath",
    "xlit": "Gibʻâthîy"
}