{
    "derivation": "intensif de H1389 (גִּבְעָה) ; un endroit vallonné ;",
    "frequency": 6,
    "kjv_def": "Gibbethon.",
    "lemma": "גִּבְּתוֹן",
    "outline": "<span class=\"literal-meaning\">Gibbethon = &quot; monticule &quot;.</span><ol><li> ville philistine de Dan attribuée aux Lévites kohathites</li></ol>",
    "pron": "ghib-beth-one'",
    "strongs_def": "Gibbethon, un lieu en Palestine",
    "xlit": "Gibbᵉthôwn"
}