{
    "derivation": "de H1413 (גָּדַד) (dans le sens de couper) ;",
    "frequency": 2,
    "kjv_def": "coriandre.",
    "lemma": "גַּד",
    "outline": "<ol><li> coriandre - une plante dont la graine ressemble à la manne</li></ol>",
    "pron": "gad",
    "strongs_def": "graines de coriandre (de ses sillons)",
    "xlit": "gad"
}