{
    "derivation": "(Araméen) correspondant à H1399 (גְּבַר)",
    "frequency": 21,
    "kjv_def": "certain, mec.",
    "lemma": "גְּבַר",
    "outline": "<ol><li> un homme, un certain (un)</li></ol>",
    "pron": "gheb-ar'",
    "strongs_def": "{une personne}",
    "xlit": "gᵉbar"
}