{
    "derivation": "une variation de H1409 (גָּד) ;",
    "frequency": "",
    "kjv_def": "cette troupe.",
    "lemma": "גַּד",
    "outline": "",
    "pron": "gad",
    "strongs_def": "Fortune, une divinité babylonienne",
    "xlit": "Gad"
}