{
    "derivation": "intensive de H1399 (גְּבַר) ;",
    "frequency": 1,
    "kjv_def": "Gibbar.",
    "lemma": "גִּבָּר",
    "outline": "<span class=\"literal-meaning\">Gibbar = &quot;le vaillant&quot;</span><ol><li> chef d'une famille d'exilés de retour au pays sous Zerubbabel</li></ol>",
    "pron": "ghib-bawr'",
    "strongs_def": "Gibbar, un Israélite",
    "xlit": "Gibbâr"
}