{
    "derivation": "participe féminin passif de H1413 (גָּדַד) ;",
    "frequency": "",
    "kjv_def": "couper.",
    "lemma": "גְּדוּדָה",
    "outline": "",
    "pron": "ghed-oo-daw'",
    "strongs_def": "une incision",
    "xlit": "gᵉdûwdâh"
}