{
    "derivation": "de même que H1415 (גָּדָה) ;",
    "frequency": 16,
    "kjv_def": "enfant.",
    "lemma": "גְּדִי",
    "outline": "<ol><li> chevreau, jeune chèvre mâle</li></ol>",
    "pron": "ghed-ee'",
    "strongs_def": "une jeune chèvre (de broutage)",
    "xlit": "gᵉdîy"
}