{
    "derivation": "patronymiquement de H1410 (גָּד) ;",
    "frequency": 15,
    "kjv_def": "Gadites, enfants de Gad.",
    "lemma": "גָּדִי",
    "outline": "<span class=\"literal-meaning\">Gadite = &quot;un envahisseur : une troupe : la fortune&quot;.</span><ol><li> un membre de la tribu descendant de Gad</li></ol>",
    "pron": "gaw-dee'",
    "strongs_def": "un Gadite (collectivement) ou des descendants de Gad",
    "xlit": "Gâdîy"
}