{
    "derivation": "participe passif féminin de H1442 (גָּדַף) ;",
    "frequency": 1,
    "kjv_def": "la raillerie.",
    "lemma": "גְּדוּפָה",
    "outline": "<ol><li> une raillerie</li></ol>",
    "pron": "ghed-oo-faw'",
    "strongs_def": "une révision",
    "xlit": "gᵉdûwphâh"
}