{
    "derivation": "ou גַּדיָה ; identique à H1415 (גָּדָה) ;",
    "frequency": "",
    "kjv_def": "banque.",
    "lemma": "גִּדְיָה",
    "outline": "",
    "pron": "ghid-yaw'",
    "strongs_def": "le bord d'une rivière",
    "xlit": "gidyâh"
}