{
    "derivation": "à partir d'une racine inutilisée (signifiant entasser) ;",
    "frequency": 4,
    "kjv_def": "choc (pile) (de maïs), tombe.",
    "lemma": "גָּדִישׁ",
    "outline": "<ol><li> tas, pile, pile</li><li> tombeau</li></ol>",
    "pron": "gaw-deesh'",
    "strongs_def": "une pile de gerbes ; par analogie, une tombe",
    "xlit": "gâdîysh"
}