{
    "derivation": "ou (entièrement) גְּדוֹר ; de H1443 (גָּדַר) ; clôture ;",
    "frequency": 7,
    "kjv_def": "Gedor.",
    "lemma": "גְדֹר",
    "outline": "<span class=\"literal-meaning\">Gedor = &quot;mur&quot;</span><ol><li> un fils de Penuel</li><li> un fils de Jered</li><li> un Benjamite de Gibeon</li><li> une ville située dans la partie montagneuse de Judée, à quelques kilomètres au nord d'Hébron</li></ol>",
    "pron": "ghed-ore'",
    "strongs_def": "Gedor, un lieu en Palestine ; également le nom de trois Israélites",
    "xlit": "Gᵉdôr"
}