{
    "derivation": "de H1438 (גָּדַע) ; une coupure (c'est-à-dire la désolation) ;",
    "frequency": 1,
    "kjv_def": "Gidom.",
    "lemma": "גִּדְעֹם",
    "outline": "<span class=\"literal-meaning\">Gidom = &quot;un abattement&quot;</span><ol><li> lieu où les Israélites ont cessé de poursuivre Benjamin, apparemment situé entre Gibéa et les falaises de Rimmon</li></ol>",
    "pron": "ghid-ohm'",
    "strongs_def": "Gidom, un lieu en Palestine",
    "xlit": "Gidʻôm"
}