{
    "derivation": "double de H1448 (גְּדֵרָה) ; double paroi ;",
    "frequency": 1,
    "kjv_def": "Gederothaim.",
    "lemma": "גְּדֵרֹתַיִם",
    "outline": "<span class=\"literal-meaning\">Gederothaim = &quot;deux murs&quot;</span><ol><li> une ville dans le bas pays de Juda</li></ol>",
    "pron": "ghed-ay-ro-thah'-yim",
    "strongs_def": "Gederothajim, un lieu en Palestine",
    "xlit": "Gᵉdêrôthayim"
}