{
    "derivation": "de H1342 (גָּאָה) (correspondant à H1354 (גַב)) ;",
    "frequency": 7,
    "kjv_def": "parmi, derrière, le corps.",
    "lemma": "גֵּו",
    "outline": "<ol><li> l'arrière, l'arrière, le milieu</li></ol>",
    "pron": "gave",
    "strongs_def": "le dos ; par analogie, le milieu",
    "xlit": "gêv"
}