{
    "derivation": "une racine primitive ;",
    "frequency": "",
    "kjv_def": "le cultivateur.",
    "lemma": "גּוּב",
    "outline": "",
    "pron": "goob",
    "strongs_def": "à creuser",
    "xlit": "gûwb"
}