{
    "derivation": "ou (abrégé) גֹּלָה ; participe actif féminin de H1540 (גָּלָה) ;",
    "frequency": 44,
    "kjv_def": "(emporté), captif(-ité), enlever.",
    "lemma": "גּוֹלָה",
    "outline": "<ol><li> exil, exil, captivité<ol><li> exilés (coll.)</li><li> exil, captivité (abstract)</li></ol></li></ol>",
    "pron": "go-law'",
    "strongs_def": "exil ; concrètement et collectivement exilés",
    "xlit": "gôwlâh"
}