{
    "derivation": "rarement (raccourci) גֹּי ; apparemment de la même racine que H1465 (גֵּוָה) (dans le sens de masser) ;",
    "frequency": 561,
    "kjv_def": "Gentil, païen, nation, peuple.",
    "lemma": "גּוֹי",
    "outline": "<ol><li> nation, peuple<ol><li> nation, peuple<ol><li> généralement de personnes non hébraïques</li><li> de descendants d'Abraham</li><li> d'Israël</li></ol><li> essaim de sauterelles, autres animaux (fig.)</li><li> Goyim ? = &quot; nations</li></ol></li></ol>",
    "pron": "go'-ee",
    "strongs_def": "une nation étrangère ; de là, un païen ; également (au sens figuré) une troupe d'animaux, ou un vol de sauterelles",
    "xlit": "gôwy"
}