{
    "derivation": "ou plutôt (par permutation) גִּישׁ ; d'origine incertaine ;",
    "frequency": "",
    "kjv_def": "une motte.",
    "lemma": "גּוּשׁ",
    "outline": "",
    "pron": "goosh",
    "strongs_def": "une masse de terre",
    "xlit": "gûwsh"
}