{
    "derivation": "(Araméen) du même que H147 (אִדַּר), et H1505 (גְּזַר) ;",
    "frequency": 2,
    "kjv_def": "juge.",
    "lemma": "אֲדַרְגָּזֵר",
    "outline": "<ol><li> juge (devin), conseiller</li></ol>",
    "pron": "ad-ar''-gaw-zare'",
    "strongs_def": "un chef devin, ou astrologue",
    "xlit": "ʼădargâzêr"
}