{
    "derivation": "de H1497 (גָּזַל) ;",
    "frequency": 4,
    "kjv_def": "vol, chose enlevée par la violence.",
    "lemma": "גָּזֵל",
    "outline": "<ol><li> vol, quelque chose de pillé</li></ol>",
    "pron": "gaw-zale'",
    "strongs_def": "vol, ou (concrètement) pillage",
    "xlit": "gâzêl"
}