{
    "derivation": "une racine primitive (apparentée à H1468 (גּוּז)) ;",
    "frequency": "",
    "kjv_def": "prendre.",
    "lemma": "גָּזָה",
    "outline": "",
    "pron": "gaw-zaw'",
    "strongs_def": "couper, c'est-à-dire diviser en portions",
    "xlit": "gâzâh"
}