{
    "derivation": "de H1491 (גָּזָה) ;",
    "frequency": 11,
    "kjv_def": "taillé, pierre taillée, forgé.",
    "lemma": "גָּזִית",
    "outline": "<ol><li> une coupe, une taille</li></ol>",
    "pron": "gaw-zeeth'",
    "strongs_def": "quelque chose de taillé, c'est-à-dire une pierre de taille",
    "xlit": "gâzîyth"
}