{
    "derivation": "de H1497 (גָּזַל) ;",
    "frequency": 2,
    "kjv_def": "violence, perversion violente... gozal. Voir H1469 (גּוֹזָל).",
    "lemma": "גֵּזֶל",
    "outline": "<ol><li> vol, pillage</li></ol>",
    "pron": "ghe'-zel",
    "strongs_def": "le pillage, c'est-à-dire la violence",
    "xlit": "gêzel"
}