{
    "derivation": "féminin de H1506 (גֶּזֶר) ;",
    "frequency": 8,
    "kjv_def": "polissage, endroit séparé.",
    "lemma": "גִּזְרָה",
    "outline": "<ol><li> une coupe, un polissage, une séparation<ol><li> couper, polir</li><li> séparation, lieu séparé</li></ol></li></ol>",
    "pron": "ghiz-raw'",
    "strongs_def": "la figure ou la personne (comme si elle était découpée) ; également une enceinte (comme séparée)",
    "xlit": "gizrâh"
}