{
    "derivation": "féminin de H1498 (גָּזֵל) et ont la même signification",
    "frequency": 5,
    "kjv_def": "que (qu'il avait volé) (qu'il a emporté avec violence), butin, violence.",
    "lemma": "גְּזֵלָה",
    "outline": "<ol><li> pillage, butin, vol</li></ol>",
    "pron": "ghez-ay-law'",
    "strongs_def": "{voleur, ou (concrètement) pilleur}",
    "xlit": "gᵉzêlâh"
}