{
    "derivation": "identique à H1506 (גֶּזֶר) ;",
    "frequency": 15,
    "kjv_def": "Gazer, Gezer.",
    "lemma": "גֶּזֶר",
    "outline": "<span class=\"literal-meaning\">Gazer ou Gezer = &quot;portion&quot;.</span><ol><li> une ville lévitique à la frontière d'Ephraïm</li></ol>",
    "pron": "gheh'-zer",
    "strongs_def": "Gezer, un lieu en Palestine",
    "xlit": "Gezer"
}