{
    "derivation": "d'une racine inutilisée signifiant dévorer ;",
    "frequency": 3,
    "kjv_def": "vermisseau.",
    "lemma": "גָּזָם",
    "outline": "<ol><li> sauterelles</li></ol>",
    "pron": "gaw-zawm'",
    "strongs_def": "une sorte de sauterelle",
    "xlit": "gâzâm"
}