{
    "derivation": "d'une racine inutilisée signifiant se cacher ; rôdeur ;",
    "frequency": 2,
    "kjv_def": "Gahar.",
    "lemma": "גַּחַר",
    "outline": "<span class=\"literal-meaning\">Gahar = &quot;cachette&quot;</span><ol><li> le chef d'une famille d'esclaves du temple revenant d'exil avec Zerubbabel</li></ol>",
    "pron": "gah'-khar",
    "strongs_def": "Gachar, un des Nethinim",
    "xlit": "Gachar"
}