{
    "derivation": "ou גִּילַת ; féminin de H1524 (גִּיל) ;",
    "frequency": 2,
    "kjv_def": "joie, réjouissance.",
    "lemma": "גִּילָה",
    "outline": "<ol><li> réjouissance</li></ol>",
    "pron": "ghee-law'",
    "strongs_def": "joie",
    "xlit": "gîylâh"
}