{
    "derivation": "pluriel de H1552 (גְלִילָה) ; cercles ;",
    "frequency": 1,
    "kjv_def": "Geliloth.",
    "lemma": "גְּלִילוֹת",
    "outline": "<span class=\"literal-meaning\">Geliloth = &quot;circuits&quot;</span><ol><li> un endroit à la frontière de Juda et Benjamin</li></ol>",
    "pron": "ghel-ee-lowth'",
    "strongs_def": "Geliloth, un lieu en Palestine",
    "xlit": "Gᵉlîylôwth"
}