{
    "derivation": "de H1572 (גָּמָא) ;",
    "frequency": 4,
    "kjv_def": "(bul-) se précipiter.",
    "lemma": "גֹּמֶא",
    "outline": "<ol><li> jonc, roseau, papyrus</li></ol>",
    "pron": "go'-meh",
    "strongs_def": "proprement dit, un absorbant, c'est-à-dire le jonc (d'après sa porosité) ; en particulier le papyrus",
    "xlit": "gômeʼ"
}