{
    "derivation": "de dérivation incertaine ;",
    "frequency": 1,
    "kjv_def": "Gimzo.",
    "lemma": "גִּמְזוֹ",
    "outline": "<span class=\"literal-meaning\">Gimzo = &quot;fertile en sycomores&quot;.</span><ol><li> une ville de Judée au sud de la route entre Jérusalem et Joppé qui, avec ses villages dépendants, a été capturée par les Philistins sous le règne d'Ahaz</li></ol>",
    "pron": "ghim-zo'",
    "strongs_def": "Gimzo, un lieu en Palestine",
    "xlit": "Gimzôw"
}