{
    "derivation": "participe actif féminin de H1600 (גָּעָה) ; lowing ;",
    "frequency": "",
    "kjv_def": "Goath.",
    "lemma": "גֹּעָה",
    "outline": "",
    "pron": "go-aw'",
    "strongs_def": "Goah, un endroit près de Jérusalem",
    "xlit": "Gôʻâh"
}