{
    "derivation": "une racine primitive",
    "frequency": 9,
    "kjv_def": "bouger, secouer, remuer, troubler.",
    "lemma": "גָּעַשׁ",
    "outline": "<ol><li> secouer, trembler<ol><li> (Qal) secouer</li><li> (Pual) être secoué, avoir des convulsions</li><li> (Hithpael) secouer d'avant en arrière, ballotter ou tituber d'avant en arrière</li><li> (Hithpoel) to reel to and fro</li></ol></li></ol>",
    "pron": "gaw-ash'",
    "strongs_def": "s'agiter violemment",
    "xlit": "gâʻash"
}