{
    "derivation": "d'une racine inutilisée signifiant arquer ;",
    "frequency": "",
    "kjv_def": "les endroits les plus élevés, lui-même.",
    "lemma": "גַּף",
    "outline": "",
    "pron": "gaf",
    "strongs_def": "le dos ; par extension le corps ou le soi",
    "xlit": "gaph"
}