{
    "derivation": "une racine primitive ;",
    "frequency": 1,
    "kjv_def": "gratter.",
    "lemma": "גָּרַד",
    "outline": "<ol><li> racler, gratter<ol><li> (Hithpael) se gratter soi-même</li></ol></li></ol>",
    "pron": "gaw-rad'",
    "strongs_def": "abraser",
    "xlit": "gârad"
}