{
    "derivation": "de H1629 (גָּרַז) ;",
    "frequency": 4,
    "kjv_def": "ax.",
    "lemma": "גַּרְזֶן",
    "outline": "<ol><li> hache</li></ol>",
    "pron": "gar-zen'",
    "strongs_def": "une hache",
    "xlit": "garzen"
}