{
    "derivation": "de H1634 (גֶּרֶם) ;",
    "frequency": 1,
    "kjv_def": "Garmite.",
    "lemma": "גַּרְמִי",
    "outline": "<span class=\"literal-meaning\">Garmite = &quot;osseux&quot;</span><ol><li> un descendant de Gerem de Juda</li></ol>",
    "pron": "gar-mee'",
    "strongs_def": "osseux, c'est-à-dire solide",
    "xlit": "Garmîy"
}