{
    "derivation": "une racine primitive ;",
    "frequency": "",
    "kjv_def": "balayer.",
    "lemma": "גָּרַף",
    "outline": "",
    "pron": "gaw-raf'",
    "strongs_def": "s'éloigner violemment",
    "xlit": "gâraph"
}