{
    "derivation": "de H1644 (גָּרַשׁ) ;",
    "frequency": 1,
    "kjv_def": "mettre en avant.",
    "lemma": "גֶּרֶשׁ",
    "outline": "<ol><li> une chose mise en avant, rendement, produire, chose mise en avant</li></ol>",
    "pron": "gheh'-resh",
    "strongs_def": "produire (comme si elle était expulsée)",
    "xlit": "geresh"
}