{
    "derivation": "patrie de H1661 (גַּת) ;",
    "frequency": 10,
    "kjv_def": "Gittite.",
    "lemma": "גִּתִּי",
    "outline": "<span class=\"literal-meaning\">Gittite = &quot;qui appartient à Gath&quot;.</span><ol><li> un habitant de Gath</li></ol>",
    "pron": "ghit-tee'",
    "strongs_def": "un Gittite ou un habitant de Gath",
    "xlit": "Gittîy"
}