{
    "derivation": "de H1680 (דָּבַב) (dans le sens de mouvement furtif) ;",
    "frequency": 9,
    "kjv_def": "diffamation, mauvais rapport, infamie, calomnie.",
    "lemma": "דִּבָּה",
    "outline": "<ol><li> chuchotement, diffamation, mauvais rapport<ol><li> chuchotement</li><li> diffamation, calomnie</li><li> mauvais rapport, propos défavorables</li></ol></li></ol>",
    "pron": "dib-baw'",
    "strongs_def": "calomnie",
    "xlit": "dibbâh"
}