{
    "derivation": "ou (abrégé) דְּבֹרָה ; de H1696 (דָבַר) (dans le sens de mouvement ordonné) ;",
    "frequency": 4,
    "kjv_def": "abeille.",
    "lemma": "דְּבוֹרָה",
    "outline": "<ol><li> abeille</li></ol>",
    "pron": "deb-o-raw'",
    "strongs_def": "l'abeille (à partir de ses instincts systématiques)",
    "xlit": "dᵉbôwrâh"
}