{
    "derivation": "de H1696 (דָבַר) (dans le sens de détruire) ;",
    "frequency": 49,
    "kjv_def": "murène, pestilence, peste.",
    "lemma": "דֶּבֶר",
    "outline": "<ol><li> pestilence, peste</li><li> murin, maladie du bétail, peste du bétail</li></ol>",
    "pron": "deh'-ber",
    "strongs_def": "une pestilence",
    "xlit": "deber"
}