{
    "derivation": "de H1692 (דָּבַק) ;",
    "frequency": 3,
    "kjv_def": "cliver, joindre, coller plus près.",
    "lemma": "דָּבֵק",
    "outline": "<ol><li> s'accrocher, adhérer à</li></ol>",
    "pron": "daw-bake'",
    "strongs_def": "adhérant à",
    "xlit": "dâbêq"
}