{
    "derivation": "de H1696 (דָבַר) (dans son sens premier) ;",
    "frequency": 3,
    "kjv_def": "le pliage, la manière.",
    "lemma": "דֹּבֶר",
    "outline": "<ol><li> pâturage</li><li> mot, parler</li></ol>",
    "pron": "do'-ber",
    "strongs_def": "un pâturage (de par sa disposition du troupeau)",
    "xlit": "dôber"
}