{
    "derivation": "de H1709 (דָּג) ; le dieu-poisson ;",
    "frequency": 13,
    "kjv_def": "Dagon.",
    "lemma": "דָּגוֹן",
    "outline": "<span class=\"literal-meaning\">Dagon = &quot;un poisson</span><ol><li> divinité philistine de la fertilité, représentée avec le visage et les mains d'un homme et la queue d'un poisson</li></ol>",
    "pron": "daw-gohn'",
    "strongs_def": "Dagon, une divinité philistine",
    "xlit": "Dâgôwn"
}