{
    "derivation": "une racine primitive ; se déplacer rapidement ; utilisé uniquement comme dénominatif à partir de H1709 (דָּג) ;",
    "frequency": "",
    "kjv_def": "grandir.",
    "lemma": "דָּגָה",
    "outline": "",
    "pron": "daw-gaw'",
    "strongs_def": "pour frayer, c'est-à-dire devenir nombreux",
    "xlit": "dâgâh"
}