{
    "derivation": "ou (prolongé) דְּדָנֶה ; (Ezéchiel 25:13), de dérivation incertaine ;",
    "frequency": 11,
    "kjv_def": "Dedan.",
    "lemma": "דְּדָן",
    "outline": "<span class=\"literal-meaning\">Dedan = &quot;bas pays&quot;</span><ol><li> le fils de Raamah et petit-fils de Cush. Un fils de Jokshan et petit-fils de Keturah</li><li> un endroit dans le sud de l'Arabie</li></ol>",
    "pron": "ded-awn'",
    "strongs_def": "Dedan, nom de deux Cushites et de leur territoire",
    "xlit": "Dᵉdân"
}