{
    "derivation": "une racine douteuse ;",
    "frequency": 2,
    "kjv_def": "aller (doucement, avec).",
    "lemma": "דָּדָה",
    "outline": "<ol><li> se déplacer lentement<ol><li> (Hithpael) marcher délibérément</li></ol></li></ol>",
    "pron": "daw-daw'",
    "strongs_def": "de marcher doucement",
    "xlit": "dâdâh"
}