{
    "derivation": "(Araméen) de dérivation incertaine ;",
    "frequency": 0,
    "kjv_def": "Dehavites.",
    "lemma": "דַּהֲוָא",
    "outline": "<span class=\"literal-meaning\">Dehavites = \"les malades\"</span><ol><li> le nom d'un peuple ou</li><li> c'est-à-dire, ce qui est (particules simples)</li></ol>",
    "pron": "dah-hav-aw'",
    "strongs_def": "Dahava, un peuple colonisé en Samarie",
    "xlit": "Dahăvâʼ"
}