{
    "derivation": "du même que H1730 (דּוֹד) ;",
    "frequency": 7,
    "kjv_def": "panier, chaudron, bouilloire, marmite (bouillonnement).",
    "lemma": "דּוּד",
    "outline": "<ol><li> pot, bocal, panier, bouilloire<ol><li> pot, bouilloire</li><li> panier, pot</li></ol></li></ol>",
    "pron": "dood",
    "strongs_def": "une marmite (pour faire bouillir) ; également (par ressemblance de forme) un panier",
    "xlit": "dûwd"
}