{
    "derivation": "de H1731 (דּוּד) ;",
    "frequency": 7,
    "kjv_def": "panier, mandragore.",
    "lemma": "דּוּדַי",
    "outline": "<ol><li> mandragore, pomme d'amour<ol><li> comme excitant le désir sexuel, et favorisant la procréation</li></ol></li></ol>",
    "pron": "doo-dah'-ee",
    "strongs_def": "une chaudière ou un panier ; également la mandragore (comme aphrodisiaque)",
    "xlit": "dûwday"
}