{
    "derivation": "de H1739 (דָּוֶה) ;",
    "frequency": 2,
    "kjv_def": "languissant, triste.",
    "lemma": "דְּוַי",
    "outline": "<ol><li> maladie, dépérissement</li></ol>",
    "pron": "dev-ah'ee",
    "strongs_def": "la maladie ; au sens figuré, le dégoût",
    "xlit": "dᵉvay"
}