{
    "derivation": "(Araméen) probablement de H1753 (דּוּר) ; cercle ou habitation ;",
    "frequency": 1,
    "kjv_def": "Dura.",
    "lemma": "דּוּרָא",
    "outline": "<span class=\"literal-meaning\">Dura = &quot;habitation&quot;</span><ol><li> lieu en Babylonie où Nabuchodonosor a installé l'image d'or, site incertain</li></ol>",
    "pron": "doo-raw'",
    "strongs_def": "Dura, un lieu en Babylonie",
    "xlit": "Dûwrâʼ"
}