{
    "derivation": "de dérivation incertaine ;",
    "frequency": 1,
    "kjv_def": "millet.",
    "lemma": "דֹּחַן",
    "outline": "<ol><li> millet</li></ol>",
    "pron": "do'-khan",
    "strongs_def": "millet",
    "xlit": "dôchan"
}