{
    "derivation": "ou (abrégé) דִּיבֹן ; de H1727 (דּוּב) ; se languir",
    "frequency": 11,
    "kjv_def": "Dibon. (Aussi, avec H1410 (גָּד) ajouté, Dibon-gad.)",
    "lemma": "דִּיבוֹן",
    "outline": "<span class=\"literal-meaning\">Dibon = &quot; gaspillage &quot;.</span><ol><li> ville de Moab sur la rive orientale du Jourdain, reprise par les Israélites et reconstruite par les enfants de Gad</li><li> un endroit dans le sud de Juda réhabité par les hommes de Juda après le retour de la captivité</li></ol>",
    "pron": "dee-bome'",
    "strongs_def": "Dibon, le nom de trois endroits en Palestine",
    "xlit": "Dîybôwn"
}