{
    "derivation": "une racine primitive ;",
    "frequency": 2,
    "kjv_def": "pousser, vexer.",
    "lemma": "דָּחַק",
    "outline": "<ol><li> pousser, opprimer, entasser<ol><li> (Qal) pousser, entasser</li></ol></li></ol>",
    "pron": "daw-khak'",
    "strongs_def": "presser, c'est-à-dire opprimer",
    "xlit": "dâchaq"
}