{
    "derivation": "dénominatif de H1709 (דָּג) ;",
    "frequency": "",
    "kjv_def": "poisson.",
    "lemma": "דִּיג",
    "outline": "",
    "pron": "deeg",
    "strongs_def": "pour pêcher",
    "xlit": "dîyg"
}