{
    "derivation": "comme si de H1768 (דִּי) et H2091 (זָהָב) ; de l'or ;",
    "frequency": "",
    "kjv_def": "Dizahab.",
    "lemma": "דִּי זָהָב",
    "outline": "",
    "pron": "dee zaw-hawb'",
    "strongs_def": "Dizahab, un lieu dans le désert",
    "xlit": "Dîy zâhâb"
}