{
    "derivation": "(araméen) correspondant à H1777 (דִּין) ;",
    "frequency": "",
    "kjv_def": "juge.",
    "lemma": "דִּין",
    "outline": "",
    "pron": "deen",
    "strongs_def": "pour juger",
    "xlit": "dîyn"
}