{
    "derivation": "féminin de H1779 (דִּין) ; justice ;",
    "frequency": 8,
    "kjv_def": "Dinah.",
    "lemma": "דִּינָה",
    "outline": "<span class=\"literal-meaning\">Dinah = &quot;jugement</span><ol><li> fille de Jacob par Léa, sœur à part entière de Siméon et Lévi</li></ol>",
    "pron": "dee-naw'",
    "strongs_def": "Dinah, la fille de Jacob",
    "xlit": "Dîynâh"
}