{
    "derivation": "(Araméen) correspondant à H1781 (דַּיָּן)",
    "frequency": "",
    "kjv_def": "juge.",
    "lemma": "דַּיָּן",
    "outline": "",
    "pron": "dah-yawn'",
    "strongs_def": "{juge ou avocat}",
    "xlit": "dayân"
}