{
    "derivation": "à partir d'une racine corresp. à H1751 (דּוּק) ;",
    "frequency": 6,
    "kjv_def": "fort.",
    "lemma": "דָּיֵק",
    "outline": "<ol><li> bulwark, mur de siège, mur latéral</li></ol>",
    "pron": "daw-yake'",
    "strongs_def": "une tour de frappe",
    "xlit": "dâyêq"
}