{
    "derivation": "de H1794 (דָּכָה) ;",
    "frequency": 1,
    "kjv_def": "vague.",
    "lemma": "דֳּכִי",
    "outline": "<ol><li> l'écrasement, le déferlement, le fracas, le martèlement des vagues</li></ol>",
    "pron": "dok-ee'",
    "strongs_def": "un coup de surf",
    "xlit": "dŏkîy"
}