{
    "derivation": "de H1792 (דָּכָא) ;",
    "frequency": 3,
    "kjv_def": "contrite, destruction.",
    "lemma": "דַּכָּא",
    "outline": "<ol><li> poussière</li><li> contrite</li></ol>",
    "pron": "dak-kaw'",
    "strongs_def": "écrasé (au sens propre, poudreux, ou au sens figuré, contrit)",
    "xlit": "dakkâʼ"
}