{
    "derivation": "(araméen) ou דׇּכְרָן (araméen) ; correspondant à H2146 (זִכְרוֹן) ;",
    "frequency": 3,
    "kjv_def": "record.",
    "lemma": "דִּכְרוֹן",
    "outline": "<ol><li> enregistrement, mémorandum</li></ol>",
    "pron": "dik-rone'",
    "strongs_def": "un registre",
    "xlit": "dikrôwn"
}