{
    "derivation": "(araméen) ou דָּךְ ; (araméen), prolongé de H1668 (דָּא) ;",
    "frequency": 13,
    "kjv_def": "la même chose, ça.",
    "lemma": "דֵּךְ",
    "outline": "<ol><li> ce</li></ol>",
    "pron": "dake",
    "strongs_def": "ce",
    "xlit": "dêk"
}