{
    "derivation": "de H1794 (דָּכָה) comme H1793 (דַּכָּא) ;",
    "frequency": "",
    "kjv_def": "[phrase] blessé.",
    "lemma": "דַּכָּה",
    "outline": "",
    "pron": "dak-kaw'",
    "strongs_def": "mutilé",
    "xlit": "dakkâh"
}