{
    "derivation": "à partir d'une racine inutilisée (comparer H1794 (דָּכָה)) ;",
    "frequency": 4,
    "kjv_def": "affligé, opprimé.",
    "lemma": "דַּךְ",
    "outline": "<ol><li> écrasé, opprimé</li></ol>",
    "pron": "dak",
    "strongs_def": "écrasé, c'est-à-dire (au sens figuré) blessé",
    "xlit": "dak"
}