{
    "derivation": "une racine primitive ;",
    "frequency": 5,
    "kjv_def": "saut.",
    "lemma": "דָּלַג",
    "outline": "<ol><li> sauter<ol><li> (Qal) bondir</li><li> (Piel) bondir, sauter par-dessus</li></ol></li></ol>",
    "pron": "daw-lag'",
    "strongs_def": "au printemps",
    "xlit": "dâlag"
}