{
    "derivation": "de H1809 (דָּלַל) ; languissant",
    "frequency": 6,
    "kjv_def": "Delilah.",
    "lemma": "דְּלִילָה",
    "outline": "<span class=\"literal-meaning\">Delilah = &quot;faible&quot;</span><ol><li> la maîtresse philistine de Samson qui a trahi le secret de sa grande force et, en lui coupant les cheveux, l'a affaibli et livré aux Philistins</li></ol>",
    "pron": "del-ee-law'",
    "strongs_def": "Delilah, une femme philistine",
    "xlit": "Dᵉlîylâh"
}