{
    "derivation": "une racine primitive (comparer H1802 (דָּלָה)) ;",
    "frequency": 9,
    "kjv_def": "s'abaisser, se tarir, se vider, ne pas être à la hauteur, échouer, s'appauvrir, s'amaigrir.",
    "lemma": "דָּלַל",
    "outline": "<ol><li> être suspendu, languir, pendre, être bas<ol><li> (Qal)<ol><li> pendre bas</li><li> être bas</li><li> de détresse (fig.)</li><li> languir, avoir l'air faible (des yeux)</li></ol><li> (Niphal) être abaissé, être mis à terre</li></ol></li></ol>",
    "pron": "daw-lal'",
    "strongs_def": "se relâcher ou s'affaiblir ; au sens figuré, être opprimé",
    "xlit": "dâlal"
}