{
    "derivation": "ou דֳּלִי ; de H1802 (דָּלָה) ;",
    "frequency": 2,
    "kjv_def": "seau.",
    "lemma": "דְּלִי",
    "outline": "<ol><li> seau</li></ol>",
    "pron": "del-ee'",
    "strongs_def": "un seau ou une jarre (pour puiser de l'eau)",
    "xlit": "dᵉlîy"
}