{
    "derivation": "une racine primitive ;",
    "frequency": 3,
    "kjv_def": "trouble.",
    "lemma": "דָּלַח",
    "outline": "<ol><li> agiter, rendre trouble<ol><li> (Qal) agiter, troubler, rendre turbulent</li></ol></li></ol>",
    "pron": "daw-lakh'",
    "strongs_def": "pour faire bouillir l'eau",
    "xlit": "dâlach"
}