{
    "derivation": "de H1811 (דָּלַף) ;",
    "frequency": 2,
    "kjv_def": "tomber.",
    "lemma": "דֶּלֶף",
    "outline": "<ol><li> une goutte, un goutte à goutte<ol><li> de femme contentieuse (fig.)</li></ol></li></ol>",
    "pron": "deh'-lef",
    "strongs_def": "un goutte à goutte",
    "xlit": "deleph"
}