{
    "derivation": "(Araméen) correspondant à H1814 (דָּלַק)",
    "frequency": 1,
    "kjv_def": "brûler.",
    "lemma": "דְּלַק",
    "outline": "<ol><li> (P'al) pour brûler</li></ol>",
    "pron": "del-ak'",
    "strongs_def": "{flammer (littéralement ou figurativement)}",
    "xlit": "dᵉlaq"
}