{
    "derivation": "(araméen) correspondant à H1819 (דָּמָה) ;",
    "frequency": 2,
    "kjv_def": "être comme.",
    "lemma": "דְּמָה",
    "outline": "<ol><li> (P'al) pour être comme</li></ol>",
    "pron": "dem-aw'",
    "strongs_def": "ressembler à",
    "xlit": "dᵉmâh"
}