{
    "derivation": "à partir d'une racine inutilisée (signifiant pousser) ;",
    "frequency": 1,
    "kjv_def": "calomnier.",
    "lemma": "דׇּפִי",
    "outline": "<ol><li> une tare, un défaut</li></ol>",
    "pron": "dof'-ee",
    "strongs_def": "une pierre d'achoppement",
    "xlit": "dophîy"
}