{
    "derivation": "une racine primitive ;",
    "frequency": 3,
    "kjv_def": "battre, frapper, surmultiplier.",
    "lemma": "דָּפַק",
    "outline": "<ol><li> battre, frapper<ol><li> (Qal)<ol><li> battre, conduire sévèrement</li><li> frapper</li></ol><li> (Hithpael) battre violemment</li></ol></li></ol>",
    "pron": "daw-fak'",
    "strongs_def": "frapper ; par analogie, presser sévèrement",
    "xlit": "dâphaq"
}