{
    "derivation": "de H1835 (דָּן) et (apparemment) H3282 (יַעַן) ; juge de la finalité ;",
    "frequency": "",
    "kjv_def": "Dan-jaan.",
    "lemma": "דָּן יַעַן",
    "outline": "",
    "pron": "dawn yah'-an",
    "strongs_def": "Dan-Jaan, un lieu en Palestine",
    "xlit": "Dân Yaʻan"
}