{
    "derivation": "apparemment de la même que H1865 (דְּרוֹר) ;",
    "frequency": 1,
    "kjv_def": "[idiome] blanc.",
    "lemma": "דַּר",
    "outline": "<ol><li> perle, nacre</li></ol>",
    "pron": "dar",
    "strongs_def": "proprement, une perle (d'après son éclat lorsqu'elle tourne rapidement) ; par analogie, une pierre perlée, c'est-à-dire la nacre ou l'albâtre",
    "xlit": "dar"
}