{
    "derivation": "de H1854 (דָּקַק) ;",
    "frequency": 15,
    "kjv_def": "nain, maigre(-fleur), toute petite chose, petit, mince.",
    "lemma": "דַּק",
    "outline": "<ol><li> mince, petit, fin, décharné<ol><li> fin</li><li> petit, fin</li></ol></li></ol>",
    "pron": "dak",
    "strongs_def": "écrasé, c'est-à-dire (implicitement) petit ou mince",
    "xlit": "daq"
}