{
    "derivation": "de H1854 (דָּקַק) ;",
    "frequency": 1,
    "kjv_def": "rideau.",
    "lemma": "דֹּק",
    "outline": "<ol><li> voile, rideau</li></ol>",
    "pron": "doke",
    "strongs_def": "quelque chose d'effiloché, c'est-à-dire de fin (comme un tissu fin)",
    "xlit": "dôq"
}