{
    "derivation": "apparemment de H1858 (דַּר) et H1843 (דֵּעַ) ; perle de connaissance ;",
    "frequency": 1,
    "kjv_def": "Darda.",
    "lemma": "דַּרְדַּע",
    "outline": "<span class=\"literal-meaning\">Darda = &quot;perle de la connaissance&quot;</span><ol><li> un fils de Mahol, l'un des quatre hommes réputés pour leur sagesse, mais surpassés par Salomon</li></ol>",
    "pron": "dar-dah'",
    "strongs_def": "Darda, un Israélite",
    "xlit": "Dardaʻ"
}