{
    "derivation": "peut-être par permutation pour H5813 (עֻזִּי), fort ;",
    "frequency": 1,
    "kjv_def": "Uzai.",
    "lemma": "אוּזַי",
    "outline": "<span class=\"literal-meaning\">Uzai = &quot;J'aurai mes arrosages&quot;</span><ol><li> un Judéen, l'un des réparateurs des murs de Jérusalem</li></ol>",
    "pron": "oo-zah'-ee",
    "strongs_def": "Uzai, un Israélite",
    "xlit": "ʼÛwzay"
}