{
    "derivation": "(Araméen) correspondant à H1867 (דָּֽרְיָוֵשׁ)",
    "frequency": 15,
    "kjv_def": "Darius.",
    "lemma": "דָּֽרְיָוֵשׁ",
    "outline": "<span class=\"literal-meaning\">Darius = &quot; seigneur &quot;.</span><ol><li> Darius le Mède, fils d'Assuérus, roi des Chaldéens, qui succéda au royaume de Babylone à la mort de Belshazzar ; probablement le même qu'&quot;Astyages&quot;, le dernier roi des Mèdes (538 av. J.-C.) (idem 1867 (1))</li><li> Darius, fils d'Hystaspes, fondateur de la dynastie perse-arienne (521 av. J.-C.) (idem 1867 (2))</li><li> Darius II ou Darius III<ol><li> Darius II, Nothus (Ochus) était roi de Perse à l'époque de Néhémie (424/3 - 405/4 av. J.-C.). Darius II est le plus probable car il est mentionné par Néhémie et a régné à l'époque de Néhémie</li><li> Darius III, Codomannus était roi de Perse pendant ses dernières années à l'époque d'Alexandre le Grand et était son adversaire (336 - 330 av. J.-C.)</li></ol></li></ol>",
    "pron": "daw-reh-yaw-vaysh'",
    "strongs_def": "{Darejavesh, un titre (plutôt qu'un nom) de plusieurs rois perses}",
    "xlit": "Dârᵉyâvêsh"
}