{
    "derivation": "(araméen) correspondant à H2220 (זְרוֹעַ) ;",
    "frequency": 1,
    "kjv_def": "bras.",
    "lemma": "דְּרַע",
    "outline": "<ol><li> bras</li></ol>",
    "pron": "der-aw'",
    "strongs_def": "un bras",
    "xlit": "dᵉraʻ"
}