{
    "derivation": "de dérivation incertaine ;",
    "frequency": 10,
    "kjv_def": "Dathan.",
    "lemma": "דָּתָן",
    "outline": "<span class=\"literal-meaning\">Dathan = &quot; qui appartient à une fontaine &quot;.</span><ol><li> un chef Rubénite, fils d'Eliab, qui, avec son frère Abiram, se joignit à la conspiration de Koré contre l'autorité de Moïse</li></ol>",
    "pron": "daw-thawn'",
    "strongs_def": "Dathan, un Israélite",
    "xlit": "Dâthân"
}