{
    "derivation": "(araméen) ou הָא ; (araméen), correspondant à H1887 (הֵא)",
    "frequency": 2,
    "kjv_def": "même, lo.",
    "lemma": "הֵא",
    "outline": "<ol><li> voici !, voici !</li><li> même comme, comme</li></ol>",
    "pron": "hay",
    "strongs_def": "{lo!}",
    "xlit": "hêʼ"
}