{
    "derivation": "ou (dual araméen) דֹּתַיִן ; (Genèse 37:17), de dérivation incertaine ;",
    "frequency": "",
    "kjv_def": "Dothan. h",
    "lemma": "דֹּתָן",
    "outline": "",
    "pron": "do'-thawn",
    "strongs_def": "Dothan, un lieu en Palestine",
    "xlit": "Dôthân"
}