{
    "derivation": "une racine primitive (comparer H1901 (הָגִיג)) ;",
    "frequency": 25,
    "kjv_def": "imaginer, méditer, se lamenter, murmurer, rugir, [idiome] douloureux, parler, étudier, parler, prononcer.",
    "lemma": "הָגָה",
    "outline": "<ol><li> gémir, gronder, proférer, muser, murmurer, méditer, imaginer, comploter, parler..<ol><li> (Qal)<ol><li> rugir, gronder, gémir</li><li> prononcer, parler</li><li> méditer, concevoir, muse, imaginer</li></ol><li> (Poal) de prononcer</li><li> (Hiphil) de murmurer</li></ol></li></ol>",
    "pron": "daw-gaw'",
    "strongs_def": "murmurer (de plaisir ou de colère) ; implicitement, réfléchir",
    "xlit": "hâgâh"
}