{
    "derivation": "de H1897 (הָגָה) ;",
    "frequency": 3,
    "kjv_def": "le deuil, le son, le conte.",
    "lemma": "הֶגֶה",
    "outline": "<ol><li> un grondement, un grognement, un gémissement<ol><li> un grondement, un grognement</li><li> un gémissement</li><li> un soupir, un gémissement, un soupir</li></ol></li></ol>",
    "pron": "heh'-geh",
    "strongs_def": "un murmure (en soupirant, en pensant, ou comme un tonnerre)",
    "xlit": "hegeh"
}