{
    "derivation": "d'origine incertaine (peut-être étrangère) ;",
    "frequency": 12,
    "kjv_def": "Hagar.",
    "lemma": "הָגָר",
    "outline": "<span class=\"literal-meaning\">Hagar = &quot;fuite&quot;</span><ol><li> L'esclave égyptienne de Sarah, la concubine d'Abraham, la mère d'Ismaël</li></ol>",
    "pron": "haw-gawr'",
    "strongs_def": "Hagar, la mère d'Ismaël",
    "xlit": "Hâgâr"
}