{
    "derivation": "d'une racine inutilisée signifiant \"piétiner\" ;",
    "frequency": 6,
    "kjv_def": "Tabouret (de pied).",
    "lemma": "הֲדֹם",
    "outline": "<ol><li> tabouret, pouf</li></ol>",
    "pron": "had-ome'",
    "strongs_def": "un tabouret de pied",
    "xlit": "hădôm"
}