{
    "derivation": "identique à H1926 (הָדָר) ;",
    "frequency": 1,
    "kjv_def": "Hadar.",
    "lemma": "הֲדַר",
    "outline": "<span class=\"literal-meaning\">Hadar = &quot;honneur&quot;</span><ol><li> un roi Edomite</li></ol>",
    "pron": "had-ar'",
    "strongs_def": "Hadar, un Edomite",
    "xlit": "Hădar"
}