{
    "derivation": "dont le féminin (au-delà du Pentateuque) est הִיא ; un mot primitif, le pronom de la troisième personne du singulier ;",
    "frequency": 1877,
    "kjv_def": "il, quant à elle, lui (-même), il, le même, elle (elle-même), tel, que (...il), ces, ils, ceci, ceux, lequel (est), qui.",
    "lemma": "הוּא",
    "outline": "<ol><li> il, elle, il<ol><li> lui-même (avec emphase)</li><li> reprise du subj avec accentuation</li><li> (avec un minimum d'emphase après le prédicat)</li><li> (anticipant le subj)</li><li> (accentuation du prédicat)</li><li> que, il (neutre)</li></ol><li> que (avec article)</li></ol>",
    "pron": "hoo",
    "strongs_def": "il (elle ou elle) ; seulement exprimé lorsqu'il est emphatique ou sans verbe ; aussi (intensivement) soi, ou (surtout avec l'article) le même ; parfois (comme démonstratif) ceci ou cela ; occasionnellement (au lieu de copule) comme ou sont",
    "xlit": "hûwʼ"
}