{
    "derivation": "par permutation à partir de H1929 (הָהּ) ;",
    "frequency": "",
    "kjv_def": "hélas.",
    "lemma": "הוֹ",
    "outline": "",
    "pron": "ho",
    "strongs_def": "oh !",
    "xlit": "hôw"
}