{
    "derivation": "à partir d'une racine inutilisée ;",
    "frequency": 24,
    "kjv_def": "la beauté, la beauté, l'excellence, la gloire, l'honneur, la majesté.",
    "lemma": "הוֹד",
    "outline": "<ol><li> splendeur, majesté, vigueur</li></ol>",
    "pron": "hode",
    "strongs_def": "la grandeur (c'est-à-dire une forme et une apparence imposantes)",
    "xlit": "hôwd"
}