{
    "derivation": "d'une racine inutilisée signifiant tordre, c'est-à-dire (implicitement) être fort ;",
    "frequency": 2,
    "kjv_def": "puissant, fort.",
    "lemma": "אוּל",
    "outline": "<ol><li> proéminence<ol><li> corps, ventre (méprisant)</li><li> nobles, hommes riches</li></ol></li></ol>",
    "pron": "ool",
    "strongs_def": "le corps (comme s'il était roulé ensemble) ; également puissant",
    "xlit": "ʼûwl"
}