{
    "derivation": "une racine primitive (comparer H2000 (הָמַם)) ;",
    "frequency": "",
    "kjv_def": "détruire, déplacer, faire du bruit, mettre, sonner à nouveau.",
    "lemma": "הוּם",
    "outline": "",
    "pron": "hoom",
    "strongs_def": "faire du tapage, ou s'agiter fortement",
    "xlit": "hûwm"
}