{
    "derivation": "une racine primitive (comparer H2372 (חָזָה)) ;",
    "frequency": "",
    "kjv_def": "dormir.",
    "lemma": "הָזָה",
    "outline": "",
    "pron": "haw-zaw'",
    "strongs_def": "de rêver",
    "xlit": "hâzâh"
}