{
    "derivation": "une racine primitive (comparer H1933 (הָוָא)) ;",
    "frequency": 3561,
    "kjv_def": "balise, [idiome] tout à fait, être (-venir), accompli, commis, comme), briser, causer, venir (à passer), faire, faiblir, tomber, [phrase] suivre, arriver, [idiome] avoir, dernier, se rapporter, quitter (un-) soi, exiger, [idiome] utiliser.",
    "lemma": "הָיָה",
    "outline": "<ol><li> être, devenir, s'accomplir, exister, se produire, tomber (Qal)<ol><li> (Qal)<ol><li> -----<ol><li> se produire, tomber, se produire, avoir lieu, arriver, se réaliser</li><li> se produire, s'accomplir</li></ol><li> to come into being, become<ol><li> to arise, appear, come</li><li>to become<ol><li> to become</li><li> to become like</li><li> to be instituted, be established</li></ol><li>to be<ol><li> to exist, be in existence</li><li> to abide, remain, continue (with word of place or time)</li><li> to stand, lie, be in, be at, be situated (with word of locality)</li><li> to accompany, be with</li></ol><li> (Niphal)<ol><li> to occur, come to pass, be done, be brought about</li><li> to be done, be finished, be gone</li></ol></li></li></li></ol></li></ol>",
    "pron": "haw-yaw",
    "strongs_def": "exister, c'est-à-dire être ou devenir, se réaliser (toujours emphatique, et non une simple copule ou auxiliaire)",
    "xlit": "hâyâh"
}