{
    "derivation": "de H1984 (הָלַל) (dans le sens de se réjouir) ;",
    "frequency": 2,
    "kjv_def": "gai, louangeur.",
    "lemma": "הִלּוּל",
    "outline": "<ol><li> réjouissance, louange<ol><li> réjouissance</li><li> louange</li></ol></li></ol>",
    "pron": "hil-lool'",
    "strongs_def": "une célébration d'action de grâce pour la récolte",
    "xlit": "hillûwl"
}