{
    "derivation": "de l'article (voir H1973 (הָלְאָה)xlit hâlᵉâh corrigé en hâlᵉʼâh) et H2088 (זֶה) ;",
    "frequency": 2,
    "kjv_def": "ceci.",
    "lemma": "הַלָּזֶה",
    "outline": "<ol><li> celui-ci, celui-là (sans le substantif), là-bas</li></ol>",
    "pron": "hal-law-zeh'",
    "strongs_def": "ce très",
    "xlit": "hallâzeh"
}