{
    "derivation": "une autre forme de H1976 (הַלָּזֶה) ;",
    "frequency": 1,
    "kjv_def": "ceci.",
    "lemma": "הַלֵּזוּ",
    "outline": "<ol><li> celui-ci, celui-là (sans le substantif), là-bas</li></ol>",
    "pron": "hal-lay-zoo'",
    "strongs_def": "que",
    "xlit": "hallêzûw"
}