{
    "derivation": "probablement dénominativement de H1973 (הָלְאָה)xlit hâlᵉâh corrigé en hâlᵉʼâh ;",
    "frequency": 1,
    "kjv_def": "jeté au loin.",
    "lemma": "הָלָא",
    "outline": "<ol><li> (Niphal) être éloigné, être éloigné</li></ol>",
    "pron": "haw-law'",
    "strongs_def": "supprimer ou être éloigné",
    "xlit": "hâlâʼ"
}