{
    "derivation": "(araméen) correspondant à H1980 (הָלַךְ) (comparez H1946 (הוּךְ)) ;",
    "frequency": 3,
    "kjv_def": "marche.",
    "lemma": "הֲלַךְ",
    "outline": "<ol><li> marcher, aller<ol><li> (P'al) se promener (participe)</li><li> (Aphel) marcher</li></ol></li></ol>",
    "pron": "hal-ak'",
    "strongs_def": "de marcher",
    "xlit": "hălak"
}