{
    "derivation": "de l'article (voir H1973 (הָלְאָה)xlit hâlᵉâh corrigé en hâlᵉʼâh) ;",
    "frequency": 11,
    "kjv_def": "ici, hither(-(to)), thither.",
    "lemma": "הֲלֹם",
    "outline": "<ol><li> ici, ici</li></ol>",
    "pron": "hal-ome'",
    "strongs_def": "ici",
    "xlit": "hălôm"
}