{
    "derivation": "appar, de H481 (אָלַם) (dans le sens de mutisme) ; solitaire ;",
    "frequency": 4,
    "kjv_def": "Ulam.",
    "lemma": "אוּלָם",
    "outline": "<span class=\"literal-meaning\">Ulam = &quot; leur chef : vestibule &quot;.</span><ol><li> un Manassite</li><li> un Benjamite de la famille de Saül</li></ol>",
    "pron": "oo-lawm'",
    "strongs_def": "Ulam, le nom de deux Israélites",
    "xlit": "ʼÛwlâm"
}