{
    "derivation": "une racine primitive (comparer H1949 (הוּם)) ;",
    "frequency": 34,
    "kjv_def": "clamer, concourir, crier à haute voix, être troublé, bruyant, se lamenter, être ému, faire du bruit, rager, rugir, sonner, être troublé, faire du tumulte, tumultueux, être en effervescence.",
    "lemma": "הָמָה",
    "outline": "<ol><li> murmurer, grogner, rugir, crier à haute voix, se lamenter, faire du bruit, faire du tumulte, être claudiquant, être troublé, être bruyant, être ému, être troublé, être dans le tumulte<ol><li> (Qal)<ol><li> grogner</li><li> murmurer (fig. d'une âme en prière)</li><li> rugir</li><li> être en effervescence, être dans l'agitation</li><li> être tapageur, être turbulent</li></ol></li></ol></li></ol>",
    "pron": "haw-maw'",
    "strongs_def": "émettre un son fort (comme le \"hum\" anglais) ; implicitement, être dans une grande agitation ou un grand tumulte, être en colère, faire la guerre, gémir, clamer..",
    "xlit": "hâmâh"
}