{
    "derivation": "ou הָמֹן ; (Ezéchiel 5:7), de H1993 (הָמָה) ;",
    "frequency": 83,
    "kjv_def": "abondance, compagnie, beaucoup, multitude, multiplier, bruit, richesse, grondement, son, magasin, tumulte.",
    "lemma": "הָמוֹן",
    "outline": "<ol><li> (Qal) murmure, rugissement, foule, abondance, tumulte, bruit<ol><li> son, murmure, précipitation, rugissement</li><li> tumulte, confusion</li><li> foule, multitude</li><li> grand nombre, abondance</li><li> abondance, richesse</li></ol></li></ol>",
    "pron": "haw-mone'",
    "strongs_def": "un bruit, un tumulte, une foule ; également l'inquiétude, la richesse",
    "xlit": "hâmôwn"
}