{
    "derivation": "(araméen) ou (prolongé) הִמּוֹן ; (araméen), correspondant à H1992 (הֵם) ;",
    "frequency": 12,
    "kjv_def": "sont, ils, ceux-là.",
    "lemma": "הִמּוֹ",
    "outline": "<ol><li> ils, elles<ol><li> ils (sujet)</li><li> eux (objet)</li></ol></li></ol>",
    "pron": "him-mo'",
    "strongs_def": "ils",
    "xlit": "himmôw"
}