{
    "derivation": "apparemment une variation de H194 (אוּלַי) ;",
    "frequency": 19,
    "kjv_def": "comme pour, mais, comment, en fait, sûrement, vraiment, pourquoi.",
    "lemma": "אוּלָם",
    "outline": "<ol><li> mais, mais en effet (un adverbe fort)</li><li> cependant, néanmoins</li></ol>",
    "pron": "oo-lawm'",
    "strongs_def": "cependant ou au contraire",
    "xlit": "ʼûwlâm"
}