{
    "derivation": "(araméen) correspondant à H1 (אָב)",
    "frequency": 9,
    "kjv_def": "père.",
    "lemma": "אַב",
    "outline": "<ol><li> père</li></ol>",
    "pron": "ab",
    "strongs_def": "{père}",
    "xlit": "ʼab"
}