{
    "derivation": "prolongation pour H2004 (הֵן) ;",
    "frequency": 48,
    "kjv_def": "dans, [idiome] tels (et telles choses), leurs, (en) eux, de là, là-dedans, ceux-ci, ils (avaient), de ce côté, dont, où.",
    "lemma": "הֵנָּה",
    "outline": "<ol><li> ils, ceux-ci, les mêmes, qui</li></ol>",
    "pron": "hane'-naw",
    "strongs_def": "eux-mêmes (souvent utilisé en emphase pour la copule, également en relation indirecte)",
    "xlit": "hênnâh"
}