{
    "derivation": "de H6313 (פּוּג) ;",
    "frequency": 1,
    "kjv_def": "entracte.",
    "lemma": "הֲפֻגָה",
    "outline": "<ol><li> cesser, arrêter, assommer</li></ol>",
    "pron": "haf-oo-gaw'",
    "strongs_def": "relaxation",
    "xlit": "hăphugâh"
}