{
    "derivation": "de H559 (אָמַר) ; bavard ;",
    "frequency": 3,
    "kjv_def": "Omar.",
    "lemma": "אוֹמָר",
    "outline": "<span class=\"literal-meaning\">Omar = &quot;orateur&quot; ou &quot;éloquent&quot;.</span><ol><li> petit-fils d'Esau</li></ol>",
    "pron": "o-mawr'",
    "strongs_def": "Omar, un petit-fils d'Ésaü",
    "xlit": "ʼÔwmâr"
}