{
    "derivation": "ou הֵרָיוֹן ; de H2029 (הָרָה) ;",
    "frequency": 3,
    "kjv_def": "conception.",
    "lemma": "הֵרוֹן",
    "outline": "<ol><li> conception physique, grossesse, conception</li></ol>",
    "pron": "hay-rone'",
    "strongs_def": "grossesse",
    "xlit": "hêrôwn"
}