{
    "derivation": "de H2048 (הָתַל) (uniquement au pluriel collectif) ;",
    "frequency": 1,
    "kjv_def": "moqueur.",
    "lemma": "הָתֹל",
    "outline": "<ol><li> moqueur, moqueur</li></ol>",
    "pron": "haw-thole'",
    "strongs_def": "une dérision",
    "xlit": "hâthôl"
}