{
    "derivation": "de H5413 (נָתַךְ) ;",
    "frequency": 1,
    "kjv_def": "est fondu.",
    "lemma": "הִתּוּךְ",
    "outline": "<ol><li> une fonte</li></ol>",
    "pron": "hit-took'",
    "strongs_def": "une fonte",
    "xlit": "hittûwk"
}