{
    "derivation": "une racine primitive ;",
    "frequency": 10,
    "kjv_def": "traiter de manière trompeuse, tromper, se moquer.",
    "lemma": "הָתַל",
    "outline": "<ol><li> (Piel) se moquer, tromper</li><li> (Pual) tromper</li></ol>",
    "pron": "haw-thal'",
    "strongs_def": "tourner en dérision ; implicitement, tricher",
    "xlit": "hâthal"
}