{
    "derivation": "une racine primitive ;",
    "frequency": 43,
    "kjv_def": "abattre, briser (vers le bas, à travers), détruire, renverser, arracher, abattre, ruiner, jeter à terre, [idiome] complètement.",
    "lemma": "הָרַס",
    "outline": "<ol><li> arracher, briser, renverser, abattre, briser, percer, détruire, arracher, abattre, jeter à terre, ruiné, destructeur, complètement<ol><li> (Qal)<ol><li> jeter, démolir</li><li> percer</li><li> briser, rompre</li></ol><li> (Niphal) to be torn down, be thrown down</li><li> (Piel)<ol><li> to overthrow, tear down</li><li> destructeur (participe)</li></ol></li></ol></li></ol>",
    "pron": "haw-ras'",
    "strongs_def": "abattre ou mettre en pièces, briser, détruire",
    "xlit": "hâraç"
}