{
    "derivation": "d'une racine inutilisée signifiant peut-être proprement, haleter (donc, s'efforcer, généralement en vain ; n'aboutir à rien) ;",
    "frequency": 78,
    "kjv_def": "affliction, mal, faux, idole, iniquité, méfait, pleureurs(-e), néant, chagrin, injuste, inique, vain, vanité, méchant(-e). Comparer avec H369 (אַיִן).",
    "lemma": "אָוֶן",
    "outline": "<ol><li> trouble, méchanceté, tristesse<ol><li> trouble, chagrin</li><li> idolâtrie</li><li> trouble de l'iniquité, de la méchanceté</li></ol></li></ol>",
    "pron": "aw-ven'",
    "strongs_def": "strictement le néant ; également le trouble. la vanité, la méchanceté ; spécifiquement une idole",
    "xlit": "ʼâven"
}