{
    "derivation": "une racine primitive ;",
    "frequency": 1,
    "kjv_def": "imaginer des méfaits. w",
    "lemma": "הָתַת",
    "outline": "<ol><li> (Poel) crier, être frénétique, assaillir, entrer par effraction, accabler, imaginer des méfaits</li></ol>",
    "pron": "haw-thath'",
    "strongs_def": "proprement dit, faire irruption, c'est-à-dire agresser",
    "xlit": "hâthath"
}