{
    "derivation": "de H2065 (זֶבֶד) et H410 (אֵל) ;",
    "frequency": 2,
    "kjv_def": "Zabdiel.",
    "lemma": "זַבְדִּיאֵל",
    "outline": "<span class=\"literal-meaning\">Zabdiel = &quot;Dieu est ma dotation&quot;</span><ol><li> père de Jashobeam, le chef de la garde de David</li><li> prêtre à l'époque de Néhémie</li></ol>",
    "pron": "zab-dee-ale'",
    "strongs_def": "don de Dieu ; zabdiel, le nom de deux Israéliens",
    "xlit": "Zabdîyʼêl"
}