{
    "derivation": "identique à H2061 (זְאֵב) ;",
    "frequency": 6,
    "kjv_def": "Zeeb.",
    "lemma": "זְאֵב",
    "outline": "<span class=\"literal-meaning\">Zeeb = &quot;loup&quot;.</span><ol><li> l'un des deux princes de Madian mentionnés lors de la conquête ; mis à terre dans un pressoir</li></ol>",
    "pron": "zeh-abe'",
    "strongs_def": "Zeeb, un prince madianais",
    "xlit": "Zᵉʼêb"
}