{
    "derivation": "ou זְבֻל ; de H2082 (זָבַל) ;",
    "frequency": 5,
    "kjv_def": "habiter, logement, habitation.",
    "lemma": "זְבוּל",
    "outline": "<ol><li> exalté, résidence, élévation, haute demeure, hauteur, habitation</li></ol>",
    "pron": "ze-bool'",
    "strongs_def": "une résidence",
    "xlit": "zᵉbûwl"
}