{
    "derivation": "de H2076 (זָבַח) ;",
    "frequency": 162,
    "kjv_def": "offrir (-ing), sacrifice.",
    "lemma": "זֶבַח",
    "outline": "<ol><li> sacrifice<ol><li> les sacrifices de la justice</li><li> sacrifices de querelles</li><li> les sacrifices aux choses mortes</li><li> le sacrifice de l'alliance</li><li> la pâque</li><li> sacrifice annuel</li><li> offrande de remerciement</li></ol></li></ol>",
    "pron": "zeh'-bakh",
    "strongs_def": "proprement, un abattage, c'est-à-dire la chair d'un animal ; implicitement, un sacrifice (la victime ou l'acte)",
    "xlit": "zebach"
}