{
    "derivation": "patronymiquement de H2074 (זְבוּלוּן) ;",
    "frequency": 3,
    "kjv_def": "Zébulonite.",
    "lemma": "זְבוּלֹנִי",
    "outline": "<span class=\"literal-meaning\">Zébulonite = voir Zébulon</span><ol><li> un descendant de Zabulon et un membre de la tribu de Zabulon</li></ol>",
    "pron": "zeb-oo-lo-nee'",
    "strongs_def": "un Zébulonien ou un descendant de Zébulon",
    "xlit": "Zᵉbûwlônîy"
}