{
    "derivation": "ou זְבֻלוּן ; ou זְבוּלֻן ; de H2082 (זָבַל) ; habitation ;",
    "frequency": 45,
    "kjv_def": "Zebulun.",
    "lemma": "זְבוּלוּן",
    "outline": "<span class=\"literal-meaning\">Zabulon = &quot;élevé&quot;.</span><ol><li> 10ème des fils de Jacob, 6ème et dernier de Léa ; géniteur de Zabulon</li><li> la tribu qui descend de Zabulon</li><li> la terre attribuée à la tribu de Zabulon</li></ol>",
    "pron": "zeb-oo-loon'",
    "strongs_def": "Zabulon, fils de Jacob, ainsi que son territoire et sa tribu",
    "xlit": "Zᵉbûwlûwn"
}