{
    "derivation": "d'une racine inutilisée (signifiant acheter) ; gain ;",
    "frequency": 1,
    "kjv_def": "Zebina.",
    "lemma": "זְבִינָא",
    "outline": "<span class=\"literal-meaning\">Zebina = &quot;acheté&quot;</span><ol><li> un fils de Nebo qui a pris une femme étrangère à l'époque d'Esdras</li></ol>",
    "pron": "zeb-ee-naw'",
    "strongs_def": "Zebina, un Israélite",
    "xlit": "Zᵉbîynâʼ"
}