{
    "derivation": "une racine primitive ; apparemment, proprement, enfermer, c'est à dire",
    "frequency": 1,
    "kjv_def": "s'attarder avec.",
    "lemma": "זָבַל",
    "outline": "<ol><li> (Qal) exalter, honorer, (possible) habiter de manière exaltée</li></ol>",
    "pron": "zaw-bal'",
    "strongs_def": "de résider",
    "xlit": "zâbal"
}