{
    "derivation": "(araméen) correspondant à H2094 (זָהַר) ;",
    "frequency": 1,
    "kjv_def": "faites attention.",
    "lemma": "זְהַר",
    "outline": "<ol><li> prendre garde, faire attention, avertir<ol><li> (P'al) être averti</li></ol></li></ol>",
    "pron": "zeh-har'",
    "strongs_def": "(passivement) être admonesté",
    "xlit": "zᵉhar"
}