{
    "derivation": "une racine primitive ;",
    "frequency": 42,
    "kjv_def": "couler, jaillir, avoir un problème (courant), dépérir, courir.",
    "lemma": "זוּב",
    "outline": "<ol><li> couler, jaillir, sortir, s'écouler<ol><li> (Qal)<ol><li> couler, jaillir</li><li> mourir, dépérir (fig.)</li><li> couler (d'une femme), avoir une issue, flux</li><li> couler (participe)</li></ol></li></ol></li></ol>",
    "pron": "zoob",
    "strongs_def": "s'écouler librement (comme l'eau), c'est-à-dire (spécifiquement) avoir un flux (sexuel) ; au sens figuré, s'épuiser ; également déborder",
    "xlit": "zûwb"
}