{
    "derivation": "ou (par permutation) זִיד ; une racine primitive ;",
    "frequency": 10,
    "kjv_def": "être fier, traiter fièrement, présumer, (venir) présomptueusement, sod.",
    "lemma": "זוּד",
    "outline": "<ol><li> bouillir, bouillir, bouillir, agir fièrement, agir présomptueusement, agir avec rébellion, être présomptueux, être arrogant, être fier avec rébellion<ol><li> (Qal)<ol><li> agir de manière présomptueuse</li><li> traiter avec arrogance (avec 'al')</li><li> défier fièrement (avec 'el')</li></ol><li> (Hiphil)<ol><li> bouillir, bouillir, bouillir, agir fièrement</li><li>, agir présomptueusement, agir insolemment</li></ol></li></ol></li></ol>",
    "pron": "zood",
    "strongs_def": "être en colère ; au sens figuré, être insolent",
    "xlit": "zûwd"
}