{
    "derivation": "(araméen) correspondant à H2111 (זוּעַ) ;",
    "frequency": "",
    "kjv_def": "tremblez.",
    "lemma": "זוּעַ",
    "outline": "",
    "pron": "zoo'-ah",
    "strongs_def": "trembler (de peur)",
    "xlit": "zûwaʻ"
}