{
    "derivation": "une racine primitive ;",
    "frequency": 3,
    "kjv_def": "émouvoir, trembler, vexer.",
    "lemma": "זוּעַ",
    "outline": "<ol><li> trembler, frémir, s'agiter, être dans la terreur<ol><li> (Qal) trembler, secouer</li><li> (Pilpel)<ol><li> secouer violemment</li><li> faire trembler</li></ol></li></ol></li></ol>",
    "pron": "zoo'-ah",
    "strongs_def": "proprement, secouer, c'est-à-dire (au sens figuré) agiter (comme la peur)",
    "xlit": "zûwaʻ"
}