{
    "derivation": "de H2115 (זוּר) ;",
    "frequency": 1,
    "kjv_def": "ce qui est écrasé.",
    "lemma": "זוּרֶה",
    "outline": "<ol><li> une chose qui est écrasée</li></ol>",
    "pron": "zoo-reh'",
    "strongs_def": "piétiné",
    "xlit": "zûwreh"
}