{
    "derivation": "une racine primitive ;",
    "frequency": 3,
    "kjv_def": "ayez peur, serpent, ver.",
    "lemma": "זָחַל",
    "outline": "<ol><li> reculer, ramper<ol><li> (Qal) ramper, ramper (participe) (meton)</li></ol><li> avoir peur, être effrayé</li></ol>",
    "pron": "zaw-khal'",
    "strongs_def": "ramper ; implicitement, craindre",
    "xlit": "zâchal"
}