{
    "derivation": "de H2102 (זוּד) ;",
    "frequency": "",
    "kjv_def": "fier.",
    "lemma": "זֵידוֹן",
    "outline": "",
    "pron": "zay-dohn'",
    "strongs_def": "l'ébullition de l'eau, c'est-à-dire l'onde",
    "xlit": "zêydôwn"
}