{
    "derivation": "de H2141 (זָכַךְ) ;",
    "frequency": 11,
    "kjv_def": "propre, pur.",
    "lemma": "זַךְ",
    "outline": "<ol><li> propre, pur<ol><li> pur</li><li> pur, propre, juste (fig.)</li></ol><li> le pur (subst)</li></ol>",
    "pron": "zak",
    "strongs_def": "clair",
    "xlit": "zak"
}