{
    "derivation": "par redoublement à partir de H2151 (זָלַל) ;",
    "frequency": 1,
    "kjv_def": "brin.",
    "lemma": "זַלְזַל",
    "outline": "<ol><li> (frémissant) vrilles, brindille, pousse, vrilles</li></ol>",
    "pron": "zal-zal'",
    "strongs_def": "tremblant, c'est-à-dire une brindille",
    "xlit": "zalzal"
}