{
    "derivation": "; d'une racine inutilisée signifiant apparemment ruisseler, comme la myrrhe ; goutte parfumée ;",
    "frequency": 7,
    "kjv_def": "Zilpah.",
    "lemma": "זִלְפָּה",
    "outline": "<span class=\"literal-meaning\">Zilpah = &quot;un filet d'eau&quot;.</span><ol><li> la Syrienne donnée par Laban à Léa comme servante, concubine de Jacob, mère d'Asher et de Gad</li></ol>",
    "pron": "zil-paw",
    "strongs_def": "Zilpah, la servante de Léa",
    "xlit": "Zilpâh"
}