{
    "derivation": "une racine primitive (comparer H2167 (זָמַר), H5568 (סָמַר), H6785 (צֶמֶר)) ;",
    "frequency": 3,
    "kjv_def": "pruneau.",
    "lemma": "זָמַר",
    "outline": "<ol><li> tailler, élaguer<ol><li> (Qal) tailler, élaguer</li><li> (Niphal) être taillé</li></ol></li></ol>",
    "pron": "zaw-mar'",
    "strongs_def": "tailler (une vigne)",
    "xlit": "zâmar"
}