{
    "derivation": "une racine primitive ;",
    "frequency": "",
    "kjv_def": "nommer.",
    "lemma": "זָמַן",
    "outline": "",
    "pron": "zaw-man'",
    "strongs_def": "pour fixer (un temps)",
    "xlit": "zâman"
}