{
    "derivation": "racine primitive (peut-être identique à H2168 (זָמַר) par l'idée de frapper avec les doigts) ; proprement, toucher les cordes ou les parties d'un instrument de musique, c'est-à-dire.",
    "frequency": 46,
    "kjv_def": "faire des louanges, chanter des louanges, des psaumes.",
    "lemma": "זָמַר",
    "outline": "<ol><li> chanter, faire des louanges, faire de la musique<ol><li> (Piel)<ol><li> faire de la musique, chanter</li><li> jouer d'un instrument de musique</li></ol></li></ol></li></ol>",
    "pron": "zaw-mar'",
    "strongs_def": "jouer sur elle ; faire de la musique, en s'accompagnant de la voix ; donc célébrer en chantant et en musique",
    "xlit": "zâmar"
}