{
    "derivation": "(araméen) d'une racine correspondant à H2167 (זָמַר) ;",
    "frequency": 4,
    "kjv_def": "de la musique.",
    "lemma": "זְמָר",
    "outline": "<ol><li> musique instrumentale, musique</li></ol>",
    "pron": "zem-awr'",
    "strongs_def": "musique instrumentale",
    "xlit": "zᵉmâr"
}