{
    "derivation": "une racine primitive signifiant pousser de côté, c'est à dire",
    "frequency": 20,
    "kjv_def": "rejeter (off), éloigner (off).",
    "lemma": "זָנַח",
    "outline": "<ol><li> rejeter, rejeter, mépriser<ol><li> (Qal) rejeter</li><li> (Hiphil) rejeter quelqu'un de force</li></ol><li> puer, émettre une puanteur, devenir odieux<ol><li> (Hiphil) puer (parfait)</li></ol></li></ol>",
    "pron": "zaw-nakh'",
    "strongs_def": "rejeter, abandonner, échouer",
    "xlit": "zânach"
}