{
    "derivation": "de H2181 (זָנָה) ;",
    "frequency": 9,
    "kjv_def": "la prostitution.",
    "lemma": "זְנוּת",
    "outline": "<ol><li> fornication, prostitution</li></ol>",
    "pron": "zen-ooth'",
    "strongs_def": "adultère, c'est-à-dire (au sens figuré) infidélité, idolâtrie",
    "xlit": "zᵉnûwth"
}