{
    "derivation": "considéré par certains comme provenant de H2109 (זוּן) ou d'une racine inutilisée, et appliqué à des équipements militaires ; mais de toute évidence le participe actif pluriel féminin de H2181 (זָנָה) ;",
    "frequency": "",
    "kjv_def": "armure.",
    "lemma": "זֹנוֹת",
    "outline": "",
    "pron": "zo-noth'",
    "strongs_def": "harlots",
    "xlit": "zônôwth"
}