{
    "derivation": "une racine primitive ;",
    "frequency": "",
    "kjv_def": "s'éteindre.",
    "lemma": "זָעַךְ",
    "outline": "",
    "pron": "zaw-ak'",
    "strongs_def": "d'éteindre",
    "xlit": "zâʻak"
}