{
    "derivation": "et (féminin) זְעָקָהxlit zᵉâqâh corrigé en zᵉʻâqâh ; de H2199 (זָעַק) ;",
    "frequency": 19,
    "kjv_def": "pleurer (-ing).",
    "lemma": "זַעַק",
    "outline": "<ol><li> cri, clameur<ol><li> cri de détresse</li><li> cri de détresse</li><li> cri, clameur</li></ol></li></ol>",
    "pron": "zah'-ak",
    "strongs_def": "un cri ou une protestation",
    "xlit": "zaʻaq"
}