{
    "derivation": "de H2204 (זָקֵן) ;",
    "frequency": 179,
    "kjv_def": "âgé, ancien (homme), elder(-est), vieux (homme, hommes et...femmes), sénateur.",
    "lemma": "זָקֵן",
    "outline": "<ol><li> vieux<ol><li> vieux (des humains)</li><li> ancien (de ceux qui ont l'autorité)</li></ol></li></ol>",
    "pron": "zaw-kane'",
    "strongs_def": "vieux",
    "xlit": "zâqên"
}