{
    "derivation": "de H2237 (זָרַר) (dans le sens de disperser) ;",
    "frequency": 10,
    "kjv_def": "couronne.",
    "lemma": "זֵר",
    "outline": "<ol><li> bordure, moulure, cercle</li></ol>",
    "pron": "zare",
    "strongs_def": "un chapelet (tel qu'il est réparti autour du sommet), c'est-à-dire (spécifiquement) une moulure de bordure",
    "xlit": "zêr"
}