{
    "derivation": "(araméen) correspondant à H2210 (זָקַף) ;",
    "frequency": "",
    "kjv_def": "mettre en place.",
    "lemma": "זְקַף",
    "outline": "",
    "pron": "zek-af'",
    "strongs_def": "pendre, c'est-à-dire empaler",
    "xlit": "zᵉqaph"
}