{
    "derivation": "une racine primitive ;",
    "frequency": 1,
    "kjv_def": "cire chaude.",
    "lemma": "זָרַב",
    "outline": "<ol><li> (Pual) se dessécher, être réchauffé, être brûlé, être roussi</li></ol>",
    "pron": "zaw-rab'",
    "strongs_def": "pour s'écouler",
    "xlit": "zârab"
}