{
    "derivation": "identique à H2225 (זֶרַח) ;",
    "frequency": 21,
    "kjv_def": "Zarah, Zerah.",
    "lemma": "זֶרַח",
    "outline": "<span class=\"literal-meaning\">Zerah ou Zarah = &quot;qui monte&quot;.</span><ol><li> fils de Réuel et petit-fils d'Ésaü, l'un des ducs des Édomites</li><li> frère jumeau de Pharez, fils de Juda et de Tamar ; les descendants sont appelés Zarhites, Ezrahites, et Izrahites</li><li> fils de Siméon, également appelé \"Zohar\"</li><li> lévite Gershonite, fils d'Iddo d'Adaiah</li><li> l'Éthiopien ou Cushite, envahisseur de Juda sous le règne d'Asa, qui a vaincu les envahisseurs ; probablement le même que le roi égyptien Usarken I, deuxième roi de la 22e dynastie égyptienne, ou peut-être plus probablement Usarken II, son deuxième successeur</li><li> un autre chef édomite ; probablement le même que le 1</li></ol>",
    "pron": "zeh'-rakh",
    "strongs_def": "Zérach, nom de trois Israélites, d'un Iduméen et d'un prince éthiopien",
    "xlit": "Zerach"
}