{
    "derivation": "une racine primitive ;",
    "frequency": 35,
    "kjv_def": "être ici et là, disperser, saupoudrer, éparpiller.",
    "lemma": "זָרַק",
    "outline": "<ol><li> disperser, arroser, lancer, jeter, répandre abondamment, éparpiller<ol><li> (Qal) disperser, saupoudrer, mélanger</li><li> (Pual) être arrosé</li></ol></li></ol>",
    "pron": "zaw-rak'",
    "strongs_def": "saupoudrer (particules fluides ou solides)",
    "xlit": "zâraq"
}