{
    "derivation": "ou זֵרָעֹן ; de H2232 (זָרַע) ;",
    "frequency": 2,
    "kjv_def": "impulsion.",
    "lemma": "זֵרֹעַ",
    "outline": "<ol><li> légumes (tels que semés)</li></ol>",
    "pron": "zay-ro'-ah",
    "strongs_def": "quelque chose de semé (seulement au pluriel), c'est-à-dire un légume (comme nourriture)",
    "xlit": "zêrôaʻ"
}