{
    "derivation": "une racine primitive ;",
    "frequency": 27,
    "kjv_def": "(idiome) du tout, bande, faire sortir, (traiter) corrompre (-ly), détruire, offenser, mettre en gage, gâcher, travailler, [idiome] très, retenir.",
    "lemma": "חָבַל",
    "outline": "<ol><li> lier<ol><li> (Qal)<ol><li> pour lier</li></ol><li>to take a pledge, lay to pledge<ol><li> (Qal) to hold by a pledge, take in pledge, hold in pledge</li><li> (Niphal) to give a pledge, become pledged</li></ol><li>to destroy, spoil, deal corrupt, offend<ol><li> (Qal) to spoil, corrupt, offend</li><li> (Niphal) to be ruined</li><li> (Piel) to destroy, ruin</li><li> (Pual) to be ruined, be broken</li></ol><li> to bring forth, travail<ol><li> (Piel) to writhe, twist, travail</li></ol></li></li></li> </ol>",
    "pron": "khaw-bal'",
    "strongs_def": "enrouler étroitement (comme une corde), c'est-à-dire lier ; en particulier, par un gage ; au sens figuré, pervertir, détruire ; également se tordre de douleur (en particulier lors de l'accouchement)",
    "xlit": "châbal"
}