{
    "derivation": "(Araméen) d'une racine correspondant à H2266 (חָבַר) ;",
    "frequency": 3,
    "kjv_def": "compagnon, camarade.",
    "lemma": "חֲבַר",
    "outline": "<ol><li> associé, compagnon, ami, camarade, compère</li></ol>",
    "pron": "khab-ar'",
    "strongs_def": "un associé",
    "xlit": "chăbar"
}