{
    "derivation": "de dérivation incertaine ;",
    "frequency": 2,
    "kjv_def": "rose.",
    "lemma": "חֲבַצֶּלֶת",
    "outline": "<ol><li> safran des prés, crocus, rose</li></ol>",
    "pron": "khab-ats-tseh'-leth",
    "strongs_def": "probablement le safran des prés",
    "xlit": "chăbatstseleth"
}