{
    "derivation": "de dérivation incertaine ;",
    "frequency": 1,
    "kjv_def": "Habazaniah.",
    "lemma": "חֲבַצַּנְיָה",
    "outline": "<span class=\"literal-meaning\">Habazinia = &quot;lumière de Jéhovah&quot;.</span><ol><li> apparemment le chef d'une des familles des Rechabites</li></ol>",
    "pron": "khab-ats-tsan-yaw'",
    "strongs_def": "Chabatstsanjah, un Rechabite",
    "xlit": "Chăbatstsanyâh"
}