{
    "derivation": "une racine primitive ;",
    "frequency": 13,
    "kjv_def": "embrasser, plier.",
    "lemma": "חָבַק",
    "outline": "<ol><li> embrasser, serrer<ol><li> (Qal)<ol><li> embrasser</li><li> se croiser les mains dans l'oisiveté (fig.)</li></ol><li> (Piel) embrasser</li></ol></li></ol>",
    "pron": "khaw-bak'",
    "strongs_def": "se serrer (les mains ou dans une étreinte)",
    "xlit": "châbaq"
}