{
    "derivation": "par redoublement de H2266 (חָבַר) ;",
    "frequency": 1,
    "kjv_def": "tache.",
    "lemma": "חֲבַרְבֻּרָה",
    "outline": "<ol><li> taches, rayures, marques</li></ol>",
    "pron": "khab-ar-boo-raw'",
    "strongs_def": "une strie (comme une ligne), comme sur le tigre",
    "xlit": "chăbarburâh"
}