{
    "derivation": "une racine primitive (comparer H2283 (חָגָא), H2328 (חוּג)) ;",
    "frequency": 16,
    "kjv_def": "célébrer, danser, (garder, tenir) une fête (solennelle), faire des allers-retours.",
    "lemma": "חָגַג",
    "outline": "<ol><li> faire un festin, faire une fête, faire un pèlerinage, faire un festin de pèlerin, célébrer, danser, tituber<ol><li> (Qal)<ol><li> faire un festin de pèlerins</li><li> faire un moulinet</li></ol></li></ol></li></ol>",
    "pron": "khaw-gag'",
    "strongs_def": "proprement, se déplacer en cercle, c'est-à-dire (spécifiquement) défiler en procession, observer une fête ; implicitement, être étourdi",
    "xlit": "châgag"
}