{
    "derivation": "de H2296 (חָגַר) ;",
    "frequency": 2,
    "kjv_def": "ceinturé.",
    "lemma": "חָגוֹר",
    "outline": "<ol><li> vêtu, ceinturé, enveloppé</li></ol>",
    "pron": "khaw-gore'",
    "strongs_def": "ceinture",
    "xlit": "châgôwr"
}