{
    "derivation": "d'origine incertaine ; probablement une perdrix ;",
    "frequency": 4,
    "kjv_def": "Hoglah. Voir aussi H1031 (בֵּית חׇגְלָה).",
    "lemma": "חׇגְלָה",
    "outline": "<span class=\"literal-meaning\">Hoglah = &quot;perdrix&quot;</span><ol><li> 3ème des 5 filles de Zelophehad, un descendant de Manassé</li></ol>",
    "pron": "khog-law'",
    "strongs_def": "Choglah, une Israélienne",
    "xlit": "Choglâh"
}