{
    "derivation": "ou חֲגֹר ; et (féminin) חֲגוֹרָה ; ou חֲגֹרָה ; de H2296 (חָגַר) ;",
    "frequency": 7,
    "kjv_def": "tablier, armure, gird(-le).",
    "lemma": "חֲגוֹר",
    "outline": "<ol><li> gaine, ceinture</li><li> girdle, pagne, ceinture, pagne, armure</li></ol>",
    "pron": "khag-ore'",
    "strongs_def": "une ceinture (pour la taille)",
    "xlit": "chăgôwr"
}