{
    "derivation": "de H2282 (חַג) et H3050 (יָהּ) ; fête de Jah ;",
    "frequency": 1,
    "kjv_def": "Haggiah.",
    "lemma": "חַגִּיָּה",
    "outline": "<span class=\"literal-meaning\">Haggiah = &quot;fête de Jéhovah&quot;.</span><ol><li> fils de Shimea et d'un lévite merarite</li></ol>",
    "pron": "khag-ghee-yaw'",
    "strongs_def": "Chaggijah, un israélite",
    "xlit": "Chaggîyâh"
}