{
    "derivation": "une racine primitive ;",
    "frequency": 44,
    "kjv_def": "pouvoir revêtir, craindre, désigner, ceindre, retenir, [idiome] de tous côtés.",
    "lemma": "חָגַר",
    "outline": "<ol><li> se ceindre, s'attacher, se ceinturer, mettre une ceinture<ol><li> (Qal)<ol><li> s'attacher</li><li> se ceindre, s'attacher</li><li> se ceindre</li></ol></li></ol></li></ol>",
    "pron": "khaw-gar'",
    "strongs_def": "se ceindre (d'une ceinture, d'une armure, etc.)",
    "xlit": "châgar"
}