{
    "derivation": "de H1 (אָב) et H622 (אָסַף) ; père de la cueillette (c'est-à-dire cueilleur) ;",
    "frequency": 1,
    "kjv_def": "Abiasaph.",
    "lemma": "אֲבִיאָסָף",
    "outline": "<span class=\"literal-meaning\">Abiasaph = &quot;mon père a rassemblé&quot;.</span><ol><li> fils (descendant) de Koré</li></ol>",
    "pron": "ab-ee-aw-sawf'",
    "strongs_def": "Abiasaph, un Israélite",
    "xlit": "ʼĂbîyʼâçâph"
}