{
    "derivation": "une racine primitive ;",
    "frequency": "",
    "kjv_def": "être féroce, aiguiser.",
    "lemma": "חָדַד",
    "outline": "",
    "pron": "khaw-dad'",
    "strongs_def": "être (causalement, rendre) tranchant ou (figurativement) sévère",
    "xlit": "châdad"
}