{
    "derivation": "de H2318 (חָדַשׁ) ;",
    "frequency": 53,
    "kjv_def": "une chose fraîche et nouvelle.",
    "lemma": "חָדָשׁ",
    "outline": "<ol><li> nouveau, nouvelle chose, frais</li></ol>",
    "pron": "khaw-dawsh'",
    "strongs_def": "nouveau",
    "xlit": "châdâsh"
}