{
    "derivation": "de H2318 (חָדַשׁ) ;",
    "frequency": 283,
    "kjv_def": "mois(-ly), nouvelle lune.",
    "lemma": "חֹדֶשׁ",
    "outline": "<ol><li> la nouvelle lune, le mois, le mensuel<ol><li> le premier jour du mois</li><li> le mois lunaire</li></ol></li></ol>",
    "pron": "kho'-desh",
    "strongs_def": "la nouvelle lune ; implicitement, un mois",
    "xlit": "chôdesh"
}