{
    "derivation": "peut-être le même que H2336 (חוֹחַ) ;",
    "frequency": 0,
    "kjv_def": "un fourré.",
    "lemma": "חָוָח",
    "outline": "<ol><li> rocher, crevasse (une cachette)</li></ol>",
    "pron": "khaw-vawkh'",
    "strongs_def": "une cavité ou une crevasse (comme si elle était percée dans la terre)",
    "xlit": "châvâch"
}