{
    "derivation": "proprement, identique à H2332 (חַוָּה) (qui donne la vie, c'est-à-dire le lieu de vie) ;",
    "frequency": "",
    "kjv_def": "(petite) ville.",
    "lemma": "חַוָּה",
    "outline": "",
    "pron": "khav-vaw'",
    "strongs_def": "par implication, un campement ou un village",
    "xlit": "chavvâh"
}