{
    "derivation": "une racine primitive ;",
    "frequency": 4,
    "kjv_def": "mettre en avant.",
    "lemma": "חוּד",
    "outline": "<ol><li> (Qal) Proposer une énigme, proposer une énigme</li></ol>",
    "pron": "khood",
    "strongs_def": "proprement, faire un nœud, c'est-à-dire (au sens figuré) proposer une énigme",
    "xlit": "chûwd"
}