{
    "derivation": "une racine primitive ; (comparer H2324 (חֲוָא), H2421 (חָיָה)) ;",
    "frequency": 6,
    "kjv_def": "montrer.",
    "lemma": "חָוָה",
    "outline": "<ol><li> (Piel) dire, déclarer, montrer, faire connaître</li><li> (CLBL) respirer</li></ol>",
    "pron": "khaw-vah'",
    "strongs_def": "proprement, vivre ; implicitement (de manière intensive) déclarer ou montrer",
    "xlit": "châvâh"
}