{
    "derivation": "de H2142 (זָכַר) ;",
    "frequency": 7,
    "kjv_def": "mémorial.",
    "lemma": "אַזְכָּרָה",
    "outline": "<ol><li> l'offrande commémorative, la partie de l'offrande de repas (nourriture) qui est brûlée</li></ol>",
    "pron": "az-kaw-raw'",
    "strongs_def": "un rappel ; spécifiquement une offrande de souvenir",
    "xlit": "ʼazkârâh"
}