{
    "derivation": "identique à H2353 (חוּר) ou H2352 (חוּר) ;",
    "frequency": 15,
    "kjv_def": "Hur.",
    "lemma": "חוּר",
    "outline": "<span class=\"literal-meaning\">Hur = &quot;trou&quot;</span><ol><li> un assistant principal de Moïse et Aaron</li><li> grand-père de Bezaleel, l'artificier en chef du tabernacle ; peut-être le même que le 1 ci-dessus</li><li> le 4ème des 5 rois de Madian qui furent tués avec Balaam après Peor</li><li> père de Réphaïa au temps de Néhémie</li><li> père de Ben-Hur qui était officier de l'intendance pour Salomon au Mont Ephraïm</li></ol>",
    "pron": "khoor",
    "strongs_def": "Chur, le nom de quatre Israélites et d'un Madianite",
    "xlit": "Chûwr"
}