{
    "derivation": "une racine primitive ;",
    "frequency": 6,
    "kjv_def": "échouer, errer, aller et venir (mais dans Ezéchiel 27:19 le mot est rendu par beaucoup \"d'Uzal\", par d'autres \"fil\"), être parti (dépensé).",
    "lemma": "אָזַל",
    "outline": "<ol><li> aller, s'en aller, aller et venir<ol><li> (Qal)<ol><li> s'en aller</li><li> aller et venir</li><li> s'épuiser, être épuisé, disparaître, s'évaporer</li></ol><li> (Pual) aller et venir</li></ol></li></ol>",
    "pron": "aw-zal'",
    "strongs_def": "s'en aller, donc disparaître",
    "xlit": "ʼâzal"
}