{
    "derivation": "(araméen) identique à H235 (אָזַל) ;",
    "frequency": 7,
    "kjv_def": "aller (monter).",
    "lemma": "אֲזַל",
    "outline": "<ol><li> partir, s'en aller<ol><li> (P'al) partir, s'en aller</li></ol></li></ol>",
    "pron": "az-al'",
    "strongs_def": "de partir",
    "xlit": "ʼăzal"
}