{
    "derivation": "de H235 (אָזַל) ; départ ;",
    "frequency": 1,
    "kjv_def": "Ezel.",
    "lemma": "אֶזֶל",
    "outline": "<span class=\"literal-meaning\">Ezel = &quot; départ &quot;.</span><ol><li> une pierre commémorative entre Rama et Nob ; scène du dernier adieu entre David et Jonathan</li></ol>",
    "pron": "eh'-zel",
    "strongs_def": "Ezel, une pierre commémorative en Palestine",
    "xlit": "ʼezel"
}