{
    "derivation": "une racine primitive ;",
    "frequency": 51,
    "kjv_def": "contempler, regarder, prophétiser, prévoir, voir.",
    "lemma": "חָזָה",
    "outline": "<ol><li> voir, percevoir, regarder, contempler, prophétiser, fournir<ol><li> (Qal)<ol><li> voir, contempler</li><li> voir comme un voyant dans l'état extatique</li><li> voir, percevoir<ol><li> avec l'intelligence</li><li> voir (par expérience)</li><li> fournir</li></ol></li></ol></li></ol></li></ol>",
    "pron": "khaw-zaw'",
    "strongs_def": "regarder ; percevoir mentalement, contempler (avec plaisir) ; plus précisément, avoir une vision de..",
    "xlit": "châzâh"
}