{
    "derivation": "de H2372 (חָזָה) ; voyant ;",
    "frequency": 1,
    "kjv_def": "Hazo.",
    "lemma": "חֲזוֹ",
    "outline": "<span class=\"literal-meaning\">Hazo = &quot;vision</span><ol><li> fils de Nahor par sa femme Milcah</li></ol>",
    "pron": "khaz-o'",
    "strongs_def": "Chazo, un neveu d'Abraham",
    "xlit": "Chăzôw"
}