{
    "derivation": "de H2372 (חָזָה) ;",
    "frequency": 35,
    "kjv_def": "vision.",
    "lemma": "חָזוֹן",
    "outline": "<ol><li> vision<ol><li> vision (en état d'extase)</li><li> vision (dans la nuit)</li><li> vision, oracle, prophétie (communication divine)</li><li> vision (comme titre du livre de la prophétie)</li></ol></li></ol>",
    "pron": "khaw-zone'",
    "strongs_def": "une vision (mentale), c'est-à-dire un rêve, une révélation ou un oracle",
    "xlit": "châzôwn"
}