{
    "derivation": "à partir d'une racine inutilisée signifiant probablement \"enfermer\" ;",
    "frequency": 7,
    "kjv_def": "sanglier, porc.",
    "lemma": "חֲזִיר",
    "outline": "<ol><li> porc, porcine, sanglier<ol><li> le porc (en tant que nourriture interdite)</li><li> sanglier</li></ol></li></ol>",
    "pron": "khaz-eer'",
    "strongs_def": "un porc (peut-être tel qu'enclos)",
    "xlit": "chăzîyr"
}