{
    "derivation": "de H2388 (חָזַק) ;",
    "frequency": 56,
    "kjv_def": "plus dur, plus chaud, [phrase] impudent, fort, puissant, endolori, raide (-cœur), fort (-er).",
    "lemma": "חָזָק",
    "outline": "<ol><li> fort, robuste, puissant<ol><li> fort<ol><li> sévère, tranchant, chaud</li><li> ferme, dur</li></ol><li> un fort (substantif)</li></ol></li></ol>",
    "pron": "khaw-zawk'",
    "strongs_def": "fort (usu. dans un mauvais sens, dur, audacieux, violent)",
    "xlit": "châzâq"
}