{
    "derivation": "une racine primitive ;",
    "frequency": 290,
    "kjv_def": "aider, amender, [idiome] calquer, attraper, s'accrocher, confirmer, être constant, contraindre, continuer, avoir bon (prendre) courage (-ous, -ly), encourager (soi), être établi, fixer, fortifier, rendre dur, durcir, aider, (poser) tenir (vite), s'appuyer, maintenir, jouer l'homme, réparer, devenir (cirer) puissant, prévaloir, être récupéré, réparer, retenir, saisir, être (cirer) endolori, renforcer (soi), être robuste, être (faire, montrer, cirer) fort(-er), être sûr, prendre (tenir), être urgent, se comporter vaillamment, résister.",
    "lemma": "חָזַק",
    "outline": "<ol><li> se renforcer, vaincre, s'endurcir, être fort, devenir fort, être courageux, être ferme, devenir ferme, être résolu, être endurci<ol><li> (Qal)<ol><li> être fort, devenir fort<ol><li> prévaloir, l'emporter sur</li><li> être ferme, être pris rapidement, être en sécurité</li><li> presser, être urgent</li><li> s'endurcir, se rigidifier, se durcir (mauvais sens)</li><li> être sévère, avoir de la peine</li></ol><li> renforcer</li></ol><li>(Piel)<ol><li> rendre fort</li><li> pour restaurer la force, donner de la force</li><li> pour renforcer, soutenir, encourager</li><li> pour rendre fort, rendre audacieux, encourager</li><li> pour rendre ferme</li><li> pour rendre rigide, rendre dur</li></ol><li>(Hiphil)<ol><li> pour rendre fort, renforcer</li><li> pour rendre ferme</li><li> pour montrer la force</li><li> pour rendre sévère</li><li> pour soutenir</li><li> pour réparer</li><li> pour prévaloir, l'emporter sur</li><li> pour avoir ou prendre ou garder la main de, retenir, tenir, soutenir, soutenir</li><li> pour tenir, contenir</li></ol><li> (Hithpael)<ol><li> pour se renforcer</li><li> pour mettre en avant la force, utiliser sa force</li><li> pour résister</li><li> pour tenir fermement avec</li></ol></li></li></li> </ol></li></ol>",
    "pron": "khaw-zak'",
    "strongs_def": "s'attacher ; de là, saisir, être fort (au sens figuré, courageux, au sens causal renforcer, guérir, aider, réparer, fortifier), obstiné ; lier, retenir, conquérir",
    "xlit": "châzaq"
}