{
    "derivation": "de H2398 (חָטָא) ;",
    "frequency": 34,
    "kjv_def": "faute, [idiome] gravement, offense, (punition du) péché.",
    "lemma": "חֵטְא",
    "outline": "<ol><li> péché<ol><li> péché</li><li> culpabilité pour le péché</li><li> punition pour le péché</li></ol></li></ol>",
    "pron": "khate",
    "strongs_def": "un crime ou sa sanction",
    "xlit": "chêṭᵉʼ"
}