{
    "derivation": "féminin de H2391 (חֵזֶק) ;",
    "frequency": 4,
    "kjv_def": "strength(-en self), (était) fort.",
    "lemma": "חֶזְקָה",
    "outline": "<ol><li> force, fort, être fort, force</li></ol>",
    "pron": "khez-kaw'",
    "strongs_def": "pouvoir dominant",
    "xlit": "chezqâh"
}