{
    "derivation": "une racine primitive ;",
    "frequency": 3,
    "kjv_def": "attrape.",
    "lemma": "חָטַף",
    "outline": "<ol><li> (Qal) attraper, saisir</li></ol>",
    "pron": "khaw-taf'",
    "strongs_def": "s'agripper ; de là, saisir comme aprisoner",
    "xlit": "châṭaph"
}