{
    "derivation": "(araméen) ou חֲיָה ; (araméen), correspondant à H2421 (חָיָה) ;",
    "frequency": 6,
    "kjv_def": "vivre, rester en vie.",
    "lemma": "חֲיָא",
    "outline": "<ol><li> vivre<ol><li> (P'al) vivre</li><li> (Aphel) laisser vivre, garder en vie</li></ol></li></ol>",
    "pron": "khah-yaw'",
    "strongs_def": "pour vivre",
    "xlit": "chăyâʼ"
}