{
    "derivation": "de H2421 (חָיָה) ;",
    "frequency": 1,
    "kjv_def": "[idiome] vivre.",
    "lemma": "חַיּוּת",
    "outline": "<ol><li> vivant</li></ol>",
    "pron": "khah-yooth'",
    "strongs_def": "vie",
    "xlit": "chayûwth"
}