{
    "derivation": "de H2342 (חוּל) ;",
    "frequency": 224,
    "kjv_def": "capable, activité, ([phrase]) armée, bande d'hommes (soldats), compagnie, (grandes) forces, biens, hôte, puissance, pouvoir, richesse, force, substance, train, ([phrase]) vaillant(-ly), vaillance, vertueux(-ly), guerre, digne(-ily).",
    "lemma": "חַיִל",
    "outline": "<ol><li> force, puissance, efficacité, richesse, armée<ol><li> force</li><li> capacité, efficacité</li><li> richesse</li><li> force, armée</li></ol></li></ol>",
    "pron": "khah'-yil",
    "strongs_def": "probablement une force, qu'il s'agisse d'hommes, de moyens ou d'autres ressources ; une armée, une richesse, une vertu, une valeur, une force",
    "xlit": "chayil"
}