{
    "derivation": "(araméen) correspondant à H2428 (חַיִל) ;",
    "frequency": 7,
    "kjv_def": "à haute voix, armée, [idiome] le plus (puissant), pouvoir.",
    "lemma": "חַיִל",
    "outline": "<ol><li> force, armée, puissance<ol><li> puissance</li><li> force, armée</li></ol></li></ol>",
    "pron": "khah'-yil",
    "strongs_def": "une armée, ou une force",
    "xlit": "chayil"
}