{
    "derivation": "de H2434 (חַיִץ) ;",
    "frequency": 25,
    "kjv_def": "extérieur, vers l'extérieur, sans, sans.",
    "lemma": "חִיצוֹן",
    "outline": "<ol><li> extérieur, externe, extérieur</li></ol>",
    "pron": "khee-tsone'",
    "strongs_def": "proprement, le côté du mur (extérieur) ; donc, extérieur ; au sens figuré, séculier (par opposition à sacré)",
    "xlit": "chîytsôwn"
}