{
    "derivation": "ou חִירוֹםlemma חִירֹם vav manquant, corrigé en חִירוֹם ; une autre forme de H2361 (חוּרָם) ;",
    "frequency": 25,
    "kjv_def": "Hiram, Huram.",
    "lemma": "חִירָם",
    "outline": "<span class=\"literal-meaning\">Hiram, Huram = &quot; noble &quot;.</span><ol><li> le roi de Tyr qui a envoyé des ouvriers et des matériaux à Jérusalem pour construire le palais de David et le temple de Salomon</li><li> l'architecte et ingénieur en chef du temple de Salomon envoyé par le roi Hiram à Salomon</li></ol>",
    "pron": "khee-rawm'",
    "strongs_def": "Chiram ou Chirom, le nom de deux Tyriens",
    "xlit": "Chîyrâm"
}