{
    "derivation": "de même que H2447 (חַכְלִיל) ; sombre ;",
    "frequency": 3,
    "kjv_def": "Hachilah.",
    "lemma": "חֲכִילָה",
    "outline": "<span class=\"literal-meaning\">Hachilah = &quot;sombre&quot;</span><ol><li> une colline au sud de Juda, à la limite du désert de Ziph</li></ol>",
    "pron": "khak-ee-law'",
    "strongs_def": "Chakilah, une colline en Palestine",
    "xlit": "Chăkîylâh"
}