{
    "derivation": "une racine primitive (comparer H2470 (חָלָה)) ;",
    "frequency": 1,
    "kjv_def": "être malade.",
    "lemma": "חָלָא",
    "outline": "<ol><li> (Qal) souffrir, être malade, être atteint d'une maladie</li></ol>",
    "pron": "khaw-law'",
    "strongs_def": "être malade",
    "xlit": "châlâʼ"
}