{
    "derivation": "identique à H2457 (חֶלְאָה) ;",
    "frequency": 2,
    "kjv_def": "Helah.",
    "lemma": "חֶלְאָה",
    "outline": "<span class=\"literal-meaning\">Helah = &quot;rouille&quot;</span><ol><li> une des deux épouses d'Ashur, père de Tekoah</li></ol>",
    "pron": "khel-aw'",
    "strongs_def": "Chelah, une Israélienne",
    "xlit": "Chelʼâh"
}