{
    "derivation": "(araméen) correspondant à H2451 (חׇכְמָה) ;",
    "frequency": 8,
    "kjv_def": "sagesse.",
    "lemma": "חׇכְמָה",
    "outline": "<ol><li> sagesse</li></ol>",
    "pron": "khok-maw'",
    "strongs_def": "sagesse",
    "xlit": "chokmâh"
}