{
    "derivation": "de H2449 (חָכַם) ;",
    "frequency": 149,
    "kjv_def": "habile, sagesse, sagement, esprit.",
    "lemma": "חׇכְמָה",
    "outline": "<ol><li> sagesse<ol><li> l'habileté (dans la guerre)</li><li> sagesse (dans l'administration)</li><li> sagacité, sagesse</li><li> sagesse, prudence (dans les affaires religieuses)</li><li> sagesse (éthique et religieuse)</li></ol></li></ol>",
    "pron": "khok-maw'",
    "strongs_def": "la sagesse (dans le bon sens du terme)",
    "xlit": "chokmâh"
}