{
    "derivation": "d'une racine inutilisée signifiant apparemment glisser rapidement ;",
    "frequency": 5,
    "kjv_def": "l'âge, le temps court, le monde.",
    "lemma": "חֶלֶד",
    "outline": "<ol><li> l'âge, la durée de la vie, le monde</li></ol>",
    "pron": "kheh'-led",
    "strongs_def": "la vie (en tant que partie éphémère du temps) ; par conséquent, le monde (en tant que transitoire)",
    "xlit": "cheled"
}