{
    "derivation": "féminin de H2467 (חֹלֶד) ;",
    "frequency": 2,
    "kjv_def": "Huldah.",
    "lemma": "חֻלְדָּה",
    "outline": "<span class=\"literal-meaning\">Huldah = &quot; belette &quot;.</span><ol><li> prophétesse de l'époque de Josias à qui Josias demanda un avis autorisé sur le livre de la loi que Hilkija avait trouvé</li></ol>",
    "pron": "khool-daw'",
    "strongs_def": "Chuldah, une israélite",
    "xlit": "Chuldâh"
}