{
    "derivation": "de même que H2465 (חֶלֶד) ;",
    "frequency": 1,
    "kjv_def": "belette.",
    "lemma": "חֹלֶד",
    "outline": "<ol><li> belette, taupe<ol><li> peut-être un animal éteint, signification exacte inconnue</li></ol></li></ol>",
    "pron": "kho'-led",
    "strongs_def": "une belette (d'après son mouvement de glissement)",
    "xlit": "chôled"
}