{
    "derivation": "de même que H2459 (חֶלֶב) ;",
    "frequency": 44,
    "kjv_def": "[phrase] fromage, lait, succion.",
    "lemma": "חָלָב",
    "outline": "<ol><li> lait, lait aigre, fromage<ol><li> lait</li><li> abondance de la terre (métaph.)</li><li> blanc (comme le lait)</li></ol></li></ol>",
    "pron": "khaw-lawb'",
    "strongs_def": "le lait (comme la richesse de la vigne)",
    "xlit": "châlâb"
}