{
    "derivation": "de H2498 (חָלַף) ;",
    "frequency": 1,
    "kjv_def": "la destruction.",
    "lemma": "חֲלוֹף",
    "outline": "<ol><li> destruction, disparaître, s'évanouir, voué à la destruction</li></ol>",
    "pron": "khal-ofe'",
    "strongs_def": "proprement, survivant ; par implication (collectivement) orphelins",
    "xlit": "chălôwph"
}