{
    "derivation": "identique à H2481 (חֲלִי) ;",
    "frequency": 1,
    "kjv_def": "Hali.",
    "lemma": "חֲלִי",
    "outline": "<span class=\"literal-meaning\">Hali = &quot;collier&quot;</span><ol><li> une ville sur la frontière d'Asher entre Helkath et Beten</li></ol>",
    "pron": "khal-ee'",
    "strongs_def": "Chali, un lieu en Palestine",
    "xlit": "Chălîy"
}