{
    "derivation": "de H2490 (חָלַל) ;",
    "frequency": 6,
    "kjv_def": "tuyau.",
    "lemma": "חָלִיל",
    "outline": "<ol><li> pipe, flûte</li></ol>",
    "pron": "khaw-leel'",
    "strongs_def": "une flûte (comme perforée)",
    "xlit": "châlîyl"
}