{
    "derivation": "une racine primitive ;",
    "frequency": 28,
    "kjv_def": "abolir, modifier, changer, couper, aller de l'avant, grandir, être fini, passer (loin, sur, à travers), renouveler, germer, percer.",
    "lemma": "חָלַף",
    "outline": "<ol><li> passer sur ou loin, passer à travers, passer par, passer à travers, grandir, changer, continuer à partir de<ol><li> (Qal)<ol><li> passer rapidement</li><li> disparaître (s'évanouir)</li><li> se renouveler, germer à nouveau (de l'herbe)</li><li> passer à travers</li><li> dépasser, transgresser</li></ol><li> (Piel) faire passer, changer</li><li> (Hiph)<ol><li> changer, substituer, modifier, changer pour le mieux, renouveler</li><li> pour montrer la nouveauté (de l'arbre)</li></ol></li></ol></li></ol>",
    "pron": "khaw-laf'",
    "strongs_def": "proprement, glisser, c'est-à-dire (implicitement) s'éloigner, passer, surgir, percer ou changer",
    "xlit": "châlaph"
}