{
    "derivation": "de H2428 (חַיִל) ; fort ;",
    "frequency": 5,
    "kjv_def": "Helon.",
    "lemma": "חֵלֹן",
    "outline": "<span class=\"literal-meaning\">Helon = &quot;force&quot;</span><ol><li> père d'Eliab de la tribu de Zabulon</li></ol>",
    "pron": "khay-lone'",
    "strongs_def": "Chelon, un Israélite",
    "xlit": "Chêlôn"
}