{
    "derivation": "(araméen) d'une racine correspondant à H2492 (חָלַם) ;",
    "frequency": 22,
    "kjv_def": "le rêve.",
    "lemma": "חֵלֶם",
    "outline": "<ol><li> rêve</li></ol>",
    "pron": "khay'-lem",
    "strongs_def": "un rêve",
    "xlit": "chêlem"
}