{
    "derivation": "de H1 (אָב) et H1391 (גִּבְעוֹן) ; père (c'est-à-dire fondateur) de Gibon ;",
    "frequency": "",
    "kjv_def": "père de Gibeon.",
    "lemma": "אֲבִי גִבְעוֹן",
    "outline": "",
    "pron": "ab-ee' ghib-one'",
    "strongs_def": "Abi-Gibon, peut-être un israélite",
    "xlit": "ʼĂbîy Gibʻôwn"
}