{
    "derivation": "de H2498 (חָלַף) ;",
    "frequency": 2,
    "kjv_def": "[idiome] pour.",
    "lemma": "חֵלֶף",
    "outline": "<ol><li> en échange de (seulement construire)</li><li> en échange de</li></ol>",
    "pron": "klay'-lef",
    "strongs_def": "proprement, échanger ; d'où (comme préposition) au lieu de",
    "xlit": "chêleph"
}