{
    "derivation": "de H2505 (חָלַק) ;",
    "frequency": 1,
    "kjv_def": "lisse.",
    "lemma": "חַלֻּק",
    "outline": "<ol><li> lisse</li></ol>",
    "pron": "khal-look'",
    "strongs_def": "lisse",
    "xlit": "challuq"
}