{
    "derivation": "féminin de H2512 (חַלֻּק) ;",
    "frequency": 1,
    "kjv_def": "division.",
    "lemma": "חֲלֻקָּה",
    "outline": "<ol><li> division, partie, portion</li></ol>",
    "pron": "khal-ook-kaw'",
    "strongs_def": "une distribution",
    "xlit": "chăluqqâh"
}