{
    "derivation": "un mot primitif ;",
    "frequency": 630,
    "kjv_def": "autre, frère(-ly) ; parent, semblable, autre. Comparez également les noms propres commençant par \"Ah-\" ou \"Ahi-\".",
    "lemma": "אָח",
    "outline": "<ol><li> frère<ol><li> frère de mêmes parents</li><li> demi-frère (même père)</li><li> parent, parenté, même tribu</li><li> l'un pour l'autre (relation réciproque)</li><li> (fig.) de ressemblance</li></ol></li></ol>",
    "pron": "awkh",
    "strongs_def": "un frère (utilisé dans le sens le plus large de relation littérale et d'affinité ou de ressemblance métaphorique (comme le père))",
    "xlit": "ʼâch"
}