{
    "derivation": "de H2552 (חָמַם) ;",
    "frequency": 14,
    "kjv_def": "chauffer, être chaud (tiède).",
    "lemma": "חֹם",
    "outline": "<ol><li> chaleur, chaud</li></ol>",
    "pron": "khome",
    "strongs_def": "chaleur",
    "xlit": "chôm"
}