{
    "derivation": "ou (Daniel 11:44) חֵמָא ; de H3179 (יָחַם) ;",
    "frequency": 122,
    "kjv_def": "colère, bouteilles, chaud déplaisir, furieux(-ly, -ry), chaleur, indignation, poison, rage, courroux(-ful). Voir H2529 (חֶמְאָה).",
    "lemma": "חֵמָה",
    "outline": "<ol><li> chaleur, rage, chaud déplaisir, indignation, colère, courroux, poison, bouteilles<ol><li> chaleur<ol><li> fièvre</li><li> venin, poison (fig.)</li></ol><li> colère brûlante, rage</li></ol></li></ol>",
    "pron": "khay-maw'",
    "strongs_def": "chaleur ; au sens figuré, colère, poison (de par sa fièvre)",
    "xlit": "chêmâh"
}