{
    "derivation": "de H2556 (חָמֵץ) ;",
    "frequency": 1,
    "kjv_def": "propre.",
    "lemma": "חָמִיץ",
    "outline": "<ol><li> chevronné</li></ol>",
    "pron": "khaw-meets'",
    "strongs_def": "assaisonné, c'est-à-dire la provende salée",
    "xlit": "châmîyts"
}