{
    "derivation": "ou חֲמִשִּׁי ; ordinal de H2568 (חָמֵשׁ) ;",
    "frequency": 45,
    "kjv_def": "cinquième (partie).",
    "lemma": "חֲמִישִׁי",
    "outline": "<ol><li> nombre ordinal, 5ème</li></ol>",
    "pron": "kham-ee-shee'",
    "strongs_def": "cinquième ; également un cinquième",
    "xlit": "chămîyshîy"
}