{
    "derivation": "de H2556 (חָמֵץ) ;",
    "frequency": 1,
    "kjv_def": "opprimée.",
    "lemma": "חָמוֹץ",
    "outline": "<ol><li> l'oppresseur, l'impitoyable</li></ol>",
    "pron": "khaw-motse'",
    "strongs_def": "proprement, violent ; implicitement, un voleur",
    "xlit": "châmôwts"
}