{
    "derivation": "le même que H2543 (חֲמוֹר) ; âne ;",
    "frequency": 13,
    "kjv_def": "Hamor.",
    "lemma": "חֲמוֹר",
    "outline": "<span class=\"literal-meaning\">Hamor = &quot;he-ass&quot;</span><ol><li> le prince hivite de la ville de Sichem lorsque Jacob est entré en Palestine</li></ol>",
    "pron": "kham-ore'",
    "strongs_def": "Chamor, un Canaanite",
    "xlit": "Chămôwr"
}