{
    "derivation": "de H2559 (חָמַק) ;",
    "frequency": 1,
    "kjv_def": "joints.",
    "lemma": "חַמּוּק",
    "outline": "<ol><li> courbe, courbure</li></ol>",
    "pron": "kham-mook'",
    "strongs_def": "un emballage, c'est-à-dire des tiroirs",
    "xlit": "chammûwq"
}