{
    "derivation": "de H2560 (חָמַר) ; rouge ;",
    "frequency": 1,
    "kjv_def": "Amran.",
    "lemma": "חַמְרָן",
    "outline": "<span class=\"literal-meaning\">Amram = &quot;le peuple est exalté&quot; ou &quot;sa bave&quot;.</span><ol><li> le fils de Dishon, un descendant d'Esau</li></ol>",
    "pron": "kham-rawn'",
    "strongs_def": "Chamran, un Iduméen",
    "xlit": "Chamrân"
}