{
    "derivation": "peut-être une racine primitive ;",
    "frequency": 1,
    "kjv_def": "aller dans un sens ou dans l'autre.",
    "lemma": "אָחַד",
    "outline": "<ol><li> (Hithpael) aller dans un sens ou dans l'autre, être vif</li></ol>",
    "pron": "aw-khad'",
    "strongs_def": "unifier, c'est-à-dire (au sens figuré) rassembler (ses pensées)",
    "xlit": "ʼâchad"
}