{
    "derivation": "de dérivation incertaine ;",
    "frequency": 1,
    "kjv_def": "givre.",
    "lemma": "חֲנָמָל",
    "outline": "<ol><li> gelée, inondation, grésil (signification incertaine)<ol><li> ce qui a détruit les sycomores</li></ol></li></ol>",
    "pron": "khan-aw-mawl'",
    "strongs_def": "peut-être l'aphis ou le cloporte",
    "xlit": "chănâmâl"
}