{
    "derivation": "de H2580 (חֵן) ;",
    "frequency": 32,
    "kjv_def": "sans cause (coût, salaire), sans cause, ne coûte rien, gratuit (-ly), innocent, pour rien (nought, in vain).",
    "lemma": "חִנָּם",
    "outline": "<ol><li> gratuitement, pour rien, sans cause<ol><li> gratis, gratuitement, pour rien</li><li> sans but, en vain</li><li> gratuitement, sans raison, sans mérite</li></ol></li></ol>",
    "pron": "khin-nawm'",
    "strongs_def": "gratuit, c'est-à-dire sans coût, sans raison ou sans avantage",
    "xlit": "chinnâm"
}