{
    "derivation": "de H2610 (חָנֵף) ;",
    "frequency": 13,
    "kjv_def": "hypocrite(-ical).",
    "lemma": "חָנֵף",
    "outline": "<ol><li> hypocrite, impie, profane, hypocrite, irréligieux</li></ol>",
    "pron": "khaw-nafe'",
    "strongs_def": "souillé (c'est-à-dire avec le péché), impie",
    "xlit": "chânêph"
}