{
    "derivation": "de H2616 (חָסַד) ;",
    "frequency": 247,
    "kjv_def": "faveur, bonne action (-vie, -vie), gentillesse, (amour-) gentillesse, miséricordieux (gentillesse), pitié, pitié, reproche, chose méchante.",
    "lemma": "חֵסֵד",
    "outline": "<ol><li> la bonté, la gentillesse, la fidélité</li><li> un reproche, une honte</li></ol>",
    "pron": "kheh'-sed",
    "strongs_def": "bonté ; par implication (envers Dieu) piété ; rarement (par opposition) reproche, ou (sujet.) beauté",
    "xlit": "chêçêd"
}