{
    "derivation": "féminin de H2610 (חָנֵף) ;",
    "frequency": 1,
    "kjv_def": "blasphème.",
    "lemma": "חֲנֻפָה",
    "outline": "<ol><li> profanation, pollution, hypocrisie, impiété</li></ol>",
    "pron": "khan-oo-faw'",
    "strongs_def": "impiété",
    "xlit": "chănuphâh"
}