{
    "derivation": "une racine primitive ; (comparer H982 (בָּטַח))",
    "frequency": 37,
    "kjv_def": "avoir de l'espoir, se réfugier, (mettre) de la confiance.",
    "lemma": "חָסָה",
    "outline": "<ol><li> (Qal) chercher un refuge, fuir pour se protéger<ol><li> mettre sa confiance en (Dieu), se confier ou espérer en (Dieu) (fig.)</li></ol></li></ol>",
    "pron": "khaw-saw'",
    "strongs_def": "fuir pour se protéger ; au sens figuré, se confier",
    "xlit": "châçâh"
}