{
    "derivation": "de H2616 (חָסַד) ;",
    "frequency": 32,
    "kjv_def": "pieux (homme), bon, saint (un), miséricordieux, saint, (non) pieux.",
    "lemma": "חָסִיד",
    "outline": "<ol><li> fidèle, gentil, pieux, saint, saint, pieux<ol><li> gentil</li><li> pieux, pieux</li><li> fidèles (subst.)</li></ol></li></ol>",
    "pron": "khaw-seed'",
    "strongs_def": "correctement, aimable, c'est-à-dire (religieusement) pieux (un saint)",
    "xlit": "châçîyd"
}