{
    "derivation": "(araméen) correspondant à H2630 (חָסַן) ;",
    "frequency": "",
    "kjv_def": "posséder.",
    "lemma": "חֲסַן",
    "outline": "",
    "pron": "khas-an'",
    "strongs_def": "à tenir dans l'occupation",
    "xlit": "chăçan"
}