{
    "derivation": "une racine primitive ;",
    "frequency": "",
    "kjv_def": "mettre en place.",
    "lemma": "חָסַן",
    "outline": "",
    "pron": "khaw-san'",
    "strongs_def": "proprement, (être) compact ; implicitement, thésauriser",
    "xlit": "châçan"
}