{
    "derivation": "une racine primitive ;",
    "frequency": 9,
    "kjv_def": "(se) hâter, trembler.",
    "lemma": "חָפַז",
    "outline": "<ol><li> se dépêcher, fuir, se hâter, craindre, être terrifié<ol><li> (Qal) être pressé, être alarmé</li><li> (Niphal) être pressé</li></ol></li></ol>",
    "pron": "khaw-faz'",
    "strongs_def": "proprement, se lever soudainement, c'est-à-dire (implicitement) se hâter de partir, avoir peur",
    "xlit": "châphaz"
}