{
    "derivation": "une racine primitive (comparer H2644 (חָפָא), H2653 (חׇפַף)) ;",
    "frequency": 12,
    "kjv_def": "ceil, cover, overlay.",
    "lemma": "חָפָה",
    "outline": "<ol><li> recouvrir, superposer, lambriser, couvrir de planches ou de lambris<ol><li> (Qal) couvrir</li><li> (Niphal) être couvert</li><li> (Piel) couvrir, recouvrir</li></ol></li></ol>",
    "pron": "khaw-faw'",
    "strongs_def": "recouvrir ; implicitement, voiler, envelopper, protéger",
    "xlit": "châphâh"
}