{
    "derivation": "de H251 (אָח) ;",
    "frequency": 1,
    "kjv_def": "la fraternité.",
    "lemma": "אַחֲוָה",
    "outline": "<ol><li> fraternité, fraternité</li></ol>",
    "pron": "akh-av-aw'",
    "strongs_def": "fraternité",
    "xlit": "ʼachăvâh"
}