{
    "derivation": "de H2468 (חֻלְדָּה) ;",
    "frequency": 3,
    "kjv_def": "hâte.",
    "lemma": "חִפָּזוֹן",
    "outline": "<ol><li> à la hâte, en hâte, trépidation, vol précipité</li></ol>",
    "pron": "khip-paw-zone'",
    "strongs_def": "vol précipité",
    "xlit": "chippâzôwn"
}