{
    "derivation": "une racine primitive (peut-être plutôt la même que H2658 (חָפַר) par l'idée de détection) ;",
    "frequency": 17,
    "kjv_def": "être honteux, être confondu, être confondu (à la honte), venir (être mis à) la honte, apporter l'opprobre.",
    "lemma": "חָפֵר",
    "outline": "<ol><li> être honteux, être confondu, être abasourdi, se sentir abasourdi<ol><li> (Qal) être honteux, être abasourdi</li><li> (Hiphil) afficher la honte, démontrer la honte, causer l'embarras</li></ol></li></ol>",
    "pron": "khaw-fare'",
    "strongs_def": "rougir ; au sens figuré, être honteux, déçu ; au sens causal, avoir honte, faire des reproches",
    "xlit": "châphêr"
}