{
    "derivation": "de H2656 (חֵפֶץ) avec des suffixes ; mon plaisir (est) en elle ;",
    "frequency": "",
    "kjv_def": "Hephzi-bah.",
    "lemma": "חֶפְצִי בָּהּ",
    "outline": "",
    "pron": "khef-tsee'baw",
    "strongs_def": "Cheptsi-bah, un nom fantaisiste pour la Palestine",
    "xlit": "Chephtsîy bâhh"
}