{
    "derivation": "de H2651 (חֹפֶן) ; peut-être pugiliste ;",
    "frequency": 5,
    "kjv_def": "Hophni.",
    "lemma": "חׇפְנִי",
    "outline": "<span class=\"literal-meaning\">Hophni = &quot;pugiliste&quot;.</span><ol><li> l'un des deux fils d'Eli qui étaient prêtres à Silo et étaient connus pour leur brutalité et leur luxure ; leur péché a provoqué une malédiction contre la maison de leur père et ils ont été jugés par le Seigneur lorsqu'ils ont pris l'arche dans la bataille ; l'arche a été perdue et les deux frères ont été tués et Eli est mort lorsqu'il a entendu la nouvelle</li></ol>",
    "pron": "khof-nee'",
    "strongs_def": "Chophni, un Israélite",
    "xlit": "Chophnîy"
}