{
    "derivation": "une racine primitive ;",
    "frequency": 23,
    "kjv_def": "changer, (faire) diligence (recherche), se déséquilibrer, se cacher, chercher (pour, hors).",
    "lemma": "חָפַשׂ",
    "outline": "<ol><li> chercher, chercher, se faire chercher, se déguiser<ol><li> (Qal)<ol><li> chercher</li><li> penser, concevoir</li><li> chercher, tester</li></ol><li> (Niphal) être cherché, être exposé</li><li> (Piel) chercher, chercher à travers, chercher</li><li> (Pual) être cherché, être recherché</li><li> (Hithpael)<ol><li> se déguiser</li><li> pour se laisser chercher</li></ol></li></ol></li></ol>",
    "pron": "khaw-fas'",
    "strongs_def": "chercher ; causalement, se cacher (c'est-à-dire se laisser chercher), ou masquer",
    "xlit": "châphas"
}