{
    "derivation": "et חׇפְשִׁית ; de H2666 (חָפַשׁ) ; (avec H1004 (בַּיִת), un hôpital)",
    "frequency": 2,
    "kjv_def": "plusieurs.",
    "lemma": "חׇפְשׁוּת",
    "outline": "<ol><li> séparation, liberté</li></ol>",
    "pron": "khof-shooth'",
    "strongs_def": "prostration par la maladie",
    "xlit": "chophshûwth"
}