{
    "derivation": "peut-être de H251 (אָח) et H4325 (מַיִם) ; frère (c'est-à-dire voisin) de l'eau ;",
    "frequency": 1,
    "kjv_def": "Ahumai.",
    "lemma": "אֲחוּמַי",
    "outline": "<span class=\"literal-meaning\">Ahumai = &quot;un roseau d'eau : frère des eaux&quot;.</span><ol><li> petit-fils de Shobal, descendant de Juda</li></ol>",
    "pron": "akh-oo-mah'-ee",
    "strongs_def": "Achumai, un Israélite",
    "xlit": "ʼĂchûwmay"
}