{
    "derivation": "de H2674 (חָצוֹר) et une forme araméenne du féminin de H2319 (חָדָשׁ) (comparer H2323 (חֲדָת)) ;",
    "frequency": 1,
    "kjv_def": "Hazor, Hadattah (comme si c'était deux endroits).",
    "lemma": "חָצוֹר חֲדַתָּה",
    "outline": "<span class=\"literal-meaning\">Hazor-Hadattah = &quot; nouveau Hazor &quot;.</span><ol><li> une ville au sud de Juda ; Jos 15:25</li></ol>",
    "pron": "khaw-tsore' khad-attaw'",
    "strongs_def": "nouveau Chatsor, un lieu en Palestine",
    "xlit": "Châtsôwr Chădattâh"
}