{
    "derivation": "de H2666 (חָפַשׁ) ;",
    "frequency": 17,
    "kjv_def": "libre, liberté.",
    "lemma": "חׇפְשִׁי",
    "outline": "<ol><li> libre<ol><li> libre (de l'esclavage)</li><li> libre (d'impôts ou d'obligations)</li></ol></li></ol>",
    "pron": "khof-shee'",
    "strongs_def": "exempt (de servitude, d'impôt ou de soins)",
    "xlit": "chophshîy"
}