{
    "derivation": "une forme collatérale de H2683 (חֵצֶן), et signifiant la même chose",
    "frequency": "",
    "kjv_def": "bras, genoux.",
    "lemma": "חֹצֶן",
    "outline": "",
    "pron": "kho'tsen",
    "strongs_def": "{le sein (comme compris entre les bras)}",
    "xlit": "chôtsen"
}