{
    "derivation": "ou חַצֲצֹן תָּמָר ; de H2686 (חָצַץ) et H8558 (תָּמָר) ; division (c'est-à-dire peut-être rangée) du palmier ;",
    "frequency": "",
    "kjv_def": "Hazezon-tamar.",
    "lemma": "חַצְצוֹן תָּמָר",
    "outline": "",
    "pron": "khats-ets-one' taw-mawr'",
    "strongs_def": "Chatsetson-tamar, un lieu en Palestine",
    "xlit": "Chatsᵉtsôwn Tâmâr"
}