{
    "derivation": "par une variation orthographique pour H2696 (חֶצְרוֹן) ; fermeture ;",
    "frequency": 2,
    "kjv_def": "Hezro, Hezrai.",
    "lemma": "חֶצְרוֹ",
    "outline": "<span class=\"literal-meaning\">Hezro ou Hezrai = &quot;enfermé&quot;</span><ol><li> le Carme, l'un des 30 puissants guerriers de la garde de David</li></ol>",
    "pron": "khets-ro'",
    "strongs_def": "Chetsro, un Israélite",
    "xlit": "Chetsrôw"
}