{
    "derivation": "de H2691 (חָצֵר) et un dérivé de H5869 (עַיִן) ; village de sources ;",
    "frequency": 1,
    "kjv_def": "Hazar-enon.",
    "lemma": "חֲצַר עֵינוֹן",
    "outline": "<span class=\"literal-meaning\">Hazar-enan = &quot;village de sources&quot;.</span><ol><li> une ville sur la frontière nord-est de Canaan ; identique à 2704</li></ol>",
    "pron": "khats-ar' ay-none'",
    "strongs_def": "Chatsar-Enon, un lieu en Palestine",
    "xlit": "Chătsar ʻÊynôwn"
}