{
    "derivation": "d'une racine inutilisée (et vulgaire) signifiant probablement évacuer les intestins ;",
    "frequency": "",
    "kjv_def": "bouse. Aussi חֲרִי.",
    "lemma": "חֶרֶא",
    "outline": "",
    "pron": "kheh'-reh",
    "strongs_def": "excréments",
    "xlit": "chereʼ"
}