{
    "derivation": "ou (entièrement) חוֹר ; de H2787 (חָרַר) ; (comparez H2751 (חֹרִי))",
    "frequency": 13,
    "kjv_def": "noble.",
    "lemma": "חֹר",
    "outline": "<ol><li> un noble, un libre-né</li></ol>",
    "pron": "khore",
    "strongs_def": "proprement, blanc ou pur (du fait du pouvoir purificateur ou brillant du feu ; d'où (au sens figuré) noblesse (de rang))",
    "xlit": "chôr"
}