{
    "derivation": "de H2717 (חָרַב) ;",
    "frequency": 8,
    "kjv_def": "désolés, secs, déchets.",
    "lemma": "חָרֵב",
    "outline": "<ol><li> déchets, désolation, sécheresse</li></ol>",
    "pron": "khaw-rabe'",
    "strongs_def": "desséché ou ruiné",
    "xlit": "chârêb"
}