{
    "derivation": "féminin de H2720 (חָרֵב) ;",
    "frequency": 8,
    "kjv_def": "sec (sol, terre).",
    "lemma": "חָרָבָה",
    "outline": "<ol><li> terre sèche, sol sec</li></ol>",
    "pron": "khaw-raw-baw'",
    "strongs_def": "un désert",
    "xlit": "chârâbâh"
}