{
    "derivation": "une forme collatérale de H2719 (חֶרֶב) ;",
    "frequency": 16,
    "kjv_def": "désolation, sécheresse, sécheresse, chaleur, [idiome] complètement, gaspillage.",
    "lemma": "חֹרֶב",
    "outline": "<ol><li> sécheresse, désolation, sécheresse, chaleur<ol><li> sécheresse</li><li> sécheresse</li><li> chaleur desséchante</li></ol></li></ol>",
    "pron": "kho'-reb",
    "strongs_def": "la sécheresse ou la désolation",
    "xlit": "chôreb"
}