{
    "derivation": "féminin de H2721 (חֹרֶב) ;",
    "frequency": 42,
    "kjv_def": "endroit délabré, désolation (lieu, -tion), destruction, (mise) en ruine (lieu).",
    "lemma": "חׇרְבָּה",
    "outline": "<ol><li> un lieu abandonné, une ruine, un gâchis, une désolation</li></ol>",
    "pron": "khor-baw'",
    "strongs_def": "à proprement parler, une sécheresse, c'est-à-dire (implicitement) une désolation",
    "xlit": "chorbâh"
}