{
    "derivation": "identique à H2731 (חֲרָדָה) ;",
    "frequency": 2,
    "kjv_def": "Haradah.",
    "lemma": "חֲרָדָה",
    "outline": "<span class=\"literal-meaning\">Haradah = &quot; peur &quot;.</span><ol><li> une station d'Israël dans le désert ; site inconnu</li></ol>",
    "pron": "khar-aw-daw'",
    "strongs_def": "Charadah, un lieu dans le désert",
    "xlit": "Chărâdâh"
}