{
    "derivation": "ou חֲרִץ ; de H2782 (חָרַץ) ; (comparer H2742 (חֲרוּץ))",
    "frequency": "",
    "kjv_def": "[phrase] fromage, herse.",
    "lemma": "חָרִיץ",
    "outline": "",
    "pron": "khaw-reets'",
    "strongs_def": "proprement, incisure ou (passivement) incision ; d'où, une batteuse (avec des dents pointues) ; également une tranche (comme coupée)",
    "xlit": "chârîyts"
}