{
    "derivation": "de H2734 (חָרָה) ;",
    "frequency": 6,
    "kjv_def": "féroce, grand, chaleur.",
    "lemma": "חֳרִי",
    "outline": "<ol><li> chaleur (de la colère), brûlure (de la colère)</li></ol>",
    "pron": "khor-ee'",
    "strongs_def": "une colère ardente (c'est-à-dire intense)",
    "xlit": "chŏrîy"
}