{
    "derivation": "ou חָרִט ; de même que H2747 (חֶרֶט) ;",
    "frequency": 2,
    "kjv_def": "sac, broche à croustiller.",
    "lemma": "חָרִיט",
    "outline": "<ol><li> sac, sac à main</li></ol>",
    "pron": "khaw-reet'",
    "strongs_def": "proprement, découpé (ou creux), c'est-à-dire (implicitement) une poche",
    "xlit": "chârîyṭ"
}