{
    "derivation": "du pluriel de H2716 (חֶרֶא) et du pluriel de H3123 (יוֹנָה) ; ou peut-être plutôt du pluriel d'un seul mot חֲרָאיוֹן, probablement une sorte de légume",
    "frequency": 2,
    "kjv_def": "de la bouse de colombe.",
    "lemma": "חֲרֵי־יוֹנִים",
    "outline": "<ol><li> fumier, fumier de colombes</li></ol>",
    "pron": "khar-ay'-yo-neem'",
    "strongs_def": "excréments de colombes {ou un légume}",
    "xlit": "chărêy-yôwnîym"
}