{
    "derivation": "de même que H2353 (חוּר) ;",
    "frequency": 1,
    "kjv_def": "blanc.",
    "lemma": "חֹרִי",
    "outline": "<ol><li> pain blanc, gâteau</li><li> (TWOT) Horite, Hori</li></ol>",
    "pron": "kho-ree'",
    "strongs_def": "pain blanc",
    "xlit": "chôrîy"
}