{
    "derivation": "une variation de H272 (אֲחֻזָּה) ; possession ;",
    "frequency": 1,
    "kjv_def": "Ahuzzath.",
    "lemma": "אֲחֻזַּת",
    "outline": "<span class=\"literal-meaning\">Ahuzzath = &quot;possession&quot;</span><ol><li> ami d'Abimelech</li></ol>",
    "pron": "akh-ooz-zath'",
    "strongs_def": "Achuzzath, un Philistin",
    "xlit": "ʼĂchuzzath"
}