{
    "derivation": "de H2787 (חָרַר) ; desséché ;",
    "frequency": 12,
    "kjv_def": "Haran.",
    "lemma": "חָרָן",
    "outline": "<span class=\"literal-meaning\">Haran = &quot;montagnard&quot;</span><ol><li> un fils de Caleb par sa concubine Epha</li><li> ville vers laquelle Abraham a migré lorsqu'il a quitté Ur des Chaldéens et où il est resté jusqu'à la mort de son père avant de partir pour la terre promise ; située en Mésopotamie à Padan-Aram au pied du mont Masius entre le Khabour et l'Euphrate</li></ol>",
    "pron": "kaw-rawn'",
    "strongs_def": "Charan, le nom d'un homme et aussi d'un lieu",
    "xlit": "Chârân"
}