{
    "derivation": "de H2775 (חֶרֶס) (apparemment dans le sens d'une tuile rouge utilisée pour gratter) ;",
    "frequency": 1,
    "kjv_def": "est.",
    "lemma": "חַרְסוּת",
    "outline": "<ol><li> poterie</li></ol>",
    "pron": "khar-sooth'",
    "strongs_def": "un chaudron, c'est-à-dire (implicitement) une poterie ; le nom d'une porte à Jérusalem",
    "xlit": "charçûwth"
}