{
    "derivation": "de H2790 (חָרַשׁ) ;",
    "frequency": 4,
    "kjv_def": "sculpter, couper.",
    "lemma": "חֲרֹשֶׁת",
    "outline": "<ol><li> sculpture, travail habile</li></ol>",
    "pron": "khar-o'-sheth",
    "strongs_def": "travail mécanique",
    "xlit": "chărôsheth"
}