{
    "derivation": "de H251 (אָח) et H517 (אֵם) ; frère de la mère (c'est-à-dire oncle) ;",
    "frequency": 2,
    "kjv_def": "Ahiam.",
    "lemma": "אֲחִיאָם",
    "outline": "<span class=\"literal-meaning\">Ahiam = &quot; frère de la mère &quot;.</span><ol><li> un des guerriers (héros) de David</li></ol>",
    "pron": "akh-ee-awm'",
    "strongs_def": "Achiam, un Israélite",
    "xlit": "ʼĂchîyʼâm"
}