{
    "derivation": "de H2801 (חָרַת) (mais équivalent à H2793 (חֹרֶשׁ)) ; forêt ;",
    "frequency": 1,
    "kjv_def": "Hereth.",
    "lemma": "חֶרֶת",
    "outline": "<span class=\"literal-meaning\">Hareth = &quot;forêt</span><ol><li> une forêt dont le site est aujourd'hui inconnu</li></ol>",
    "pron": "kheh'-reth",
    "strongs_def": "Chereth, un fourré en Palestine",
    "xlit": "Chereth"
}