{
    "derivation": "de H2803 (חָשַׁב) et H1777 (דִּין) ; juge prévenant ;",
    "frequency": 1,
    "kjv_def": "Hasbadana.",
    "lemma": "חַשְׁבַּדָּנָה",
    "outline": "<span class=\"literal-meaning\">Hashbadana = &quot;juge prévenant&quot;.</span><ol><li> un des hommes qui se tenait à la gauche d'Esdras pendant qu'il lisait la loi au peuple</li></ol>",
    "pron": "khash-bad-daw'-naw",
    "strongs_def": "Chasbaddanah, un Israélite",
    "xlit": "Chashbaddânâh"
}