{
    "derivation": "de H2803 (חָשַׁב) ;",
    "frequency": 3,
    "kjv_def": "compte, dispositif, raison.",
    "lemma": "חֶשְׁבּוֹן",
    "outline": "<ol><li> compte, raisonnement, calcul</li></ol>",
    "pron": "khesh-bone'",
    "strongs_def": "à proprement parler, l'artifice ; implicitement, l'intelligence",
    "xlit": "cheshbôwn"
}