{
    "derivation": "(Araméen) une racine correspondant à H2826 (חָשַׁל) ;",
    "frequency": 1,
    "kjv_def": "soumettre.",
    "lemma": "חֲשַׁל",
    "outline": "<ol><li> (P'al) soumettre, écraser, briser</li></ol>",
    "pron": "khash-al'",
    "strongs_def": "affaiblir, c'est-à-dire écraser",
    "xlit": "chăshal"
}