{
    "derivation": "d'une racine inutilisée signifiant probablement contenir ou étinceler ;",
    "frequency": "",
    "kjv_def": "le plastron.",
    "lemma": "חֹשֶׁן",
    "outline": "",
    "pron": "kho'-shen",
    "strongs_def": "peut-être une poche (contenant l'Urim et le Thummim), ou riche (contenant des pierres précieuses), utilisée uniquement pour le gorget du grand prêtre",
    "xlit": "chôshen"
}