{
    "derivation": "de H2836 (חָשַׁק) ;",
    "frequency": 4,
    "kjv_def": "le désir, le plaisir.",
    "lemma": "חֵשֶׁק",
    "outline": "<ol><li> désir, chose désirée</li></ol>",
    "pron": "khay'-shek",
    "strongs_def": "plaisir",
    "xlit": "chêsheq"
}