{
    "derivation": "une racine primitive ;",
    "frequency": 11,
    "kjv_def": "mettre à nu, nettoyer, découvrir, tirer, prendre, découvrir.",
    "lemma": "חָשַׂף",
    "outline": "<ol><li> dépouiller, enlever, mettre à nu, rendre à nu, extraire<ol><li> (Qal)<ol><li> se dépouiller</li><li> dépouiller, mettre à nu</li><li> tirer (l'eau), écumer, prendre de la surface</li></ol></li></ol></li></ol>",
    "pron": "khaw-saf'",
    "strongs_def": "se dépouiller, c'est-à-dire généralement se mettre à nu (pour l'effort ou la disgrâce), drainer ou écoper (un liquide)",
    "xlit": "châsaph"
}