{
    "derivation": "par variation pour H7179 (קַשׁ) ;",
    "frequency": 2,
    "kjv_def": "la paille.",
    "lemma": "חָשַׁשׁ",
    "outline": "<ol><li> paille, herbe sèche</li></ol>",
    "pron": "khaw-shash'",
    "strongs_def": "l'herbe sèche",
    "xlit": "châshash"
}