{
    "derivation": "de H2865 (חָתַת) ; terreur ;",
    "frequency": 14,
    "kjv_def": "Heth.",
    "lemma": "חֵת",
    "outline": "<span class=\"literal-meaning\">Heth = &quot;terreur&quot;</span><ol><li> un fils de Canaan et le géniteur des Hittites</li></ol>",
    "pron": "khayth",
    "strongs_def": "Cheth, un autochtone cananéen",
    "xlit": "Chêth"
}