{
    "derivation": "de H2853 (חָתַל) ;",
    "frequency": 1,
    "kjv_def": "rouleau.",
    "lemma": "חִתּוּל",
    "outline": "<ol><li> bandage</li></ol>",
    "pron": "khit-tool'",
    "strongs_def": "enveloppé, c'est-à-dire un bandage",
    "xlit": "chittûwl"
}