{
    "derivation": "de H251 (אָח) et H2330 (חוּד) ; frère d'une énigme (c'est-à-dire mystérieux) ;",
    "frequency": 1,
    "kjv_def": "Ahihud.",
    "lemma": "אֲחִיחֻד",
    "outline": "<span class=\"literal-meaning\">Ahihud = &quot;frère de mystère&quot;</span><ol><li> un Benjamite, fils d'Ehud</li></ol>",
    "pron": "akh-ee-khood'",
    "strongs_def": "Achichud, un Israélite",
    "xlit": "ʼĂchîychud"
}