{
    "derivation": "une racine primitive ;",
    "frequency": 33,
    "kjv_def": "joindre par affinité, beau-père, faire des mariages, belle-mère, beau-fils.",
    "lemma": "חָתַן",
    "outline": "<ol><li> devenir un gendre, se faire le mari d'une fille<ol><li> (Qal) père de la femme, mère de la femme, beau-père, belle-mère (participe)</li><li> (Hithpael) se faire mari d'une fille</li></ol></li></ol>",
    "pron": "khaw-than'",
    "strongs_def": "donner (une fille) en mariage ; donc (généralement) contracter une affinité par mariage",
    "xlit": "châthan"
}