{
    "derivation": "de H2862 (חָתַף) ;",
    "frequency": 1,
    "kjv_def": "la proie.",
    "lemma": "חֶתֶף",
    "outline": "<ol><li> proie</li><li> (CLBL) voleur</li></ol>",
    "pron": "kheh'-thef",
    "strongs_def": "au sens propre, la rapine ; au sens figuré, le vol",
    "xlit": "chetheph"
}