{
    "derivation": "une racine primitive ;",
    "frequency": 51,
    "kjv_def": "abolir, effrayer, avoir (faire) peur, étonner, abattre, décourager, (faire) consterner, abattre, effrayer, terrifier.",
    "lemma": "חָתַת",
    "outline": "<ol><li> être brisé, être consterné, être brisé, être aboli, être effrayé<ol><li> (Qal)<ol><li> être brisé, être cassé</li><li> être consterné</li></ol><li> (Niphal) être brisé, être consterné</li><li> (Piel) être brisé, être consterné, être effrayé</li><li> (Hiphil)<ol><li> provoquer la consternation</li></ol></li>, être<li><ol><li> effrayé</li><li>, briser</li></ol></li></ol></li></ol>",
    "pron": "khaw-thath'",
    "strongs_def": "proprement, se prosterner ; de là, s'effondrer, soit (littéralement) par la violence, soit (figurativement) par la confusion et la peur",
    "xlit": "châthath"
}