{
    "derivation": "de H2895 (טוֹב) et H410 (אֵל) ; agréable (à) Dieu ;",
    "frequency": 2,
    "kjv_def": "Tabeal, Tabeel.",
    "lemma": "טָבְאֵל",
    "outline": "<span class=\"literal-meaning\">Tabeal = &quot;Dieu est bon</span><ol><li> un homme dont le fils était soit dans l'armée de Pékah, soit dans l'armée de Rézine et que Pékah et Rézine proposaient de faire roi d'Israël Tabeel = &quot;Dieu est bon&quot;.</li><li> officier du gouvernement perse à Samarie sous le règne d'Artaxerxès</li></ol>",
    "pron": "taw-beh-ale'",
    "strongs_def": "Tabeel, le nom d'un Syrien et d'un Persan",
    "xlit": "ṭâbᵉʼêl"
}