{
    "derivation": "pluriel de H2885 (טַבַּעַת) ; anneaux ;",
    "frequency": 2,
    "kjv_def": "Tabaoth.",
    "lemma": "טַבָּעוֹת",
    "outline": "<span class=\"literal-meaning\">Tabbaoth = &quot;anneaux&quot;</span><ol><li> une famille d'esclaves du temple qui est revenue d'exil avec Zerubbabel</li></ol>",
    "pron": "tab-baw-othe'",
    "strongs_def": "Tabbaoth, un des Nethinim",
    "xlit": "Ṭabbâʻôwth"
}