{
    "derivation": "probablement d'origine étrangère ;",
    "frequency": 1,
    "kjv_def": "Tebeth.",
    "lemma": "טֵבֶת",
    "outline": "<span class=\"literal-meaning\">Tebeth = &quot;bonté&quot;</span><ol><li> le 10e mois du calendrier juif, correspondant aux mois modernes de décembre et janvier</li></ol>",
    "pron": "tay'-beth",
    "strongs_def": "Tebeth, le dixième mois hébreu",
    "xlit": "Ṭêbeth"
}