{
    "derivation": "de H2896 (טוֹב) et H138 (אֲדֹנִיָּה) ; plaisant (à) Adonias ;",
    "frequency": "",
    "kjv_def": "Tob-adonijah.",
    "lemma": "טוֹב אֲדֹנִיָּהוּ",
    "outline": "",
    "pron": "tobe ado-nee-yah'-hoo",
    "strongs_def": "Tob-Adonias, un Israélite",
    "xlit": "Ṭôwb ʼĂdônîyâhûw"
}