{
    "derivation": "identique à H2896 (טוֹב) ; bon ;",
    "frequency": 4,
    "kjv_def": "Tob.",
    "lemma": "טוֹב",
    "outline": "<span class=\"literal-meaning\">Tob = &quot;bon&quot;</span><ol><li> une région à l'est du Jourdain, au nord ou au nord-est de Galaad, probablement araméenne, localisation incertaine</li></ol>",
    "pron": "tobe",
    "strongs_def": "Tob, une région située apparemment à l'est du Jourdain",
    "xlit": "Ṭôwb"
}