{
    "derivation": "une racine primitive ;",
    "frequency": 1,
    "kjv_def": "balayage.",
    "lemma": "טוּא",
    "outline": "<ol><li> (Pilpel) balayer, balayer au loin</li></ol>",
    "pron": "too",
    "strongs_def": "pour balayer",
    "xlit": "ṭûwʼ"
}