{
    "derivation": "de H2891 (טָהֵר) ;",
    "frequency": 2,
    "kjv_def": "clarté, gloire, purification.",
    "lemma": "טֹהַר",
    "outline": "<ol><li> pureté, purification, purifiant<ol><li> pureté</li><li> purification</li></ol><li> clarté, éclat</li></ol>",
    "pron": "to'-har",
    "strongs_def": "littéralement l'éclat ; cérémonieusement la purification",
    "xlit": "ṭôhar"
}