{
    "derivation": "d'une racine inutilisée signifiant contourner ou lier ;",
    "frequency": 3,
    "kjv_def": "frontlet.",
    "lemma": "טוֹפָפָה",
    "outline": "<ol><li> bandes, phylactères, frontlets, marques..</li></ol>",
    "pron": "to-faw-faw'",
    "strongs_def": "un filet pour le front",
    "xlit": "ṭôwphâphâh"
}