{
    "derivation": "de H251 (אָח) ; fraternel ;",
    "frequency": 1,
    "kjv_def": "Ahian.",
    "lemma": "אַחְיָן",
    "outline": "<span class=\"literal-meaning\">Ahian = &quot;fraternel&quot; ou &quot;fraternel&quot;.</span><ol><li> fils de Shemida de Manassé</li></ol>",
    "pron": "akh-yawn'",
    "strongs_def": "Achjan, un Israélite",
    "xlit": "ʼAchyân"
}