{
    "derivation": "une racine primitive ;",
    "frequency": 8,
    "kjv_def": "grind(-er).",
    "lemma": "טָחַן",
    "outline": "<ol><li> (Qal) broyer, écraser</li></ol>",
    "pron": "taw-khan'",
    "strongs_def": "moudre de la farine ; donc être aconcubine (c'est leur emploi)",
    "xlit": "ṭâchan"
}