{
    "derivation": "de H2930 (טָמֵא) ;",
    "frequency": 88,
    "kjv_def": "souillé, [phrase] infâme, pollué(-tion), impur.",
    "lemma": "טָמֵא",
    "outline": "<ol><li> souillés, impurs<ol><li> éthiquement et religieusement</li><li> rituellement</li><li> de lieux</li></ol></li></ol>",
    "pron": "taw-may'",
    "strongs_def": "immonde dans un sens religieux",
    "xlit": "ṭâmêʼ"
}