{
    "derivation": "une racine primitive ; ou peut-être un dénominatif de H2947 (טֵפַח), de dandiner sur les paumes",
    "frequency": 2,
    "kjv_def": "span, swaddle.",
    "lemma": "טָפַח",
    "outline": "<ol><li> s'étendre, se répandre, trébucher, faire des petits pas rapides<ol><li> (Piel)<ol><li> s'étendre</li><li> porter sur les paumes, manipuler</li><li> élever des enfants</li></ol></li></ol></li></ol>",
    "pron": "taw-fakh'",
    "strongs_def": "aplatir ou étendre (comme une tente) ; au sens figuré, nourrir un enfant (pour favoriser sa croissance) ;",
    "xlit": "ṭâphach"
}