{
    "derivation": "de H2952 (טָפַף) (peut-être en référence à la démarche trébuchante des enfants) ;",
    "frequency": 42,
    "kjv_def": "les (petits) enfants, les familles.",
    "lemma": "טַף",
    "outline": "<ol><li> enfants, petits enfants, petits</li></ol>",
    "pron": "taf",
    "strongs_def": "une famille (le plus souvent utilisée collectivement au singulier)",
    "xlit": "ṭaph"
}