{
    "derivation": "(Araméen) d'un nom de dérivation étrangère ;",
    "frequency": 1,
    "kjv_def": "Tarpelites. y",
    "lemma": "טַרְפְּלַי",
    "outline": "<span class=\"literal-meaning\">Tarpelites = &quot;ceux de la montagne déchue (ou merveilleuse)&quot;.</span><ol><li> le groupe de colons assyriens qui furent implantés dans les villes de Samarie après la captivité du royaume d'Israël du Nord ; identité incertaine</li></ol>",
    "pron": "tar-pel-ah'-ee",
    "strongs_def": "un Tarpelite (collectivement) ou les habitants de Tarpel, un lieu en Assyrie",
    "xlit": "Ṭarpᵉlay"
}