{
    "derivation": "d'une racine inutilisée signifiant apparemment interrompre ou suspendre ;",
    "frequency": 56,
    "kjv_def": "avant, avant, pas encore.",
    "lemma": "טֶרֶם",
    "outline": "<ol><li> avant, pas encore, avant que</li></ol>",
    "pron": "teh'-rem",
    "strongs_def": "proprement, la non-occurrence ; utilisé adverbialement, pas encore ou avant",
    "xlit": "ṭerem"
}