{
    "derivation": "de H857 (אָתָה) ;",
    "frequency": 1,
    "kjv_def": "entrée.",
    "lemma": "יְאִתוֹן",
    "outline": "<ol><li> entrée</li></ol>",
    "pron": "yeh-ee-thone'",
    "strongs_def": "une entrée",
    "xlit": "yᵉʼithôwn"
}