{
    "derivation": "d'origine égyptienne ;",
    "frequency": 65,
    "kjv_def": "ruisseau, inondation, rivière, ruisseau.",
    "lemma": "יְאֹר",
    "outline": "<ol><li> rivière, ruisseau, canal, Nil, canal du Nil<ol><li> ruisseau, rivière (Nil)</li><li> Bras du Nil, canaux du Nil</li><li> cours d'eau</li><li> puits (exploitation minière)</li><li> rivière (en général)</li></ol></li></ol>",
    "pron": "yeh-ore'",
    "strongs_def": "un canal, par exemple une fosse, un canal, un puits ; en particulier le Nil, en tant que fleuve unique de l'Égypte, y compris ses fossés collatéraux ; également le Tigre, en tant que principal fleuve de l'Assyrie",
    "xlit": "yᵉʼôr"
}