{
    "derivation": "une racine primitive ;",
    "frequency": 18,
    "kjv_def": "apporter (en avant), porter, mener (en avant).",
    "lemma": "יָבַל",
    "outline": "<ol><li> apporter, conduire, porter, conduire, emmener<ol><li> (Hiphil)<ol><li> porter, apporter</li><li> emporter, emmener</li><li> diriger, conduire</li></ol><li> (Hophal)<ol><li> être porté le long</li><li> être porté (à la tombe)</li><li> être amené, être conduit, être conduit</li></ol></li></ol></li></ol>",
    "pron": "yaw-bal'",
    "strongs_def": "proprement, couler ; causativement, apporter (surtout avec pompe)",
    "xlit": "yâbal"
}