{
    "derivation": "de H1129 (בָּנָה) et H3050 (יָהּ) ; construit de Jah ;",
    "frequency": 1,
    "kjv_def": "Ibneiah.",
    "lemma": "יִבְנְיָה",
    "outline": "<span class=\"literal-meaning\">Ibnéia = &quot;Constructeur de Jéhovah&quot;.</span><ol><li> un Benjamite, fils de Joram</li></ol>",
    "pron": "yib-neh-yaw'",
    "strongs_def": "Jibnejah, un israélite",
    "xlit": "Yibnᵉyâh"
}