{
    "derivation": "de H1129 (בָּנָה) et H3050 (יָהּ) ; bâtiment de Jah ;",
    "frequency": 1,
    "kjv_def": "Ibnijah.",
    "lemma": "יִבְנִיָּה",
    "outline": "<span class=\"literal-meaning\">Ibnija = &quot;celui que Jéhovah édifiera&quot;.</span><ol><li> un Benjamite</li></ol>",
    "pron": "yib-nee-yaw'",
    "strongs_def": "Jibnija, un Israélite",
    "xlit": "Yibnîyâh"
}