{
    "derivation": "de (l'orig. de) H2992 (יָבַם) ;",
    "frequency": "",
    "kjv_def": "le frère du mari.",
    "lemma": "יָבָם",
    "outline": "",
    "pron": "yaw-bawm'",
    "strongs_def": "un beau-frère",
    "xlit": "yâbâm"
}