{
    "derivation": "de H251 (אָח) et H7451 (רַע) ; frère de mal ;",
    "frequency": 5,
    "kjv_def": "Ahira.",
    "lemma": "אֲחִירַע",
    "outline": "<span class=\"literal-meaning\">Ahira = &quot;mon frère est mauvais&quot;</span><ol><li> un chef de Nephtali</li></ol>",
    "pron": "akh-ee-rah'",
    "strongs_def": "Achira, un Israélite",
    "xlit": "ʼĂchîyraʻ"
}