{
    "derivation": "(Araméen) correspondant à H3006 (יַבֶּשֶׁת) ;",
    "frequency": 1,
    "kjv_def": "terre.",
    "lemma": "יַבֶּשֶׁת",
    "outline": "<ol><li> la terre (en tant que planète)</li><li> la terre sèche</li></ol>",
    "pron": "yab-beh'-sheth",
    "strongs_def": "terre sèche",
    "xlit": "yabbesheth"
}