{
    "derivation": "de H1288 (בָרַךְ) et H3050 (יָהּ) ; béni de Jah ;",
    "frequency": 1,
    "kjv_def": "Jeberechiah.",
    "lemma": "יְבֶרֶכְיָהוּ",
    "outline": "<span class=\"literal-meaning\">Jeberechiah = &quot;l'Éternel bénit&quot;.</span><ol><li> père d'un Zacharie, sous le règne d'Achaz et à l'époque d'Isaïe</li></ol>",
    "pron": "yeb-eh-rek-yaw'-hoo",
    "strongs_def": "Jeberekjah, un Israélien",
    "xlit": "Yᵉberekyâhûw"
}