{
    "derivation": "une racine primitive ;",
    "frequency": 5,
    "kjv_def": "avoir peur, avoir peur.",
    "lemma": "יָגֹר",
    "outline": "<ol><li> (Qal) craindre, redouter, avoir peur</li></ol>",
    "pron": "yaw-gore'",
    "strongs_def": "à craindre",
    "xlit": "yâgôr"
}