{
    "derivation": "racine primitive ; utilisée uniquement comme dénominatif de H3027 (יָד) ; littéralement, utiliser (c'est-à-dire tendre) la main ;",
    "frequency": 114,
    "kjv_def": "jeter (dehors), (faire) avouer(-ion), louer, tirer, (donner) remercier(-ful, -s, -sgiving).",
    "lemma": "יָדָה",
    "outline": "<ol><li> to throw, shoot, cast<ol><li> (Qal) tirer (flèches)</li><li> (Piel) jeter, renverser, jeter à terre</li><li> (Hiphil)<ol><li> remercier, louer, faire des éloges</li><li> confesser, confesser (le nom de Dieu)</li></ol><li> (Hithpael)<ol><li> pour confesser (le péché)</li><li> pour donner des remerciements</li></ol></li></ol></li></ol>",
    "pron": "yaw-daw'",
    "strongs_def": "physiquement, lancer (une pierre, une flèche) vers ou au loin ; en particulier, vénérer ou adorer (avec les mains étendues) ; intensivement, déplorer (en se tordant les mains)",
    "xlit": "yâdâh"
}