{
    "derivation": "du même que H1730 (דּוֹד) ;",
    "frequency": 9,
    "kjv_def": "aimable, (bien) aimé, aime.",
    "lemma": "יְדִיד",
    "outline": "<ol><li> un bien-aimé, bien-aimé</li><li> charmant</li></ol>",
    "pron": "yed-eed'",
    "strongs_def": "a aimé",
    "xlit": "yᵉdîyd"
}