{
    "derivation": "de H3039 (יְדִיד) ;",
    "frequency": 1,
    "kjv_def": "chers amis.",
    "lemma": "יְדִדוּת",
    "outline": "<ol><li> un être cher, un être aimé, un objet d'amour</li></ol>",
    "pron": "yed-ee-dooth'",
    "strongs_def": "au sens propre, l'affection ; concrètement, un objet chéri",
    "xlit": "yᵉdidûwth"
}