{
    "derivation": "de H3045 (יָדַע) et H410 (אֵל) ; connaître Dieu ;",
    "frequency": 6,
    "kjv_def": "Jediael.",
    "lemma": "יְדִיעֲאֵל",
    "outline": "<span class=\"literal-meaning\">Jediael = &quot;Dieu fait connaître&quot;</span><ol><li> un chef patriarche de la tribu de Benjamin ; peut-être le même que 'Ashbel'</li><li> le 2ème fils de Meshelemiah et un portier Korahite</li><li> fils de Shimri et l'un des puissants guerriers de David</li><li> l'un des chefs des milliers de Manassé qui se sont joints à David lors de sa marche vers Ziklag ; peut-être le même homme que le troisième ci-dessus</li></ol>",
    "pron": "yed-ee-ah-ale'",
    "strongs_def": "Jediael, le nom de trois Israélites",
    "xlit": "Yᵉdîyʻăʼêl"
}