{
    "derivation": "(Araméen) correspondant à H3051 (יָהַב)",
    "frequency": 28,
    "kjv_def": "livrer, donner, poser, [phrase] prolonger, payer, céder.",
    "lemma": "יְהַב",
    "outline": "<ol><li> donner, fournir<ol><li> (P'al)<ol><li> donner</li><li> placer, poser (des fondations)</li></ol><li> (Hithp'al)<ol><li> être donné</li><li> être payé</li></ol></li></ol></li></ol>",
    "pron": "yeh-hab'",
    "strongs_def": "{donner (au sens propre ou figuré) ; généralement, mettre ; impérativement (réflexe) venir}",
    "xlit": "yᵉhab"
}