{
    "derivation": "de H3068 (יְהֹוָה) et H270 (אָחַז) ; Jéhovah-saisi ;",
    "frequency": 20,
    "kjv_def": "Jéhoahaz. Comparez H3099 (יוֹאָחָז).",
    "lemma": "יְהוֹאָחָז",
    "outline": "<span class=\"literal-meaning\">Jehoahaz = &quot;Jéhovah a saisi&quot;</span><ol><li> roi de Juda et fils de Josias</li><li> roi du royaume d'Israël du nord et fils de Jéhu</li><li> roi de Juda et fils de Joram (Achazia)</li></ol>",
    "pron": "yeh-ho-aw-khawz'",
    "strongs_def": "Jéhoachaz, le nom de trois Israélites",
    "xlit": "Yᵉhôwʼâchâz"
}