{
    "derivation": "une variation de H3068 (יְהֹוָה) (utilisé après H136 (אֲדֹנָי), et prononcé par les Juifs comme H430 (אֱלֹהִים), afin d'éviter la répétition du même son, puisqu'ils prononcent ailleurs H3068 (יְהֹוָה) comme H136 (אֲדֹנָי))",
    "frequency": 608,
    "kjv_def": "Dieu.",
    "lemma": "יְהֹוִה",
    "outline": "<ol><li> Jéhovah - utilisé principalement dans la combinaison \"Seigneur Jéhovah\"<ol><li> égale à 03068 mais pointée avec les voyelles de 0430</li></ol></li></ol>",
    "pron": "yeh-ho-vee'",
    "strongs_def": "{YHWH}",
    "xlit": "Yᵉhôvih"
}