{
    "derivation": "de H3068 (יְהֹוָה) et H6664 (צֶדֶק) avec suffixe pronominal ; Jéhovah (est) notre droit ;",
    "frequency": 0,
    "kjv_def": "le Seigneur notre justice.",
    "lemma": "יְהֹוָה צִדְקֵנוּ",
    "outline": "<span class=\"literal-meaning\">Jéhovah est notre justice</span><ol><li> un nom sacré appliqué symboliquement à Jérusalem et au Messie</li></ol>",
    "pron": "ye-ho-vaw' tsid-kay'-noo",
    "strongs_def": "Jéhovah-Tsidkenu, épithète symbolique du Messie et de Jérusalem",
    "xlit": "Yᵉhôvâh tsidqênûw"
}