{
    "derivation": "de H3068 (יְהֹוָה) et H7200 (רָאָה) ; Jéhovah y verra ;",
    "frequency": 0,
    "kjv_def": "Jehovah-jireh.",
    "lemma": "יְהֹוָה יִרְאֶה",
    "outline": "<span class=\"literal-meaning\">Jéhovah-jireh = &quot;Jéhovah voit&quot;.</span><ol><li> nom symbolique donné par Abraham au Mont Moriah en commémoration de l'interposition de l'ange de Jéhovah qui empêcha le sacrifice d'Isaac et lui fournit un substitut</li></ol>",
    "pron": "yeh-ho-vaw' yir-eh'",
    "strongs_def": "Jehovah-Jireh, un nom symbolique pour le Mont Moriah",
    "xlit": "Yᵉhôvâh yirʼeh"
}