{
    "derivation": "ou יְהוֹעַדָּן ; de H3068 (יְהֹוָה) et H5727 (עָדַן) ; Jehovahpleased ;",
    "frequency": 2,
    "kjv_def": "Jehoaddan.",
    "lemma": "יְהוֹעַדִּין",
    "outline": "<span class=\"literal-meaning\">Jehoaddan = &quot;les délices de Jéhovah&quot;.</span><ol><li> épouse du roi Joas et mère du roi Amaziah de Juda</li></ol>",
    "pron": "yeh-ho-ad-deen'",
    "strongs_def": "Jehoaddin ou Jehoaddan, une israélite",
    "xlit": "Yᵉhôwʻaddîyn"
}