{
    "derivation": "de dérivation incertaine ;",
    "frequency": 1,
    "kjv_def": "Ahasbai.",
    "lemma": "אֲחַסְבַּי",
    "outline": "<span class=\"literal-meaning\">Ahasbai = &quot;frère de mes englobants&quot;</span><ol><li> père d'Eliphelet, l'un des héros de David</li></ol>",
    "pron": "akh-as-bah'ee",
    "strongs_def": "Achasbai, un Israélite",
    "xlit": "ʼĂchaçbay"
}