{
    "derivation": "de H3201 (יָכֹל) ; puissant ;",
    "frequency": 1,
    "kjv_def": "Jehucal. Comparez H3116 (יוּכַל).",
    "lemma": "יְהוּכַל",
    "outline": "<span class=\"literal-meaning\">Jehucal = &quot; Jéhovah est capable &quot;.</span><ol><li> fils de Shelemiah et serviteur du roi Sédécias, qu'il envoya à Jérémie pour solliciter ses prières et ses conseils</li></ol>",
    "pron": "yeh-hoo-kal'",
    "strongs_def": "Jehukal, un Israélite",
    "xlit": "Yᵉhûwkal"
}