{
    "derivation": "de H3068 (יְהֹוָה) et H5710 (עָדָה) ; orné de Jéhovah ;",
    "frequency": 2,
    "kjv_def": "Jehoada.",
    "lemma": "יְהוֹעַדָּה",
    "outline": "<span class=\"literal-meaning\">Jéhoadah = &quot;Jéhovah a paré&quot;.</span><ol><li> un descendant de Saül par Jonathan</li></ol>",
    "pron": "yeh-ho-ad-daw'",
    "strongs_def": "Jehoaddah, un Israélien",
    "xlit": "Yᵉhôwʻaddâh"
}