{
    "derivation": "de H3068 (יְהֹוָה) et H5414 (נָתַן) ; Jéhovah-donné ;",
    "frequency": 80,
    "kjv_def": "Jonathan. Comparez H3129 (יוֹנָתָן).",
    "lemma": "יְהוֹנָתָן",
    "outline": "<span class=\"literal-meaning\">Jonathan ou Jehonathan = &quot;Jéhovah a donné&quot;.</span><ol><li> un fils du roi Saül et un ami de David</li><li> un fils du grand prêtre Abiathar et le dernier descendant d'Eli dont nous entendons parler</li><li> un neveu de David qui, comme lui, a tué un géant de Gath</li><li> un oncle de David</li><li> l'un des puissants guerriers de David</li><li> l'un des trésoriers de David</li><li> un scribe à l'époque de Jérémie</li><li> lévite et père de Zacharie, prêtre qui sonna de la trompette lors de la dédicace de la muraille</li><li> fils ou descendant de Gershom, fils de Moïse, prêtre de la tribu de Dan</li><li> un fils de Karéah et un frère de Johanan ; un capitaine judaïque après la chute de Jérusalem</li><li> un autre Judaïste, père de Peleth</li><li> père d'Ebed au temps d'Esdras</li><li> fils d'Asahel au temps d'Esdras</li><li> prêtre de la famille de Melicu au temps de Néhémie</li><li> fils de Joiada et son successeur à la haute prêtrise au temps de Néhémie</li></ol>",
    "pron": "yeh-ho-naw-thawn'",
    "strongs_def": "Jehonathan, le nom de quatre Israélites",
    "xlit": "Yᵉhôwnâthân"
}