{
    "derivation": "une racine primitive ;",
    "frequency": 17,
    "kjv_def": "continuer, différer, retarder, entraver, être en retard (slack), rester (là), s'attarder (plus longtemps).",
    "lemma": "אָחַר",
    "outline": "<ol><li> retarder, hésiter, tarder, différer, rester en arrière<ol><li> (Qal)<ol><li> retarder, s'attarder (intensif)</li><li> faire en sorte que quelqu'un retarde, empêche, retient</li></ol><li> (Piel) retarder, attendre, rester en arrière (mais pas dans l'espoir)</li></ol></li></ol>",
    "pron": "aw-khar'",
    "strongs_def": "traîner (c'est-à-dire être en retard) ; implicitement, tergiverser",
    "xlit": "ʼâchar"
}