{
    "derivation": "une forme de H3059 (יְהוֹאָחָז) ;",
    "frequency": 4,
    "kjv_def": "Jehoahaz, Joahaz.",
    "lemma": "יוֹאָחָז",
    "outline": "<span class=\"literal-meaning\">Joahaz ou Jehoahaz = &quot;Jéhovah a saisi&quot;.</span><ol><li> le père de Joah, le chroniqueur de Josias</li></ol>",
    "pron": "yo-aw-khawz'",
    "strongs_def": "Joachaz, le nom de deux Israélites",
    "xlit": "Yôwʼâchâz"
}