{
    "derivation": "une forme de H3089 (יְהוֹשֶׁבַע) ;",
    "frequency": 2,
    "kjv_def": "Jehoshabeath.",
    "lemma": "יְהוֹשַׁבְעַת",
    "outline": "<span class=\"literal-meaning\">Jehoshabeath = &quot; Jéhovah est un serment &quot;.</span><ol><li> fille du roi Joram de Juda et femme du grand prêtre Jehoiada<ol><li> variante de l'orthographe \"Jehosheba - 03089</li></ol></li></ol>",
    "pron": "yeh-ho-shab-ath'",
    "strongs_def": "Jehoshabath, une israélite",
    "xlit": "Yᵉhôwshabʻath"
}