{
    "derivation": "ou יֹאָשׁ ; (2 Chroniques 24:1), une forme de H3060 (יְהוֹאָשׁ) ;",
    "frequency": 47,
    "kjv_def": "Joash.",
    "lemma": "יוֹאָשׁ",
    "outline": "<span class=\"literal-meaning\">Joas = &quot;donné par le Seigneur&quot;</span><ol><li> fils du roi Achazia et 8e roi de Juda</li><li> fils du roi Joachaz et 12ème roi du royaume d'Israël du Nord</li><li> père de Gédéon</li><li> fils du roi Achab</li><li> descendant de Shéla, fils de Juda ; soit fils de Shéla, soit fils de Jokim</li><li> fils de Shemaah de Gibéa qui a fait appel à David à Ziklag</li></ol>",
    "pron": "yo-awsh'",
    "strongs_def": "Joash, le nom de six Israélites",
    "xlit": "Yôwʼâsh"
}