{
    "derivation": "de H2980 (יָבַב) ; hurleur ;",
    "frequency": 9,
    "kjv_def": "Jobab.",
    "lemma": "יוֹבָב",
    "outline": "<span class=\"literal-meaning\">Jobab = &quot;un désert&quot;</span><ol><li> le dernier dans l'ordre des fils de Joktan, un descendant de Sem</li><li> un des rois d'Edom</li><li> le roi de Madon, situé au nord de Canaan, et l'un des rois qui s'opposèrent à Josué lors de la conquête et qui furent mis en déroute à Méron</li><li> chef d'une maison benjamite</li><li> un autre Benjamite</li></ol>",
    "pron": "yo-bawb'",
    "strongs_def": "Jobab, nom de deux Israélites et de trois étrangers",
    "xlit": "Yôwbâb"
}