{
    "derivation": "une forme de H3078 (יְהוֹיָכִין) ;",
    "frequency": 1,
    "kjv_def": "Jehoiachin.",
    "lemma": "יוֹיָכִין",
    "outline": "<span class=\"literal-meaning\">Jehoiachin = &quot; Jéhovah établit &quot;.</span><ol><li> roi de Juda, fils de Jehoïakim, et l'avant-dernier roi de Juda avant la captivité babylonienne ; la royauté a duré 3 mois et 10 jours avant qu'il ne se rende à Nabuchodonosor qui l'emmena à Babylone et l'emprisonna pendant 36 ans avant d'être finalement libéré</li></ol>",
    "pron": "yo-yaw-keen'",
    "strongs_def": "Jojakin, un roi israélite",
    "xlit": "Yôwyâkîyn"
}