{
    "derivation": "une forme de H3079 (יְהוֹיָקִים) ;",
    "frequency": 4,
    "kjv_def": "Joiakim. Comparez H3137 (יוֹקִים).",
    "lemma": "יוֹיָקִים",
    "outline": "<span class=\"literal-meaning\">Joiakim ou Jehoiakim = &quot;Jéhovah suscite&quot;</span><ol><li> prêtre et fils de Jeshua le grand prêtre</li></ol>",
    "pron": "yo-yaw-keem'",
    "strongs_def": "Jojakim, un Israélite",
    "xlit": "Yôwyâqîym"
}