{
    "derivation": "féminin de H3126 (יוֹנֵק) ;",
    "frequency": 6,
    "kjv_def": "branche (tendre), jeune brindille.",
    "lemma": "יוֹנֶקֶת",
    "outline": "<ol><li> jeune plante, brindille, jeune pousse</li></ol>",
    "pron": "yo-neh'-keth",
    "strongs_def": "une pousse",
    "xlit": "yôwneqeth"
}