{
    "derivation": "identique à H3123 (יוֹנָה) ;",
    "frequency": 19,
    "kjv_def": "Jonas.",
    "lemma": "יוֹנָה",
    "outline": "<span class=\"literal-meaning\">Jonas = &quot;colombe</span><ol><li> fils d'Amittai et originaire de Gath-Hépher ; 5ème des prophètes mineurs qui prophétisèrent sous le règne de Jéroboam II et que Dieu envoya également prophétiser à Ninive</li></ol>",
    "pron": "yo-naw'",
    "strongs_def": "Jonas, un Israélite",
    "xlit": "Yôwnâh"
}