{
    "derivation": "probablement de la même que H3196 (יַיִן) ;",
    "frequency": 32,
    "kjv_def": "colombe, pigeon.",
    "lemma": "יוֹנָה",
    "outline": "<ol><li> colombe, pigeon</li></ol>",
    "pron": "yo-naw'",
    "strongs_def": "une colombe (apparemment à cause de la chaleur de leur accouplement)",
    "xlit": "yôwnâh"
}