{
    "derivation": "de H3384 (יָרָה) ; pluvieux ;",
    "frequency": 1,
    "kjv_def": "Jorah.",
    "lemma": "יוֹרָה",
    "outline": "<span class=\"literal-meaning\">Jorah = &quot;il instruit&quot;</span><ol><li> le chef ou l'ancêtre d'une famille qui est revenu de Babylone avec Esdras</li></ol>",
    "pron": "yo-raw'",
    "strongs_def": "Jorah, un Israélite",
    "xlit": "Yôwrâh"
}