{
    "derivation": "identique à H312 (אַחֵר) ;",
    "frequency": 1,
    "kjv_def": "Aher.",
    "lemma": "אַחֵר",
    "outline": "<span class=\"literal-meaning\">Aher = &quot;suivant&quot;</span><ol><li> un Benjamite</li></ol>",
    "pron": "akh-air'",
    "strongs_def": "Acher, un Israélite",
    "xlit": "ʼAchêr"
}