{
    "derivation": "participe actif de H3384 (יָרָה) ;",
    "frequency": 3,
    "kjv_def": "première pluie, ancienne (pluie).",
    "lemma": "יוֹרֶה",
    "outline": "<ol><li> pluie précoce, douche d'automne<ol><li> la pluie qui tombe en Palestine de fin octobre à début décembre</li></ol></li></ol>",
    "pron": "yo-reh'",
    "strongs_def": "l'arrosage ; d'où l'arrosage (ou les averses d'automne)",
    "xlit": "yôwreh"
}