{
    "derivation": "probablement une forme de H3145 (יוֹשַׁוְיָה) ;",
    "frequency": 1,
    "kjv_def": "Joshah.",
    "lemma": "יוֹשָׁה",
    "outline": "<span class=\"literal-meaning\">Joshah = &quot;Jéhovah rend égal&quot;</span><ol><li> un prince de la maison de Siméon</li></ol>",
    "pron": "yo-shaw'",
    "strongs_def": "Joshah, un Israélite",
    "xlit": "Yôwshâh"
}