{
    "derivation": "de H3384 (יָרָה) ; pluvieux ;",
    "frequency": 1,
    "kjv_def": "Jorai.",
    "lemma": "יוֹרַי",
    "outline": "<span class=\"literal-meaning\">Joraï = &quot;Jéhovah m'a enseigné&quot;.</span><ol><li> l'un des Gadites habitant à Galaad en Basan, sous le règne du roi Jotham de Juda</li></ol>",
    "pron": "yo-rah'-ee",
    "strongs_def": "Jorai, un Israélite",
    "xlit": "Yôwray"
}