{
    "derivation": "de H2232 (זָרַע) et H410 (אֵל) ; Dieu va semer ;",
    "frequency": 36,
    "kjv_def": "Jezreel.",
    "lemma": "יִזְרְעֵאל",
    "outline": "<span class=\"literal-meaning\">Jezreel = &quot;Dieu sème&quot;</span><ol><li> un descendant du père ou du fondateur d'Etam de Juda</li><li> premier fils du prophète Osée</li><li> une ville dans le Nekeb de Juda</li><li> ville d'Issachar sur l'éperon nord-ouest du mont Gilboa</li></ol>",
    "pron": "yiz-reh-ale'",
    "strongs_def": "Jizreel, le nom de deux lieux en Palestine et de deux Israélites",
    "xlit": "Yizrᵉʻêʼl"
}