{
    "derivation": "du même que la première partie de H3149 (יְזַוְאֵל) et H3050 (יָהּ) ; aspergé de Jah ;",
    "frequency": 1,
    "kjv_def": "Jeziah.",
    "lemma": "יִזִּיָּה",
    "outline": "<span class=\"literal-meaning\">Jézia = &quot;Jéhovah arrose&quot;.</span><ol><li> un descendant de Parosh qui prit une femme étrangère à l'époque d'Esdras</li></ol>",
    "pron": "yiz-zee-yaw'",
    "strongs_def": "Jizzijah, un israélite",
    "xlit": "Yizzîyâh"
}