{
    "derivation": "de H310 (אַחַר) et H251 (אָח) ; après (son) frère ;",
    "frequency": 1,
    "kjv_def": "Aharah.",
    "lemma": "אַחְרַח",
    "outline": "<span class=\"literal-meaning\">Aharah = &quot;un frère suivant&quot;</span><ol><li> un fils de Benjamin</li></ol>",
    "pron": "akh-rakh'",
    "strongs_def": "Achrach, un Israélite",
    "xlit": "ʼAchrach"
}