{
    "derivation": "de H3161 (יָחַד) ;",
    "frequency": 141,
    "kjv_def": "de même, du tout (une fois), les deux, de même, seulement, (al-) ensemble, avecal.",
    "lemma": "יַחַד",
    "outline": "<ol><li> union, unicité</li><li> ensemble, tout ensemble, tous ensemble, pareil</li></ol>",
    "pron": "yakh'-ad",
    "strongs_def": "proprement, une unité, c'est-à-dire (adverbe) uni(e)",
    "xlit": "yachad"
}