{
    "derivation": "patronymiquement de H3177 (יַחְלְאֵל) ;",
    "frequency": 1,
    "kjv_def": "Jahleelites.",
    "lemma": "יַחְלְאֵלִי",
    "outline": "<span class=\"literal-meaning\">Jahleelites = &quot; l'espoir de Dieu &quot;.</span><ol><li> descendants de Jahleel de la tribu de Zabulon</li></ol>",
    "pron": "yakh-leh-ay-lee'",
    "strongs_def": "un Jachleelite ou un descendant de Jachleel",
    "xlit": "Yachlᵉʼêlîy"
}