{
    "derivation": "de H3161 (יָחַד) ;",
    "frequency": 12,
    "kjv_def": "chéri, désolé, seul (enfant, fils), solitaire.",
    "lemma": "יָחִיד",
    "outline": "<ol><li> seul, unique, solitaire, un<ol><li> seul, unique, un</li><li> solitaire</li><li> (TWOT) fils unique</li></ol><li> unique</li></ol>",
    "pron": "yaw-kheed'",
    "strongs_def": "proprement, uni, c'est-à-dire seul ; implicitement, aimé ; également solitaire ; (féminin) la vie (pour ne pas être remplacé)",
    "xlit": "yâchîyd"
}