{
    "derivation": "une racine primitive ;",
    "frequency": 0,
    "kjv_def": "s'attarder plus longtemps.",
    "lemma": "יָחַר",
    "outline": "<ol><li> (Qal) retarder, s'attarder, différer</li></ol>",
    "pron": "yaw-khar'",
    "strongs_def": "pour retarder",
    "xlit": "yâchar"
}