{
    "derivation": "patronymiquement de H3183 (יַחְצְאֵל) ;",
    "frequency": 1,
    "kjv_def": "Jahzeelites.",
    "lemma": "יַחְצְאֵלִי",
    "outline": "<span class=\"literal-meaning\">Jahzeelites = voir Jahzeel &quot; Dieu divise &quot;.</span><ol><li> les descendants de Jahzeel, le premier fils de Nephtali</li></ol>",
    "pron": "yakh-tseh-ay-lee'",
    "strongs_def": "un Jachtseelite (collectivement) ou des descendants de Jachtseel",
    "xlit": "Yachtsᵉʼêlîy"
}