{
    "derivation": "(araméen) ou (abrégé) אׇחֳרֵן ; (araméen) de H317 (אׇחֳרִי) ;",
    "frequency": 1,
    "kjv_def": "enfin.",
    "lemma": "אׇחֳרֵין",
    "outline": "<ol><li> fin, résultat<ol><li> partie cachée (des vaches)</li><li> fin (du temps)</li><li> reste, descendants</li></ol></li></ol>",
    "pron": "okh-or-ane'",
    "strongs_def": "dernier",
    "xlit": "ʼochŏrêyn"
}