{
    "derivation": "probablement du même nom que H2905 (טוּר) ; entouré (c'est-à-dire enfermé) ;",
    "frequency": 3,
    "kjv_def": "Jetur.",
    "lemma": "יְטוּר",
    "outline": "<span class=\"literal-meaning\">Jetur = &quot;fermé&quot;.</span><ol><li> un fils d'Ismaël dont les descendants ont fait la guerre à Israël à l'est du Jourdain<ol><li> également appelé 'Ituraea'</li></ol></li></ol>",
    "pron": "yet-oor'",
    "strongs_def": "Jetur, un fils d'Ishmael",
    "xlit": "Yᵉṭûwr"
}