{
    "derivation": "et יְכׇנְיָהוּ ; ou (Jérémie 27:20) יְכוֹנְיָה ; de H3559 (כּוּן) et H3050 (יָהּ) ; Jah établira ;",
    "frequency": 7,
    "kjv_def": "Jeconiah. Comparez H3659 (כׇּנְיָהוּ).",
    "lemma": "יְכׇנְיָה",
    "outline": "<span class=\"literal-meaning\">Jeconiah = &quot;Jéhovah établit&quot;.</span><ol><li> fils du roi Jehoïakim de Juda et roi de Juda pendant 3 mois et 10 jours avant de se rendre à Nabuchodonosor et d'être emmené captif à Babylone où il fut emprisonné pendant les 36 années suivantes ; libéré à la mort de Nabuchodonosor, il vécut à Babylone jusqu'à sa mort<ol><li> orthographe principale \"Jehoiachin\"</li></ol></li></ol>",
    "pron": "yek-on-yaw'",
    "strongs_def": "Jekonjah, un roi juif",
    "xlit": "Yᵉkonyâh"
}