{
    "derivation": "d'une racine inutilisée signifiant lécher ;",
    "frequency": 9,
    "kjv_def": "vermisseau, chenille.",
    "lemma": "יֶלֶק",
    "outline": "<ol><li> jeune criquet (premier stade de développement)<ol><li> chenille (comme dévorant)</li></ol></li></ol>",
    "pron": "yeh'-lek",
    "strongs_def": "un dévoreur ; en particulier, la jeune sauterelle",
    "xlit": "yeleq"
}