{
    "derivation": "(araméen) de H311 (אַחַר) ; identique à H317 (אׇחֳרִי) ;",
    "frequency": 5,
    "kjv_def": "(an-) autre.",
    "lemma": "אׇחֳרָן",
    "outline": "<ol><li> autre, autre</li></ol>",
    "pron": "okh-or-awn'",
    "strongs_def": "autre",
    "xlit": "ʼochŏrân"
}