{
    "derivation": "une racine primitive (comparer H1980 (הָלַךְ)) ;",
    "frequency": 0,
    "kjv_def": "encore, loin, porter, apporter, porter (loin), venir (loin), partir, couler, [phrase] suivre (-ing), obtenir (loin, d'où, lui), (faire, faire) aller (loin, -ing, -ne, son chemin, dehors), grandir, mener (en avant), laisser tomber, marcher, prospérer, [phrase] poursuivre, faire courir, se répandre, emporter (-journey), disparaître, (faire) marcher (-ing), cirer, [idiome] être faible.",
    "lemma": "יָלַךְ",
    "outline": "<ol><li> aller, marcher, venir<ol><li> (Qal)<ol><li> aller, marcher, venir, partir, procéder, se déplacer, s'en aller</li><li> mourir, vivre, manière de vivre (fig.)</li></ol><li> (Hiphil) conduire, amener, emmener, porter, faire marcher</li></ol></li></ol>",
    "pron": "yaw-lak'",
    "strongs_def": "marcher (au sens propre ou figuré) ; causalement, porter (dans différents sens)",
    "xlit": "yâlak"
}