{
    "derivation": "de même que H3117 (יוֹם) ;",
    "frequency": 1,
    "kjv_def": "mule.",
    "lemma": "יֵם",
    "outline": "<ol><li> sens incertain, signifiant peut-être mules ou sources chaudes</li></ol>",
    "pron": "yame",
    "strongs_def": "un printemps chaud",
    "xlit": "yêm"
}