{
    "derivation": "prolongé de H268 (אָחוֹר) ;",
    "frequency": 7,
    "kjv_def": "en arrière (-en avant, encore).",
    "lemma": "אֲחֹרַנִּית",
    "outline": "<ol><li> l'arrière, la partie arrière, l'arrière</li></ol>",
    "pron": "akh-o-ran-neeth'",
    "strongs_def": "à l'envers",
    "xlit": "ʼăchôrannîyth"
}