{
    "derivation": "une racine primitive ;",
    "frequency": 1,
    "kjv_def": "sentir.",
    "lemma": "יָמַשׁ",
    "outline": "<ol><li> toucher<ol><li> (Hiphil) toucher, sentir</li></ol></li></ol>",
    "pron": "yaw-mash'",
    "strongs_def": "pour toucher",
    "xlit": "yâmash"
}