{
    "derivation": "de H3231 (יָמַן) ; prospérité (comme indiqué par la main droite) ;",
    "frequency": 5,
    "kjv_def": "Imna, Imnah, Jimnah, Jimnites.",
    "lemma": "יִמְנָה",
    "outline": "<span class=\"literal-meaning\"> Imna ou Imnah ou Jimnah = &quot; main droite &quot;.</span><ol><li> le 1er fils né d'Asher</li><li> un lévite, descendant d'Imnah, qui a aidé aux réformes d'Ezéchias</li><li> descendants d'Imnah, fils d'Asher</li></ol>",
    "pron": "yim-naw'",
    "strongs_def": "Jimnah, nom de deux Israélites ; aussi (avec l'article) de la postérité de l'un d'eux",
    "xlit": "Yimnâh"
}