{
    "derivation": "une racine primitive ;",
    "frequency": 75,
    "kjv_def": "accorder, déposer, déposer (down, up), laisser (off), laisser seul (remain), pacifier, placer, mettre, mettre (down), souffrir, retirer, retenir. (Les formes hiphiles avec le dagesh sont ici désignées, conformément aux anciens grammairiens ; mais s'il faut faire une distinction de ce genre, il faut plutôt les désigner par H5117 (נוּחַ), et les autres ici)",
    "lemma": "יָנַח",
    "outline": "<ol><li> se reposer<ol><li> (Qal)<ol><li> se reposer, s'installer et rester</li><li> se reposer, avoir du repos, être tranquille</li></ol><li>(Hiphil)<ol><li> faire reposer, donner du repos à, rendre tranquille</li><li> faire reposer, faire descendre, poser</li></ol>poser<ol><li>, déposer, laisser reposer, placer</li><li> pour laisser rester, laisser</li><li> partir, quitter pour</li><li> abandonner</li><li> pour permettre</li></ol><li> (Hophal)<ol><li> obtenir du repos, être accordé du repos</li><li> être laissé, être placé</li><li> espace ouvert (subst)</li></ol></li></li> </ol></li></ol>",
    "pron": "yaw-nakh'",
    "strongs_def": "déposer ; implicitement, permettre de rester",
    "xlit": "yânach"
}