{
    "derivation": "de H3245 (יָסַד) ;",
    "frequency": 20,
    "kjv_def": "fond, fondation, réparation",
    "lemma": "יְסוֹד",
    "outline": "<ol><li> fondation, base<ol><li> fondation</li><li> base, fond</li></ol></li></ol>",
    "pron": "yes-ode'",
    "strongs_def": "une fondation (au sens propre ou figuré)",
    "xlit": "yᵉçôwd"
}