{
    "derivation": "une racine primitive ;",
    "frequency": 43,
    "kjv_def": "lier, châtier, châtier, corriger, instruire, punir, réformer, réprouver, endolorir, enseigner.",
    "lemma": "יָסַר",
    "outline": "<ol><li> châtier, discipliner, instruire, admonester<ol><li> (Qal)<ol><li> châtier, admonester</li><li> instruire</li><li> discipliner</li></ol><li> (Niphal) se laisser châtier ou corriger ou admonester</li><li>(Piel)<ol><li> discipliner, corriger</li></ol></li> châtier<li><ol><li>, châtier</li></ol><li> (Hiphil) châtier</li><li> (Nithpael) enseigner</li></li> </ol></li></ol>",
    "pron": "yaw-sar'",
    "strongs_def": "châtier, au sens propre (par des coups) ou au sens figuré (par des mots), et donc instruire",
    "xlit": "yâçar"
}