{
    "derivation": "une racine primitive ;",
    "frequency": 1,
    "kjv_def": "être versée.",
    "lemma": "יָסַךְ",
    "outline": "<ol><li> (Qal) pour oindre, être versé,</li></ol>",
    "pron": "yaw-sak'",
    "strongs_def": "verser (intransitif)",
    "xlit": "yâçak"
}