{
    "derivation": "ou (abrégé) אַחַשְׁרֹשׁ (Esther 10:1) ; d'origine perse ;",
    "frequency": 31,
    "kjv_def": "Ahasuerus.",
    "lemma": "אֲחַשְׁוֵרוֹשׁ",
    "outline": "<span class=\"literal-meaning\">Ahasuerus = &quot;Je serai silencieux et pauvre&quot;</span><ol><li> titre du roi de Perse, probablement Xerxès</li></ol>",
    "pron": "akh-ash-vay-rosh'",
    "strongs_def": "Achashverosh (i.e. Ahasuerus ou Artaxerxes, mais dans ce cas Xerxes), le titre (plutôt que le nom) d'un roi perse",
    "xlit": "ʼĂchashvêrôwsh"
}