{
    "derivation": "une racine primitive ;",
    "frequency": 29,
    "kjv_def": "convenir,(maxke an) appoint(-ment, a time), assemble (selves), betroth, gather (selves, together), meet (together), set (a time).",
    "lemma": "יָעַד",
    "outline": "<ol><li> fixer, nommer, assembler, rencontrer, fixer, fiancer<ol><li> (Qal) nommer, assigner, désigner</li><li> (Niphal)<ol><li> rencontrer</li><li> se réunir sur rendez-vous</li><li> se réunir, se rassembler sur rendez-vous</li></ol><li> (Hiphil) faire rencontrer</li><li> (Hophal) être mis, être placé devant, être fixé</li></ol></li></ol>",
    "pron": "yaw-ad'",
    "strongs_def": "fixer (par un accord ou un rendez-vous) ; implicitement, se réunir (à une heure donnée), convoquer (à un procès), diriger (vers un certain endroit ou une certaine position), engager (pour le mariage)",
    "xlit": "yâʻad"
}