{
    "derivation": "de H3267 (יָעַז) et H3050 (יָהּ) ; enhardi de Jah ;",
    "frequency": 2,
    "kjv_def": "Jaaziah.",
    "lemma": "יַעֲזִיָּהוּ",
    "outline": "<span class=\"literal-meaning\">Jaaziah = &quot; rendu audacieux par Jéhovah &quot;.</span><ol><li> un lévite, apparemment le 3ème fils ou un descendant de Merari</li></ol>",
    "pron": "yah-az-ee-yaw'-hoo",
    "strongs_def": "Jaazijah, un Israélite",
    "xlit": "Yaʻăzîyâhûw"
}