{
    "derivation": "de H3259 (יָעַד) ; nommé ;",
    "frequency": 1,
    "kjv_def": "Iddo (de la marge) Voir H3035 (יִדּוֹ).",
    "lemma": "יֶעְדִּי",
    "outline": "<span class=\"literal-meaning\">Iddo = &quot;désigné&quot;</span><ol><li> le voyant qui a annoncé au roi Jéroboam d'Israël</li></ol>",
    "pron": "yed-ee'",
    "strongs_def": "Jedi, un israélite",
    "xlit": "Yeʻdîy"
}