{
    "derivation": "de H3267 (יָעַז) et H410 (אֵל) ; enhardi de Dieu ;",
    "frequency": 1,
    "kjv_def": "Jaaziel.",
    "lemma": "יַעֲזִיאֵל",
    "outline": "<span class=\"literal-meaning\">Jaaziel = &quot;rendu hardi par Dieu&quot;.</span><ol><li> l'un des Lévites désignés par David pour assurer le service musical devant l'arche</li></ol>",
    "pron": "yah-az-ee-ale'",
    "strongs_def": "Jaaziel, un Israélite",
    "xlit": "Yaʻăzîyʼêl"
}