{
    "derivation": "apparemment le participe passif du même que H3293 (יַעַר) ; boisé ;",
    "frequency": 1,
    "kjv_def": "Jair(de la marge).",
    "lemma": "יָעוּר",
    "outline": "<span class=\"literal-meaning\">Jair = &quot;forêt&quot;.</span><ol><li> père d'Elhanan, le tueur de géants, l'un des puissants guerriers de David<ol><li> également appelé \"Jaare-oregim\"</li></ol></li></ol>",
    "pron": "yaw-oor'",
    "strongs_def": "Jaur, un Israélite",
    "xlit": "Yâʻûwr"
}