{
    "derivation": "identique à H3277 (יָעֵל) ;",
    "frequency": 6,
    "kjv_def": "Jael.",
    "lemma": "יָעֵל",
    "outline": "<span class=\"literal-meaning\">Jaël = &quot;chèvre des montagnes&quot;</span><ol><li> épouse de Héber le Kénite qui tua le général Sisera pendant son sommeil en enfonçant un pieu dans le sol à travers ses tempes</li></ol>",
    "pron": "yaw-ale'",
    "strongs_def": "Jaël, une Cananéenne",
    "xlit": "Yâʻêl"
}