{
    "derivation": "de H3276 (יַעַל) ;",
    "frequency": 3,
    "kjv_def": "chèvre sauvage.",
    "lemma": "יָעֵל",
    "outline": "<ol><li> chèvre de montagne</li></ol>",
    "pron": "yaw-ale'",
    "strongs_def": "un bouquetin (comme escalade)",
    "xlit": "yâʻêl"
}