{
    "derivation": "de même que H3282 (יַעַן) ;",
    "frequency": "",
    "kjv_def": "autruche.",
    "lemma": "יָעֵן",
    "outline": "",
    "pron": "yaw-ane'",
    "strongs_def": "l'autruche (probablement à cause de son cri de réponse)",
    "xlit": "yâʻên"
}