{
    "derivation": "féminin de H3283 (יָעֵן), et ayant la même signification",
    "frequency": 8,
    "kjv_def": "[phrase] hibou.",
    "lemma": "יַעֲנָה",
    "outline": "<ol><li> un oiseau impur<ol><li> hibou, autruche, traduit littéralement par &quot;filles du hibou&quot;.</li><li> peut-être un oiseau éteint, signification exacte inconnue</li></ol></li></ol>",
    "pron": "yah-an-aw'",
    "strongs_def": "l'autruche (probablement d'après son cri de réponse)",
    "xlit": "yaʻănâh"
}