{
    "derivation": "de H3286 (יָעַף) ;",
    "frequency": 3,
    "kjv_def": "faible, fatigué.",
    "lemma": "יָעֵף",
    "outline": "<ol><li> faible, lasse, fatiguée</li></ol>",
    "pron": "yaw-afe'",
    "strongs_def": "fatigué ; au sens figuré, épuisé",
    "xlit": "yâʻêph"
}