{
    "derivation": "de même que H3283 (יָעֵן) ; réactif ;",
    "frequency": 1,
    "kjv_def": "Jaanai.",
    "lemma": "יַעֲנַי",
    "outline": "<span class=\"literal-meaning\">Jaanai = &quot;celui à qui Jéhovah répond&quot;.</span><ol><li> un chef de la tribu de Gad</li></ol>",
    "pron": "yah-an-ah'ee",
    "strongs_def": "Jaanai, un Israélite",
    "xlit": "Yaʻănay"
}