{
    "derivation": "d'une racine inutilisée signifiant probablement épaissir avec de la verdure ;",
    "frequency": 58,
    "kjv_def": "rayon (de miel), forêt, bois.",
    "lemma": "יַעַר",
    "outline": "<ol><li> forêt, bois, fourré, hauteur boisée</li></ol>",
    "pron": "yah'-ar",
    "strongs_def": "un bosquet de buissons ; d'où une forêt ; d'où le miel dans le rayon (comme dans les arbres)",
    "xlit": "yaʻar"
}