{
    "derivation": "de H44 (אֲבִיעֶזֶר) avec l'article inséré ; père de l'Ezrite ;",
    "frequency": 3,
    "kjv_def": "Abiezrite.",
    "lemma": "אֲבִי הָעֶזְרִי",
    "outline": "<span class=\"literal-meaning\">Abiezrite = &quot;mon père est une aide&quot;.</span><ol><li> un membre de la famille d'Abiezer, un descendant du fils de Joseph, Manassé</li></ol>",
    "pron": "ab-ee'-haw-ez-ree'",
    "strongs_def": "un Abiezrite ou un descendant d'Abiezer",
    "xlit": "ʼĂbîy hâ-ʻEzrîy"
}