{
    "derivation": "de H6299 (פָּדָה) et H3050 (יָהּ) ; Jah libérera ;",
    "frequency": 1,
    "kjv_def": "Iphedeiah.",
    "lemma": "יִפְדְּיָה",
    "outline": "<span class=\"literal-meaning\">Iphedeiah = &quot;L'Eternel rachètera&quot;.</span><ol><li> descendant de Benjamin et de la famille de Shashak</li></ol>",
    "pron": "yif-deh-yaw'",
    "strongs_def": "Jiphdejah, un israélite",
    "xlit": "Yiphdᵉyâh"
}