{
    "derivation": "de H3313 (יָפַע) ; brillant ;",
    "frequency": 5,
    "kjv_def": "Japhia.",
    "lemma": "יָפִיעַ",
    "outline": "<span class=\"literal-meaning\">Japhia = &quot;brillant&quot;</span><ol><li> une ville à la frontière de Zabulon et Issachar<ol><li> peut-être le \"Yafa\" moderne</li></ol><li> le roi de Lachish au moment de la conquête de Canaan par Josué</li><li> un fils de David par une concubine</li></ol>",
    "pron": "yaw-fee'-ah",
    "strongs_def": "Japhia, nom d'un Cananéen, d'un Israélite et d'un lieu en Palestine",
    "xlit": "Yâphîyaʻ"
}