{
    "derivation": "une racine primitive ;",
    "frequency": 8,
    "kjv_def": "étroit, fermer, arrêter.",
    "lemma": "אָטַם",
    "outline": "<ol><li> fermer, faire taire, fermer<ol><li> (Qal) fermer, arrêter (des lèvres)</li><li> (Hiphil) des méchants qui ferment leurs oreilles (fig.)</li></ol></li></ol>",
    "pron": "aw-tam'",
    "strongs_def": "fermer (les lèvres ou les oreilles) ; par analogie, contracter (une fenêtre par des montants biseautés)",
    "xlit": "ʼâṭam"
}