{
    "derivation": "de H6605 (פָּתַח) ; il ouvrira ;",
    "frequency": 30,
    "kjv_def": "Jephthah, Jiphtah.",
    "lemma": "יִפְתָּח",
    "outline": "<span class=\"literal-meaning\">Jephthah ou Jiphtah = &quot;il s'ouvre&quot;.</span><ol><li> fils de Galaad et d'une concubine, juge qui a vaincu les Ammonites ; après la victoire, à cause d'un voeu fait avant la bataille, il a sacrifié sa fille en holocauste</li><li> une ville de Judée</li></ol>",
    "pron": "yif-tawkh'",
    "strongs_def": "Jiphtach, un Israélite ; également un lieu en Palestine",
    "xlit": "Yiphtâch"
}