{
    "derivation": "(araméen) correspondant à H3320 (יָצַב) ;",
    "frequency": 1,
    "kjv_def": "la vérité.",
    "lemma": "יְצַב",
    "outline": "<ol><li> (Pael) faire valoir, rendre certain, acquérir la certitude, connaître la vérité, être certain</li></ol>",
    "pron": "yets-abe'",
    "strongs_def": "être ferme, et donc parler avec assurance",
    "xlit": "yᵉtsab"
}