{
    "derivation": "participe passif de H3335 (יָצַר) ;",
    "frequency": 1,
    "kjv_def": "membre.ql",
    "lemma": "יָצֻר",
    "outline": "<ol><li> formes, membres (du corps)</li></ol>",
    "pron": "yaw-tsoor'",
    "strongs_def": "la structure, c'est-à-dire un membre ou une partie",
    "xlit": "yâtsur"
}