{
    "derivation": "une racine primitive ;",
    "frequency": 51,
    "kjv_def": "couler, s'attacher, être (comme) ferme, croître, être dur, s'étendre, fondre, déborder, verser, s'écouler, se poser, être ferme.",
    "lemma": "יָצַק",
    "outline": "<ol><li> verser, couler, jeter, verser<ol><li> (Qal)<ol><li> verser, déverser</li><li> couler</li><li> couler</li></ol><li> (Hiphil) verser, dé</li>verser<li> (Hophal)<ol><li> être versé</li><li> couler, fondu (participe)</li><li> être fermement établi (participe)</li></ol></li></ol></li></ol>",
    "pron": "yaw-tsak'",
    "strongs_def": "proprement, verser (transitif ou intransitif) ; par implication, fondre ou couler comme du métal ; par extension, placer fermement, raidir ou durcir",
    "xlit": "yâtsaq"
}