{
    "derivation": "de H3335 (יָצַר) ; formatif ;",
    "frequency": 2,
    "kjv_def": "Isri.",
    "lemma": "יִצְרִי",
    "outline": "<span class=\"literal-meaning\">Izri = &quot;mon façonneur&quot;</span><ol><li> chef d'un des chœurs du sanctuaire lévitique</li></ol>",
    "pron": "yits-ree'",
    "strongs_def": "Jitsri, un Israélite",
    "xlit": "Yitsrîy"
}