{
    "derivation": "d'une racine inutilisée signifiant creuser ;",
    "frequency": 16,
    "kjv_def": "graisses, presses, presses-graisses, vin(-press).",
    "lemma": "יֶקֶב",
    "outline": "<ol><li> cuve à vin, presse à vin</li></ol>",
    "pron": "yeh'-keb",
    "strongs_def": "une cuve (creusée) ; plus précisément, une cuve à vin (qu'il s'agisse de la cuve inférieure, dans laquelle le jus s'écoule, ou de la cuve supérieure, dans laquelle les raisins sont foulés)",
    "xlit": "yeqeb"
}