{
    "derivation": "(Araméen) de H3345 (יְקַד) ;",
    "frequency": 1,
    "kjv_def": "brûlante.",
    "lemma": "יְקֵדָא",
    "outline": "<ol><li> un brûlage</li></ol>",
    "pron": "yek-ay-daw'",
    "strongs_def": "une conflagration",
    "xlit": "yᵉqêdâʼ"
}