{
    "derivation": "de H6965 (קוּם) ;",
    "frequency": 3,
    "kjv_def": "substance (vivante).",
    "lemma": "יְקוּם",
    "outline": "<ol><li> substance vivante, ce qui se tient ou existe, existence, substance</li></ol>",
    "pron": "yek-oom'",
    "strongs_def": "proprement, debout (existant), c'est-à-dire, implicitement, un être vivant",
    "xlit": "yᵉqûwm"
}