{
    "derivation": "de H3365 (יָקַר) ;",
    "frequency": "",
    "kjv_def": "éclat, clair, coûteux, excellent, gras, femmes honorables, précieux, réputation.",
    "lemma": "יָקָר",
    "outline": "",
    "pron": "yaw-kawr'",
    "strongs_def": "de valeur (objectivement ou subjectivement)",
    "xlit": "yâqâr"
}