{
    "derivation": "peut-être dénominatif de H3394 (יָרֵחַ) ; (né à la) nouvelle lune ;",
    "frequency": 1,
    "kjv_def": "Jaroah.",
    "lemma": "יָרוֹחַ",
    "outline": "<span class=\"literal-meaning\">Jaroah = &quot;nouvelle lune&quot;</span><ol><li> un chef de la tribu de Gad</li></ol>",
    "pron": "yaw-ro'-akh",
    "strongs_def": "Jaroach, un Israélite",
    "xlit": "Yârôwach"
}