{
    "derivation": "de H7378 (רִיב) et H1322 (בֹּשֶׁת) ; la honte (c'est-à-dire l'idole) contestera ;",
    "frequency": 1,
    "kjv_def": "Jerubbesheth.",
    "lemma": "יְרֻבֶּשֶׁת",
    "outline": "<span class=\"literal-meaning\">Jerubbesheth = &quot;la honte se disputera&quot;.</span><ol><li> une variante de Jerubbaal (l'autre nom de Gédéon [3378]) qui substitue le mot \"honte\" au nom du dieu païen \"Baal\"</li></ol>",
    "pron": "yer-oob-beh'-sheth",
    "strongs_def": "Jerubbesheth, un nom symbolique pour Gideon",
    "xlit": "Yᵉrubbesheth"
}