{
    "derivation": "de H7355 (רָחַם) ; compatissant ;",
    "frequency": 10,
    "kjv_def": "Jeroham.",
    "lemma": "יְרֹחָם",
    "outline": "<span class=\"literal-meaning\">Jerocham = &quot;avoir pitié&quot;.</span><ol><li> père d'Elkana et grand-père de Samuel de la maison de Kehath</li><li> un Benjamite et le fondateur d'une famille de Benjamites</li><li> père ou géniteur d'Ibneiah et d'un Benjamite ; peut-être le même que le 2</li><li> un descendant d'Aaron et un prêtre de la famille d'Immer ; fils de Pashur et père d'Adaiah</li><li> un autre prêtre ; peut-être le même que le 4</li><li> habitant de Gedor et père d'un des puissants guerriers de David</li><li> danite dont le fils ou le descendant Azareel était le chef de la tribu à l'époque de David</li><li> père d'Azaria, l'un des capitaines de Jehoiada au temps d'Athalie</li></ol>",
    "pron": "yer-o-khawm'",
    "strongs_def": "Jerocham, le nom de sept ou huit Israélites",
    "xlit": "Yᵉrôchâm"
}