{
    "derivation": "(Araméen) correspondant à H3389 (יְרוּשָׁלַ͏ִם)",
    "frequency": 26,
    "kjv_def": "{Jérusalem}",
    "lemma": "יְרוּשָׁלֵם",
    "outline": "<span class=\"literal-meaning\">Jérusalem = &quot;enseignement de la paix</span><ol><li> chef-lieu de la Palestine et capitale du royaume uni et de la nation de Juda après la scission</li></ol>",
    "pron": "yer-oo-shaw-lame'",
    "strongs_def": "{Jérusalem}",
    "xlit": "Yᵉrûwshâlêm"
}