{
    "derivation": "de H3401 (יָרִיב) ; litigieux ;",
    "frequency": 1,
    "kjv_def": "Jeribai.",
    "lemma": "יְרִיבַי",
    "outline": "<span class=\"literal-meaning\">Jeribai = &quot;mes contestations</span><ol><li> un descendant d'Elnaam et l'un des puissants guerriers de David</li></ol>",
    "pron": "yer-eeb-ah'ee",
    "strongs_def": "Jeribai, un Israélite",
    "xlit": "Yᵉrîybay"
}