{
    "derivation": "de H7378 (רִיב) ;",
    "frequency": 3,
    "kjv_def": "que le contenu (-eth), que l'effort.",
    "lemma": "יָרִיב",
    "outline": "<ol><li> concurrent, opposant, adversaire</li></ol>",
    "pron": "yaw-rebe'",
    "strongs_def": "littéralement, il contestera ; proprement, adjectif, litigieux ; utilisé comme nom, un adversaire",
    "xlit": "yârîyb"
}