{
    "derivation": "une racine primitive ;",
    "frequency": 1,
    "kjv_def": "être un ennemi.",
    "lemma": "אָיַב",
    "outline": "<ol><li> être hostile à, être un ennemi de<ol><li> (Qal)<ol><li> être hostile à</li><li> traiter comme un ennemi</li></ol></li></ol></li></ol>",
    "pron": "aw-yab'",
    "strongs_def": "haïr (comme une personne d'une tribu ou d'un parti opposé), donc être hostile",
    "xlit": "ʼâyab"
}