{
    "derivation": "de H3417 (יָרָק) (au sens de vacuité de la couleur) ;",
    "frequency": 6,
    "kjv_def": "herbe, vert (chose).",
    "lemma": "יֶרֶק",
    "outline": "<ol><li> vert, verdeur, plantes vertes, verdure</li></ol>",
    "pron": "yeh'-rek",
    "strongs_def": "proprement, la pâleur, c'est-à-dire le vert jaunâtre de la végétation jeune et malade ; concrètement, la verdure, c'est-à-dire l'herbe ou la végétation",
    "xlit": "yereq"
}