{
    "derivation": "de H3427 (יָשַׁב) et H1 (אָב) ; siège de (son) père ;",
    "frequency": 1,
    "kjv_def": "Jeshebeab.",
    "lemma": "יֶשֶׁבְאָב",
    "outline": "<span class=\"literal-meaning\">Jeshebeab = &quot;demeure du père&quot;</span><ol><li> un lévite, chef du 14e cours des prêtres</li></ol>",
    "pron": "yeh-sheb-awb'",
    "strongs_def": "Jeshebab, un Israélite",
    "xlit": "Yeshebʼâb"
}