{
    "derivation": "du même que H181 (אוּד) (dans le sens de se baisser) ;",
    "frequency": 24,
    "kjv_def": "calamité, destruction.",
    "lemma": "אֵיד",
    "outline": "<ol><li> détresse, fardeau, calamité<ol><li> fardeau (des justes)</li><li> calamité (de la nation)</li><li> désastre (des méchants)</li><li> jour de calamité</li></ol></li></ol>",
    "pron": "ade",
    "strongs_def": "oppression ; par implication malheur, ruine",
    "xlit": "ʼêyd"
}