{
    "derivation": "ou יָשִׁיב ; de H7725 (שׁוּב) ; il reviendra ;",
    "frequency": 3,
    "kjv_def": "Jashub.",
    "lemma": "יָשׁוּב",
    "outline": "<span class=\"literal-meaning\">Jashub = &quot;il reviendra&quot;</span><ol><li> le 3ème fils d'Issachar et fondateur de la famille des Jashubites</li><li> un des fils de Bani qui devait répudier une femme étrangère à l'époque d'Esdras</li></ol>",
    "pron": "yaw-shoob'",
    "strongs_def": "Jashub, le nom de deux Israélites",
    "xlit": "Yâshûwb"
}