{
    "derivation": "patronymiquement de H3440 (יִשְׁוִי) ;",
    "frequency": 1,
    "kjv_def": "Les jésuites.",
    "lemma": "יִשְׁוִי",
    "outline": "<span class=\"literal-meaning\">Jesuites = voir Jesui &quot; il me justifiera &quot;.</span><ol><li> les descendants de Jesui (03440-2)</li></ol>",
    "pron": "yish-vee'",
    "strongs_def": "un Jishvite (collectivement) ou des descendants de Jishvi",
    "xlit": "Yishvîy"
}