{
    "derivation": "de H7831 (שַׁחֲצוֹם) ; il rira ;",
    "frequency": 4,
    "kjv_def": "Isaac. Comparez H3327 (יִצְחָק).",
    "lemma": "יִשְׂחָק",
    "outline": "<span class=\"literal-meaning\">Isaac = &quot; il rit &quot;.</span><ol><li> fils d'Abraham par sa femme Sarah et père de Jacob et d'Ésaü</li></ol>",
    "pron": "yis-khawk'",
    "strongs_def": "Jischak, l'héritier d'Abraham",
    "xlit": "Yischâq"
}