{
    "derivation": "par l'araméen אִישַׁי ; du même que H3426 (יֵשׁ) ; existant ;",
    "frequency": 42,
    "kjv_def": "Jesse.",
    "lemma": "יִשַׁי",
    "outline": "<span class=\"literal-meaning\">Jesse = &quot;je possède&quot;</span><ol><li> fils de Boaz et père du roi David</li></ol>",
    "pron": "yee-shah'-ee",
    "strongs_def": "Jishai, le père de David",
    "xlit": "Yishay"
}