{
    "derivation": "de H8085 (שָׁמַע) et H410 (אֵל) ; Dieu entendra ;",
    "frequency": 48,
    "kjv_def": "Ishmael.",
    "lemma": "יִשְׁמָעֵאל",
    "outline": "<span class=\"literal-meaning\">Ismaël = &quot;Dieu entend&quot;.</span><ol><li> fils d'Abraham et d'Agar, la servante de Sarah, et le géniteur des peuples arabes</li><li> fils de Nethaniah et meurtrier de Gedaliah</li><li> benjamite, l'un des fils d'Azel, descendant de Saül par Meribbaal ou Mephibosheth</li><li> judaïsant, père de Zébadia</li><li> judaïque, fils de Johanan et l'un des capitaines qui aidèrent Jehoiada à rétablir Joas sur le trône</li><li> prêtre de la famille de Pashur avec une femme étrangère qu'il fut contraint de répudier par Esdras</li></ol>",
    "pron": "yish-maw-ale'",
    "strongs_def": "Jishmael, nom du fils aîné d'Abraham et de cinq Israélites",
    "xlit": "Yishmâʻêʼl"
}