{
    "derivation": "ou יִשְׁמַעְיָהוּlemma יְשְׁמַעְיָהוּ première voyelle, corrigé en יִשְׁמַעְיָהוּ ; de H8085 (שָׁמַע) et H3050 (יָהּ) ; Jah entendra ;",
    "frequency": 2,
    "kjv_def": "Ishmaiah.",
    "lemma": "יִשְׁמַעְיָה",
    "outline": "<span class=\"literal-meaning\">Ishmaiah = &quot;Jéhovah entendra&quot;.</span><ol><li> gibéonite, l'un des puissants guerriers de David</li><li> fils d'Abdias et chef de la tribu de Zabulon au temps du roi David</li></ol>",
    "pron": "yish-mah-yaw'",
    "strongs_def": "Jishmajah, le nom de deux Israéliens",
    "xlit": "Yishmaʻyâh"
}