{
    "derivation": "ou יֵשַׁע ; de H3467 (יָשַׁע) ;",
    "frequency": 36,
    "kjv_def": "la sécurité, le salut, la sauvegarde.",
    "lemma": "יֶשַׁע",
    "outline": "<ol><li> délivrance, salut, sauvetage, sécurité, bien-être<ol><li> sécurité, bien-être, prospérité</li><li> salut</li><li> victoire</li></ol></li></ol>",
    "pron": "yeh'-shah",
    "strongs_def": "liberté, délivrance, prospérité",
    "xlit": "yeshaʻ"
}