{
    "derivation": "de H8104 (שָׁמַר) ; conservateur ;",
    "frequency": 1,
    "kjv_def": "Ishmerai.",
    "lemma": "יִשְׁמְרַי",
    "outline": "<span class=\"literal-meaning\">Ishmerai = &quot;Il me garde&quot;</span><ol><li> un Benjamite de la famille d'Elpaal</li></ol>",
    "pron": "yish-mer-ah'-ee",
    "strongs_def": "Jishmerai, un Israélite",
    "xlit": "Yishmᵉray"
}