{
    "derivation": "ou יְשַׁעְיָהוּ ; de H3467 (יָשַׁע) et H3050 (יָהּ) ; Jah a sauvé ;",
    "frequency": 39,
    "kjv_def": "Isaiah, Jesaiah, Jeshaiah.",
    "lemma": "יְשַׁעְיָה",
    "outline": "<span class=\"literal-meaning\">Isaïe ou Jesaiah ou Jeshaiah = &quot; Jéhovah a sauvé &quot;.</span><ol><li> grand prophète, fils d'Amoz, qui a prophétisé sur Juda et Jérusalem aux temps des rois Ozias, Jotham, Achaz et Ezéchias de Juda ; auteur du livre prophétique de son nom ; la tradition veut qu'il ait été scié dans le tronc d'un caroubier par le roi Manassé et que ce soit l'incident auquel se réfère Heb 11:37</li><li> fils de Hanania, frère de Pelatia, et petit-fils de Zorobabel</li><li> un Benjamite</li><li> l'un des 6 fils de Jeduthun</li><li> fils de Rehabiah, descendant de Moïse par Gershom, et ancêtre d'un trésorier lévite au temps de David</li><li> fils d'Athalie et chef de la maison d'Elam qui revint avec Esdras</li><li> chef des descendants de Merari qui revint avec Esdras</li></ol>",
    "pron": "yesh-ah-yaw'",
    "strongs_def": "Jeshajah, le nom de sept Israélites",
    "xlit": "Yᵉshaʻyâh"
}