{
    "derivation": "peut-être de H8192 (שָׁפָה) ; il grattera ;",
    "frequency": 1,
    "kjv_def": "Ispah.",
    "lemma": "יִשְׁפָּה",
    "outline": "<span class=\"literal-meaning\">Ispah = &quot;Il est nu&quot;</span><ol><li> un Benjamite de la famille de Beriah et l'un des chefs de sa tribu</li></ol>",
    "pron": "yish-paw'",
    "strongs_def": "Jishpah, un Israélite",
    "xlit": "Yishpâh"
}