{
    "derivation": "(Araméen) correspondant à H3478 (יִשְׂרָאֵל)",
    "frequency": 8,
    "kjv_def": "Israël.",
    "lemma": "יִשְׂרָאֵל",
    "outline": "<span class=\"literal-meaning\">Israël = &quot;Dieu prévaut&quot;.</span><ol><li> deuxième nom de Jacob donné par Dieu après sa lutte avec l'ange à Peniel</li><li> le nom des descendants et de la nation des descendants de Jacob<ol><li> le nom de la nation jusqu'à la mort de Salomon et la scission</li><li> nom utilisé et donné au royaume du nord composé des 10 tribus sous Jéroboam ; le royaume du sud était connu sous le nom de Juda</li><li> nom de la nation après le retour d'exil</li></ol></li></ol>",
    "pron": "yis-raw-ale'",
    "strongs_def": "{Jisraël, nom symbolique de Jacob ; également (typiquement) de sa postérité}",
    "xlit": "Yisrâʼêl"
}