{
    "derivation": "féminin de H3477 (יָשָׁר) ;",
    "frequency": "",
    "kjv_def": "la droiture.",
    "lemma": "יִשְׁרָה",
    "outline": "",
    "pron": "yish-raw'",
    "strongs_def": "rectitude",
    "xlit": "yishrâh"
}