{
    "derivation": "de H3474 (יָשַׁר) ; droit ;",
    "frequency": 4,
    "kjv_def": "Jeshurun.",
    "lemma": "יְשֻׁרוּן",
    "outline": "<span class=\"literal-meaning\">Jeshurun = &quot;celui qui est droit&quot;.</span><ol><li> un nom symbolique pour Israël décrivant son caractère idéal</li></ol>",
    "pron": "yesh-oo-roon'",
    "strongs_def": "Jeshurun, un nom symbolique pour Israël",
    "xlit": "Yᵉshurûwn"
}