{
    "derivation": "(araméen) correspondant à H853 (אֵת) ;",
    "frequency": 1,
    "kjv_def": "[phrase] qui.",
    "lemma": "יַת",
    "outline": "<ol><li> (marque de l'objet direct ou de l'accusatif et non traduit)</li></ol>",
    "pron": "yath",
    "strongs_def": "un signe de l'objet d'un verbe",
    "xlit": "yath"
}