{
    "derivation": "(Araméen) correspondant à H3492 (יַתִּיר) ;",
    "frequency": 8,
    "kjv_def": "dépassant(-ly), excellent.",
    "lemma": "יַתִּיר",
    "outline": "<ol><li> prééminent, surpassant, extrême, extraordinaire</li><li> excessivement, extrêmement</li></ol>",
    "pron": "yat-teer'",
    "strongs_def": "prééminent ; comme adverbe, très",
    "xlit": "yattîyr"
}