{
    "derivation": "de H3498 (יָתַר) ;",
    "frequency": 10,
    "kjv_def": "meilleur, excellence(-leth), profit(-able).",
    "lemma": "יִתְרוֹן",
    "outline": "<ol><li> avantage, profit, excellence</li></ol>",
    "pron": "yith-rone'",
    "strongs_def": "prééminence, gain",
    "xlit": "yithrôwn"
}