{
    "derivation": "féminin de H3515 (כָּבֵד) ;",
    "frequency": 1,
    "kjv_def": "[idiome] lourdement.",
    "lemma": "כְּבֵדֻת",
    "outline": "<ol><li> lourdeur, difficulté</li></ol>",
    "pron": "keb-ay-dooth'",
    "strongs_def": "difficulté",
    "xlit": "kᵉbêduth"
}