{
    "derivation": "du même que H3525 (כֶּבֶל) dans le sens de limitation ; stérile ;",
    "frequency": 2,
    "kjv_def": "Cabul.",
    "lemma": "כָּבוּל",
    "outline": "<span class=\"literal-meaning\">Cabul = &quot; liaison &quot;.</span><ol><li> une ville à la frontière d'Asher et située à environ 16 km à l'est d'Akko ; la moderne \"Kaboul\"</li><li> un district de Galilée donné par Salomon à Hiram et appelé avec mépris \"Cabul\" par Hiram</li></ol>",
    "pron": "kaw-bool'",
    "strongs_def": "Cabul, le nom de deux endroits en Palestine",
    "xlit": "Kâbûwl"
}