{
    "derivation": "de même que H193 (אוּל) ;",
    "frequency": 183,
    "kjv_def": "puissant (homme), linteau, chêne, poteau, bélier, arbre.",
    "lemma": "אַיִל",
    "outline": "<ol><li> bélier<ol><li> bélier (comme nourriture)</li><li> bélier (sacrifice)</li><li> bélier (peau teinte en rouge, pour le tabernacle)</li></ol><li> pilier, montant de porte, montants, pilastre</li><li> homme fort, chef, chef</li><li> arbre puissant, térébinthe</li></ol>",
    "pron": "ah'-yil",
    "strongs_def": "proprement, la force ; d'où, tout ce qui est fort ; en particulier, un chef (politiquement) ; également un bélier (de par sa force) ; un pilastre (en tant que support solide) ; un chêne ou un autre arbre fort",
    "xlit": "ʼayil"
}