{
    "derivation": "une racine primitive ;",
    "frequency": 1,
    "kjv_def": "en abondance, se multiplier.",
    "lemma": "כָּבַר",
    "outline": "<ol><li> être beaucoup, être nombreux, être en abondance, s'entremêler, se multiplier<ol><li> (Hiphil) faire beaucoup, rendre grand</li></ol></li></ol>",
    "pron": "kaw-bar'",
    "strongs_def": "proprement, tresser ensemble, c'est-à-dire (au sens figuré) augmenter (surtout en nombre ou en quantité, accumuler)",
    "xlit": "kâbar"
}