{
    "derivation": "ou כַּבְשָׂה ; féminin de H3532 (כֶּבֶשׂ) ;",
    "frequency": 8,
    "kjv_def": "agneau (brebis).",
    "lemma": "כִּבְשָׂה",
    "outline": "<ol><li> brebis-agneau, agneau</li></ol>",
    "pron": "kib-saw'",
    "strongs_def": "une brebis",
    "xlit": "kibsâh"
}