{
    "derivation": "de H3543 (כָּהָה) ;",
    "frequency": 9,
    "kjv_def": "un peu sombre, sombre, cire sombre, lourdeur, fumer.",
    "lemma": "כֵּהֶה",
    "outline": "<ol><li> faible, terne, incolore, être sombre, faible</li></ol>",
    "pron": "kay-heh'",
    "strongs_def": "faible, obscure",
    "xlit": "kêheh"
}