{
    "derivation": "une racine primitive, signifiant apparemment servir de médiateur dans les services religieux ; mais utilisée uniquement comme dénominatif à partir de H3548 (כֹּהֵן) ;",
    "frequency": 23,
    "kjv_def": "pont, être (faire l'office d'un, exécuter le, ministre dans le) prêtre( office de).",
    "lemma": "כָּהַן",
    "outline": "<ol><li> agir en tant que prêtre, exercer la fonction de prêtre<ol><li> (Piel)<ol><li> exercer un ministère en tant que prêtre, servir en tant que prêtre</li><li> être ou devenir prêtre</li><li> jouer le rôle du prêtre</li></ol></li></ol></li></ol>",
    "pron": "kaw-han'",
    "strongs_def": "officier en tant que prêtre ; au sens figuré, revêtir les habits d'apparat",
    "xlit": "kâhan"
}