{
    "derivation": "féminin de H3544 (כֵּהֶה) ;",
    "frequency": 1,
    "kjv_def": "guérison.",
    "lemma": "כֵּהָה",
    "outline": "<ol><li> un apaisement, une atténuation, une diminution, une guérison, un soulagement</li></ol>",
    "pron": "kay-haw'",
    "strongs_def": "au sens propre, un affaiblissement ; au sens figuré, un soulagement, c'est-à-dire une guérison",
    "xlit": "kêhâh"
}