{
    "derivation": "féminin de H354 (אַיָּל) ;",
    "frequency": 8,
    "kjv_def": "arrière.",
    "lemma": "אַיָּלָה",
    "outline": "<ol><li> biche, cerf, biche</li></ol>",
    "pron": "ah-yaw-law'",
    "strongs_def": "une biche ou un cerf femelle",
    "xlit": "ʼayâlâh"
}