{
    "derivation": "probablement de H3559 (כּוּן) ; établi ;",
    "frequency": "",
    "kjv_def": "Chun.",
    "lemma": "כּוּן",
    "outline": "",
    "pron": "koon",
    "strongs_def": "Kun, un lieu en Syrie",
    "xlit": "Kûwn"
}