{
    "derivation": "de H354 (אַיָּל) ; champ de cerfs ;",
    "frequency": 10,
    "kjv_def": "Aijalon, Ajalon.",
    "lemma": "אַיָּלוֹן",
    "outline": "<span class=\"literal-meaning\">Ajalon ou Aijalon = &quot;champ de cerfs&quot;.</span><ol><li> Ville lévitique de Dan, à 14 miles ou 25 km au nord-ouest de Jérusalem, gouvernée par les Amorites, puis par les Benjamites de Juda, puis par les Philistins</li><li> une ville de Zabulon, site inconnu</li></ol>",
    "pron": "ah-yaw-lone'",
    "strongs_def": "Ajalon, le nom de cinq endroits en Palestine",
    "xlit": "ʼAyâlôwn"
}