{
    "derivation": "de H356 (אֵילוֹן), H1004 (בַּיִת), et H2603 (חָנַן) ; chênaie de (la) maison de la faveur ;",
    "frequency": "",
    "kjv_def": "Elon-bethhanan.",
    "lemma": "אֵילוֹן בֵּית חָנָן",
    "outline": "",
    "pron": "ay-lone' bayth-chawnawn'",
    "strongs_def": "Elon de Beth-chanan, un endroit en Palestine",
    "xlit": "ʼÊylôwn Bêyth Chânân"
}