{
    "derivation": "du même que H3589 (כִּיד) (comparer H3539 (כַּדְכֹּד)) ;",
    "frequency": 1,
    "kjv_def": "étincelle.",
    "lemma": "כִידוֹד",
    "outline": "<ol><li> étincelle</li></ol>",
    "pron": "kee-dode'",
    "strongs_def": "proprement, quelque chose qui a été frappé, c'est-à-dire une étincelle (comme frappé)",
    "xlit": "kîydôwd"
}