{
    "derivation": "de dérivation incertaine ;",
    "frequency": 1,
    "kjv_def": "bataille.",
    "lemma": "כִּידוֹר",
    "outline": "<ol><li> attaque, assaut, début</li></ol>",
    "pron": "kee-dore'",
    "strongs_def": "peut-être le tumulte",
    "xlit": "kîydôwr"
}