{
    "derivation": "ou אֵילַת ; de H352 (אַיִל) ; des arbres ou un bosquet (c'est-à-dire des palmiers) ;",
    "frequency": 8,
    "kjv_def": "Elath, Eloth.",
    "lemma": "אֵילוֹת",
    "outline": "<span class=\"literal-meaning\">Elath ou Eloth = &quot;bosquet d'arbres élevés&quot;.</span><ol><li> un port sur le bras nord-est de la mer Rouge</li></ol>",
    "pron": "ay-loth'",
    "strongs_def": "Eloth ou Elath, lieu situé sur la mer Rouge",
    "xlit": "ʼÊylôwth"
}