{
    "derivation": "identique à H3591 (כִּידוֹן) ;",
    "frequency": 1,
    "kjv_def": "Chidon.",
    "lemma": "כִּידוֹן",
    "outline": "<span class=\"literal-meaning\">Chidon = \"javelot\"</span><ol><li> le propriétaire ou le lieu de la mort d'Ozias pour avoir touché l'arche</li></ol>",
    "pron": "kee-dohn'",
    "strongs_def": "Kidon, un lieu en Palestine",
    "xlit": "Kîydôwn"
}