{
    "derivation": "un formulaire pour H3563 (כּוֹס) ;",
    "frequency": 6,
    "kjv_def": "sac, tasse, sac à main.",
    "lemma": "כִּיס",
    "outline": "<ol><li> sac, porte-monnaie<ol><li> pour les poids, l'argent</li></ol></li></ol>",
    "pron": "keece",
    "strongs_def": "une tasse ; également un sac d'argent ou de poids",
    "xlit": "kîyç"
}