{
    "derivation": "(araméen) correspondant à H3605 (כֹּל)",
    "frequency": 103,
    "kjv_def": "tout, n'importe lequel, + (pour autant) que, + être-(pour cette) cause, chaque, + aucune (manière, -ne), + là (où) -devant, + bien que, quoi (où, qui) -quel que soit, (le) tout.",
    "lemma": "כֹּל",
    "outline": "<ol><li> tout, entier, le tout<ol><li> l'ensemble, tous</li><li> tous, tous, aucun</li></ol></li></ol>",
    "pron": "kole",
    "strongs_def": "{properly, the whole ; hence, all, any or every (au singulier seulement, mais souvent au pluriel)}",
    "xlit": "kôl"
}