{
    "derivation": "ou (Jérémie 33:8) כּוֹל ; de H3634 (כָּלַל) ;",
    "frequency": 5418,
    "kjv_def": "(en) tout (manière, (vous)), entièrement, de n'importe quelle (manière), assez, chaque (un, lieu, chose), de n'importe quelle manière, autant que, (aucune) chose, devrait, n'importe quoi, (le) tout, whoso(-ever).",
    "lemma": "כֹּל",
    "outline": "<ol><li> tout, le tout<ol><li> tout, l'ensemble de</li><li> tout, chaque, tout, n'importe quoi</li><li> totalité, tout</li></ol></li></ol>",
    "pron": "kole",
    "strongs_def": "proprement, l'ensemble ; d'où, tout, n'importe quel ou chaque (au singulier seulement, mais souvent au pluriel)",
    "xlit": "kôl"
}