{
    "derivation": "double de H3608 (כֶּלֶא) dans le sens original de séparation ;",
    "frequency": 4,
    "kjv_def": "diverses graines (-e genres), mêlées (graines).",
    "lemma": "כִּלְאַיִם",
    "outline": "<ol><li> deux sortes, mélange<ol><li> pratique interdite parmi le bétail (croisement), les graines (semis), et les vêtements en tissu (matière)</li></ol></li></ol>",
    "pron": "kil-ah'-yim",
    "strongs_def": "deux hétérogénéités",
    "xlit": "kilʼayim"
}