{
    "derivation": "de H3605 (כֹּל) et H2374 (חֹזֶה) ; tout voyant ;",
    "frequency": "",
    "kjv_def": "Col-hozeh.",
    "lemma": "כׇּל־חֹזֶה",
    "outline": "",
    "pron": "kol-kho-zeh'",
    "strongs_def": "Col-Chozeh, un Israélite",
    "xlit": "Kol-Chôzeh"
}