{
    "derivation": "de H3615 (כָּלָה) ; complété ;",
    "frequency": 1,
    "kjv_def": "Chelluh.",
    "lemma": "כְּלוּהַי",
    "outline": "<span class=\"literal-meaning\">Chelluh = &quot;mon accomplissement&quot;</span><ol><li> un homme avec une femme étrangère à l'époque d'Esdras</li></ol>",
    "pron": "kel-oo-hah'-ee",
    "strongs_def": "Keluhai, un Israélite",
    "xlit": "Kᵉlûwhay"
}