{
    "derivation": "féminin de H3627 (כְּלִי) (uniquement au pluriel) ;",
    "frequency": 31,
    "kjv_def": "les reins, les reins.",
    "lemma": "כִּלְיָה",
    "outline": "<ol><li> reins<ol><li> d'organe physique (litt.)</li><li> de siège de l'émotion et de l'affection (fig.)</li><li> des animaux sacrifiés</li></ol><li> (TWOT) rênes</li></ol>",
    "pron": "kil-yaw'",
    "strongs_def": "un rein (en tant qu'organe essentiel) ; au sens figuré, l'esprit (en tant que moi intérieur)",
    "xlit": "kilyâh"
}