{
    "derivation": "une racine primitive ;",
    "frequency": 2,
    "kjv_def": "(rendre) parfait.",
    "lemma": "כָּלַל",
    "outline": "<ol><li> compléter, perfectionner, rendre complet, rendre parfait<ol><li> (Qal) parfaire</li></ol></li></ol>",
    "pron": "kaw-lal'",
    "strongs_def": "pour compléter",
    "xlit": "kâlal"
}