{
    "derivation": "de H3615 (כָּלָה) ;",
    "frequency": 2,
    "kjv_def": "la consommation, l'échec.",
    "lemma": "כִּלָּיוֹן",
    "outline": "<ol><li> achèvement, destruction, consommation, anéantissement</li><li> échouer, se languir</li></ol>",
    "pron": "kil-law-yone'",
    "strongs_def": "nostalgie, destruction",
    "xlit": "killâyôwn"
}