{
    "derivation": "(araméen) correspondant à H3634 (כָּלַל) ;",
    "frequency": 7,
    "kjv_def": "terminer, faire (mettre) en place.",
    "lemma": "כְּלַל",
    "outline": "<ol><li> terminer, compléter<ol><li> (Shaphel) pour terminer</li><li> (Ishtaphel) être achevé</li></ol></li></ol>",
    "pron": "kel-al'",
    "strongs_def": "pour compléter",
    "xlit": "kᵉlal"
}