{
    "derivation": "ou (Jérémie 48:7) כְּמִישׁ ; d'une racine inutilisée signifiant soumettre ; les puissants ;",
    "frequency": 8,
    "kjv_def": "Chemosh.",
    "lemma": "כְּמוֹשׁ",
    "outline": "<span class=\"literal-meaning\">Chemosh = &quot;soumetteur&quot;</span><ol><li> la divinité nationale des Moabites et un dieu des Ammonites<ol><li> également identifié à \"Baal-Péor\", \"Baal-Zebub\", \"Mars\" et \"Saturne\"</li><li> le culte de ce dieu a été introduit à Jérusalem par Salomon et aboli par le roi Josias de Judée</li></ol></li></ol>",
    "pron": "kem-oshe'",
    "strongs_def": "Kemosh, le dieu des Moabites",
    "xlit": "Kᵉmôwsh"
}