{
    "derivation": "de H3639 (כְּלִמָּה) ;",
    "frequency": 1,
    "kjv_def": "la honte.",
    "lemma": "כְּלִמּוּת",
    "outline": "<ol><li> honte, disgrâce, ignominie</li></ol>",
    "pron": "kel-im-mooth'",
    "strongs_def": "disgrâce",
    "xlit": "kᵉlimmûwth"
}