{
    "derivation": "pour H3641 (כַּלְנֶה) ;",
    "frequency": 1,
    "kjv_def": "Canneh.",
    "lemma": "כַּנֶּה",
    "outline": "<span class=\"literal-meaning\">Canneh = &quot;donner un titre flatteur&quot;.</span><ol><li> une ville apparemment en Mésopotamie</li></ol>",
    "pron": "kan-neh'",
    "strongs_def": "Canneh, un lieu en Assyrie",
    "xlit": "Kanneh"
}