{
    "derivation": "pour H3204 (יְכׇנְיָה) ;",
    "frequency": 3,
    "kjv_def": "Coniah.",
    "lemma": "כׇּנְיָהוּ",
    "outline": "<span class=\"literal-meaning\">Coniah = &quot;Jéhovah établira&quot;.</span><ol><li> autre nom du roi Jehoiachin de Juda, l'avant-dernier roi sur le trône avant la captivité</li></ol>",
    "pron": "kon-yaw'-hoo",
    "strongs_def": "Conjah, un roi israélite",
    "xlit": "Konyâhûw"
}