{
    "derivation": "patrie de H3667 (כְּנַעַן) ;",
    "frequency": 74,
    "kjv_def": "Cananéen, marchand, trafiquant.",
    "lemma": "כְּנַעַנִי",
    "outline": "<span class=\"literal-meaning\">Canaanite = voir Cana &quot;zélé&quot;.</span><ol><li> descendant ou habitant de Canaan</li><li> descendant ou habitant de Canaan</li><li> un marchand, un commerçant</li></ol>",
    "pron": "ken-ah-an-ee'",
    "strongs_def": "un Kénanéen ou un habitant de Kénané ; implicitement, un colporteur (les Cananéens représentant leurs voisins les Ismaélites, qui conduisaient des caravanes commerciales)",
    "xlit": "Kᵉnaʻanîy"
}