{
    "derivation": "de H3665 (כָּנַע) ; humilié ;",
    "frequency": 93,
    "kjv_def": "Canaan, marchand, trafiquant.",
    "lemma": "כְּנַעַן",
    "outline": "<span class=\"literal-meaning\">Canaan = &quot;plaine&quot;.</span><ol><li> le quatrième fils de Cham et l'ancêtre des Phéniciens et des diverses nations qui ont peuplé la côte de la Palestine</li><li> terre située à l'ouest du Jourdain, peuplée par les descendants de Canaan, puis conquise par les Israélites sous Josué</li><li> marchand, commerçant</li></ol>",
    "pron": "ken-ah'-an",
    "strongs_def": "Kenaan, fils de Cham, et le pays qu'il habitait",
    "xlit": "Kᵉnaʻan"
}