{
    "derivation": "de H3661 (כָּנַן) ; planté ;",
    "frequency": 1,
    "kjv_def": "Chenani.",
    "lemma": "כְּנָנִי",
    "outline": "<span class=\"literal-meaning\">Chenani = &quot; ma station &quot;.</span><ol><li> l'un des lévites qui assistaient à la purification solennelle du peuple sous Esdras</li></ol>",
    "pron": "ken-aw-nee'",
    "strongs_def": "Kenani, un Israélien",
    "xlit": "Kᵉnânîy"
}