{
    "derivation": "de H3655 (כָּנָה) ;",
    "frequency": "",
    "kjv_def": "compagnon.",
    "lemma": "כְּנָת",
    "outline": "",
    "pron": "ken-awth'",
    "strongs_def": "un collègue (comme ayant le même titre)",
    "xlit": "kᵉnâth"
}