{
    "derivation": "ou כִּסֵּה ; de H3680 (כָּסָה) ;",
    "frequency": 135,
    "kjv_def": "siège, tabouret, trône.",
    "lemma": "כִּסֵּא",
    "outline": "<ol><li> siège (d'honneur), trône, siège, tabouret<ol><li> siège (d'honneur), trône</li><li> dignité royale, autorité, pouvoir (fig.)</li></ol></li></ol>",
    "pron": "kis-say'",
    "strongs_def": "proprement, couvert, c'est-à-dire un trône (comme canopied)",
    "xlit": "kiççêʼ"
}