{
    "derivation": "une racine primitive ;",
    "frequency": 152,
    "kjv_def": "se vêtir, fermer, vêtir, dissimuler, couvrir (soi), (fuir pour) se cacher, accabler. Comparer avec H3780 (כָּשָׂה).",
    "lemma": "כָּסָה",
    "outline": "<ol><li> couvrir, dissimuler, cacher<ol><li> (Qal) dissimuler, couvrir (participe)</li><li> (Niphal) être couvert</li><li> (Piel)<ol><li> couvrir, vêtir</li><li> couvrir, dissimuler</li><li> couvrir (pour se protéger)</li><li> couvrir, s'étendre sur</li><li> couvrir, accabler</li></ol><li>(Pual)<ol><li> se couvrir</li><li>, se vêtir</li></ol><li> (Hithpael) se couvrir, se vêtir</li>(Piel)</li> </ol></li></ol>",
    "pron": "kaw-saw'",
    "strongs_def": "à proprement parler, gonfler, c'est-à-dire remplir les creux ; implicitement, couvrir (pour l'habillement ou le secret)",
    "xlit": "kâçâh"
}