{
    "derivation": "identique à H3684 (כְּסִיל) ;",
    "frequency": 1,
    "kjv_def": "Chesil.",
    "lemma": "כְּסִיל",
    "outline": "<span class=\"literal-meaning\">Chesil = &quot;insensé</span><ol><li> une ville à l'extrême sud de Juda et à 15 miles au sud-ouest de Beersheba ; peut-être la même chose que 1329</li></ol>",
    "pron": "kes-eel'",
    "strongs_def": "Kesil, un lieu en Palestine",
    "xlit": "Kᵉçîyl"
}