{
    "derivation": "de H3688 (כָּסַל) ; fertile ;",
    "frequency": 1,
    "kjv_def": "Chesalon.",
    "lemma": "כְּסָלוֹן",
    "outline": "<span class=\"literal-meaning\">Chesalon = &quot;espoirs</span><ol><li> ville située à la frontière nord de Judée, à environ 15 km à l'ouest de Jérusalem</li></ol>",
    "pron": "kes-aw-lone'",
    "strongs_def": "Kesalon, un lieu en Palestine",
    "xlit": "Kᵉçâlôwn"
}