{
    "derivation": "féminin de H3715 (כְּפִיר) ; le village (toujours avec l'art.) ;",
    "frequency": 4,
    "kjv_def": "Chephirah.",
    "lemma": "כְּפִירָה",
    "outline": "<span class=\"literal-meaning\">Chephirah = &quot;lionne</span><ol><li> une ville des Gibéonites attribuée ensuite à la tribu de Benjamin</li></ol>",
    "pron": "kef-ee-raw'",
    "strongs_def": "Kephirah, un lieu en Palestine",
    "xlit": "Kᵉphîyrâh"
}