{
    "derivation": "de H336 (אִי)lemme אי voyelle manquante, corrigé à אִי et H5828 (עֵזֶר) ; impuissant ;",
    "frequency": 1,
    "kjv_def": "Jeezer.",
    "lemma": "אִיעֶזֵר",
    "outline": "<span class=\"literal-meaning\">Jeezer = &quot;aucune aide&quot;</span><ol><li> un descendant de Manassé</li></ol>",
    "pron": "ee-eh'-zer",
    "strongs_def": "Iezer, un Israélite",
    "xlit": "ʼÎyʻezêr"
}