{
    "derivation": "(Araméen) une racine de correspondance incertaine ;",
    "frequency": 4,
    "kjv_def": "lier.",
    "lemma": "כְּפַת",
    "outline": "<ol><li> lier<ol><li> (P'il) être lié</li><li> (Pael) lier</li></ol></li></ol>",
    "pron": "kef-ath'",
    "strongs_def": "d'enchaîner",
    "xlit": "kᵉphath"
}