{
    "derivation": "de H3719 (כָּפַן) ;",
    "frequency": "",
    "kjv_def": "la famine.",
    "lemma": "כָּפָן",
    "outline": "",
    "pron": "kaw-fawn'",
    "strongs_def": "la faim (comme faisant s'abaisser avec vide et douleur)",
    "xlit": "kâphân"
}