{
    "derivation": "une racine primitive ;",
    "frequency": 17,
    "kjv_def": "creuser, [idiome] faire (un banquet), ouvrir.",
    "lemma": "כָּרָה",
    "outline": "<ol><li> creuser, excaver, fouiller<ol><li> (Qal) creuser</li><li> (Niphal) être creusé</li></ol><li> (Qal) donner un banquet ou une fête</li><li> (Qal) obtenir par le commerce, échanger, acheter</li></ol>",
    "pron": "kaw-raw'",
    "strongs_def": "au sens propre, creuser ; au sens figuré, tracer ; en général, percer ou ouvrir",
    "xlit": "kârâh"
}