{
    "derivation": "identique à H3742 (כְּרוּב) ;",
    "frequency": 2,
    "kjv_def": "Chérubin.",
    "lemma": "כְּרוּב",
    "outline": "<span class=\"literal-meaning\">Chérubin = &quot; bénédiction &quot;.</span><ol><li> une colonie exilique apparente en Babylonie d'où certaines personnes d'origine douteuse sont revenues avec Zerubbabel</li></ol>",
    "pron": "ker-oob'",
    "strongs_def": "Kerub, un endroit à Babylone",
    "xlit": "Kᵉrûwb"
}