{
    "derivation": "féminin de H3733 (כַּר) ;",
    "frequency": "",
    "kjv_def": "chalet.",
    "lemma": "כָּרָה",
    "outline": "",
    "pron": "kaw-raw'",
    "strongs_def": "une prairie",
    "xlit": "kârâh"
}