{
    "derivation": "de H3739 (כָּרָה) ;",
    "frequency": 1,
    "kjv_def": "disposition.",
    "lemma": "כֵּרָה",
    "outline": "<ol><li> festin</li></ol>",
    "pron": "kay-raw'",
    "strongs_def": "un achat",
    "xlit": "kêrâh"
}