{
    "derivation": "de H335 (אַי) et H6311 (פֹּה) ;",
    "frequency": 10,
    "kjv_def": "de quelle manière, où.",
    "lemma": "אֵיפֹה",
    "outline": "<ol><li> où ?</li><li> quel genre ?</li></ol>",
    "pron": "ay-fo'",
    "strongs_def": "quel lieu? ; également (de temps) quand? ; ou (de moyens) comment ?",
    "xlit": "ʼêyphôh"
}