{
    "derivation": "probablement d'origine étrangère ;",
    "frequency": 3,
    "kjv_def": "cramoisi.",
    "lemma": "כַּרְמִיל",
    "outline": "<ol><li> cramoisi, rouge, carmin</li></ol>",
    "pron": "kar-mele'",
    "strongs_def": "le carmin, un rouge profond",
    "xlit": "karmîyl"
}