{
    "derivation": "à partir d'une racine inutilisée de signification incertaine ;",
    "frequency": 93,
    "kjv_def": "vignes, (augmentation de la) vigne(s), vendange. Voir aussi H1021 (בֵּית הַכֶּרֶם).",
    "lemma": "כֶּרֶם",
    "outline": "<ol><li> vignoble</li></ol>",
    "pron": "keh'-rem",
    "strongs_def": "un jardin ou un vignoble",
    "xlit": "kerem"
}