{
    "derivation": "de H3754 (כֶּרֶם) ;",
    "frequency": 15,
    "kjv_def": "épis pleins (verts), champ (lieu) fructueux, abondant (champ).",
    "lemma": "כַּרְמֶל",
    "outline": "<ol><li> plantation, terre-jardin, verger, verger à fruits</li><li> fruit, jardin-terre (meton)</li></ol>",
    "pron": "kar-mel'",
    "strongs_def": "un champ planté (jardin, verger, vignoble ou parc) ; par voie de conséquence, les produits du jardin",
    "xlit": "karmel"
}