{
    "derivation": "une racine primitive ;",
    "frequency": 36,
    "kjv_def": "s'incliner, s'abaisser, jeter à terre, s'allonger, tomber, faible, s'agenouiller, s'enfoncer, s'abaisser, se soumettre, [idiome] très.",
    "lemma": "כָּרַע",
    "outline": "<ol><li> se pencher, s'agenouiller, s'incliner, se prosterner, s'enfoncer à genoux, s'agenouiller au repos (des animaux), s'agenouiller en signe de révérence<ol><li> (Qal)<ol><li> s'incliner</li><li> s'incliner, s'accroupir</li><li> s'incliner sur</li><li> s'incliner, se pencher</li></ol><li> (Hiphil) faire plier</li></ol></li></ol>",
    "pron": "kaw-rah'",
    "strongs_def": "fléchir le genou ; implicitement, s'enfoncer, se prosterner",
    "xlit": "kâraʻ"
}