{
    "derivation": "identique à H3759 (כַּרְמֶל) ;",
    "frequency": 24,
    "kjv_def": "Carmel, champ fructueux (abondant), (lieu).",
    "lemma": "כַּרְמֶל",
    "outline": "<span class=\"literal-meaning\">Carmel = &quot;terre-jardin&quot;.</span><ol><li> une montagne sur la côte méditerranéenne du nord d'Israël, juste en dessous de Haïfa</li><li> une ville située dans les montagnes, à l'ouest de la mer Morte et au sud d'Hébron</li></ol>",
    "pron": "kar-mel'",
    "strongs_def": "Karmel, le nom d'une colline et d'une ville en Palestine",
    "xlit": "Karmel"
}