{
    "derivation": "apparemment par transposition pour H3532 (כֶּבֶשׂ) ;",
    "frequency": 13,
    "kjv_def": "agneau.",
    "lemma": "כֶּשֶׂב",
    "outline": "<ol><li> agneau, jeune bélier, mouton</li></ol>",
    "pron": "keh'-seb",
    "strongs_def": "un jeune mouton",
    "xlit": "keseb"
}