{
    "derivation": "une racine primitive proprement, être droit ou juste ;",
    "frequency": 3,
    "kjv_def": "direct, être juste, prospérer.",
    "lemma": "כָּשֵׁר",
    "outline": "<ol><li> réussir, plaire, être convenable, être approprié, être avantageux, être juste et approprié pour<ol><li> (Qal) plaire, être convenable</li><li> (Hiphil) pour donner du succès</li></ol></li></ol>",
    "pron": "kaw-share'",
    "strongs_def": "par implication, être acceptable ; également réussir ou prospérer",
    "xlit": "kâshêr"
}