{
    "derivation": "(Araméen) correspondant à H3789 (כָּתַב)",
    "frequency": 8,
    "kjv_def": "écrire (-ten).",
    "lemma": "כְּתַב",
    "outline": "<ol><li> écrire<ol><li> (P'al) écrire, être écrit</li></ol></li></ol>",
    "pron": "keth-ab'",
    "strongs_def": "{pour grave, par implication, pour écrire (décrire, inscrire, prescrire, souscrire)}",
    "xlit": "kᵉthab"
}