{
    "derivation": "de H1 (אָב) et H3220 (יָם) ; père de la mer (c'est-à-dire marin) ;",
    "frequency": 5,
    "kjv_def": "Abijam.",
    "lemma": "אֲבִיָּם",
    "outline": "<span class=\"literal-meaning\">Abijam = &quot; mon père est la mer &quot; ou &quot; Yah(u) est (mon) père &quot;.</span><ol><li> roi de Judée, fils et successeur de Roboam</li></ol>",
    "pron": "ab-ee-yawm'",
    "strongs_def": "Abijam (ou Abijah), roi de Judée",
    "xlit": "ʼĂbîyâm"
}