{
    "derivation": "ou כֻּתֹּנֶת ; d'une racine inutilisée signifiant couvrir (comparer H3802 (כָּתֵף)) ;",
    "frequency": 29,
    "kjv_def": "manteau, vêtement, robe.",
    "lemma": "כְּתֹנֶת",
    "outline": "<ol><li> tunique, sous-vêtement<ol><li> un long vêtement ressemblant à une chemise, généralement en lin</li></ol></li></ol>",
    "pron": "keth-o'-neth",
    "strongs_def": "une chemise",
    "xlit": "kᵉthôneth"
}