{
    "derivation": "participe actif féminin de H3803 (כָּתַר) ;",
    "frequency": 24,
    "kjv_def": "chapiter.",
    "lemma": "כֹתֶרֶת",
    "outline": "<ol><li> couronne capitale, capitale d'un pilier</li></ol>",
    "pron": "ko-theh'-reth",
    "strongs_def": "le capital d'une colonne",
    "xlit": "kôthereth"
}