{
    "derivation": "(araméen) correspondant à H3820 (לֵב)",
    "frequency": 1,
    "kjv_def": "cœur.",
    "lemma": "לֵב",
    "outline": "<ol><li> cœur, esprit</li></ol>",
    "pron": "labe",
    "strongs_def": "{le cœur ; également utilisé (au sens figuré) très largement pour les sentiments, la volonté et même l'intellect ; de même pour le centre de toute chose}",
    "xlit": "lêb"
}