{
    "derivation": "(Araméen) correspondant à H3824 (לֵבָב)",
    "frequency": 7,
    "kjv_def": "cœur.",
    "lemma": "לְבַב",
    "outline": "<ol><li> cœur, esprit</li></ol>",
    "pron": "leb-ab'",
    "strongs_def": "{le cœur (comme l'organe le plus intérieur);}",
    "xlit": "lᵉbab"
}