{
    "derivation": "ou plutôt לְבִבָה ; de H3823 (לָבַב) dans son sens premier de graisse (ou peut-être de pliage) ;",
    "frequency": 3,
    "kjv_def": "gâteau.",
    "lemma": "לָבִיבָה",
    "outline": "<ol><li> gâteaux, pain</li></ol>",
    "pron": "law-bee-baw'",
    "strongs_def": "un gâteau (frit ou tourné)",
    "xlit": "lâbîybâh"
}