{
    "derivation": "une racine primitive ;",
    "frequency": 3,
    "kjv_def": "tomber.",
    "lemma": "לָבַט",
    "outline": "<ol><li> jeter à terre, enfoncer, rejeter, mettre à l'écart<ol><li> (Niphal) être poussé, être repoussé, être jeté, être mis de côté</li></ol></li></ol>",
    "pron": "law-bat'",
    "strongs_def": "renverser ; intransmissible, tomber",
    "xlit": "lâbaṭ"
}