{
    "derivation": "de H3835 (לָבַן) ;",
    "frequency": 2,
    "kjv_def": "peuplier.",
    "lemma": "לִבְנֶה",
    "outline": "<ol><li> peuplier, peuplier blanc<ol><li> un arbre qui exsude une gomme d'un blanc laiteux</li></ol></li></ol>",
    "pron": "lib-neh'",
    "strongs_def": "une sorte d'arbre blanchâtre, peut-être le storax",
    "xlit": "libneh"
}