{
    "derivation": "identique à H3839 (לִבְנֶה) ;",
    "frequency": 18,
    "kjv_def": "Libnah.",
    "lemma": "לִבְנָה",
    "outline": "<span class=\"literal-meaning\">Libnah = &quot;pavé</span><ol><li> une ville royale des Cananéens dans le sud-ouest, capturée par Josué ; attribuée à Juda et transformée en ville lévitique ; site inconnu</li><li> une station entre le Sinaï et Kadesh d'Israël pendant leurs pérégrinations dans le désert</li></ol>",
    "pron": "lib-naw'",
    "strongs_def": "Libnah, un lieu dans le désert et un en Palestine",
    "xlit": "Libnâh"
}