{
    "derivation": "ou לַהֶבֶת ; féminin de H3851 (לַהַב), et ayant la même signification",
    "frequency": 19,
    "kjv_def": "flamme(-ming), tête (d'une lance).",
    "lemma": "לֶהָבָה",
    "outline": "<ol><li> flamme</li><li> extrémité de l'arme, pointe, tête de la lance</li></ol>",
    "pron": "leh-aw-baw'",
    "strongs_def": "{un éclair ; au sens figuré, une lame ou une pointe d'arme polie}",
    "xlit": "lehâbâh"
}