{
    "derivation": "d'une racine inutilisée signifiant être impatient ;",
    "frequency": 1,
    "kjv_def": "étude.",
    "lemma": "לַהַג",
    "outline": "<ol><li> étudier, étudier, se consacrer à l'étude</li></ol>",
    "pron": "lah'-hag",
    "strongs_def": "application mentale intense",
    "xlit": "lahag"
}