{
    "derivation": "de H3857 (לָהַט) ;",
    "frequency": 2,
    "kjv_def": "flamme, enchantement.",
    "lemma": "לַהַט",
    "outline": "<ol><li> flamme (d'une épée angélique)</li></ol>",
    "pron": "lah'-hat",
    "strongs_def": "une flambée ; également (de l'idée d'envelopper) magique (comme caché)",
    "xlit": "lahaṭ"
}