{
    "derivation": "ou לֻבִּי ; (Daniel 11:43), partie d'un nom probablement dérivé d'une racine inutilisée signifiant avoir soif, c'est-à-dire une région sèche ; apparemment",
    "frequency": 4,
    "kjv_def": "Lubim(-s), Libyens.",
    "lemma": "לוּבִי",
    "outline": "<span class=\"literal-meaning\">Libyens = &quot;au cœur vide (Dn. 11:43)&quot;.</span><ol><li>class='lex2'&gt;= &quot;affligé (Jr. 46:9)&quot;.</li></ol><li> un peuple d'Afrique du Nord à l'ouest de l'Egypte</li></ol>",
    "pron": "loo-bee'",
    "strongs_def": "un Libyen ou un habitant de l'intérieur de l'Afrique (uniquement au pluriel)",
    "xlit": "Lûwbîy"
}