{
    "derivation": "de H3875 (לוֹט) ; couverture ;",
    "frequency": 7,
    "kjv_def": "Lotan.",
    "lemma": "לוֹטָן",
    "outline": "<span class=\"literal-meaning\">Lotan = &quot; couverture &quot;.</span><ol><li> fils aîné de Séir le Horite</li></ol>",
    "pron": "lo-tawn'",
    "strongs_def": "Lotan, un Iduméen",
    "xlit": "Lôwṭân"
}