{
    "derivation": "ou לֻחַ ; d'une racine primitive ;",
    "frequency": 43,
    "kjv_def": "planche, plaque, table.",
    "lemma": "לוּחַ",
    "outline": "<ol><li> planche, dalle, tablette, planche<ol><li> tablettes (de pierre)</li><li> planches (de bois)</li><li> plaque (de métal)</li></ol></li></ol>",
    "pron": "loo'-akh",
    "strongs_def": "signifiant probablement \"briller\" ; une tablette (comme polie), en pierre, en bois ou en métal",
    "xlit": "lûwach"
}