{
    "derivation": "de H3874 (לוּט) ;",
    "frequency": 1,
    "kjv_def": "couvrant.",
    "lemma": "לוֹט",
    "outline": "<ol><li> couverture, enveloppe</li></ol>",
    "pron": "lote",
    "strongs_def": "un voile",
    "xlit": "lôwṭ"
}