{
    "derivation": "identique à H386 (אֵיתָן) ; permanent ;",
    "frequency": 8,
    "kjv_def": "Ethan.",
    "lemma": "אֵיתָן",
    "outline": "<span class=\"literal-meaning\">Ethan = &quot;durable&quot;</span><ol><li> un Ezrachite connu pour sa sagesse</li><li> petit-fils de Juda, père d'Azaria</li><li> un Kohathite descendant de Lévi</li><li> mérarite, fils de Kushaiah, descendant de Lévi</li></ol>",
    "pron": "ay-thawn'",
    "strongs_def": "Ethan, le nom de quatre Israélites",
    "xlit": "ʼÊythân"
}