{
    "derivation": "une racine primitive ;",
    "frequency": 5,
    "kjv_def": "pétrir.",
    "lemma": "לוּשׁ",
    "outline": "<ol><li> (Qal) pétrir (la pâte)</li></ol>",
    "pron": "loosh",
    "strongs_def": "pour pétrir",
    "xlit": "lûwsh"
}