{
    "derivation": "de H3867 (לָוָה) ;",
    "frequency": 6,
    "kjv_def": "leviathan, en deuil.",
    "lemma": "לִוְיָתָן",
    "outline": "<ol><li> léviathan, monstre marin, dragon<ol><li> grand animal aquatique</li><li> peut-être le dinosaure disparu, plésiosaure, signification exacte inconnue</li></ol></li></ol>",
    "pron": "liv-yaw-thawn'",
    "strongs_def": "un animal enveloppé, c'est-à-dire un serpent (surtout le crocodile ou un autre grand monstre marin) ; au sens figuré, la constellation du dragon ; également comme symbole de Babylone",
    "xlit": "livyâthân"
}