{
    "derivation": "de H3867 (לָוָה) ;",
    "frequency": 2,
    "kjv_def": "ornement.",
    "lemma": "לִוְיָה",
    "outline": "<ol><li> couronne</li></ol>",
    "pron": "liv-yaw'",
    "strongs_def": "quelque chose d'attaché, par exemple une couronne de fleurs",
    "xlit": "livyâh"
}