{
    "derivation": "ou לִין ; une racine primitive ;",
    "frequency": 83,
    "kjv_def": "demeurer (toute la nuit), continuer, habiter, endurer, rancune, être laissé, mentir toute la nuit, (faire) loger (toute la nuit, dans, -ing, cette nuit), (faire) murmurer, rester, s'attarder (toute la nuit, cette nuit).",
    "lemma": "לוּן",
    "outline": "<ol><li> loger, s'arrêter, passer la nuit, demeurer<ol><li> (Qal)<ol><li> loger, passer la nuit</li><li> demeurer, rester (fig.)</li></ol><li> (Hiphil) faire reposer ou loger</li><li> (Hithpalpel) habiter, deme</li>urer</ol><li> to grumble, complain, murmur<ol><li> (Niphal) to grumble</li><li> (Hiphil) to complain, cause to grumble</li></ol></li></ol>",
    "pron": "loon",
    "strongs_def": "s'arrêter (généralement pendant la nuit) ; implicitement, rester en permanence ; d'où (dans un mauvais sens) être obstiné (surtout en paroles, se plaindre)",
    "xlit": "lûwn"
}