{
    "derivation": "une racine primitive ;",
    "frequency": 6,
    "kjv_def": "lécher (vers le haut).",
    "lemma": "לָחַךְ",
    "outline": "<ol><li> lécher, lécher<ol><li> (Qal) lécher</li><li> (Piel) lécher</li></ol></li></ol>",
    "pron": "law-khak'",
    "strongs_def": "à lécher",
    "xlit": "lâchak"
}