{
    "derivation": "de même que H3892 (לַח) ;",
    "frequency": 1,
    "kjv_def": "force naturelle.",
    "lemma": "לֵחַ",
    "outline": "<ol><li> humidité, fraîcheur, vigueur</li></ol>",
    "pron": "lay'-akh",
    "strongs_def": "la fraîcheur, c'est-à-dire la vigueur",
    "xlit": "lêach"
}