{
    "derivation": "une racine primitive ;",
    "frequency": 3,
    "kjv_def": "charmeur, chuchoteur (ensemble).",
    "lemma": "לָחַשׁ",
    "outline": "<ol><li> chuchoter, charmer, conjurer<ol><li> (Piel) charmeurs, conjurés, chuchoteurs (participe)</li><li> (Hithpael) chuchoter l'un à l'autre</li></ol></li></ol>",
    "pron": "law-khash'",
    "strongs_def": "chuchoter ; implicitement, marmonner (comme un magicien)",
    "xlit": "lâchash"
}