{
    "derivation": "probablement par transcription erronée pour לַחְמָם ; de H3899 (לֶחֶם) ; semblable à un aliment ;",
    "frequency": 1,
    "kjv_def": "Lahmam.",
    "lemma": "לַחְמָס",
    "outline": "<span class=\"literal-meaning\">Lahmam = &quot;provisions</span><ol><li> une ville dans la plaine de Juda</li></ol>",
    "pron": "lakh-maws'",
    "strongs_def": "Lachmam ou Lachmas, un lieu en Palestine",
    "xlit": "Lachmâç"
}