{
    "derivation": "de H3905 (לָחַץ) ;",
    "frequency": 12,
    "kjv_def": "l'affliction, l'oppression.",
    "lemma": "לַחַץ",
    "outline": "<ol><li> oppression, détresse, pression</li></ol>",
    "pron": "lakh'-ats",
    "strongs_def": "détresse",
    "xlit": "lachats"
}