{
    "derivation": "de H3907 (לָחַשׁ) ;",
    "frequency": 5,
    "kjv_def": "charmé, boucle d'oreille, enchantement, orateur, prière.",
    "lemma": "לַחַשׁ",
    "outline": "<ol><li> chuchotement, charme<ol><li> charmeur de serpent</li><li> charmes, amulettes (portés par les femmes)</li><li> chuchotement (de la prière)</li></ol></li></ol>",
    "pron": "lakh'-ash",
    "strongs_def": "proprement, un murmure, c'est-à-dire, implicitement, (dans un bon sens) une prière privée, (dans un mauvais sens) une incantation ; concrètement, une amulette",
    "xlit": "lachash"
}