{
    "derivation": "identique à H3918 (לַיִשׁ) ;",
    "frequency": "",
    "kjv_def": "Laish. Comparer avec H3889 (לוּשׁ).",
    "lemma": "לַיִשׁ",
    "outline": "",
    "pron": "lah'-yish",
    "strongs_def": "Laish, le nom de deux endroits en Palestine",
    "xlit": "Layish"
}