{
    "derivation": "de H3915 (לַיִל) ;",
    "frequency": 1,
    "kjv_def": "chouette effraie.",
    "lemma": "לִילִית",
    "outline": "<ol><li> &quot;Lilith&quot;, nom d'une déesse féminine connue comme un démon nocturne qui hante les lieux désolés d'Edom<ol><li> pourrait être un animal nocturne qui habite les lieux désolés</li></ol></li></ol>",
    "pron": "lee-leeth'",
    "strongs_def": "un spectre nocturne",
    "xlit": "lîylîyth"
}