{
    "derivation": "de H3212 (יָלַךְ) ; un voyage ;",
    "frequency": 1,
    "kjv_def": "Lecah.",
    "lemma": "לֵכָה",
    "outline": "<span class=\"literal-meaning\">Lecah = &quot;voyage</span><ol><li> une ville de Judée ; site inconnu</li></ol>",
    "pron": "lay-kaw'",
    "strongs_def": "Lekah, un lieu en Palestine",
    "xlit": "lêkâh"
}