{
    "derivation": "de H3932 (לָעַג) ;",
    "frequency": 6,
    "kjv_def": "la dérision, le mépris (-ing).",
    "lemma": "לַעַג",
    "outline": "<ol><li> moquerie, dérision, bégaiement<ol><li> moquerie, dérision</li><li> bégaiements</li></ol></li></ol>",
    "pron": "lah'-ag",
    "strongs_def": "dérision, moquerie",
    "xlit": "laʻag"
}