{
    "derivation": "d'une racine inutilisée qui signifierait arrêter par une barricade ; peut-être une fortification ;",
    "frequency": 1,
    "kjv_def": "Lakum.",
    "lemma": "לַקּוּם",
    "outline": "<span class=\"literal-meaning\">Lakum = &quot; fortification &quot;.</span><ol><li> une ville à la frontière nord de Nephtali</li></ol>",
    "pron": "lak-koom'",
    "strongs_def": "Lakkum, un lieu en Palestine",
    "xlit": "Laqqûwm"
}