{
    "derivation": "ou לַפִּד ; d'une racine inutilisée signifiant probablement briller ;",
    "frequency": 14,
    "kjv_def": "Marque (de feu), lampe (brûlante), foudre, torche.",
    "lemma": "לַפִּיד",
    "outline": "<ol><li> torche</li></ol>",
    "pron": "lap-peed'",
    "strongs_def": "un flambeau, une lampe ou une flamme",
    "xlit": "lappîyd"
}