{
    "derivation": "à partir d'une racine inutilisée de signification incertaine ; apparemment du jus, c'est à dire",
    "frequency": 2,
    "kjv_def": "frais, humidité.",
    "lemma": "לְשַׁד",
    "outline": "<ol><li> jus de fruit, morceau juteux, morceau délicat</li></ol>",
    "pron": "lesh-ad'",
    "strongs_def": "(au sens figuré) vigueur ; également un gâteau sucré ou gras",
    "xlit": "lᵉshad"
}