{
    "derivation": "de H394 (אַכְזָרִי) ;",
    "frequency": 1,
    "kjv_def": "cruel.",
    "lemma": "אַכְזְרִיּוּת",
    "outline": "<ol><li> cruauté, férocité, cruauté</li></ol>",
    "pron": "ak-ze-ree-ooth'",
    "strongs_def": "férocité",
    "xlit": "ʼakzᵉrîyûwth"
}