{
    "derivation": "de H3953 (לָקַשׁ) ;",
    "frequency": 2,
    "kjv_def": "cette dernière croissance.",
    "lemma": "לֶקֶשׁ",
    "outline": "<ol><li> post-culture, séquelles, culture de printemps, post-culture tardive</li></ol>",
    "pron": "leh'-kesh",
    "strongs_def": "l'après-culture",
    "xlit": "leqesh"
}