{
    "derivation": "à partir d'une racine inutilisée de signification incertaine ;",
    "frequency": 47,
    "kjv_def": "chambre, salon. Comparer avec H5393 (נִשְׁכָּה).",
    "lemma": "לִשְׁכָּה",
    "outline": "<ol><li> pièce, chambre, hall, cellule</li></ol>",
    "pron": "lish-kaw'",
    "strongs_def": "une pièce dans un bâtiment (que ce soit pour le stockage, la restauration ou le logement)",
    "xlit": "lishkâh"
}