{
    "derivation": "racine primitive ; proprement, lécher ; mais utilisé seulement comme dénominatif à partir de H3956 (לָשׁוֹן) ;",
    "frequency": "",
    "kjv_def": "accuser, calomnier.",
    "lemma": "לָשַׁן",
    "outline": "",
    "pron": "law-shan'",
    "strongs_def": "remuer la langue, c'est-à-dire calomnier",
    "xlit": "lâshan"
}