{
    "derivation": "de H239 (אָזַן) ;",
    "frequency": 15,
    "kjv_def": "soldes.",
    "lemma": "מֹאזֵן",
    "outline": "<ol><li> échelles, balances</li></ol>",
    "pron": "mo-zane'",
    "strongs_def": "(uniquement dans le double) une paire de balances",
    "xlit": "môʼzên"
}