{
    "derivation": "apparemment une forme de H3971 (מאוּם) ;",
    "frequency": 32,
    "kjv_def": "faute, [phrase] non (-devoir), devoir, quelque chose, n'importe quoi.",
    "lemma": "מְאוּמָה",
    "outline": "<ol><li> tout ce qui est</li></ol>",
    "pron": "meh-oo'-maw",
    "strongs_def": "proprement, une tache ou un point, c'est-à-dire (implicitement) quelque chose ; avec la négative, rien",
    "xlit": "mᵉʼûwmâh"
}