{
    "derivation": "de H183 (אָוָה) ;",
    "frequency": 1,
    "kjv_def": "désir.",
    "lemma": "מַאֲוַי",
    "outline": "<ol><li> désir</li></ol>",
    "pron": "mah-av-ah'ee",
    "strongs_def": "un désir",
    "xlit": "maʼăvay"
}