{
    "derivation": "de H398 (אָכַל) ;",
    "frequency": 2,
    "kjv_def": "carburant.",
    "lemma": "מַאֲכֹלֶת",
    "outline": "<ol><li> carburant</li></ol>",
    "pron": "mah-ak-o'-leth",
    "strongs_def": "quelque chose mangé (par le feu), c'est-à-dire du combustible",
    "xlit": "maʼăkôleth"
}