{
    "derivation": "de H3985 (מָאֵן) ;",
    "frequency": "",
    "kjv_def": "refuser.",
    "lemma": "מָאֵן",
    "outline": "",
    "pron": "maw-ane'",
    "strongs_def": "mauvaise volonté",
    "xlit": "mâʼên"
}