{
    "derivation": "de H693 (אָרַב) ;",
    "frequency": 5,
    "kjv_def": "se mettre en embuscade, embusquer, se tapir, se mettre à l'affût.",
    "lemma": "מַאֲרָב",
    "outline": "<ol><li> embuscade, cachette (du chasseur)<ol><li> embuscade, lieu d'affût</li><li> liers-in-wait</li></ol></li></ol>",
    "pron": "mah-ar-awb'",
    "strongs_def": "une embuscade",
    "xlit": "maʼărâb"
}