{
    "derivation": "du même que H651 (אָפֵל) ;",
    "frequency": 1,
    "kjv_def": "l'obscurité.",
    "lemma": "מַאֲפֵל",
    "outline": "<ol><li> obscurité</li></ol>",
    "pron": "mah-af-ale'",
    "strongs_def": "quelque chose d'opaque",
    "xlit": "maʼăphêl"
}