{
    "derivation": "de H981 (בָּטָא) ;",
    "frequency": 2,
    "kjv_def": "(ce qui...) prononcé (de).",
    "lemma": "מִבְטָא",
    "outline": "<ol><li> déclaration irréfléchie, vœu hâtif</li></ol>",
    "pron": "mib-taw'",
    "strongs_def": "une déclaration irréfléchie (vœu hâtif)",
    "xlit": "mibṭâʼ"
}