{
    "derivation": "identique à H4005 (מִבְחָר) ;",
    "frequency": 1,
    "kjv_def": "Mibhar.",
    "lemma": "מִבְחָר",
    "outline": "<span class=\"literal-meaning\">Mibhar = &quot;choix&quot;</span><ol><li> un des puissants guerriers de David</li></ol>",
    "pron": "mib-khawr'",
    "strongs_def": "Mibchar, un Israélite",
    "xlit": "Mibchâr"
}