{
    "derivation": "de H954 (בּוּשׁ) ;",
    "frequency": "",
    "kjv_def": "secrets.",
    "lemma": "מָבֻשׁ",
    "outline": "",
    "pron": "maw-boosh'",
    "strongs_def": "(pluriel) le pudenda (masculin)",
    "xlit": "mâbush"
}