{
    "derivation": "d'une racine inutilisée signifiant probablement être éminent ;",
    "frequency": 8,
    "kjv_def": "un fruit agréable, précieux (chose).",
    "lemma": "מֶגֶד",
    "outline": "<ol><li> excellence</li></ol>",
    "pron": "meh'-ghed",
    "strongs_def": "à proprement parler, une chose distinguée ; donc quelque chose de précieux, comme un produit ou un fruit",
    "xlit": "meged"
}