{
    "derivation": "féminin de H4032 (מָגוֹר) ;",
    "frequency": 1,
    "kjv_def": "peur.",
    "lemma": "מְגוֹרַה",
    "outline": "<ol><li> peur, terreur</li></ol>",
    "pron": "meg-o-raw'",
    "strongs_def": "effarouché",
    "xlit": "mᵉgôwrah"
}