{
    "derivation": "ou מָגֻר ; de H1481 (גּוּר) dans le sens de logement ;",
    "frequency": 11,
    "kjv_def": "habitation, pèlerinage, où séjourner, être un étranger. Comparer avec H4032 (מָגוֹר).",
    "lemma": "מָגוּר",
    "outline": "<ol><li> lieu de séjour, lieu d'habitation, séjour<ol><li> lieu d'habitation</li><li> séjour, vie</li></ol></li></ol>",
    "pron": "maw-goor'",
    "strongs_def": "une résidence temporaire ; par extension, une résidence permanente",
    "xlit": "mâgûwr"
}