{
    "derivation": "de H1556 (גָּלַל) ;",
    "frequency": 21,
    "kjv_def": "rouleau, volume.",
    "lemma": "מְגִלָּה",
    "outline": "<ol><li> rouleau, livre, écriture</li></ol>",
    "pron": "meg-il-law'",
    "strongs_def": "un rouleau",
    "xlit": "mᵉgillâh"
}