{
    "derivation": "un dénominatif de H4043 (מָגֵן) ;",
    "frequency": "",
    "kjv_def": "livrer.",
    "lemma": "מָגַן",
    "outline": "",
    "pron": "maw-gan'",
    "strongs_def": "au sens propre, protéger ; entourer de ; au sens figuré, sauver, remettre en sécurité (c'est-à-dire se rendre)",
    "xlit": "mâgan"
}