{
    "derivation": "également (au pluriel) féminin מְגִנָּה ; de H1598 (גָּנַן) ;",
    "frequency": 63,
    "kjv_def": "[idiome] armé, bouclier, défense, règle, [phrase] balance, bouclier.",
    "lemma": "מָגֵן",
    "outline": "<ol><li> bouclier, bouclier</li></ol>",
    "pron": "maw-gane'",
    "strongs_def": "un bouclier (c'est-à-dire le petit ou le bouclier) ; au sens figuré, un protecteur ; également la peau écailleuse du crocodile",
    "xlit": "mâgên"
}