{
    "derivation": "(Araméen) de H1684 (דְּבַח) ;",
    "frequency": 1,
    "kjv_def": "l'autel.",
    "lemma": "מַדְבַּח",
    "outline": "<ol><li> autel</li></ol>",
    "pron": "mad-bakh'",
    "strongs_def": "un autel sacrificiel",
    "xlit": "madbach"
}