{
    "derivation": "de H5074 (נָדַד) ;",
    "frequency": 1,
    "kjv_def": "est parti.",
    "lemma": "מִדַּד",
    "outline": "<ol><li> (Piel) faire une extension, continuer</li></ol>",
    "pron": "mid-dad'",
    "strongs_def": "vol",
    "xlit": "middad"
}