{
    "derivation": "de H1639 (גָּרַע) ;",
    "frequency": 1,
    "kjv_def": "repos étroit.",
    "lemma": "מִגְרָעָה",
    "outline": "<ol><li> renfoncement, rebord, dégrèvement</li></ol>",
    "pron": "mig-raw-aw'",
    "strongs_def": "un rebord ou un décalage",
    "xlit": "migrâʻâh"
}