{
    "derivation": "de H4048 (מָגַר) ; précipice ;",
    "frequency": 2,
    "kjv_def": "Migron.",
    "lemma": "מִגְרוֹן",
    "outline": "<span class=\"literal-meaning\">Migron = &quot;précipice&quot;</span><ol><li> un lieu près de Gibéa au nord de Michmash</li></ol>",
    "pron": "mig-rone'",
    "strongs_def": "Migron, un lieu en Palestine",
    "xlit": "Migrôwn"
}