{
    "derivation": "de H1738 (דָּוָה) ;",
    "frequency": 2,
    "kjv_def": "maladie.",
    "lemma": "מַדְוֶה",
    "outline": "<ol><li> maladie, malaise</li></ol>",
    "pron": "mad-veh'",
    "strongs_def": "maladie",
    "xlit": "madveh"
}