{
    "derivation": "de H5080 (נָדַח) ;",
    "frequency": 1,
    "kjv_def": "cause du bannissement.",
    "lemma": "מַדּוּחַ",
    "outline": "<ol><li> la séduction, l'attrait, une chose pour attirer à l'écart</li></ol>",
    "pron": "mad-doo'akh",
    "strongs_def": "séduction",
    "xlit": "maddûwach"
}