{
    "derivation": "ou מַדֻּעַ ; de H4100 (מָה) et du participe passif de H3045 (יָדַע) ;",
    "frequency": 72,
    "kjv_def": "comment, pourquoi, pourquoi.",
    "lemma": "מַדּוּעַ",
    "outline": "<ol><li> pourquoi ?, pour quelle raison ?, pourquoi ?</li></ol>",
    "pron": "mad-doo'-ah",
    "strongs_def": "ce qui (est) connu ; c'est-à-dire (par implication) (adverbialement) pourquoi ?",
    "xlit": "maddûwaʻ"
}