{
    "derivation": "de H3784 (כָּשַׁף) ; fascination ;",
    "frequency": 3,
    "kjv_def": "Achshaph.",
    "lemma": "אַכְשָׁף",
    "outline": "<span class=\"literal-meaning\">Achshaph = &quot;Je serai ensorcelé&quot;.</span><ol><li> ville au nord de Canaan, au pied du Carmel</li></ol>",
    "pron": "ak-shawf'",
    "strongs_def": "Acshaph, un lieu en Palestine",
    "xlit": "ʼAkshâph"
}