{
    "derivation": "ou מְדֻרָה ; de H1752 (דּוּר) dans le sens d'accumulation ;",
    "frequency": 2,
    "kjv_def": "pile (pour le feu).",
    "lemma": "מְדוּרָה",
    "outline": "<ol><li> tas (de combustible), bûcher, tas (de bois)</li></ol>",
    "pron": "med-oo-raw'",
    "strongs_def": "une pile de carburant",
    "xlit": "mᵉdûwrâh"
}