{
    "derivation": "patronymique ou patrial de H4080 (מִדְיָן) ;",
    "frequency": 8,
    "kjv_def": "Midianite. Comparez H4092 (מְדָנִי).",
    "lemma": "מִדְיָנִי",
    "outline": "<span class=\"literal-meaning\">Midianite = voir Midian &quot;conflit&quot;.</span><ol><li> un membre de la tribu de Midian</li><li> un habitant du pays de Midian</li></ol>",
    "pron": "mid-yaw-nee'",
    "strongs_def": "un Midjanais ou un descendant (natif) de Midjan",
    "xlit": "Midyânîy"
}