{
    "derivation": "identique à H4090 (מְדָן) ;",
    "frequency": 2,
    "kjv_def": "Medan.",
    "lemma": "מְדָן",
    "outline": "<span class=\"literal-meaning\">Medan = &quot;contestation&quot;</span><ol><li> un fils d'Abraham par Keturah</li></ol>",
    "pron": "med-awn'",
    "strongs_def": "Medan, un fils d'Abraham",
    "xlit": "Mᵉdân"
}