{
    "derivation": "ou מַדַּע ; de H3045 (יָדַע) ;",
    "frequency": 6,
    "kjv_def": "la connaissance, la science, la pensée.",
    "lemma": "מַדָּע",
    "outline": "<ol><li> connaissance, pensée<ol><li> connaissance</li><li> esprit, pensée, lieu de la connaissance</li></ol></li></ol>",
    "pron": "mad-daw'",
    "strongs_def": "l'intelligence ou la conscience",
    "xlit": "maddâʻ"
}