{
    "derivation": "de H1875 (דָּרַשׁ) ;",
    "frequency": 2,
    "kjv_def": "histoire.",
    "lemma": "מִדְרָשׁ",
    "outline": "<ol><li> étude, exposition, midrash, récit, histoire<ol><li> écrits à caractère didactique</li><li> midrash - translittération du mot hébreu</li></ol></li></ol>",
    "pron": "mid-rawsh'",
    "strongs_def": "à proprement parler, une enquête, c'est-à-dire (implicitement) un traité ou une compilation élaborée",
    "xlit": "midrâsh"
}