{
    "derivation": "de H1949 (הוּם) ;",
    "frequency": 12,
    "kjv_def": "destruction, déconfiture, trouble, tumulte, vexation, vexé.",
    "lemma": "מְהוּמָה",
    "outline": "<ol><li> tumulte, confusion, désarroi, déconfiture, destruction, trouble, vexation, vexation<ol><li> tumulte, confusion, perturbation, agitation, trouble, inquiétude, panique</li><li> déconfiture</li></ol></li></ol>",
    "pron": "meh-hoo-maw'",
    "strongs_def": "la confusion ou le tumulte",
    "xlit": "mᵉhûwmâh"
}