{
    "derivation": "apparemment un dénominatif de H4100 (מָה) ;",
    "frequency": 9,
    "kjv_def": "retarder, s'attarder, rester soi, s'attarder.",
    "lemma": "מָהַהּ",
    "outline": "<ol><li> (Hithpalpel) s'attarder, tarder, attendre, retarder</li></ol>",
    "pron": "maw-hah'",
    "strongs_def": "proprement, s'interroger ou hésiter, c'est-à-dire (implicitement) être réticent",
    "xlit": "mâhahh"
}