{
    "derivation": "ou מָהִר ; de H4116 (מָהַר) ;",
    "frequency": 4,
    "kjv_def": "diligent, hâtif, prêt.",
    "lemma": "מָהִיר",
    "outline": "<ol><li> rapide, prompt, compétent, prêt</li></ol>",
    "pron": "maw-here'",
    "strongs_def": "rapide ; donc, habile",
    "xlit": "mâhîyr"
}