{
    "derivation": "une particule démonstrative (mais seulement au sens pluriel)",
    "frequency": 9,
    "kjv_def": "ces, ces. Comparez H428 (אֵלֶּה).",
    "lemma": "אֵל",
    "outline": "<ol><li> ceux-ci, ceux-là</li></ol>",
    "pron": "ale",
    "strongs_def": "ces ou ces",
    "xlit": "ʼêl"
}