{
    "derivation": "de H4116 (מָהַר) ;",
    "frequency": 18,
    "kjv_def": "hâte, hâtivement, tout de suite, rapidement, bientôt, promptement, soudainement.",
    "lemma": "מַהֵר",
    "outline": "<ol><li> se dépêchant, rapide, prompt, se hâtant</li><li> rapidement, promptement</li></ol>",
    "pron": "mah-hare'",
    "strongs_def": "proprement, en se dépêchant ; d'où (adverbialement) en ahurissant",
    "xlit": "mahêr"
}