{
    "derivation": "de H4117 (מָהַר) ;",
    "frequency": 3,
    "kjv_def": "dot.",
    "lemma": "מֹהַר",
    "outline": "<ol><li> prix d'achat pour la femme, argent du mariage</li></ol>",
    "pron": "mo'-har",
    "strongs_def": "un prix (pour une épouse)",
    "xlit": "môhar"
}