{
    "derivation": "de H4116 (מָהַר) ; hâtif ;",
    "frequency": 3,
    "kjv_def": "Maharai.",
    "lemma": "מַהֲרַי",
    "outline": "<span class=\"literal-meaning\">Maharai = &quot;impétueux&quot;</span><ol><li> habitant de Netopha dans la tribu de Juda et l'un des puissants guerriers de David</li></ol>",
    "pron": "mah-har-ah'-ee",
    "strongs_def": "Maharai, un Israélite",
    "xlit": "Mahăray"
}