{
    "derivation": "féminin de H4118 (מַהֵר) ;",
    "frequency": 20,
    "kjv_def": "hâtivement, rapidement, peu de temps, bientôt, faire (avec) de la vitesse (-ily), rapidement.",
    "lemma": "מְהֵרָה",
    "outline": "<ol><li> hâte, vitesse<ol><li> hâtivement, rapidement (comme adverbe)</li><li> en hâte (avec prép.)</li></ol></li></ol>",
    "pron": "meh-hay-raw'",
    "strongs_def": "proprement, une hâte ; donc (adverbialement) promptement",
    "xlit": "mᵉhêrâh"
}