{
    "derivation": "ou plutôt מֹדָע ; de H3045 (יָדַע) ;",
    "frequency": 1,
    "kjv_def": "femme de la famille.",
    "lemma": "מוֹדַע",
    "outline": "<ol><li> parent, membre de la famille</li></ol>",
    "pron": "mo-dah'",
    "strongs_def": "une connaissance",
    "xlit": "môwdaʻ"
}