{
    "derivation": "une racine primitive ;",
    "frequency": 5,
    "kjv_def": "être (waxen) pauvre(-er).",
    "lemma": "מוּךְ",
    "outline": "<ol><li> (Qal) être faible, devenir pauvre, être déprimé, être pauvre</li></ol>",
    "pron": "mook",
    "strongs_def": "devenir mince, c'est-à-dire (au sens figuré) s'appauvrir",
    "xlit": "mûwk"
}