{
    "derivation": "de H3245 (יָסַד) ;",
    "frequency": 2,
    "kjv_def": "fondation.",
    "lemma": "מוֹסָד",
    "outline": "<ol><li> fondation</li></ol>",
    "pron": "mo-sawd'",
    "strongs_def": "une fondation",
    "xlit": "môwçâd"
}