{
    "derivation": "féminin de H4143 (מוּסָד) ;",
    "frequency": 1,
    "kjv_def": "fondation, mise en terre. Comparer avec H4328 (מְיֻסָּדָה).",
    "lemma": "מוּסָדָה",
    "outline": "<ol><li> fondation, nomination</li></ol>",
    "pron": "moo-saw-daw'",
    "strongs_def": "une fondation ; au sens figuré, une nomination",
    "xlit": "mûwçâdâh"
}