{
    "derivation": "(Jérémie 48:21) ou מֵיפַעַת ; ou מֵפַעַת ; de H3313 (יָפַע) ; illuminatif ;",
    "frequency": 4,
    "kjv_def": "Mephaath.",
    "lemma": "מוֹפַעַת",
    "outline": "<span class=\"literal-meaning\">Mephaath = &quot;splendeur&quot; ou &quot;hauteur&quot;.</span><ol><li> ville de Ruben attribuée aux Lévites Mérarites, située dans le district de Mishor ; emplacement incertain</li><li> une ville de Moab</li></ol>",
    "pron": "mo-fah'-ath",
    "strongs_def": "Mophaath ou Mephaath, un lieu en Palestine",
    "xlit": "Môwphaʻath"
}