{
    "derivation": "une racine primitive ;",
    "frequency": 1,
    "kjv_def": "extorqueur.",
    "lemma": "מוּץ",
    "outline": "<ol><li> (Qal) presseur, extorqueur, oppresseur</li></ol>",
    "pron": "moots",
    "strongs_def": "presser, c'est-à-dire (au sens figuré) opprimer",
    "xlit": "mûwts"
}