{
    "derivation": "de H3344 (יָקַד) ;",
    "frequency": 3,
    "kjv_def": "le feu, l'âtre.",
    "lemma": "מוֹקֵד",
    "outline": "<ol><li> une masse brûlante, brûlante, foyer</li></ol>",
    "pron": "mo-kade'",
    "strongs_def": "un feu ou un combustible ; abstraitement, une conflagration",
    "xlit": "môwqêd"
}