{
    "derivation": "de H4171 (מוּר) dans le sens de cisailler ;",
    "frequency": 3,
    "kjv_def": "rasoir.",
    "lemma": "מוֹרָה",
    "outline": "<ol><li> rasoir</li></ol>",
    "pron": "mo-raw'",
    "strongs_def": "un rasoir",
    "xlit": "môwrâh"
}