{
    "derivation": "de H3384 (יָרָה) ; (voir H3138 (יוֹרֶה))",
    "frequency": 3,
    "kjv_def": "Pluie (précoce).",
    "lemma": "מוֹרֶה",
    "outline": "<ol><li> (précoce) pluie</li><li> (TWOT) professeur</li></ol>",
    "pron": "mo-reh'",
    "strongs_def": "un archer ; également professeur ou enseignement ; également la pluie précoce",
    "xlit": "môwreh"
}