{
    "derivation": "ou מֹרִיָּה ; de H7200 (רָאָה) et H3050 (יָהּ) ; vu de Jah ;",
    "frequency": 2,
    "kjv_def": "Moriah.",
    "lemma": "מוֹרִיָּה",
    "outline": "<span class=\"literal-meaning\">Moriah = &quot;choisi par Jéhovah&quot;.</span><ol><li> le lieu où Abraham a emmené Isaac pour le sacrifice</li><li> le mont situé à l'est de Jérusalem, sur lequel Salomon a construit le temple</li></ol>",
    "pron": "mo-ree-yaw'",
    "strongs_def": "Morijah, une colline en Palestine",
    "xlit": "Môwrîyâh"
}