{
    "derivation": "patronyme de H4187 (מוּשִׁי) ;",
    "frequency": 2,
    "kjv_def": "Mushites.",
    "lemma": "מוּשִׁי",
    "outline": "<span class=\"literal-meaning\">Mushites = voir Mushi &quot;cédant&quot;.</span><ol><li> descendants de Mushi, l'arrière petit-fils de Lévi</li></ol>",
    "pron": "moo-shee'",
    "strongs_def": "un Mushite (collectivement) ou des descendants de Mushi",
    "xlit": "Mûwshîy"
}