{
    "derivation": "ou מֻשִּׁי ; de H4184 (מוּשׁ) ; sensible ;",
    "frequency": 8,
    "kjv_def": "Mushi.",
    "lemma": "מוּשִׁי",
    "outline": "<span class=\"literal-meaning\">Mushi = &quot;céder&quot;</span><ol><li> fils de Merari, petit-fils de Kohath et arrière-petit-fils de Levi</li></ol>",
    "pron": "moo-shee'",
    "strongs_def": "Mushi, un lévite",
    "xlit": "Mûwshîy"
}