{
    "derivation": "ou מֹשָׁב ; de H3427 (יָשַׁב) ;",
    "frequency": 44,
    "kjv_def": "assemblée, habiter, habitation(-place), où (qui) habitait, lieu habité, siège, assise, situation, séjour.",
    "lemma": "מוֹשָׁב",
    "outline": "<ol><li> siège, assemblée, lieu d'habitation, habitation, habitants<ol><li> siège, assise, ceux qui sont assis, compagnie ou assemblée assise</li><li> lieu d'habitation, habitation</li><li> situation, emplacement</li><li> temps d'habitation</li><li> ceux qui habitent, habitant</li></ol></li></ol>",
    "pron": "mo-shawb'",
    "strongs_def": "un siège ; au sens figuré, un site ; abstraitement, une séance ; par extension, une demeure (le lieu ou le moment) ; implicitement, la population",
    "xlit": "môwshâb"
}