{
    "derivation": "de H3467 (יָשַׁע) ;",
    "frequency": 1,
    "kjv_def": "le salut.",
    "lemma": "מוֹשָׁעָה",
    "outline": "<ol><li> acte de salut, délivrance</li></ol>",
    "pron": "mo-shaw-aw'",
    "strongs_def": "délivrance",
    "xlit": "môwshâʻâh"
}