{
    "derivation": "probablement d'une racine inutilisée signifiant s'évanouir de peur, de terreur ;",
    "frequency": 3,
    "kjv_def": "Mizzah.",
    "lemma": "מִזָּה",
    "outline": "<span class=\"literal-meaning\">Mizzah = &quot; peur &quot;.</span><ol><li> fils de Reuel et petit-fils d'Esaü</li></ol>",
    "pron": "miz-zaw'",
    "strongs_def": "Mizzah, un Edomite",
    "xlit": "Mizzâh"
}