{
    "derivation": "de H3498 (יָתַר) ;",
    "frequency": 3,
    "kjv_def": "plénitude, prééminence, profit.",
    "lemma": "מוֹתָר",
    "outline": "<ol><li> prééminence, abondance, profit, supériorité<ol><li> l'abondance, l'abondance</li><li> prééminence, supériorité</li></ol></li></ol>",
    "pron": "mo-thar'",
    "strongs_def": "au sens propre, gain ; au sens figuré, supériorité",
    "xlit": "môwthâr"
}