{
    "derivation": "(araméen) correspondant à H4194 (מָוֶת) ;",
    "frequency": "",
    "kjv_def": "la mort.",
    "lemma": "מוֹת",
    "outline": "",
    "pron": "mohth",
    "strongs_def": "décès",
    "xlit": "môwth"
}