{
    "derivation": "de H410 (אֵל) et H3045 (יָדַע) ; Dieu de la connaissance ;",
    "frequency": 2,
    "kjv_def": "Eldaah.",
    "lemma": "אֶלְדָּעָה",
    "outline": "<span class=\"literal-meaning\">Eldaah = &quot;Dieu a connu&quot;</span><ol><li> un fils ou un descendant de Madian</li></ol>",
    "pron": "el-daw-aw'",
    "strongs_def": "Eldaah, un fils de Midian",
    "xlit": "ʼEldâʻâh"
}