{
    "derivation": "ou (féminin) מִזְלָגָה ; d'une racine inutilisée signifiant dresser ;",
    "frequency": 7,
    "kjv_def": "crochet en chair et en os.",
    "lemma": "מַזְלֵג",
    "outline": "<ol><li> fourche à trois dents<ol><li> un instrument sacrificiel</li></ol></li></ol>",
    "pron": "maz-layg'",
    "strongs_def": "une fourchette",
    "xlit": "mazlêg"
}