{
    "derivation": "ou מְזֻזָה ; de même que H2123 (זִיז) ;",
    "frequency": 19,
    "kjv_def": "(porte, côté) poste.",
    "lemma": "מְזוּזָה",
    "outline": "<ol><li> poteau de porte, poteau d'entrée</li></ol>",
    "pron": "mez-oo-zaw'",
    "strongs_def": "un montant de porte (en tant que proéminent)",
    "xlit": "mᵉzûwzâh"
}