{
    "derivation": "ou מֵזַח ; de H2118 (זָחַח) ;",
    "frequency": 3,
    "kjv_def": "ceinture, force.",
    "lemma": "מָזִיחַ",
    "outline": "<ol><li> gaine</li></ol>",
    "pron": "maw-zee'-akh",
    "strongs_def": "une courroie (mobile)",
    "xlit": "mâzîyach"
}