{
    "derivation": "une racine primitive ;",
    "frequency": 36,
    "kjv_def": "abolir, effacer, détruire, plein de moelle, éteindre, atteindre, [idiome] complètement, effacer (loin, hors).",
    "lemma": "מָחָה",
    "outline": "<ol><li> essuyer, effacer<ol><li> (Qal)<ol><li> essuyer</li><li> effacer, oblitérer</li><li> effacer, exterminer</li></ol><li>(Niphal)<ol><li> être effacé</li><li> être effacé être</li><li> exterminé</li></ol><li> (Hiphil) effacer (de la mémoire)</li></li> </ol><li> (Qal) frapper</li><li> (Pual) plein de moelle (participe)</li></ol>",
    "pron": "maw-khaw'",
    "strongs_def": "proprement, caresser ou frotter ; implicitement, effacer ; également lisser (comme avec de l'huile), c'est-à-dire graisser ou rendre gras ; également toucher, c'est-à-dire tendre la main vers",
    "xlit": "mâchâh"
}