{
    "derivation": "ou מַחֲבֹא ; de H2244 (חָבָא) ;",
    "frequency": 2,
    "kjv_def": "une cachette.",
    "lemma": "מַחֲבֵא",
    "outline": "<ol><li> cachette</li><li> (TWOT) sein</li></ol>",
    "pron": "makh-ab-ay'",
    "strongs_def": "un refuge",
    "xlit": "machăbêʼ"
}