{
    "derivation": "une racine primitive ;",
    "frequency": 3,
    "kjv_def": "applaudissez.",
    "lemma": "מָחָא",
    "outline": "<ol><li> frapper, battre (des mains)<ol><li> (Qal) applaudir (de joie)</li><li> (Piel) frapper des mains (d'exultation)</li></ol></li></ol>",
    "pron": "maw-khaw'",
    "strongs_def": "se frotter ou frapper les mains l'une contre l'autre (dans l'exultation)",
    "xlit": "mâchâʼ"
}