{
    "derivation": "de H2372 (חָזָה) ;",
    "frequency": 4,
    "kjv_def": "vision.",
    "lemma": "מַחֲזֶה",
    "outline": "<ol><li> la vision (dans l'état extatique)</li></ol>",
    "pron": "makh-az-eh'",
    "strongs_def": "une vision",
    "xlit": "machăzeh"
}