{
    "derivation": "de H422 (אָלָה) ;",
    "frequency": 36,
    "kjv_def": "maudire, maudire, exécration, serment, jurer.",
    "lemma": "אָלָה",
    "outline": "<ol><li> serment</li><li> serment d'alliance</li><li> malédiction<ol><li> de Dieu</li><li> de la part des hommes</li></ol><li> exécration</li></ol>",
    "pron": "aw-law'",
    "strongs_def": "une imprécation",
    "xlit": "ʼâlâh"
}