{
    "derivation": "ou מְחִיּיָאֵל ; de H4229 (מָחָה) et H410 (אֵל) ; frappé par Dieu ;",
    "frequency": 2,
    "kjv_def": "Mehujael.",
    "lemma": "מְחוּיָאֵל",
    "outline": "<span class=\"literal-meaning\">Mehujael = &quot;frappé par Dieu&quot;</span><ol><li> fils d'Irad et arrière petit-fils de Caïn</li></ol>",
    "pron": "mekh-oo-yaw-ale'",
    "strongs_def": "Mechujael ou Mechijael, un patriarche antédiluvien",
    "xlit": "Mᵉchûwyâʼêl"
}