{
    "derivation": "de H2470 (חָלָה) ; maladie ;",
    "frequency": 5,
    "kjv_def": "Mahlah.",
    "lemma": "מַחְלָה",
    "outline": "<span class=\"literal-meaning\">Mahlah = &quot; maladie &quot;.</span><ol><li> l'aînée des 5 filles de Zelophehad le petit-fils de Manassé</li><li> un Galaadite</li></ol>",
    "pron": "makh-law'",
    "strongs_def": "Machlah, le nom apparemment de deux israélites",
    "xlit": "Machlâh"
}