{
    "derivation": "de H2470 (חָלָה) ; malade ;",
    "frequency": 4,
    "kjv_def": "Mahlon.",
    "lemma": "מַחְלוֹן",
    "outline": "<span class=\"literal-meaning\">Mahlon = &quot;malade</span><ol><li> fils d'Elimelech par Naomi et premier mari de Ruth</li></ol>",
    "pron": "makh-lone'",
    "strongs_def": "Machlon, un Israélite",
    "xlit": "Machlôwn"
}