{
    "derivation": "féminin de H352 (אַיִל) ;",
    "frequency": 13,
    "kjv_def": "orme, chêne, teil-tree.",
    "lemma": "אֵלָה",
    "outline": "<ol><li> térébinthe, arbre de térébinthe</li><li> vallée où David a tué Goliath</li></ol>",
    "pron": "ay-law'",
    "strongs_def": "un chêne ou un autre arbre fort",
    "xlit": "ʼêlâh"
}