{
    "derivation": "de H2470 (חָלָה) ; malade ;",
    "frequency": 12,
    "kjv_def": "Mahli.",
    "lemma": "מַחְלִי",
    "outline": "<span class=\"literal-meaning\">Mahli = &quot;malade</span><ol><li> fils de Merari et petit-fils de Levi ; progéniteur de la famille des Mahlites</li><li> fils de Mushi, petit-fils de Merari et arrière-petit-fils de Levi</li></ol>",
    "pron": "makh-lee'",
    "strongs_def": "Machli, le nom de deux Israélites",
    "xlit": "Machlîy"
}