{
    "derivation": "(Araméen) correspondant à H4256 (מַחֲלֹקֶת) ;",
    "frequency": "",
    "kjv_def": "cours.",
    "lemma": "מַחְלְקָה",
    "outline": "",
    "pron": "makh-lek-aw'",
    "strongs_def": "une section (des Lévites)",
    "xlit": "machlᵉqâh"
}