{
    "derivation": "ou מַחְסֶה ; de H2620 (חָסָה) ;",
    "frequency": 20,
    "kjv_def": "espoir, (lieu de) refuge, abri, confiance.",
    "lemma": "מַחֲסֶה",
    "outline": "<ol><li> refuge, abri<ol><li> de la pluie ou de l'orage, du danger</li><li> de la fausseté</li></ol></li></ol>",
    "pron": "makh-as-eh'",
    "strongs_def": "un abri (au sens propre ou figuré)",
    "xlit": "machăçeh"
}