{
    "derivation": "probablement de H309 (אָחַר) ;",
    "frequency": 52,
    "kjv_def": "temps à venir, demain.",
    "lemma": "מָחָר",
    "outline": "<ol><li> demain, dans le temps à venir, dans le futur<ol><li> demain (comme le jour suivant le jour présent)</li><li> dans un temps futur</li></ol></li></ol>",
    "pron": "maw-khar'",
    "strongs_def": "proprement, différé, c'est-à-dire le lendemain ; généralement (adverbialement) demain ; indéfiniment, après",
    "xlit": "mâchâr"
}