{
    "derivation": "de H2790 (חָרַשׁ) ;",
    "frequency": 2,
    "kjv_def": "mattock.",
    "lemma": "מַחֲרֵשָׁה",
    "outline": "<ol><li> plowshare</li></ol>",
    "pron": "makh-ar-ay-shaw'",
    "strongs_def": "probablement une pioche",
    "xlit": "machărêshâh"
}