{
    "derivation": "ou מַחֲשֶׁבֶת ; de H2803 (חָשַׁב) ;",
    "frequency": 56,
    "kjv_def": "ruse (travail), travail curieux, dispositif(-sed), imagination, inventé, moyen, but, pensée.",
    "lemma": "מַחֲשָׁבָה",
    "outline": "<ol><li> pensée, dispositif<ol><li> pensée</li><li> dispositif, plan, but</li><li> invention</li></ol></li></ol>",
    "pron": "makh-ash-aw-baw'",
    "strongs_def": "un dispositif, c'est-à-dire (concrètement) une texture, une machine, ou (abstraitement) une intention, un plan (qu'il soit mauvais, un complot ; ou bon, un conseil)",
    "xlit": "machăshâbâh"
}