{
    "derivation": "(araméen) ou מְטָה ; (araméen), correspondant apparemment à H4672 (מָצָא) au sens intransitif de se trouver présent ;",
    "frequency": 8,
    "kjv_def": "venez, atteignez.",
    "lemma": "מְטָא",
    "outline": "<ol><li> atteindre, arriver sur, atteindre<ol><li> (P'al)<ol><li> atteindre, venir à</li><li> atteindre, étendre</li><li> venir sur</li></ol></li></ol></li></ol>",
    "pron": "met-aw'",
    "strongs_def": "arriver, s'étendre ou se produire",
    "xlit": "mᵉṭâʼ"
}