{
    "derivation": "de H4305 (מָטַר) ; pluvieux ;",
    "frequency": 1,
    "kjv_def": "Matri.",
    "lemma": "מַטְרִי",
    "outline": "<span class=\"literal-meaning\">Matri = &quot;pluie de Jéhovah&quot;</span><ol><li> une famille de la tribu de Benjamin à laquelle appartenait le roi Saül</li></ol>",
    "pron": "mat-ree'",
    "strongs_def": "Matri, un Israélite",
    "xlit": "Maṭrîy"
}