{
    "derivation": "une racine primitive ;",
    "frequency": 17,
    "kjv_def": "(faire) pleuvoir (sur).",
    "lemma": "מָטַר",
    "outline": "<ol><li> faire pleuvoir<ol><li> (Niphal) faire pleuvoir sur ou à côté de soi</li><li> (Hiphil)<ol><li> faire pleuvoir, envoyer de la pluie</li><li> faire pleuvoir la grêle, envoyer la grêle</li></ol></li></ol></li></ol>",
    "pron": "maw-tar'",
    "strongs_def": "à la pluie",
    "xlit": "mâṭar"
}