{
    "derivation": "de H4305 (מָטַר) ;",
    "frequency": 38,
    "kjv_def": "pluie.",
    "lemma": "מָטַר",
    "outline": "<ol><li> pluie</li></ol>",
    "pron": "maw-tawr'",
    "strongs_def": "pluie",
    "xlit": "mâṭar"
}