{
    "derivation": "de H4325 (מַיִם) et H1679 (דֹּבֶא) ; eau de tranquillité ;",
    "frequency": 5,
    "kjv_def": "Medeba.",
    "lemma": "מֵידְבָא",
    "outline": "<span class=\"literal-meaning\">Medeba = &quot; eau de repos &quot;.</span><ol><li> ville de Moab attribuée à Ruben et située à 6 km au sud-ouest de Heshbon ; existe toujours</li></ol>",
    "pron": "may-deb-aw'",
    "strongs_def": "Medeba, un lieu en Palestine",
    "xlit": "Mêydᵉbâʼ"
}