{
    "derivation": "une variation pour H4318 (מִיכָה) ;",
    "frequency": 4,
    "kjv_def": "Micha.",
    "lemma": "מִיכָא",
    "outline": "<span class=\"literal-meaning\">Micha = &quot;qui est comme Dieu&quot;</span><ol><li> fils de Mephibosheth</li><li> un lévite qui a signé l'alliance avec Néhémie</li><li> père de Mattaniah, un lévite gershonite, descendant d'Asaph</li></ol>",
    "pron": "mee-kaw'",
    "strongs_def": "Mica, le nom de deux Israélites",
    "xlit": "Mîykâʼ"
}