{
    "derivation": "un formulaire pour H4509 (מִנְיָמִין) ;",
    "frequency": 4,
    "kjv_def": "Miamin, Mijamin.",
    "lemma": "מִיָּמִן",
    "outline": "<span class=\"literal-meaning\">Mijamin = &quot;de la main droite&quot;.</span><ol><li> chef de la 6ème classe de prêtres établie par David</li><li> prêtre qui a signé l'alliance avec Néhémie</li><li> prêtre qui monta avec Zerubbabel</li><li> prêtre qui prit une femme étrangère à l'époque d'Esdras</li></ol>",
    "pron": "me-yaw-meem'",
    "strongs_def": "Mijamin, le nom de trois Israélites",
    "xlit": "Mîyâmin"
}