{
    "derivation": "proprement, participe passif féminin de H3245 (יָסַד) ;",
    "frequency": "",
    "kjv_def": "fondation.",
    "lemma": "מְיֻסָּדָה",
    "outline": "",
    "pron": "meh-yoos-saw-daw'",
    "strongs_def": "quelque chose de fondé, c'est-à-dire une fondation",
    "xlit": "mᵉyuççâdâh"
}