{
    "derivation": "de H3474 (יָשַׁר) ;",
    "frequency": 19,
    "kjv_def": "accord, droit, qui sont égaux, équité, (choses qui sont) justes (-eusement, choses), doucement, droit (-ly, -ness).",
    "lemma": "מֵישָׁר",
    "outline": "<ol><li> égalité, droiture, rectitude, équité<ol><li> planéité, niveau, régularité</li><li> droiture, équité</li><li> à juste titre (comme adv)</li></ol></li></ol>",
    "pron": "may-shawr'",
    "strongs_def": "l'égalité, c'est-à-dire (au sens figuré) la prospérité ou la concorde ; également la rectitude, c'est-à-dire (au sens figuré) la droiture (uniquement au pluriel avec un sens singulier ; souvent au sens adverbial)",
    "xlit": "mêyshâr"
}