{
    "derivation": "de H4310 (מִי) et H410 (אֵל) avec la forme abrégée insep. relativement (voir H834 (אֲשֶׁר)) interposée ; qui (est) ce que Dieu (est) ?",
    "frequency": 7,
    "kjv_def": "Mishael.",
    "lemma": "מִישָׁאֵל",
    "outline": "<span class=\"literal-meaning\">Mishaël = &quot;qui est ce que Dieu est&quot;.</span><ol><li> l'ami pieux de Daniel que Nabuchodonosor a rebaptisé Méschac ; l'un des trois amis qui, avec Daniel, ont refusé de se rendre impurs en mangeant de la nourriture à la table du roi, ce qui allait à l'encontre des lois alimentaires que Dieu avait données aux Juifs ; également l'un des trois qui ont été jetés dans la fournaise ardente pour avoir refusé de se prosterner devant une image sculptée de Nabuchodonosor et qui ont été sauvés par l'ange du Seigneur</li><li> un fils d'Uzziel et un cousin de Moïse et d'Aaron</li><li> un de ceux qui se tenaient à la gauche d'Esdras lorsqu'il lisait la loi au peuple</li></ol>",
    "pron": "mee-shaw-ale'",
    "strongs_def": "Mishael, le nom de trois Israéliens",
    "xlit": "Mîyshâʼêl"
}