{
    "derivation": "une variation pour H4337 (מֵישָׁע) ; sécurité ;",
    "frequency": 1,
    "kjv_def": "Mesha.",
    "lemma": "מֵישַׁע",
    "outline": "<span class=\"literal-meaning\">Mesha = &quot;délivrance&quot;</span><ol><li> le roi de Moab au temps d'Achab et de Joram</li></ol>",
    "pron": "may-shaw'",
    "strongs_def": "Mesha, un Moabite",
    "xlit": "Mêyshaʻ"
}