{
    "derivation": "de H4185 (מוּשׁ) ; départ ;",
    "frequency": 1,
    "kjv_def": "Mesha.",
    "lemma": "מֵישָׁא",
    "outline": "<span class=\"literal-meaning\">Mesha = &quot;liberté&quot;</span><ol><li> benjamite, fils de Shaharaim par sa femme Hodesh qui l'a enfanté au pays de Moab</li></ol>",
    "pron": "may-shaw'",
    "strongs_def": "Mesha, un lieu en Arabie ; aussi un Israélite",
    "xlit": "Mêyshâʼ"
}