{
    "derivation": "de H3498 (יָתַר) ; (comparer H3499 (יֶתֶר))",
    "frequency": 9,
    "kjv_def": "cordon, ficelle.",
    "lemma": "מֵיתָר",
    "outline": "<ol><li> cordon, ficelle</li></ol>",
    "pron": "may-thar'",
    "strongs_def": "la corde (d'une tente) ; ou la corde (d'un arc)",
    "xlit": "mêythâr"
}