{
    "derivation": "parfois מַכְאוֹב ; aussi (féminin Isaïe 53:3) מַכְאֹבָה ; de H3510 (כָּאַב) ;",
    "frequency": 16,
    "kjv_def": "le chagrin, la douleur, la tristesse.",
    "lemma": "מַכְאֹב",
    "outline": "<ol><li> douleur, chagrin<ol><li> douleur (physique)</li><li> douleur (mentale)</li></ol></li></ol>",
    "pron": "mak-obe'",
    "strongs_def": "angoisse ou affliction (au sens figuré)",
    "xlit": "makʼôb"
}