{
    "derivation": "de H3559 (כּוּן) ;",
    "frequency": 17,
    "kjv_def": "fondation, habitation, lieu (d'habitation, de résidence).",
    "lemma": "מָכוֹן",
    "outline": "<ol><li> lieu fixe ou établi, fondation<ol><li> lieu fixe</li><li> fondation</li></ol></li></ol>",
    "pron": "maw-kone'",
    "strongs_def": "à proprement parler, un élément fixe, c'est-à-dire une base ; généralement, un lieu, en particulier une résidence",
    "xlit": "mâkôwn"
}