{
    "derivation": "patrie de H4343 (מַכְבֵּנָא) ;",
    "frequency": 1,
    "kjv_def": "Machbanai.",
    "lemma": "מַכְבַּנַּי",
    "outline": "<span class=\"literal-meaning\">Machbanai = &quot; lien de l'Éternel &quot;.</span><ol><li> gadite, l'un des puissants guerriers de David qui l'a rejoint à Ziklag</li></ol>",
    "pron": "mak-ban-nah'-ee",
    "strongs_def": "un Macbannite ou un natif de Macbena",
    "xlit": "Makbannay"
}