{
    "derivation": "participe transitif de H3527 (כָּבַר) ;",
    "frequency": "",
    "kjv_def": "l'abondance.",
    "lemma": "מַכְבִּיר",
    "outline": "",
    "pron": "mak-beer'",
    "strongs_def": "abondance",
    "xlit": "makbîyr"
}