{
    "derivation": "ou מִכְלָה ; de H3607 (כָּלָא) ;",
    "frequency": 3,
    "kjv_def": "(sheep-)fold. Comparer avec H4357 (מִכְלָה).",
    "lemma": "מִכְלָאָה",
    "outline": "<ol><li> pli, fermeture</li></ol>",
    "pron": "mik-law-aw'",
    "strongs_def": "un enclos (pour les troupeaux)",
    "xlit": "miklâʼâh"
}