{
    "derivation": "de H3634 (כָּלַל) ;",
    "frequency": 1,
    "kjv_def": "la perfection.",
    "lemma": "מִכְלָל",
    "outline": "<ol><li> complétude, perfection</li></ol>",
    "pron": "mik-lawl'",
    "strongs_def": "la perfection (de la beauté)",
    "xlit": "miklâl"
}