{
    "derivation": "ou מְכֹנָה ; féminin de H4349 (מָכוֹן) ;",
    "frequency": 24,
    "kjv_def": "base.",
    "lemma": "מְכוֹנָה",
    "outline": "<ol><li> lieu de repos fixe, base, piédestal</li></ol>",
    "pron": "mek-o-naw'",
    "strongs_def": "un piédestal, également une place",
    "xlit": "mᵉkôwnâh"
}