{
    "derivation": "identique à H4350 (מְכוֹנָה) ;",
    "frequency": 1,
    "kjv_def": "base.",
    "lemma": "מְכֻנָה",
    "outline": "<ol><li> lieu de repos, base</li></ol>",
    "pron": "mek-oo-naw'",
    "strongs_def": "un point",
    "xlit": "mᵉkunâh"
}