{
    "derivation": "apparemment à partir d'une racine inutilisée signifiant cacher ; dissimulation ;",
    "frequency": 2,
    "kjv_def": "Michmethath.",
    "lemma": "מִכְמְתָת",
    "outline": "<span class=\"literal-meaning\">Michmethah = &quot; cachette &quot;.</span><ol><li> lieu situé au nord-est d'Ephraïm, près de la frontière de Manassé, entre Sichem et Taanath-Shilo</li></ol>",
    "pron": "mik-meth-awth'",
    "strongs_def": "Mikmethath, un lieu en Palestine",
    "xlit": "Mikmᵉthâth"
}