{
    "derivation": "de H4376 (מָכַר) ;",
    "frequency": 3,
    "kjv_def": "payer, prix, articles.",
    "lemma": "מֶכֶר",
    "outline": "<ol><li> marchandise, valeur, prix</li></ol>",
    "pron": "meh'-ker",
    "strongs_def": "marchandise ; également valeur",
    "xlit": "meker"
}