{
    "derivation": "de H3717 (כָּפַל) ; un pli ;",
    "frequency": 6,
    "kjv_def": "Machpelah.",
    "lemma": "מַכְפֵּלָה",
    "outline": "<span class=\"literal-meaning\">Machpelah = &quot;double&quot; ou &quot;portion&quot;.</span><ol><li> emplacement d'une grotte funéraire pour les patriarches, près d'Hébron</li></ol>",
    "pron": "mak-pay-law'",
    "strongs_def": "Makpelah, un lieu en Palestine",
    "xlit": "Makpêlâh"
}