{
    "derivation": "de H3647 (כָּמַס) dans le sens de cacher ;",
    "frequency": 5,
    "kjv_def": "culotte de cheval.",
    "lemma": "מִכְנָס",
    "outline": "<ol><li> sous-vêtements, caleçons, pantalons<ol><li> un sous-vêtement sacerdotal en lin</li></ol></li></ol>",
    "pron": "mik-nawce'",
    "strongs_def": "(seulement en double) tiroirs (de la dissimulation des parties privées)",
    "xlit": "miknâç"
}