{
    "derivation": "de H3680 (כָּסָה) ;",
    "frequency": 4,
    "kjv_def": "vêtement, couvrir, ce qui couvre.",
    "lemma": "מְכַסֶּה",
    "outline": "<ol><li> couverture, ce qui couvre</li></ol>",
    "pron": "mek-as-seh'",
    "strongs_def": "une couverture, c'est-à-dire un vêtement ; en particulier, une couverture (pour un lit), un auvent (pour se protéger du soleil) ; également l'épiploon (qui recouvre les intestins)",
    "xlit": "mᵉkaççeh"
}