{
    "derivation": "probablement du même que H3564 (כּוּר) dans le sens de poignarder ;",
    "frequency": "",
    "kjv_def": "habitation.",
    "lemma": "מְכֵרָה",
    "outline": "",
    "pron": "mek-ay-raw'",
    "strongs_def": "une épée",
    "xlit": "mᵉkêrâh"
}