{
    "derivation": "ou מִכְשֹׁל ; masculin de H3782 (כָּשַׁל) ;",
    "frequency": 14,
    "kjv_def": "fait tomber, offense, [idiome] (non) chose offerte, ruine, pierre d'achoppement.",
    "lemma": "מִכְשׁוֹל",
    "outline": "<ol><li> une pierre d'achoppement, un moyen ou une occasion d'achoppement, une pierre d'achoppement<ol><li> trébuchement, chute</li><li> un moyen ou une occasion de trébucher, une pierre d'achoppement</li></ol></li></ol>",
    "pron": "mik-shole'",
    "strongs_def": "une pierre d'achoppement, au sens propre ou figuré (obstacle, séduction (notamment d'une idole), scrupule)",
    "xlit": "mikshôwl"
}