{
    "derivation": "féminin de H4392 (מָלֵא) ;",
    "frequency": 8,
    "kjv_def": "(premier des mûrs) fruit, plénitude.",
    "lemma": "מְלֵאָה",
    "outline": "<ol><li> plénitude, produit complet</li></ol>",
    "pron": "mel-ay-aw'",
    "strongs_def": "quelque chose d'accompli, c'est-à-dire l'abondance (de produits)",
    "xlit": "mᵉlêʼâh"
}