{
    "derivation": "(Araméen) correspondant à H4397 (מֲלְאָךְ) ;",
    "frequency": "",
    "kjv_def": "ange.",
    "lemma": "מַלְאַךְ",
    "outline": "",
    "pron": "mal-ak'",
    "strongs_def": "un ange",
    "xlit": "malʼak"
}