{
    "derivation": "de H4390 (מָלֵא) ;",
    "frequency": 55,
    "kjv_def": "Elle était enceinte, pleine (-ed, -ed with), pleine (-ly), multitude, comme il se doit.",
    "lemma": "מָלֵא",
    "outline": "<ol><li> plein, plénitude, ce qui remplit<ol><li> pleinement (adv)</li></ol></li></ol>",
    "pron": "maw-lay'",
    "strongs_def": "plein (au sens propre ou figuré) ou remplissant (au sens propre) ; également (concrètement) plénitude ; adverbialement, entièrement",
    "xlit": "mâlêʼ"
}