{
    "derivation": "de H1 (אָב) et H5829 (עֵזֶר) ; père d'aide (c'est-à-dire serviable) ;",
    "frequency": 7,
    "kjv_def": "Abiezer.",
    "lemma": "אֲבִיעֶזֶר",
    "outline": "<span class=\"literal-meaning\">Abiezer = &quot;mon père est une aide&quot;.</span><ol><li> manassite, appelé &quot;fils&quot; de Galaad, également fils de la soeur de Galaad</li><li> benjamite, guerrier de David</li></ol>",
    "pron": "ab-ee-ay'-zer",
    "strongs_def": "Abiezer, le nom de deux Israélites",
    "xlit": "ʼĂbîyʻezer"
}