{
    "derivation": "participe passif féminin de H4427 (מָלַךְ) ;",
    "frequency": 24,
    "kjv_def": "kingsom, king's, [idiome] royal.",
    "lemma": "מְלוּכָה",
    "outline": "<ol><li> royauté, royauté, fonction royale</li></ol>",
    "pron": "mel-oo-kaw'",
    "strongs_def": "quelque chose de régi, c'est-à-dire un royaume",
    "xlit": "mᵉlûwkâh"
}