{
    "derivation": "(Araméen) de H4415 (מְלַח) ;",
    "frequency": 3,
    "kjv_def": "entretien, sel.",
    "lemma": "מְלַח",
    "outline": "<ol><li> sel</li></ol>",
    "pron": "mel-akh'",
    "strongs_def": "sel",
    "xlit": "mᵉlach"
}