{
    "derivation": "de H3887 (לוּץ) ;",
    "frequency": 2,
    "kjv_def": "l'interprétation, la moquerie.",
    "lemma": "מְלִיצָה",
    "outline": "<ol><li> satire, poème moqueur, chanson moqueuse, raillerie, figure, énigme</li></ol>",
    "pron": "mel-ee-tsaw'",
    "strongs_def": "un aphorisme ; également une satire",
    "xlit": "mᵉlîytsâh"
}