{
    "derivation": "le même que H4428 (מֶלֶךְ) ; roi ;",
    "frequency": 4,
    "kjv_def": "Melech, Hammelech (en incluant l'article).",
    "lemma": "מֶלֶךְ",
    "outline": "<span class=\"literal-meaning\">Melech = &quot;roi&quot;</span><ol><li> benjamite, deuxième fils de Michée et petit-fils de Mephibosheth</li></ol>",
    "pron": "meh'-lek",
    "strongs_def": "Melek, le nom de deux Israéliens",
    "xlit": "Melek"
}