{
    "derivation": "une racine primitive ;",
    "frequency": 95,
    "kjv_def": "délivrer (soi-même), s'échapper, s'allonger, s'échapper, laisser seul, laisser aller, préserver, sauver, [idiome] rapidement, [idiome] sûrement.",
    "lemma": "מָלַט",
    "outline": "<ol><li> se glisser, s'échapper, délivrer, sauver, être délivré<ol><li> (Niphal)<ol><li> s'éclipser</li><li> s'échapper</li><li> être délivré</li></ol><li>(Piel)<ol><li> pondre, laisser s'échapper (des oeufs)</li><li> laisser s'échapper</li><li> pour délivrer, sauver (la vie)</li></ol><li>(Hiphil)<ol><li> donner naissance à</li><li> pour délivrer</li></ol><li> (Hithpael)<ol><li> glisser, s'échapper,</li></ol></li></li> s<li><li><ol>'échapper<li> pour s'échapper</li></ol></li></li></li> </ol></li></ol>",
    "pron": "maw-lat'",
    "strongs_def": "proprement, être lisse, c'est-à-dire (implicitement) s'échapper (comme si c'était glissant) ; causalement, libérer ou sauver ; spécifiquement, faire naître des jeunes, émettre des étincelles",
    "xlit": "mâlaṭ"
}