{
    "derivation": "de dérivation incertaine ;",
    "frequency": 2,
    "kjv_def": "Alush.",
    "lemma": "אָלוּשׁ",
    "outline": "<span class=\"literal-meaning\">Alush = &quot;Je pétris (le pain)&quot;.</span><ol><li> un campement dans le désert après l'Exode</li></ol>",
    "pron": "aw-loosh'",
    "strongs_def": "Alush, un endroit dans le désert",
    "xlit": "ʼÂlûwsh"
}