{
    "derivation": "(Araméen) correspondant à H4436 (מַלְכָּה) ;",
    "frequency": 2,
    "kjv_def": "reine.",
    "lemma": "מַלְכָּא",
    "outline": "<ol><li> reine</li></ol>",
    "pron": "mal-kaw'",
    "strongs_def": "une reine",
    "xlit": "malkâʼ"
}