{
    "derivation": "(Araméen) d'une racine correspondant à H4427 (מָלַךְ) dans le sens de consultation ;",
    "frequency": "",
    "kjv_def": "conseiller.",
    "lemma": "מְלַךְ",
    "outline": "",
    "pron": "mel-ak'",
    "strongs_def": "conseils",
    "xlit": "mᵉlak"
}