{
    "derivation": "de H4428 (מֶלֶךְ) et H410 (אֵל) ; roi de (c'est-à-dire désigné par) Dieu ;",
    "frequency": 3,
    "kjv_def": "Malchiel.",
    "lemma": "מַלְכִּיאֵל",
    "outline": "<span class=\"literal-meaning\">Malchiel = &quot;mon roi est Dieu&quot;.</span><ol><li> fils de Beriah et petit-fils d'Asher</li></ol>",
    "pron": "mal-kee-ale'",
    "strongs_def": "Malkiel, un israélite",
    "xlit": "Malkîyʼêl"
}