{
    "derivation": "(araméen) correspondant à H4448 (מָלַל) ;",
    "frequency": 5,
    "kjv_def": "dire, parler (-ing).",
    "lemma": "מְלַל",
    "outline": "<ol><li> (Pael) parler, dire</li></ol>",
    "pron": "mel-al'",
    "strongs_def": "de parler",
    "xlit": "mᵉlal"
}