{
    "derivation": "de H3953 (לָקַשׁ) ; (comparer H3954 (לֶקֶשׁ))",
    "frequency": 8,
    "kjv_def": "dernière pluie.",
    "lemma": "מַלְקוֹשׁ",
    "outline": "<ol><li> dernière pluie, pluie de printemps<ol><li> les pluies de mars et avril qui font mûrir les cultures de Palestine</li></ol></li></ol>",
    "pron": "mal-koshe'",
    "strongs_def": "la pluie de printemps ; au sens figuré, l'éloquence",
    "xlit": "malqôwsh"
}