{
    "derivation": "de H3925 (לָמַד) ;",
    "frequency": 1,
    "kjv_def": "aiguillonner.",
    "lemma": "מַלְמָד",
    "outline": "<ol><li> aiguillon à bœuf</li></ol>",
    "pron": "mal-mawd'",
    "strongs_def": "un aiguillon pour les boeufs",
    "xlit": "malmâd"
}