{
    "derivation": "de H3947 (לָקַח) ;",
    "frequency": 8,
    "kjv_def": "butin, mâchoires, proie.",
    "lemma": "מַלְקוֹחַ",
    "outline": "<ol><li> butin, proie</li><li> mâchoire</li></ol>",
    "pron": "mal-ko'-akh",
    "strongs_def": "transitivement (en duel) les mâchoires (comme pour prendre de la nourriture) ; intransitivement, le gâchis (et les captifs) (comme pris)",
    "xlit": "malqôwach"
}