{
    "derivation": "une racine primitive ;",
    "frequency": "",
    "kjv_def": "être doux.",
    "lemma": "מָלַץ",
    "outline": "",
    "pron": "maw-lats'",
    "strongs_def": "être lisse, c'est-à-dire (au sens figuré) agréable",
    "xlit": "mâlats"
}