{
    "derivation": "de H4048 (מָגַר) (dans le sens de déposer) ;",
    "frequency": "",
    "kjv_def": "grange.",
    "lemma": "מַמְּגֻרָה",
    "outline": "",
    "pron": "mam-meg-oo-raw'",
    "strongs_def": "un grenier",
    "xlit": "mammᵉgurâh"
}