{
    "derivation": "féminin de H4465 (מִמְכָּר) ;",
    "frequency": "",
    "kjv_def": "[phrase] vendu comme.",
    "lemma": "מִמְכֶּרֶת",
    "outline": "",
    "pron": "mim-keh'-reth",
    "strongs_def": "une vente",
    "xlit": "mimkereth"
}