{
    "derivation": "de H4376 (מָכַר) ;",
    "frequency": 10,
    "kjv_def": "devoir, (ce qui vient de) la vente, ce qui... vendu, ware.",
    "lemma": "מִמְכָּר",
    "outline": "<ol><li> vente, article, chose vendue</li></ol>",
    "pron": "mim-kawr'",
    "strongs_def": "marchandise ; abstraitement, une vente",
    "xlit": "mimkâr"
}