{
    "derivation": "féminin de H4474 (מִמְשָׁל) ;",
    "frequency": 14,
    "kjv_def": "domination, gouvernement, pouvoir, gouverner.",
    "lemma": "מֶמְשָׁלָה",
    "outline": "<ol><li> règle, domination, royaume<ol><li> règle, domination, royaume, domaine</li><li> règle</li><li> règle, domination (de Dieu)</li></ol></li></ol>",
    "pron": "mem-shaw-law'",
    "strongs_def": "gouverner ; également (concrètement au pluriel) un royaume ou un souverain",
    "xlit": "memshâlâh"
}