{
    "derivation": "de H4985 (מָתַק) ;",
    "frequency": 2,
    "kjv_def": "(le plus) doux.",
    "lemma": "מַמְתַּק",
    "outline": "<ol><li> la douceur, la chose douce</li></ol>",
    "pron": "mam-tak'",
    "strongs_def": "quelque chose de sucré (au sens propre ou figuré)",
    "xlit": "mamtaq"
}