{
    "derivation": "(Araméen) de H4101 (מָה) ;",
    "frequency": 10,
    "kjv_def": "quoi, qui (-quel que soit, [phrase] -alors).",
    "lemma": "מָן",
    "outline": "<ol><li> qui ?, quoi ?, qui que ce soit, qui que ce soit</li></ol>",
    "pron": "mawn",
    "strongs_def": "qui ou quoi (proprement, interrogativement, donc, aussi indéfiniment et relativement)",
    "xlit": "mân"
}