{
    "derivation": "(Araméen) participe passif de H4483 (מְנָא) ;",
    "frequency": 3,
    "kjv_def": "Mene.",
    "lemma": "מְנֵא",
    "outline": "<ol><li> (P'al) mina, maneh<ol><li> un poids ou une mesure ; habituellement 50 shekels mais peut-être 60 shekels</li></ol></li></ol>",
    "pron": "men-ay'",
    "strongs_def": "numéroté",
    "xlit": "mᵉnêʼ"
}