{
    "derivation": "(araméen) ou מְנָה ; (araméen), correspondant à H4487 (מָנָה) ;",
    "frequency": 5,
    "kjv_def": "numéroter, ordonner, fixer.",
    "lemma": "מְנָא",
    "outline": "<ol><li> numéroter, compter<ol><li> (P'al) numéroter</li><li> (Pael) nommer</li></ol></li></ol>",
    "pron": "men-aw'",
    "strongs_def": "compter, nommer",
    "xlit": "mᵉnâʼ"
}