{
    "derivation": "de H5059 (נָגַן) ;",
    "frequency": 1,
    "kjv_def": "musique.",
    "lemma": "מַנְגִּינָה",
    "outline": "<ol><li> chanson moqueuse ou dérisoire</li></ol>",
    "pron": "man-ghee-naw'",
    "strongs_def": "une satire",
    "xlit": "mangîynâh"
}