{
    "derivation": "(araméen) correspondant à H4093 (מַדָּע) ;",
    "frequency": 4,
    "kjv_def": "la connaissance, la raison, la compréhension.",
    "lemma": "מַנְדַּע",
    "outline": "<ol><li> connaissance, pouvoir de la connaissance</li></ol>",
    "pron": "man-dah'",
    "strongs_def": "sagesse ou intelligence",
    "xlit": "mandaʻ"
}