{
    "derivation": "de H4487 (מָנָה) ;",
    "frequency": "",
    "kjv_def": "temps.",
    "lemma": "מֹנֶה",
    "outline": "",
    "pron": "mo-neh'",
    "strongs_def": "au sens propre, quelque chose de pesé, c'est-à-dire (au sens figuré) une portion de temps, c'est-à-dire une instance",
    "xlit": "môneh"
}