{
    "derivation": "(Araméen) correspondant à H4480 (מִן)",
    "frequency": 107,
    "kjv_def": "selon, après, [phrase] parce que, [phrase] avant, par, pour, de, [idiome] lui, [idiome] plus que, (hors) de, partie, depuis, [idiome] ces, à, sur, [phrase] quand.",
    "lemma": "מִן",
    "outline": "<ol><li> de, hors de, par, en raison de, à, plus que<ol><li> de, hors de (de l'endroit)</li><li> de, par, à la suite de, en raison de, à, selon, (de la source)</li><li> de (du temps)</li><li> au-delà, plus que (dans les comparaisons)</li></ol></li></ol>",
    "pron": "min",
    "strongs_def": "{properly, une partie de ; hence (prepositionally), from or out of}",
    "xlit": "min"
}