{
    "derivation": "ou מְנֻסָה ; féminin de H4498 (מָנוֹס) ;",
    "frequency": 2,
    "kjv_def": "la fuite, le vol.",
    "lemma": "מְנוּסָה",
    "outline": "<ol><li> vol, retraite</li></ol>",
    "pron": "men-oo-saw'",
    "strongs_def": "retraite",
    "xlit": "mᵉnûwçâh"
}