{
    "derivation": "le même que H4494 (מָנוֹחַ) ; reste ;",
    "frequency": 18,
    "kjv_def": "Manoah.",
    "lemma": "מָנוֹחַ",
    "outline": "<span class=\"literal-meaning\">Manoah = &quot;repos&quot;</span><ol><li> danite, père du juge Samson et habitant de Zorah</li></ol>",
    "pron": "maw-no'-akh",
    "strongs_def": "Manoach, un Israélite",
    "xlit": "Mânôwach"
}