{
    "derivation": "de H5090 (נָהַג) ;",
    "frequency": 2,
    "kjv_def": "la conduite.",
    "lemma": "מִנְהָג",
    "outline": "<ol><li> la conduite, l'attelage</li></ol>",
    "pron": "min-hawg'",
    "strongs_def": "la conduite (d'un char)",
    "xlit": "minhâg"
}