{
    "derivation": "de H410 (אֵל) et H3045 (יָדַע) ; Dieu (est) connaissant ;",
    "frequency": 4,
    "kjv_def": "Eliada.",
    "lemma": "אֶלְיָדָע",
    "outline": "<span class=\"literal-meaning\">Eliadah ou Eliada = &quot;Dieu sait&quot;.</span><ol><li> un fils de David</li><li> un chef guerrier Benjamite</li><li> un Araméen, père d'un ennemi de Salomon</li></ol>",
    "pron": "el-yaw-daw'",
    "strongs_def": "Eljada, nom de deux Israélites et d'un chef araméen",
    "xlit": "ʼElyâdâʻ"
}