{
    "derivation": "de H5144 (נָזַר) ;",
    "frequency": 1,
    "kjv_def": "couronné.",
    "lemma": "מִנְּזָר",
    "outline": "<ol><li> princes, oints, consacrés<ol><li> signification douteuse</li></ol></li></ol>",
    "pron": "min-ez-awr'",
    "strongs_def": "un prince",
    "xlit": "minnᵉzâr"
}