{
    "derivation": "de H5128 (נוּעַ) ;",
    "frequency": 1,
    "kjv_def": "cornet.",
    "lemma": "מְנַעְנַע",
    "outline": "<ol><li> une sorte de hochet<ol><li> une sorte de hochet utilisé comme instrument de musique</li></ol></li></ol>",
    "pron": "men-ah-ah'",
    "strongs_def": "un sistre (appelé ainsi en raison de son bruit de cliquetis)",
    "xlit": "mᵉnaʻnaʻ"
}