{
    "derivation": "ou מִס ; de H4549 (מָסַס) ;",
    "frequency": 23,
    "kjv_def": "déconfit, prélèvement, tâche (-maître), tribut (-taire).",
    "lemma": "מַס",
    "outline": "<ol><li> bande ou corps de travailleurs forcés, travailleurs à la tâche, bande ou gang de travailleurs, service forcé, travail à la tâche, servage, tribut, tribut, prélèvement, maîtres de tâches, déconfit<ol><li> bande de travailleurs, gang de travailleurs, gang d'esclaves</li><li> gang-overseers</li><li> service forcé, servage, tribut, paiement forcé</li></ol></li></ol>",
    "pron": "mas",
    "strongs_def": "proprement, un fardeau (comme provoquant l'évanouissement), c'est-à-dire un impôt sous forme de travail forcé",
    "xlit": "maç"
}