{
    "derivation": "une racine primitive ;",
    "frequency": 4,
    "kjv_def": "faire disparaître, (faire) fondre, l'eau.",
    "lemma": "מָסָה",
    "outline": "<ol><li> fondre, se dissoudre, se liquéfier<ol><li> (Hiphil)<ol><li> faire fondre, faire dissoudre, consumer, faire disparaître</li><li> intimider (fig)</li></ol></li></ol></li></ol>",
    "pron": "maw-saw'",
    "strongs_def": "dissoudre",
    "xlit": "mâçâh"
}