{
    "derivation": "ou prolongé אֵלִיָּהוּ ; de H410 (אֵל) et H3050 (יָהּ) ; Dieu de Jéhovah ;",
    "frequency": 71,
    "kjv_def": "Elijah, Eliah.",
    "lemma": "אֵלִיָּה",
    "outline": "<span class=\"literal-meaning\">Elijah ou Eliah = &quot;mon Dieu est Jéhovah&quot; ou &quot;Yah(u) est Dieu&quot;.</span><ol><li> le grand prophète du règne d'Achab</li><li> Benjamite, fils de Jeroham</li><li> un fils d'Elam avec une femme étrangère pendant l'exil</li><li> un fils de Harim, et prêtre, avec une femme étrangère pendant l'exil</li></ol>",
    "pron": "ay-lee-yaw'",
    "strongs_def": "Élie, le nom du célèbre prophète et de deux autres Israéliens",
    "xlit": "ʼÊlîyâh"
}