{
    "derivation": "de H4549 (מָסַס) ;",
    "frequency": 1,
    "kjv_def": "est affligé.",
    "lemma": "מָס",
    "outline": "<ol><li> désespéré</li></ol>",
    "pron": "mawce",
    "strongs_def": "s'évanouir, c'est-à-dire (au sens figuré) être inconsolable",
    "xlit": "mâç"
}