{
    "derivation": "de H5255 (נָסַח) dans le sens de repousser ;",
    "frequency": 1,
    "kjv_def": "en panne.",
    "lemma": "מַסָּח",
    "outline": "<ol><li> sens incertain - peut-être<ol><li> garde</li><li> alternativement, à tour de rôle</li></ol></li></ol>",
    "pron": "mas-sawkh'",
    "strongs_def": "un cordon, (adverbialement) ou (comme) une barrière militaire",
    "xlit": "maççâch"
}