{
    "derivation": "apparemment à partir d'une racine inutilisée signifiant couvrir ;",
    "frequency": 3,
    "kjv_def": "vail.",
    "lemma": "מַסְוֶה",
    "outline": "<ol><li> voile</li></ol>",
    "pron": "mas-veh'",
    "strongs_def": "un voile",
    "xlit": "maçveh"
}