{
    "derivation": "de H5531 (סִכְלוּת) ;",
    "frequency": 4,
    "kjv_def": "pauvre (homme).",
    "lemma": "מִסְכֵּן",
    "outline": "<ol><li> pauvre, pauvre homme</li></ol>",
    "pron": "mis-kane'",
    "strongs_def": "indigent",
    "xlit": "miçkên"
}