{
    "derivation": "de H5265 (נָסַע) dans le sens de projeter ;",
    "frequency": 2,
    "kjv_def": "avant qu'elle ne soit apportée, fléchette.",
    "lemma": "מַסָּע",
    "outline": "<ol><li> carrière, extraction, éclatement (de pierres)</li><li> missile, fléchette</li></ol>",
    "pron": "mas-saw'",
    "strongs_def": "un projectile (lance ou flèche) ; également une carrière (d'où les pierres sont, pour ainsi dire, éjectées)",
    "xlit": "maççâʻ"
}