{
    "derivation": "de H5596 (סָפַח) ;",
    "frequency": 3,
    "kjv_def": "la gale.",
    "lemma": "מִסְפַּחַת",
    "outline": "<ol><li> éruption, croûte</li></ol>",
    "pron": "mis-pakh'-ath",
    "strongs_def": "scruf (comme l'étalement sur la surface)",
    "xlit": "miçpachath"
}