{
    "derivation": "de H5596 (סָפַח) ;",
    "frequency": 2,
    "kjv_def": "un foulard.",
    "lemma": "מִסְפָּחָה",
    "outline": "<ol><li> voile long, voile (comme étalé)</li></ol>",
    "pron": "mis-paw-khaw'",
    "strongs_def": "un voile (comme étalé)",
    "xlit": "miçpâchâh"
}