{
    "derivation": "d'une racine inutilisée signifiant collecter ;",
    "frequency": 5,
    "kjv_def": "provende.",
    "lemma": "מִסְפּוֹא",
    "outline": "<ol><li> fourrage, alimentation</li></ol>",
    "pron": "mis-po'",
    "strongs_def": "fourrage",
    "xlit": "miçpôwʼ"
}