{
    "derivation": "de H631 (אָסַר) ;",
    "frequency": 1,
    "kjv_def": "lien.",
    "lemma": "מָסֹרֶת",
    "outline": "<ol><li> lien (de l'alliance)</li></ol>",
    "pron": "maw-so'-reth",
    "strongs_def": "un groupe",
    "xlit": "mâçôreth"
}