{
    "derivation": "de H5641 (סָתַר) ;",
    "frequency": 1,
    "kjv_def": "secrète.",
    "lemma": "מִסְתּוֹר",
    "outline": "<ol><li> lieu de refuge</li></ol>",
    "pron": "mis-tore'",
    "strongs_def": "un refuge",
    "xlit": "miçtôwr"
}