{
    "derivation": "de H3256 (יָסַר) ;",
    "frequency": 1,
    "kjv_def": "l'instruction.",
    "lemma": "מֹסָר",
    "outline": "<ol><li> discipline, correction</li></ol>",
    "pron": "mo-sawr'",
    "strongs_def": "admonition",
    "xlit": "môçâr"
}