{
    "derivation": "(araméen) correspondant à H4566 (מַעְבָּד) ;",
    "frequency": 1,
    "kjv_def": "travail.",
    "lemma": "מַעְבָד",
    "outline": "<ol><li> œuvre</li><li> (TWOT) action (de Dieu dans l'histoire)</li></ol>",
    "pron": "mah-bawd'",
    "strongs_def": "un acte",
    "xlit": "maʻbâd"
}