{
    "derivation": "ou féminin מַעְגָּלָה ; du même que H5696 (עָגֹל) ;",
    "frequency": 16,
    "kjv_def": "aller, chemin, tranchée, voie(-côté).",
    "lemma": "מַעְגָּל",
    "outline": "<ol><li> tranchée, piste<ol><li> circonvallation, retranchement</li><li> piste</li></ol></li></ol>",
    "pron": "mah-gawl'",
    "strongs_def": "une piste (au sens propre ou figuré) ; également un rempart (comme circulaire)",
    "xlit": "maʻgâl"
}