{
    "derivation": "ou (féminin) מַעֲדַנָּה ; de H5727 (עָדַן) ;",
    "frequency": 4,
    "kjv_def": "dainty, délicatement, délicieusement.",
    "lemma": "מַעֲדָן",
    "outline": "<ol><li> délicat (nourriture), délicieux</li></ol>",
    "pron": "mah-ad-awn'",
    "strongs_def": "un délice ou (abstraitement) un plaisir (adverbialement, gaiement)",
    "xlit": "maʻădân"
}