{
    "derivation": "pluriel de H4585 (מְעוֹנָה) ; habituel ;",
    "frequency": 1,
    "kjv_def": "Meonothai.",
    "lemma": "מְעוֹנֹתַי",
    "outline": "<span class=\"literal-meaning\">Meonothai = &quot; mes habitations &quot;.</span><ol><li> un fils d'Othniel, le frère cadet de Caleb</li></ol>",
    "pron": "meh-o-no-thah'-ee",
    "strongs_def": "Meonothai, un israélite",
    "xlit": "Mᵉʻôwnôthay"
}