{
    "derivation": "ou מַעַזְיָהוּ ; probablement de H5756 (עוּז) (dans le sens de protection) et H3050 (יָהּ) ; secours de Jah ;",
    "frequency": 2,
    "kjv_def": "Maaziah.",
    "lemma": "מַעַזְיָה",
    "outline": "<span class=\"literal-meaning\">Maaziah = &quot;consolation de Jéhovah&quot;.</span><ol><li> prêtre chargé du 24ème parcours à l'époque de David</li><li> un prêtre qui a signé l'alliance avec Néhémie</li></ol>",
    "pron": "mah-az-yaw'",
    "strongs_def": "Maazjah, le nom de deux Israéliens",
    "xlit": "Maʻazyâh"
}