{
    "derivation": "ou מְעָט ; de H4591 (מָעַט) ;",
    "frequency": 102,
    "kjv_def": "presque (certains, très) peu (-er, -est), légèrement, peu (pendant), (très) petit (matière, chose), certains, bientôt, [idiome] très.",
    "lemma": "מְעַט",
    "outline": "<ol><li> petit, peu, un peu, peu, peu<ol><li> peu, petit, petit, petit, peu, trop petit, encore un peu</li><li> comme un peu, dans un peu, presque, juste, à peine, peu, peu de valeur</li></ol></li></ol>",
    "pron": "meh-at'",
    "strongs_def": "un peu ou peu (souvent adverbial ou comparatif)",
    "xlit": "mᵉʻaṭ"
}