{
    "derivation": "une racine primitive ;",
    "frequency": 21,
    "kjv_def": "subir une diminution, un amoindrissement, (être, [idiome] emprunter un, donner, faire) peu (en nombre, -ness), rassembler le moins (peu), être (sembler) peu, ([idiome] donner le) moins, être réduit, réduire à néant.",
    "lemma": "מָעַט",
    "outline": "<ol><li> être ou devenir petit, être peu nombreux, être diminué<ol><li> (Qal)<ol><li> diminuer</li><li> être trop petit</li></ol><li> (Piel) to become few</li><li> (Hiphil)<ol><li> to make small, make few, diminish</li><li> to give less</li></ol></li></ol></li></ol>",
    "pron": "maw-at'",
    "strongs_def": "au sens propre, réduire, c'est-à-dire diminuer ; au sens figuré, être (ou causalement, rendre) petit ou peu (ou figurativement, inefficace)",
    "xlit": "mâʻaṭ"
}