{
    "derivation": "patrie de H4601 (מַעֲכָה) ;",
    "frequency": 8,
    "kjv_def": "Maachathite.",
    "lemma": "מַעֲכָתִי",
    "outline": "<span class=\"literal-meaning\">Maachathite = \"pression (littéralement elle a pressé)\"</span><ol><li> utilisé pour l'un des puissants guerriers de David</li><li> se dit d'un associé d'Ismaël</li><li> un peuple habitant en Transjordanie, probablement des descendants de Maachathite</li></ol>",
    "pron": "mah-ak-aw-thee'",
    "strongs_def": "un Maakathite, ou habitant de Maakah",
    "xlit": "Maʻăkâthîy"
}