{
    "derivation": "de H6030 (עָנָה) ;",
    "frequency": 8,
    "kjv_def": "répondre, [idiome] lui-même.",
    "lemma": "מַעֲנֶה",
    "outline": "<ol><li> réponse, réaction</li><li> (TWOT) place pour la tâche</li></ol>",
    "pron": "mah-an-eh'",
    "strongs_def": "une réponse (favorable ou contradictoire)",
    "xlit": "maʻăneh"
}