{
    "derivation": "de H410 (אֵל) et H5828 (עֵזֶר) ; Dieu du secours ;",
    "frequency": 14,
    "kjv_def": "Eliezer.",
    "lemma": "אֱלִיעֶזֶר",
    "outline": "<span class=\"literal-meaning\">Eliezer = &quot;Dieu est une aide&quot;</span><ol><li> Le serviteur damascène d'Abraham</li><li> un fils de Moïse</li><li> un Benjamite</li><li> un prêtre qui a aidé à déplacer l'arche</li><li> un Rubénite</li><li> un prophète qui a parlé à Josaphat</li><li> un chef lévite</li><li> fils de Harim</li><li> prêtre avec une femme étrangère</li></ol>",
    "pron": "el-ee-eh'-zer",
    "strongs_def": "Eliezer, le nom d'un Damascène et de dix Israélites",
    "xlit": "ʼĔlîyʻezer"
}