{
    "derivation": "identique à H4631 (מְעָרָה) ; grotte ;",
    "frequency": 1,
    "kjv_def": "Mearah.",
    "lemma": "מְעָרָה",
    "outline": "<span class=\"literal-meaning\">Mearah = &quot;caverne</span><ol><li> une zone ou une caverne dans les environs à l'est de Sidon</li></ol>",
    "pron": "meh-aw-raw'",
    "strongs_def": "Mearah, un lieu en Palestine",
    "xlit": "Mᵉʻârâh"
}