{
    "derivation": "de H5783 (עוּר) ;",
    "frequency": 39,
    "kjv_def": "grotte, tanière, trou.",
    "lemma": "מְעָרָה",
    "outline": "<ol><li> grotte, tanière, trou</li></ol>",
    "pron": "meh-aw-raw'",
    "strongs_def": "une caverne (aussi sombre)",
    "xlit": "mᵉʻârâh"
}