{
    "derivation": "de H6186 (עָרַךְ) ;",
    "frequency": 9,
    "kjv_def": "rang, pain de mie.",
    "lemma": "מַעֲרֶכֶת",
    "outline": "<ol><li> rangée, ligne</li></ol>",
    "pron": "mah-ar-eh'-keth",
    "strongs_def": "un arrangement, c'est-à-dire (concrètement) une pile (de pains)",
    "xlit": "maʻăreketh"
}