{
    "derivation": "ou מַעֲשַׂר ; et (au pluriel) le féminin מַעַשְׂרָה ; de H6240 (עָשָׂר) ;",
    "frequency": 32,
    "kjv_def": "dixième (partie), dîme (-ing).",
    "lemma": "מַעֲשֵׂר",
    "outline": "<ol><li> dîme, dixième partie<ol><li> dixième partie</li><li> dîme, paiement d'une dixième partie</li></ol></li></ol>",
    "pron": "mah-as-ayr'",
    "strongs_def": "un dixième ; surtout une dîme",
    "xlit": "maʻăsêr"
}