{
    "derivation": "de H6403 (פָּלַט) ;",
    "frequency": 1,
    "kjv_def": "s'échapper.",
    "lemma": "מִפְלָט",
    "outline": "<ol><li> fuite, lieu de fuite</li></ol>",
    "pron": "mif-lawt'",
    "strongs_def": "une évasion",
    "xlit": "miphlâṭ"
}