{
    "derivation": "de H6381 (פָּלָא) ;",
    "frequency": 1,
    "kjv_def": "une œuvre merveilleuse.",
    "lemma": "מִפְלָאָה",
    "outline": "<ol><li> merveilleux travail</li></ol>",
    "pron": "mif-law-aw'",
    "strongs_def": "un miracle",
    "xlit": "miphlâʼâh"
}