{
    "derivation": "de H6426 (פָּלַץ) ;",
    "frequency": 4,
    "kjv_def": "idole.",
    "lemma": "מִפְלֶצֶת",
    "outline": "<ol><li> chose horrible, chose horrible</li></ol>",
    "pron": "mif-leh'-tseth",
    "strongs_def": "une terreur, c'est-à-dire une idole",
    "xlit": "miphletseth"
}