{
    "derivation": "de H410 (אֵל) et H6395 (פָּלָה) ; Dieu de sa distinction ;",
    "frequency": 2,
    "kjv_def": "Elipheleh.",
    "lemma": "אֱלִיפְלֵהוּ",
    "outline": "<span class=\"literal-meaning\">Elipheleh = &quot;mon Dieu le met à part&quot; ou &quot;mon Dieu le distingue&quot;.</span><ol><li> un lévite gardien de porte et musicien de David</li></ol>",
    "pron": "el-ee-fe-lay'-hoo",
    "strongs_def": "Eliphelehu, un israélite",
    "xlit": "ʼĔlîyphᵉlêhûw"
}