{
    "derivation": "de H5310 (נָפַץ) ;",
    "frequency": "",
    "kjv_def": "l'abattage.",
    "lemma": "מַפָּץ",
    "outline": "",
    "pron": "map-pawts'",
    "strongs_def": "une mise en pièces",
    "xlit": "mappâts"
}