{
    "derivation": "de H6566 (פָּרַשׂ) ;",
    "frequency": 2,
    "kjv_def": "ce qui... se répand, se répand.",
    "lemma": "מִפְרָשׂ",
    "outline": "<ol><li> étalé, chose étalée</li></ol>",
    "pron": "mif-rawce'",
    "strongs_def": "une expansion",
    "xlit": "miphrâs"
}