{
    "derivation": "participe féminin (causatif) de H5324 (נָצַב) ;",
    "frequency": 32,
    "kjv_def": "garnison, image (debout), pilier.",
    "lemma": "מַצֵּבָה",
    "outline": "<ol><li> pilier, mastaba, souche<ol><li> pilier<ol><li> comme monument, mémorial personnel</li><li> avec un autel</li></ol><li> (Hoph) stock, souche (d'arbre)</li></ol></li></ol>",
    "pron": "mats-tsay-baw'",
    "strongs_def": "quelque chose de fixe, c'est-à-dire une colonne ou une pierre commémorative ; par analogie, une idole",
    "xlit": "matstsêbâh"
}