{
    "derivation": "ou מוֹץ ; (Sophonie 2:2), de H4160 (מוּץ) ;",
    "frequency": 8,
    "kjv_def": "la paille.",
    "lemma": "מֹץ",
    "outline": "<ol><li> paillettes<ol><li> toujours comme poussé par le vent</li></ol></li></ol>",
    "pron": "motes",
    "strongs_def": "la paille (comme pressée, c'est-à-dire vannée ou (plutôt) battue en vrac)",
    "xlit": "môts"
}