{
    "derivation": "apparemment de H4672 (מָצָא) et H3050 (יָהּ) ; trouvé de Jah ;",
    "frequency": 1,
    "kjv_def": "Mesobaite.",
    "lemma": "מְצֹבָיָה",
    "outline": "<span class=\"literal-meaning\">Mesobaite = &quot;celui qui est établi par JAH&quot;.</span><ol><li> de Jaasiel, un des puissants guerriers de David<ol><li> forme impropre à l'adj</li></ol></li></ol>",
    "pron": "mets-o-baw-yaw'",
    "strongs_def": "Metsobajah, un lieu en Palestine",
    "xlit": "Mᵉtsôbâyâh"
}