{
    "derivation": "de H6693 (צוּק) ;",
    "frequency": 6,
    "kjv_def": "l'angoisse, la détresse, la détresse.",
    "lemma": "מָצוֹק",
    "outline": "<ol><li> détroit, détroit, détresse, stress, angoisse</li></ol>",
    "pron": "maw-tsoke'",
    "strongs_def": "un lieu étroit, c'est-à-dire (abstraitement et figurativement) l'enfermement ou l'invalidité",
    "xlit": "mâtsôwq"
}