{
    "derivation": "de H6750 (צָלַל) ;",
    "frequency": 1,
    "kjv_def": "cloche.",
    "lemma": "מְצִלָּה",
    "outline": "<ol><li> cloche</li></ol>",
    "pron": "mets-il-law'",
    "strongs_def": "un tinkler, c'est-à-dire une cloche",
    "xlit": "mᵉtsillâh"
}