{
    "derivation": "ou מָצוּר ; de H6696 (צוּר) ;",
    "frequency": 26,
    "kjv_def": "assiégé, rempart, défense, clôture, forteresse, siège, forte (prise), tour.",
    "lemma": "מָצוֹר",
    "outline": "<ol><li> enceinte de siège, siège, retranchement, ouvrages de siège<ol><li> siège</li><li> enceinte, ouvrages de siège, rempart</li></ol></li></ol>",
    "pron": "maw-tsore'",
    "strongs_def": "quelque chose qui enferme, c'est-à-dire (objectivement) un monticule (d'assiégeants), (abstraitement) un siège, (figurativement) la détresse ; ou (subjectivement) une forteresse",
    "xlit": "mâtsôwr"
}