{
    "derivation": "ou מָצֻק ; de H6693 (צוּק) ;",
    "frequency": 2,
    "kjv_def": "pilier, situer.",
    "lemma": "מָצוּק",
    "outline": "<ol><li> support fondu, pilier, colonne</li></ol>",
    "pron": "maw-tsook'",
    "strongs_def": "quelque chose d'étroit, par exemple une colonne ou un sommet de colline",
    "xlit": "mâtsûwq"
}