{
    "derivation": "ou מָקֹם ; également (féminin) מְקוֹמָה ; ou מְקֹמָה ; de H6965 (קוּם) ;",
    "frequency": 401,
    "kjv_def": "pays, [idiome] maison, [idiome] ouvert, lieu, pièce, espace, [idiome] où que ce soit.",
    "lemma": "מָקוֹם",
    "outline": "<ol><li> place, lieu, place<ol><li> lieu, station, poste, bureau</li><li> lieu, lieu de résidence humaine</li><li> ville, terre, région</li><li> lieu, localité, endroit</li><li> espace, pièce, distance</li><li> région, quartier, direction</li><li> donner place à, au lieu de</li></ol></li></ol>",
    "pron": "maw-kome'",
    "strongs_def": "proprement, un emplacement, c'est-à-dire une tache ; mais il est largement utilisé pour désigner une localité (générale ou spécifique) ; également (au sens figuré) un état (du corps ou de l'esprit)",
    "xlit": "mâqôwm"
}