{
    "derivation": "pluriel de H4721 (מַקְהֵל) (féminin) ; assemblées ;",
    "frequency": 2,
    "kjv_def": "Makheloth.",
    "lemma": "מַקְהֵלֹת",
    "outline": "<span class=\"literal-meaning\">Makheloth = &quot;lieu d'assemblée</span><ol><li> une station des Israélites dans le désert</li></ol>",
    "pron": "mak-hay-loth'",
    "strongs_def": "Makheloth, un endroit dans le désert",
    "xlit": "Maqhêlôth"
}