{
    "derivation": "ou (féminin) מַקְּלָה ; d'une racine inutilisée signifiant apparemment germer ;",
    "frequency": 18,
    "kjv_def": "tige, (hand-)staff.",
    "lemma": "מַקֵּל",
    "outline": "<ol><li> baguette, bâton<ol><li> canne, bâton</li><li> bâton (de voyage)</li><li> baguette (de devin)</li></ol></li></ol>",
    "pron": "mak-kale",
    "strongs_def": "une pousse, c'est-à-dire un bâton (avec des feuilles, ou pour marcher, frapper, guider, deviner)",
    "xlit": "maqqêl"
}