{
    "derivation": "de H7038 (קָלַט) dans le sens de prendre dans ;",
    "frequency": 20,
    "kjv_def": "refuge.",
    "lemma": "מִקְלָט",
    "outline": "<ol><li> refuge, asile</li></ol>",
    "pron": "mik-lawt'",
    "strongs_def": "un asile (en tant que réceptacle)",
    "xlit": "miqlâṭ"
}