{
    "derivation": "de H7080 (קָסַם) ;",
    "frequency": 2,
    "kjv_def": "la divination.",
    "lemma": "מִקְסָם",
    "outline": "<ol><li> divination</li></ol>",
    "pron": "mik-sawn'",
    "strongs_def": "un augure",
    "xlit": "miqçâm"
}