{
    "derivation": "de H7049 (קָלַע) ;",
    "frequency": 4,
    "kjv_def": "sculpté (figure), sculpter, graver.",
    "lemma": "מִקְלַעַת",
    "outline": "<ol><li> sculpture</li></ol>",
    "pron": "mik-lah'-ath",
    "strongs_def": "une sculpture (probablement en bas-relief)",
    "xlit": "miqlaʻath"
}