{
    "derivation": "de H7112 (קָצַץ) ; fin ;",
    "frequency": 1,
    "kjv_def": "Makaz.",
    "lemma": "מָקַץ",
    "outline": "<span class=\"literal-meaning\">Makaz = &quot;fin&quot;</span><ol><li> un lieu en Israël ; site inconnu</li></ol>",
    "pron": "maw-kats'",
    "strongs_def": "Makats, un lieu en Palestine",
    "xlit": "Mâqats"
}