{
    "derivation": "ou מוֹר ; de H4843 (מָרַר) ;",
    "frequency": 12,
    "kjv_def": "de la myrrhe.",
    "lemma": "מֹר",
    "outline": "<ol><li> myrrhe<ol><li> une gomme arabe provenant de l'écorce d'un arbre, utilisée dans l'huile sacrée et dans les parfums</li></ol></li></ol>",
    "pron": "more",
    "strongs_def": "myrrhe (comme distillant en gouttes, et aussi comme amer)",
    "xlit": "môr"
}