{
    "derivation": "de dérivation étrangère ;",
    "frequency": "",
    "kjv_def": "Merodach-baladan. Comparez H4781 (מְרֹדָךְ).",
    "lemma": "מְרֹאדַךְ בַּלְאָדָן",
    "outline": "",
    "pron": "mer-o-dak' bal-awdawn'",
    "strongs_def": "Merodak-Baladan, un roi babylonien",
    "xlit": "Mᵉrôʼdak Balʼâdân"
}