{
    "derivation": "de H7280 (רָגַע) ;",
    "frequency": 1,
    "kjv_def": "repos.",
    "lemma": "מַרְגּוֹעַ",
    "outline": "<ol><li> reste</li></ol>",
    "pron": "mar-go'-ah",
    "strongs_def": "un lieu de repos",
    "xlit": "margôwaʻ"
}