{
    "derivation": "une forme de H4786 (מֹרָה) ;",
    "frequency": "",
    "kjv_def": "l'amertume.",
    "lemma": "מׇרָּה",
    "outline": "",
    "pron": "mor-raw'",
    "strongs_def": "problème",
    "xlit": "morrâh"
}