{
    "derivation": "de H4843 (מָרַר) ;",
    "frequency": "",
    "kjv_def": "chagrin.",
    "lemma": "מֹרָה",
    "outline": "",
    "pron": "mo-raw'",
    "strongs_def": "l'amertume, c'est-à-dire (au sens figuré) le trouble",
    "xlit": "môrâh"
}