{
    "derivation": "ou מְרֻצָה ; féminin de H4793 (מֵרוֹץ) ;",
    "frequency": 4,
    "kjv_def": "parcours, course. Comparer avec H4835 (מְרֻצָה).",
    "lemma": "מְרוּצָה",
    "outline": "<ol><li> course, cours (de la vie)<ol><li> course, mode ou style de course</li><li> cours (de la vie)</li></ol></li></ol>",
    "pron": "mer-oo-tsaw'",
    "strongs_def": "une course (l'acte), que ce soit la manière ou la progression",
    "xlit": "mᵉrûwtsâh"
}