{
    "derivation": "identique à H4808 (מְרִיבָה) ;",
    "frequency": 6,
    "kjv_def": "Meribah.",
    "lemma": "מְרִיבָה",
    "outline": "<span class=\"literal-meaning\">Meribah = &quot;querelle&quot; ou &quot;dispute&quot;.</span><ol><li> une fontaine à Rephidim, dans le désert de Sin ; ainsi appelée parce que les Israélites murmuraient contre Dieu</li><li> le nom de la source d'eau à Cadès, à la frontière sud de la terre promise ; le peuple y murmurait aussi contre Dieu</li></ol>",
    "pron": "mer-ee-baw'",
    "strongs_def": "Meribah, le nom de deux endroits dans le Désert",
    "xlit": "Mᵉrîybâh"
}