{
    "derivation": "de H7378 (רִיב) ;",
    "frequency": 7,
    "kjv_def": "provocation, querelle.",
    "lemma": "מְרִיבָה",
    "outline": "<ol><li> conflit, dispute</li></ol>",
    "pron": "mer-ee-baw'",
    "strongs_def": "querelle",
    "xlit": "mᵉrîybâh"
}