{
    "derivation": "de H4805 (מְרִי) et H1168 (בַּעַל) ; rébellion de (c'est-à-dire contre) Baal ;",
    "frequency": "",
    "kjv_def": "Meri-baal. Comparer avec H4807 (מְרִיב בַּעַל).",
    "lemma": "מְרִי בַעַל",
    "outline": "",
    "pron": "mer-ee' bah'-al",
    "strongs_def": "Meri-Baal, une épithète de Gédéon",
    "xlit": "Mᵉrîy Baʻal"
}