{
    "derivation": "de H4843 (מָרַר) ;",
    "frequency": 1,
    "kjv_def": "amer.",
    "lemma": "מְרִירִי",
    "outline": "<ol><li> amer</li></ol>",
    "pron": "mer-ee-ree'",
    "strongs_def": "amer, c'est-à-dire toxique",
    "xlit": "mᵉrîyrîy"
}