{
    "derivation": "de H7402 (רָכַל) ;",
    "frequency": 1,
    "kjv_def": "marchandise.",
    "lemma": "מַרְכֹּלֶת",
    "outline": "<ol><li> place du marché, lieu de commerce</li></ol>",
    "pron": "mar-ko'-leth",
    "strongs_def": "un martinet",
    "xlit": "markôleth"
}