{
    "derivation": "de H4843 (מָרַר) ;",
    "frequency": 1,
    "kjv_def": "l'amertume.",
    "lemma": "מְרִירוּת",
    "outline": "<ol><li> amertume</li></ol>",
    "pron": "mer-ee-rooth'",
    "strongs_def": "l'amertume, c'est-à-dire (au sens figuré) le chagrin",
    "xlit": "mᵉrîyrûwth"
}