{
    "derivation": "féminin de H4817 (מֶרְכָּב) ;",
    "frequency": 44,
    "kjv_def": "char. Voir aussi H1024 (בֵּית הַמַּרְכָּבוֹת).",
    "lemma": "מֶרְכָּבָה",
    "outline": "<ol><li> char</li></ol>",
    "pron": "mer-kaw-baw'",
    "strongs_def": "un char",
    "xlit": "merkâbâh"
}