{
    "derivation": "pluriel de H7311 (רוּם) ; hauteurs ;",
    "frequency": 6,
    "kjv_def": "Meremoth.",
    "lemma": "מְרֵמוֹת",
    "outline": "<span class=\"literal-meaning\">Meremoth = &quot;élévations</span><ol><li> prêtre, fils d'Urie, de la famille de Koz, actif dans la reconstruction de la muraille de Jérusalem et dans le 7ème service du temple à l'époque d'Esdras et de Néhémie</li><li> prêtre à l'époque de Zorobabel</li><li> exilé de retour de la famille de Bani qui avait une femme étrangère au temps d'Esdras</li></ol>",
    "pron": "mer-ay-mohth'",
    "strongs_def": "Meremoth, le nom de deux Israélites",
    "xlit": "Mᵉrêmôwth"
}