{
    "derivation": "de H7411 (רָמָה) dans le sens de tromper ;",
    "frequency": 39,
    "kjv_def": "ruse, tromperie (-ful, -fully), faux, feinte, ruse, subtilité, trahison.",
    "lemma": "מִרְמָה",
    "outline": "<ol><li> tromperie, trahison</li></ol>",
    "pron": "meer-maw'",
    "strongs_def": "fraude",
    "xlit": "mirmâh"
}