{
    "derivation": "de H7462 (רָעָה) dans le sens de nourrir ;",
    "frequency": 10,
    "kjv_def": "troupeau, pâturage.",
    "lemma": "מִרְעִית",
    "outline": "<ol><li> pâturage, pâturage, bergerie<ol><li> pâturage, bergerie</li><li> pâturage</li><li> troupeau (meton)</li></ol></li></ol>",
    "pron": "meer-eeth'",
    "strongs_def": "le pâturage ; concrètement, un troupeau",
    "xlit": "mirʻîyth"
}