{
    "derivation": "de H4838 (מָרַק) ;",
    "frequency": 2,
    "kjv_def": "bouillon. Voir également H6564 (פָּרָק).",
    "lemma": "מָרָק",
    "outline": "<ol><li> bouillon, jus cuit de la viande</li></ol>",
    "pron": "maw-rawk'",
    "strongs_def": "soupe (comme un rinçage)",
    "xlit": "mârâq"
}