{
    "derivation": "de H7561 (רָשַׁע) ;",
    "frequency": 1,
    "kjv_def": "femme méchante.",
    "lemma": "מִרְשַׁעַת",
    "outline": "<ol><li> méchanceté</li></ol>",
    "pron": "meer-shah'-ath",
    "strongs_def": "une femme méchante",
    "xlit": "mirshaʻath"
}