{
    "derivation": "de H5375 (נָשָׂא) ;",
    "frequency": 65,
    "kjv_def": "fardeau, emporter, prophétie, [idiome] ils ont mis, chanson, tribut.",
    "lemma": "מַשָּׂא",
    "outline": "<ol><li> charge, porter, tribut, fardeau, soulèvement<ol><li> charge, fardeau</li><li> soulever, élever, ce vers quoi l'âme s'élève</li><li> porter, transporter</li><li> tribut, ce qui est porté ou apporté ou supporté</li></ol><li> énonciation, oracle, charge<span class=\"literal-meaning\"> Massa = \"charge\"</span></li><li> un fils d'Ismaël</li></ol>",
    "pron": "mas-saw'",
    "strongs_def": "un fardeau ; en particulier, un tribut, ou (abstraitement) un portage ; au sens figuré, une parole, principalement un adage, surtout un chant ; au sens mental, un désir",
    "xlit": "massâʼ"
}