{
    "derivation": "de H5377 (נָשָׁא) ;",
    "frequency": 1,
    "kjv_def": "la tromperie.",
    "lemma": "מַשָּׁאוֹן",
    "outline": "<ol><li> ruse, dissimulation, tromperie</li></ol>",
    "pron": "mash-shaw-ohn'",
    "strongs_def": "dissimulation",
    "xlit": "mashshâʼôwn"
}