{
    "derivation": "de H7665 (שָׁבַר) ;",
    "frequency": 3,
    "kjv_def": "naissance, éclosion.",
    "lemma": "מִשְׁבֵּר",
    "outline": "<ol><li> lieu d'éclosion, lieu de rupture, d'ouverture<ol><li> de l'utérus</li></ol></li></ol>",
    "pron": "mish-bare'",
    "strongs_def": "l'orifice de l'utérus (d'où sort le fœtus)",
    "xlit": "mishbêr"
}