{
    "derivation": "une racine primitive ;",
    "frequency": "",
    "kjv_def": "dessiner(out).",
    "lemma": "מָשָׁה",
    "outline": "",
    "pron": "maw-shaw'",
    "strongs_def": "tirer (au sens propre comme au sens figuré)",
    "xlit": "mâshâh"
}