{
    "derivation": "ou מְשֹׁאָה ; du même que H7722 (שׁוֹא) ;",
    "frequency": 3,
    "kjv_def": "la désolation, le gaspillage.",
    "lemma": "מְשׁוֹאָה",
    "outline": "<ol><li> désolation, ruine</li></ol>",
    "pron": "meh-o-aw'",
    "strongs_def": "a) la ruine, de manière abstraite (l'acte) ou concrète (l'épave)",
    "xlit": "mᵉshôwʼâh"
}