{
    "derivation": "prolongé de H481 (אָלַם) dans le sens de deuil ;",
    "frequency": 1,
    "kjv_def": "abandonnés.",
    "lemma": "אַלְמָן",
    "outline": "<ol><li> veuve, abandonnée, abandonnée comme une veuve</li></ol>",
    "pron": "al-mawn'",
    "strongs_def": "jeté (comme une personne divorcée)",
    "xlit": "ʼalmân"
}