{
    "derivation": "de même que H7850 (שֹׁטֵט) ;",
    "frequency": 2,
    "kjv_def": "la haine.",
    "lemma": "מַשְׂטֵמָה",
    "outline": "<ol><li> animosité, inimitié</li></ol>",
    "pron": "mas-tay-maw'",
    "strongs_def": "inimitié",
    "xlit": "masṭêmâh"
}