{
    "derivation": "de H4886 (מָשַׁח) ;",
    "frequency": 39,
    "kjv_def": "oint, Messie.",
    "lemma": "מָשִׁיחַ",
    "outline": "<ol><li> oint, oint unique<ol><li> du Messie, prince messianique</li><li> du roi d'Israël</li><li> du grand prêtre d'Israël</li><li> de Cyrus</li><li> des patriarches en tant que rois oints</li></ol></li></ol>",
    "pron": "maw-shee'-akh",
    "strongs_def": "oint ; généralement une personne consacrée (comme un roi, un prêtre ou un saint) ; en particulier, le Messie",
    "xlit": "mâshîyach"
}