{
    "derivation": "de H7931 (שָׁכַן) ;",
    "frequency": 139,
    "kjv_def": "dwelleth, demeure (lieu), habitation, tabernacle, tente.",
    "lemma": "מִשְׁכָּן",
    "outline": "<ol><li> lieu d'habitation, tabernacle<ol><li> logement</li><li> habitations</li></ol></li></ol>",
    "pron": "mish-kawn'",
    "strongs_def": "une résidence (y compris une cabane de berger, la tanière des animaux, au sens figuré, la tombe ; également le Temple) ; en particulier, le Tabernacle (proprement, ses murs en bois)",
    "xlit": "mishkân"
}