{
    "derivation": "dénominatif de H4912 (מָשָׁל) ;",
    "frequency": 17,
    "kjv_def": "être (-venir) comme, comparer, utiliser (comme un) proverbe, parler (en proverbes), prononcer.",
    "lemma": "מָשַׁל",
    "outline": "<ol><li> représenter, ressembler, être semblable<ol><li> (Niphal) ressembler, être semblable, être similaire</li><li> (Hiphil) comparer</li><li> (Hithpael) devenir semblable</li></ol><li> parler en proverbe, utiliser un proverbe, parler en paraboles, parler en phrases de poésie<ol><li> (Qal) utiliser un proverbe, parler une parabole ou un proverbe</li><li> (Piel) faire une parabole<ol><li> faire des paraboles (participe)</li></ol></li></ol></li></ol>",
    "pron": "maw-shal'",
    "strongs_def": "comparer, c'est-à-dire (transitivement) utiliser un langage figuré (une allégorie, un adage, une chanson ou autre) ; intransitivement, ressembler",
    "xlit": "mâshal"
}