{
    "derivation": "apparemment de H4910 (מָשַׁל) dans un certain sens originel de supériorité dans l'action mentale ;",
    "frequency": 38,
    "kjv_def": "mot, comme, parabole, proverbe.",
    "lemma": "מָשָׁל",
    "outline": "<ol><li> proverbe, parabole<ol><li> proverbe, dicton proverbial, aphorisme</li><li> mot-clé</li><li> similitude, parabole</li><li> poème</li><li> phrases de sagesse éthique, maximes éthiques</li></ol></li></ol>",
    "pron": "maw-shawl'",
    "strongs_def": "à proprement parler, une maxime lapidaire, généralement de nature métaphorique ; d'où une comparaison (comme un adage, un poème, un discours)",
    "xlit": "mâshâl"
}