{
    "derivation": "de H8080 (שָׁמַן) ;",
    "frequency": 7,
    "kjv_def": "gras (un, -ness, -test, -test lieu).",
    "lemma": "מַשְׁמָן",
    "outline": "<ol><li> graisse, morceau de graisse, endroit fertile, nourriture richement préparée<ol><li> graisse, graisse, morceaux de graisse</li><li> huile, huile d'olive</li></ol><li> gras,<ol><li> gros, vigoureux,</li><li> endroits fertiles</li></ol></li></ol>",
    "pron": "mash-mawn'",
    "strongs_def": "gras, c'est-à-dire (littéralement et abstraitement) l'embonpoint ; mais généralement (figurativement et concrètement) un plat riche, un champ fertile, un homme robuste",
    "xlit": "mashmân"
}