{
    "derivation": "identique à H4926 (מִשְׁמָע) ;",
    "frequency": 4,
    "kjv_def": "Mishma.",
    "lemma": "מִשְׁמָע",
    "outline": "<span class=\"literal-meaning\">Mishma = &quot;une audience&quot;</span><ol><li> un des 12 fils d'Ismaël</li><li> fils de Mibsam de la famille de Siméon</li></ol>",
    "pron": "mish-maw'",
    "strongs_def": "Mishma, nom d'un fils d'Ismaël et d'un Israélite",
    "xlit": "Mishmâʻ"
}