{
    "derivation": "ou מְשֶׁלֶמְיָהוּ ; de H7999 (שָׁלַם) et H3050 (יָהּ) ; allié de Jah ;",
    "frequency": 4,
    "kjv_def": "Meshelemiah.",
    "lemma": "מְשֶׁלֶמְיָה",
    "outline": "<span class=\"literal-meaning\">Meshelemiah = &quot;celui que Jéhovah rembourse&quot;.</span><ol><li> un lévite Korhite, portier ou gardien de la maison de Dieu à l'époque de David</li></ol>",
    "pron": "mesh-eh-lem-yaw'",
    "strongs_def": "Meshelemjah, un Israélite",
    "xlit": "Mᵉshelemyâh"
}