{
    "derivation": "de même que H8168 (שֹׁעַל) ;",
    "frequency": 1,
    "kjv_def": "chemin.",
    "lemma": "מִשְׁעוֹל",
    "outline": "<ol><li> chemin creux, chemin étroit<ol><li> d'une route fermée entre les vignobles</li></ol></li></ol>",
    "pron": "mish-ole'",
    "strongs_def": "un creux, c'est-à-dire un passage étroit",
    "xlit": "mishʻôwl"
}