{
    "derivation": "de H8264 (שָׁקַק) ;",
    "frequency": 1,
    "kjv_def": "qui vont et viennent.",
    "lemma": "מַשָּׁק",
    "outline": "<ol><li> courir, se précipiter</li></ol>",
    "pron": "mash-shawk'",
    "strongs_def": "une traversée, c'est-à-dire un mouvement rapide",
    "xlit": "mashshâq"
}