{
    "derivation": "de H8254 (שָׁקַל) ;",
    "frequency": 1,
    "kjv_def": "poids.",
    "lemma": "מִשְׁקוֹל",
    "outline": "<ol><li> lourdeur, poids</li></ol>",
    "pron": "mish-kole'",
    "strongs_def": "poids",
    "xlit": "mishqôwl"
}