{
    "derivation": "(Araméen) d'une racine correspondant à H8319 (שָׁרַק) ;",
    "frequency": 4,
    "kjv_def": "flûte.",
    "lemma": "מַשְׁרוֹקִי",
    "outline": "<ol><li> tuyau</li></ol>",
    "pron": "mash-ro-kee'",
    "strongs_def": "une pipe (musicale) (d'après son son sifflement)",
    "xlit": "mashrôwqîy"
}