{
    "derivation": "du pluriel de H4955 (מִשְׂרָפָה) et H4325 (מַיִם) ; brûlures d'eau ;",
    "frequency": "",
    "kjv_def": "Misrephoth-mayim.",
    "lemma": "מִשְׂרְפוֹת מַיִם",
    "outline": "",
    "pron": "mis-ref-ohth' mah'-yim",
    "strongs_def": "Misrephoth-Majim, un lieu en Palestine",
    "xlit": "Misrᵉphôwth mayim"
}