{
    "derivation": "de H8280 (שָׂרָה) ;",
    "frequency": 2,
    "kjv_def": "gouvernement.",
    "lemma": "מִשְׂרָה",
    "outline": "<ol><li> règle, domination, gouvernement</li></ol>",
    "pron": "mis-raw'",
    "strongs_def": "empire",
    "xlit": "misrâh"
}