{
    "derivation": "de H4962 (מַת) et H410 (אֵל), avec la relative interposée ; homme qui (est) de Dieu ;",
    "frequency": 2,
    "kjv_def": "Methusael.",
    "lemma": "מְתוּשָׁאֵל",
    "outline": "<span class=\"literal-meaning\">Methusael = &quot;qui est de Dieu&quot;.</span><ol><li> fils de Mehujael, 4e dans la descendance de Caïn, et père de Lamech</li></ol>",
    "pron": "meth-oo-shaw-ale'",
    "strongs_def": "Methusael, un patriarche antédiluvien",
    "xlit": "Mᵉthûwshâʼêl"
}