{
    "derivation": "de H8354 (שָׁתָה) ;",
    "frequency": 46,
    "kjv_def": "banquet, bu, boisson, festin((-ed), -ing).",
    "lemma": "מִשְׁתֶּה",
    "outline": "<ol><li> festin, boisson, banquet<ol><li> festin, banquet</li><li> boire</li></ol></li></ol>",
    "pron": "mish-teh'",
    "strongs_def": "boire, par implication, boire (l'acte) ; également (par implication) un banquet ou (généralement) une fête",
    "xlit": "mishteh"
}