{
    "derivation": "identique à H4976 (מַתָּן) ;",
    "frequency": "",
    "kjv_def": "Mattan.",
    "lemma": "מַתָּן",
    "outline": "",
    "pron": "mat-tawn'",
    "strongs_def": "Mattan, nom d'un prêtre de Baal et d'un Israélite",
    "xlit": "Mattân"
}