{
    "derivation": "de H5414 (נָתַן) ;",
    "frequency": 5,
    "kjv_def": "cadeau, donner, récompense.",
    "lemma": "מַתָּן",
    "outline": "<ol><li> cadeaux, offrandes, présents</li></ol>",
    "pron": "mat-tawn'",
    "strongs_def": "un cadeau",
    "xlit": "mattân"
}