{
    "derivation": "ou נאוֹדlemma נֹאוד voyelle, corrigé en נאוֹדxlit nôʼwd corrigé en nʼôwd ; aussi (féminin) נֹאדָה ; d'une racine inutilisée de signification incertaine ;",
    "frequency": 6,
    "kjv_def": "bouteille.",
    "lemma": "נֹאד",
    "outline": "<ol><li> peau, bouteille, bouteille de peau</li></ol>",
    "pron": "node",
    "strongs_def": "un sac (en peau ou en cuir) (pour les fluides)",
    "xlit": "nôʼd"
}