{
    "derivation": "apparemment de H5106 (נוּא) dans le sens de dureté par refus ;",
    "frequency": 1,
    "kjv_def": "brut.",
    "lemma": "נָא",
    "outline": "<ol><li> brut</li></ol>",
    "pron": "naw",
    "strongs_def": "correctement, coriace, c'est-à-dire non cuit (chair)",
    "xlit": "nâʼ"
}