{
    "derivation": "d'origine étrangère ;",
    "frequency": 1,
    "kjv_def": "Abagtha.",
    "lemma": "אֲבַגְתָא",
    "outline": "<span class=\"literal-meaning\">Abagtha = &quot;donné par Dieu&quot;</span><ol><li> l'un des sept eunuques de la cour perse d'Assuérus</li></ol>",
    "pron": "ab-ag-thaw'",
    "strongs_def": "Abagtha, un eunuque de Xerxès",
    "xlit": "ʼĂbagthâʼ"
}