{
    "derivation": "de H5024 (נָבַח) ; une écorce ;",
    "frequency": 3,
    "kjv_def": "Nobah.",
    "lemma": "נֹבַח",
    "outline": "<span class=\"literal-meaning\">Nobah = &quot;aboiement</span><ol><li> un guerrier de Manassé qui, pendant la conquête du territoire à l'est du Jourdain, s'est approprié la ville de Kenath et les villages environnants</li><li> lieu en Galaad qui comprenait la ville de Kenath et les villages environnants capturé par 1 ci-dessus et rebaptisé de son nom ; la région a fini par retrouver son identité originale</li></ol>",
    "pron": "no'-bach",
    "strongs_def": "Nobach, nom d'un Israélite et d'un lieu situé à l'est du Jourdain",
    "xlit": "Nôbach"
}