{
    "derivation": "une racine primitive ;",
    "frequency": 25,
    "kjv_def": "disgracier, déshonorer, estimer à la légère, s'effacer, tomber, faire des bêtises, être réduit à néant, rendre vil, flétrir.",
    "lemma": "נָבֵל",
    "outline": "<ol><li> être insensé, être stupide<ol><li> (Qal) être stupide</li><li> (Piel)<ol><li> considérer ou traiter comme insensé</li><li> traiter avec mépris</li></ol><li> sombrer ou tomber, languir, se flétrir et tomber, se faner<ol><li> (Qal)<ol><li> sombrer ou tomber</li><li> pour tomber, se flétrir et tomber, se faner</li><li> pour s'affaisser</li></ol></li></ol></li></ol>",
    "pron": "naw-bale'",
    "strongs_def": "se flétrir ; en général, tomber, échouer, s'évanouir ; au sens figuré, être stupide ou (moralement) méchant ; au sens figuré, mépriser, déshonorer",
    "xlit": "nâbêl"
}