{
    "derivation": "(Araméen) d'une racine inutilisée signifiant briller ;",
    "frequency": 1,
    "kjv_def": "chandelier.",
    "lemma": "נֶבְרְשָׁא",
    "outline": "<ol><li> chandelier, chandelier<ol><li> pas le chandelier à 7 branches du temple</li></ol></li></ol>",
    "pron": "neb-reh-shaw'",
    "strongs_def": "un luminaire ; au pluriel (collectivement) un lustre",
    "xlit": "nebrᵉshâʼ"
}