{
    "derivation": "une racine primitive ;",
    "frequency": 370,
    "kjv_def": "bewray, [idiome] certainement, certifier, déclarer (-ing), dénoncer, exposer, [idiome] complètement, messager, clairement, professer, répéter, rapporter, montrer (en avant), parler, [idiome] sûrement, dire, prononcer.",
    "lemma": "נָגַד",
    "outline": "<ol><li> être visible, dire, faire connaître<ol><li> (Hiphil) dire, déclarer<ol><li> dire, annoncer, rapporter</li><li> déclarer, faire connaître, exposer</li><li> informer de</li><li> publier, déclarer, proclamer</li><li> avouer, reconnaître, confesser<ol><li> messager (participe)</li></ol><li> (Hophal) être dit, être annoncé, être rapporté</li></ol></li></ol>",
    "pron": "naw-gad'",
    "strongs_def": "au sens propre, faire face, c'est-à-dire se tenir hardiment en face ; par implication (causatif), manifester ; au sens figuré, annoncer (toujours de vive voix à une personne présente) ; plus précisément, exposer, prédire, expliquer, louer",
    "xlit": "nâgad"
}