{
    "derivation": "identique à H5051 (נֹגַהּ) ;",
    "frequency": 2,
    "kjv_def": "Nogah.",
    "lemma": "נֹגַהּ",
    "outline": "<span class=\"literal-meaning\">Nogah = &quot;éclat&quot;</span><ol><li> l'un des 13 fils de David nés à Jérusalem</li></ol>",
    "pron": "no'-gah",
    "strongs_def": "Nogah, un fils de David",
    "xlit": "Nôgahh"
}