{
    "derivation": "une racine primitive ;",
    "frequency": 11,
    "kjv_def": "gore, pousser (vers le bas, -ing).",
    "lemma": "נָגַח",
    "outline": "<ol><li> pousser, enfoncer, gorger<ol><li> (Qal) gorger</li><li> (Piel) pousser ou pousser à</li><li> (Hithpael) s'engager dans la poussée, faire la guerre</li></ol></li></ol>",
    "pron": "naw-gakh'",
    "strongs_def": "frapper avec les cornes ; au sens figuré, faire la guerre à l'ennemi",
    "xlit": "nâgach"
}