{
    "derivation": "de H5055 (נָגַח) ;",
    "frequency": 2,
    "kjv_def": "utilisé (ne pas utiliser) pour pousser.",
    "lemma": "נַגָּח",
    "outline": "<ol><li> accro au gore, apte au gore</li></ol>",
    "pron": "nag-gawkh'",
    "strongs_def": "butting, c'est-à-dire vicieux",
    "xlit": "naggâch"
}