{
    "derivation": "ou נָדָא ; (2 Rois 17:21), une racine primitive ;",
    "frequency": "",
    "kjv_def": "chassez, chassez, éloignez.",
    "lemma": "נָדָה",
    "outline": "",
    "pron": "naw-daw'",
    "strongs_def": "au sens propre, jeter ; au sens figuré, exclure, c'est-à-dire bannir, différer, interdire",
    "xlit": "nâdâh"
}