{
    "derivation": "féminin de H5081 (נָדִיב) ;",
    "frequency": 1,
    "kjv_def": "l'âme.",
    "lemma": "נְדִיבָה",
    "outline": "<ol><li> noblesse, noblesse, actions nobles<ol><li> noblesse (de rang), honneur</li><li> choses nobles</li></ol></li></ol>",
    "pron": "ned-ee-baw'",
    "strongs_def": "proprement, la noblesse, c'est-à-dire la réputation",
    "xlit": "nᵉdîybâh"
}