{
    "derivation": "féminin de H5092 (נְהִי) ;",
    "frequency": 0,
    "kjv_def": "triste.",
    "lemma": "נִהְיָה",
    "outline": "<ol><li> gémissement, plainte, lamentation, chant de deuil</li></ol>",
    "pron": "nih-yaw'",
    "strongs_def": "lamentation",
    "xlit": "nihyâh"
}