{
    "derivation": "(Araméen) d'une racine correspondant à H5102 (נָהַר) ;",
    "frequency": 15,
    "kjv_def": "rivière, ruisseau.",
    "lemma": "נְהַר",
    "outline": "<ol><li> rivière</li></ol>",
    "pron": "neh-har'",
    "strongs_def": "un fleuve, notamment l'Euphrate",
    "xlit": "nᵉhar"
}