{
    "derivation": "une racine primitive ;",
    "frequency": 8,
    "kjv_def": "briser, désapprouver, décourager, rendre sans effet.",
    "lemma": "נוּא",
    "outline": "<ol><li> entraver, retenir, interdire, désavouer, retenir, frustrer<ol><li> (Qal) entraver, retenir</li><li> (Hiphil)<ol><li> restreindre, interdire, frustrer</li><li> retenir, rendre averse, décourager</li></ol></li></ol></li></ol>",
    "pron": "noo",
    "strongs_def": "refuser, interdire, dissuader ou neutraliser",
    "xlit": "nûwʼ"
}