{
    "derivation": "une racine primitive ;",
    "frequency": 159,
    "kjv_def": "abate, away, be displayed, (make to) flee (away, -ing), put to flight, [idiom] hide, lift up a standard.",
    "lemma": "נוּס",
    "outline": "<ol><li> fuir, s'échapper<ol><li> (Qal)<ol><li> fuir</li><li> s'échapper</li><li> prendre la fuite,m partir, disparaître</li><li> voler (à l'attaque) à cheval</li></ol><li> (Polel) to drive at</li><li> (Hithpolel) to take flight</li><li> (Hiphil)<ol><li> to put to flight</li><li> to drive hastily</li><li> to cause to disappear, hide</li></ol></li></ol></li></ol>",
    "pron": "noos",
    "strongs_def": "voltiger, c'est-à-dire disparaître (s'effacer, s'échapper ; causalement, chasser, pousser, délivrer)",
    "xlit": "nûwç"
}