{
    "derivation": "une racine primitive ;",
    "frequency": 6,
    "kjv_def": "dormir, sommeiller.",
    "lemma": "נוּם",
    "outline": "<ol><li> s'assoupir, somnoler, dormir<ol><li> (Qal) s'assoupir, être somnolent</li></ol></li></ol>",
    "pron": "noom",
    "strongs_def": "de somnoler (de la somnolence)",
    "xlit": "nûwm"
}