{
    "derivation": "(Araméen) d'une racine non utilisée (correspondant à celle de H5216 (נִיר)) signifiant briller ;",
    "frequency": 17,
    "kjv_def": "ardent, feu.",
    "lemma": "נוּר",
    "outline": "<ol><li> feu</li></ol>",
    "pron": "noor",
    "strongs_def": "feu",
    "xlit": "nûwr"
}