{
    "derivation": "d'une racine inutilisée signifiant blesser ;",
    "frequency": 1,
    "kjv_def": "dommages.",
    "lemma": "נֵזֶק",
    "outline": "<ol><li> blessure, dommage</li></ol>",
    "pron": "nay'zek",
    "strongs_def": "perte",
    "xlit": "nêzeq"
}