{
    "derivation": "ou (plus correctement) אֶלְתְּקֵה ; de dérivation incertaine ;",
    "frequency": 2,
    "kjv_def": "Eltekeh.",
    "lemma": "אֶלְתְּקֵא",
    "outline": "<span class=\"literal-meaning\">Eltekeh = &quot;que Dieu te recrache&quot;.</span><ol><li> Ville lévitique de la tribu de Dan, entre Ekron et Timna</li></ol>",
    "pron": "el-te-kay'",
    "strongs_def": "Eltekeh ou Elteke, un lieu en Palestine",
    "xlit": "ʼEltᵉqêʼ"
}