{
    "derivation": "ou נֵזֶר ; de H5144 (נָזַר) ;",
    "frequency": 25,
    "kjv_def": "consécration, couronne, cheveux, séparation.",
    "lemma": "נֶזֶר",
    "outline": "<ol><li> consécration, couronne, séparation, nazaréat<ol><li> couronne (en signe de consécration), boucle d'oreille<ol><li> pierres d'une couronne, diadème, pierres de charme</li></ol><li> cheveux de femme</li><li> consécration<ol><li> du grand prêtre</li><li> du nazaréen</li></ol></li></ol></li></ol>",
    "pron": "neh'-zer",
    "strongs_def": "proprement, quelque chose de mis à part, c'est-à-dire (abstraitement) la dédicace (d'un prêtre ou d'un naziréen) ; d'où (concrètement) les serrures non taillées ; également (implicitement) un chapelet (surtout de la royauté)",
    "xlit": "nezer"
}