{
    "derivation": "de H5157 (נָחַל) (dans son sens habituel) ;",
    "frequency": 223,
    "kjv_def": "patrimoine, hériter, héritage, possession. Comparez H5158 (נַחַל).",
    "lemma": "נַחֲלָה",
    "outline": "<ol><li> possession, propriété, héritage, patrimoine<ol><li> propriété</li><li> portion, part</li><li> héritage, portion</li></ol></li></ol>",
    "pron": "nakh-al-aw'",
    "strongs_def": "à proprement parler, quelque chose d'hérité, c'est-à-dire (abstraitement) une occupation, ou (concrètement) un héritage ; généralement une succession, un patrimoine ou une portion",
    "xlit": "nachălâh"
}