{
    "derivation": "une racine primitive ;",
    "frequency": 108,
    "kjv_def": "confort (soi), aisance (soi), repentir (-er,-ing, soi).",
    "lemma": "נָחַם",
    "outline": "<ol><li> s'excuser, se consoler, se repentir, regretter, se consoler, être consolé<ol><li> (Niphal)<ol><li> être désolé, être ému de pitié, avoir de la compassion</li><li> être désolé, regretter, souffrir, se repentir</li><li> se réconforter, être réconforté</li><li> se réconforter, se soulager</li></ol><li> (Piel) réconforter, consoler</li><li> (Pual) être réconforté, être consolé</li><li> (Hithpael)<ol><li> être désolé, avoir de la compassion</li><li> se repentir, se repentir de</li><li> se réconforter, être consolé</li><li> se soulager</li></ol></li></ol></li></ol>",
    "pron": "naw-kham'",
    "strongs_def": "proprement, soupirer, c'est-à-dire respirer fortement ; implicitement, être désolé, c'est-à-dire (dans un sens favorable) plaindre, consoler ou (par réflexe) regretter ; ou (dans un sens défavorable) se venger",
    "xlit": "nâcham"
}