{
    "derivation": "ou נַחְרַי ; du même que H5170 (נַחַר) ; ronfleur ;",
    "frequency": 2,
    "kjv_def": "Naharai, Nahari.",
    "lemma": "נַחֲרַי",
    "outline": "<span class=\"literal-meaning\">Naharai = &quot;ronfleur&quot;</span><ol><li> un des puissants guerriers de David et le porteur d'armure de Joab</li></ol>",
    "pron": "nakh-ar-ah'-ee",
    "strongs_def": "Nacharai ou Nachrai, un Israélite",
    "xlit": "Nachăray"
}