{
    "derivation": "une racine primitive ;",
    "frequency": "",
    "kjv_def": "drop(-ping), prophétiser(-et).",
    "lemma": "נָטַף",
    "outline": "",
    "pron": "naw-taf'",
    "strongs_def": "suinter, c'est-à-dire distiller progressivement ; implicitement, tomber en gouttes ; au sens figuré, parler par inspiration",
    "xlit": "nâṭaph"
}