{
    "derivation": "de H5110 (נוּד) ;",
    "frequency": 1,
    "kjv_def": "en mouvement.",
    "lemma": "נִיד",
    "outline": "<ol><li> frémissement (mouvement) des lèvres</li></ol>",
    "pron": "need",
    "strongs_def": "mouvement (des lèvres dans la parole)",
    "xlit": "nîyd"
}