{
    "derivation": "un mot douteux ; apparemment de H5091 (נָהָה) ;",
    "frequency": 1,
    "kjv_def": "gémissant.",
    "lemma": "נִי",
    "outline": "<ol><li> gémissant</li></ol>",
    "pron": "nee",
    "strongs_def": "lamentation",
    "xlit": "nîy"
}