{
    "derivation": "de H5218 (נָכֵא) ;",
    "frequency": 2,
    "kjv_def": "spicery(-ces).",
    "lemma": "נְכֹאת",
    "outline": "<ol><li> une épice<ol><li> peut-être de la gomme adragante</li></ol></li></ol>",
    "pron": "nek-ohth'",
    "strongs_def": "proprement, une frappe, c'est-à-dire (concrètement) une gomme aromatique (peut-être du styrax) (en poudre)",
    "xlit": "nᵉkôʼth"
}