{
    "derivation": "de H5340 (נָצַץ) ;",
    "frequency": 1,
    "kjv_def": "étincelle.",
    "lemma": "נִיצוֹץ",
    "outline": "<ol><li> étincelle</li></ol>",
    "pron": "nee-tsotes'",
    "strongs_def": "une étincelle",
    "xlit": "nîytsôwts"
}