{
    "derivation": "de même que H5226 (נֵכַח) ;",
    "frequency": 4,
    "kjv_def": "clair, droit, droiture.",
    "lemma": "נָכֹחַ",
    "outline": "<ol><li> droit, droit, rectitude, être devant</li></ol>",
    "pron": "naw-ko'-akh",
    "strongs_def": "direct, c'est-à-dire (au sens figuré), équitable, correct, ou (abstraitement), intégrité",
    "xlit": "nâkôach"
}