{
    "derivation": "à partir d'une racine inutilisée signifiant être direct ;",
    "frequency": 2,
    "kjv_def": "avant, sur, contre.",
    "lemma": "נֵכַח",
    "outline": "<ol><li> être devant</li><li> devant, en face de, à la vue de, avant, devant, juste devant</li><li> vers le devant de, devant, pour le compte de, jusqu'à devant</li></ol>",
    "pron": "nay'-kakh",
    "strongs_def": "proprement, la partie antérieure ; utilisé adverbialement, opposé",
    "xlit": "nêkach"
}