{
    "derivation": "de H5235 (נֶכֶר) (deuxième forme) ;",
    "frequency": 46,
    "kjv_def": "étranger, étranger, bizarre, étrange (-r, femme).",
    "lemma": "נׇכְרִי",
    "outline": "<ol><li> étranger, étrangère<ol><li> étranger</li><li> étranger (substantif)</li><li> femme étrangère, prostituée</li><li> inconnu, non familier (fig.)</li></ol></li></ol>",
    "pron": "nok-ree'",
    "strongs_def": "étrange, dans une variété de degrés et d'applications (étranger, non apparenté, adultère, différent, merveilleux)",
    "xlit": "nokrîy"
}