{
    "derivation": "de même que H517 (אֵם) ;",
    "frequency": 3,
    "kjv_def": "la nation, le peuple.",
    "lemma": "אֻמַּה",
    "outline": "<ol><li> peuple, tribu, nation</li></ol>",
    "pron": "oom-maw'",
    "strongs_def": "une collection, c'est-à-dire une communauté de personnes",
    "xlit": "ʼummah"
}