{
    "derivation": "une racine primitive ;",
    "frequency": 49,
    "kjv_def": "reconnaître, [idiome] pourrait, livrer, discerner, dissimuler, s'éloigner, se faire passer pour un autre, savoir, prendre connaissance (remarquer), percevoir, considérer, (avoir) du respect, se comporter (se faire) étrangement (-ly).",
    "lemma": "נָכַר",
    "outline": "<ol><li> reconnaitre, reconnaître, savoir, respecter, discerner, considérer<ol><li> (Niphal) être reconnu</li><li> (Piel) regarder</li><li> (Hiphil)<ol><li> considérer, observer, prêter attention à, faire attention à, remarquer</li><li> reconnaître (comme autrefois connu), percevoir</li><li> être disposé à reconnaître ou à admettre, reconnaître avec honneur</li><li> avoir connaissance de</li><li> distinguer, comprendre</li></ol><li> (Hithpael) se faire connaître</li></ol><li> agir ou traiter comme étranger ou étrange, déguiser, méconnaître<ol><li> (Niphal) se déguiser</li><li>(Piel)<ol><li> traiter comme étranger (profane)</li><li> méconnaître</li></ol><li> (Hithpael)<ol><li> agir comme étranger</li><li> pour se déguiser</li></ol></li></li></ol></li></ol>",
    "pron": "naw-kar'",
    "strongs_def": "proprement, examiner, c'est-à-dire regarder attentivement ; par conséquent (avec reconnaissance implicite), reconnaître, connaître, prendre soin, respecter, vénérer, ou (avec suspicion implicite), ne pas tenir compte, ignorer, être étrange envers, rejeter, démissionner, dissimuler (comme si l'on ignorait ou que l'on reniait)",
    "xlit": "nâkar"
}