{
    "derivation": "ou נֹכֶר ; de H5234 (נָכַר) ;",
    "frequency": 1,
    "kjv_def": "étrange.",
    "lemma": "נֶכֶר",
    "outline": "<ol><li> calamité, désastre, malheur</li></ol>",
    "pron": "neh'-ker",
    "strongs_def": "quelque chose d'étrange, c'est-à-dire une calamité inattendue",
    "xlit": "neker"
}