{
    "derivation": "de H959 (בָּזָה),",
    "frequency": 0,
    "kjv_def": "vilain.",
    "lemma": "נְמִבְזֶה",
    "outline": "<ol><li> vil, méprisé, dédaigné, tenu en mépris</li></ol>",
    "pron": "nem-ib-zeh'",
    "strongs_def": "méprisé",
    "xlit": "nᵉmibzeh"
}