{
    "derivation": "probablement de H4871 (מָשָׁה) ; extirpé ;",
    "frequency": 5,
    "kjv_def": "Nimshi.",
    "lemma": "נִמְשִׁי",
    "outline": "<span class=\"literal-meaning\">Nimshi = &quot;secouru&quot;</span><ol><li> grand-père de Jéhu</li></ol>",
    "pron": "nim-shee'",
    "strongs_def": "Nimshi, le (grand-) père de Jehu",
    "xlit": "Nimshîy"
}