{
    "derivation": "une racine primitive ;",
    "frequency": 4,
    "kjv_def": "détruire, arracher, enraciner.",
    "lemma": "נָסַח",
    "outline": "<ol><li> tirer ou arracher<ol><li> (Qal) arracher, abattre</li><li> (Niphal) être arraché</li></ol></li></ol>",
    "pron": "naw-sakh'",
    "strongs_def": "pour arracher",
    "xlit": "nâçach"
}