{
    "derivation": "de H539 (אָמַן), probablement dans le sens de formation ; comme H542 (אָמָן)",
    "frequency": 1,
    "kjv_def": "l'une d'entre elles a été évoquée.",
    "lemma": "אָמוֹן",
    "outline": "<ol><li> artificier, architecte, maître ouvrier, ouvrier qualifié</li></ol>",
    "pron": "aw-mone'",
    "strongs_def": "qualifié, c'est-à-dire un architecte",
    "xlit": "ʼâmôwn"
}