{
    "derivation": "participe féminin passif de H5437 (סָבַב) ;",
    "frequency": 1,
    "kjv_def": "cause.",
    "lemma": "נְסִבָּה",
    "outline": "<ol><li> un revirement de situation, un événement</li></ol>",
    "pron": "nes-ib-baw'",
    "strongs_def": "à proprement parler, un environnement, c'est-à-dire une circonstance ou une tournure d'affaires",
    "xlit": "nᵉçibbâh"
}