{
    "derivation": "une racine primitive ;",
    "frequency": 0,
    "kjv_def": "s'évanouir.",
    "lemma": "נָסַס",
    "outline": "<ol><li> (Qal) être malade</li></ol>",
    "pron": "naw-sas'",
    "strongs_def": "s'affaiblir, c'est-à-dire être malade",
    "xlit": "nâçaç"
}