{
    "derivation": "une racine primitive ;",
    "frequency": "",
    "kjv_def": "monter.",
    "lemma": "נָסַק",
    "outline": "",
    "pron": "naw-sak'",
    "strongs_def": "pour monter",
    "xlit": "nâçaq"
}