{
    "derivation": "de H5276 (נָעֵם) ;",
    "frequency": 7,
    "kjv_def": "la beauté, l'agrément (-ness).",
    "lemma": "נֹעַם",
    "outline": "<ol><li> gentillesse, agrément, volupté, beauté, faveur<ol><li> ravissement</li><li> nom symbolique d'une des deux douves</li><li> agrément</li></ol></li></ol>",
    "pron": "no'-am",
    "strongs_def": "agréabilité, c'est-à-dire plaisir, convenance, splendeur ou grâce",
    "xlit": "nôʻam"
}