{
    "derivation": "une racine primitive ;",
    "frequency": 1,
    "kjv_def": "crier.",
    "lemma": "נָעַר",
    "outline": "<ol><li> (Qal) de grogner</li></ol>",
    "pron": "naw-ar'",
    "strongs_def": "de grogner",
    "xlit": "nâʻar"
}