{
    "derivation": "de H5278 (נֹעַם) ; agréable ;",
    "frequency": 21,
    "kjv_def": "Naomi.",
    "lemma": "נׇעֳמִי",
    "outline": "<span class=\"literal-meaning\">Naomi = &quot;mes délices</span><ol><li> épouse d'Elimelech, mère de Mahlon et de Chilion, et belle-mère de Ruth et d'Orpa</li></ol>",
    "pron": "no-om-ee'",
    "strongs_def": "Noomi, une israélite",
    "xlit": "Noʻŏmîy"
}