{
    "derivation": "féminin de H5288 (נַעַר) ;",
    "frequency": 63,
    "kjv_def": "damoiselle, jeune fille (-en), jeune (femme).",
    "lemma": "נַעֲרָה",
    "outline": "<ol><li> fille, demoiselle, servante<ol><li> fille, demoiselle, petite fille<ol><li> de jeune femme, jeune femme mariable, concubine, prostituée</li></ol><li> servante, préposée, domestique</li></ol></li></ol>",
    "pron": "nah-ar-aw'",
    "strongs_def": "une fille (de la petite enfance à l'adolescence)",
    "xlit": "naʻărâh"
}