{
    "derivation": "d'une racine inutilisée signifiant probablement \" jaillir \" ; une pousse ;",
    "frequency": 4,
    "kjv_def": "Nepheg.",
    "lemma": "נֶפֶג",
    "outline": "<span class=\"literal-meaning\">Nepheg = &quot; pousse &quot;.</span><ol><li> l'un des fils d'Izhar et petit-fils de Kohath de la tribu de Lévi à l'époque de l'exode</li><li> l'un des fils de David né à Jérusalem</li></ol>",
    "pron": "neh'-feg",
    "strongs_def": "Néphég, le nom de deux Israélites",
    "xlit": "Nepheg"
}