{
    "derivation": "ou (abrégé) אַבְשָׁלוֹם ; de H1 (אָב) et H7965 (שָׁלוֹם) ; père de la paix (c'est-à-dire amical) ;",
    "frequency": 111,
    "kjv_def": "Abishalom, Absalom.",
    "lemma": "אֲבִישָׁלוֹם",
    "outline": "<span class=\"literal-meaning\">Absalom ou Abishalom = &quot;mon père est la paix&quot;</span><ol><li> beau-père de Roboam</li><li> troisième fils de David, meurtrier de son fils aîné Amnon, également chef de la révolte contre son père - David</li></ol>",
    "pron": "ab-ee-shaw-lome'",
    "strongs_def": "Abshalom, un fils de David ; aussi (la forme la plus complète) un Israélite plus tard",
    "xlit": "ʼĂbîyshâlôwm"
}