{
    "derivation": "de H5301 (נָפַח) ; une rafale ;",
    "frequency": 1,
    "kjv_def": "Nophah.",
    "lemma": "נֹפַח",
    "outline": "<span class=\"literal-meaning\">Nophah = &quot;souffle&quot;</span><ol><li> un endroit dans le Moab</li></ol>",
    "pron": "no'-fakh",
    "strongs_def": "Nophach, un endroit dans Moab",
    "xlit": "Nôphach"
}