{
    "derivation": "pour H5304 (נְפִיסִים) ;",
    "frequency": "",
    "kjv_def": "Nephisesim (d'après la marge).",
    "lemma": "נְפוּשְׁסִים",
    "outline": "",
    "pron": "nef-oo-shes-eem'",
    "strongs_def": "Nephushesim, un serviteur du Temple",
    "xlit": "Nᵉphûwshᵉçîym"
}