{
    "derivation": "pour H5299 (נָפָה) ;",
    "frequency": 1,
    "kjv_def": "pays.",
    "lemma": "נֶפֶת",
    "outline": "<ol><li> hauteur</li></ol>",
    "pron": "neh'-feth",
    "strongs_def": "une hauteur",
    "xlit": "nepheth"
}