{
    "derivation": "une racine primitive ;",
    "frequency": 11,
    "kjv_def": "être ruiné, ruineux, lutter (ensemble).",
    "lemma": "נָצָה",
    "outline": "<ol><li> (Qal) voler</li><li> lutter<ol><li> (Niphal) lutter</li><li> (Hiphil) lutter</li></ol><li> se dépouiller, se désoler, tomber en ruines<ol><li> (Qal) tomber en ruines</li><li> (Niphal) tas désolés, ruinés (participe)</li></ol></li></ol>",
    "pron": "naw-tsaw'",
    "strongs_def": "proprement, sortir, c'est-à-dire (implicitement) être expulsé, et (par conséquent) désolant ; causalement, gaspiller ; également (spécifiquement), se disputer",
    "xlit": "nâtsâh"
}