{
    "derivation": "féminin de H5322 (נֵץ) ;",
    "frequency": 2,
    "kjv_def": "fleur.",
    "lemma": "נִצָּה",
    "outline": "<ol><li> fleurir</li></ol>",
    "pron": "nits-tsaw'",
    "strongs_def": "une fleur",
    "xlit": "nitstsâh"
}