{
    "derivation": "probablement identique à H5331 (נֶצַח), par l'idée de brillance de la couleur ;",
    "frequency": 2,
    "kjv_def": "le sang, la force.",
    "lemma": "נֵצַח",
    "outline": "<ol><li> jus<ol><li> jus de raisin</li><li> sang, gore (fig.)</li></ol></li></ol>",
    "pron": "nay'-tsakh",
    "strongs_def": "le jus de raisin (comme le rouge sang)",
    "xlit": "Nêtsach"
}