{
    "derivation": "identique à H5333 (נְצִיב) ; station ;",
    "frequency": 1,
    "kjv_def": "Nezib.",
    "lemma": "נְצִיב",
    "outline": "<span class=\"literal-meaning\">Nezib = &quot;garnison&quot; ou &quot;pilier&quot;.</span><ol><li> une ville dans les basses terres de Judée, à la frontière de la Philistie</li></ol>",
    "pron": "nets-eeb'",
    "strongs_def": "Netsib, un lieu en Palestine",
    "xlit": "Nᵉtsîyb"
}