{
    "derivation": "une racine primitive ;",
    "frequency": "",
    "kjv_def": "étincelle.",
    "lemma": "נָצַץ",
    "outline": "",
    "pron": "naw-tsats'",
    "strongs_def": "éblouir, c'est-à-dire être de couleur vive",
    "xlit": "nâtsats"
}