{
    "derivation": "d'une racine inutilisée signifiant marquer (par perforation ou marquage) ;",
    "frequency": 9,
    "kjv_def": "moucheté.",
    "lemma": "נָקֹד",
    "outline": "<ol><li> moucheté, marqué de points<ol><li> de moutons et de chèvres</li></ol></li></ol>",
    "pron": "naw-kode'",
    "strongs_def": "tacheté",
    "xlit": "nâqôd"
}