{
    "derivation": "féminin de H5348 (נָקֹד) (au sens figuré de marqué) ; distinction ;",
    "frequency": 4,
    "kjv_def": "Nekoda.",
    "lemma": "נְקוֹדָא",
    "outline": "<span class=\"literal-meaning\">Nekoda = &quot;distingué&quot;</span><ol><li> chef d'une famille d'esclaves du temple revenant d'exil à Jérusalem avec Zerubbabel</li><li> chef d'une famille d'exilés originaires de Tel Melah, Tel Harsha, Cherub, Addan et Immer, qui ne pouvaient identifier la maison de leur père ou leur généalogie comme étant d'Israël et qui sont revenus avec Zerubbabel</li></ol>",
    "pron": "nek-o-daw'",
    "strongs_def": "Nekoda, un serviteur du Temple",
    "xlit": "Nᵉqôwdâʼ"
}