{
    "derivation": "une racine primitive ;",
    "frequency": 44,
    "kjv_def": "acquitter [idiome] du tout, [idiome] entièrement, être irréprochable, purifier, (être) clair(-ing), couper, être désolé, être libre, être (tenir) sans culpabilité, être (tenir) innocent, [idiome] en aucune façon, être abandonné, être (laisser) impuni, [idiome] complètement, [idiome] entièrement.",
    "lemma": "נָקָה",
    "outline": "<ol><li> être vide, être clair, être pur, être libre, être innocent, être désolé, être retranché<ol><li> (Qal) être vide, être propre, être pur</li><li> (Niphal)<ol><li> être nettoyé, être purgé</li><li> être propre, être libre de toute culpabilité, être innocent</li><li> être libre, être exempt de punition</li><li> être libre, être exempt d'obligation</li></ol><li> (Piel)<ol><li> tenir innocent, acquitter</li><li> laisser impuni</li></ol></li></ol></li></ol>",
    "pron": "naw-kaw'",
    "strongs_def": "être (ou faire) propre (au sens propre ou figuré) ; implicitement (dans un sens défavorable) être dépouillé, c'est-à-dire extirpé",
    "xlit": "nâqâh"
}