{
    "derivation": "féminin de H5348 (נָקֹד) ;",
    "frequency": 1,
    "kjv_def": "stud.",
    "lemma": "נְקֻדָּה",
    "outline": "<ol><li> pointe, goutte<ol><li> d'argent</li></ol></li></ol>",
    "pron": "ned-ood-daw'",
    "strongs_def": "un patron",
    "xlit": "nᵉquddâh"
}