{
    "derivation": "de H5365 (נָקַר), une fissure",
    "frequency": 2,
    "kjv_def": "cleft, Clift.",
    "lemma": "נְקָרָה",
    "outline": "<ol><li> trou, crevasse</li></ol>",
    "pron": "nek-aw-raw'",
    "strongs_def": "{pour percer (pénétrer, extraire) }",
    "xlit": "nᵉqârâh"
}