{
    "derivation": "une racine primitive ;",
    "frequency": 3,
    "kjv_def": "être aliéné.",
    "lemma": "נָקַע",
    "outline": "<ol><li> (Qal) être éloigné, être aliéné<ol><li> être coupé (fig.)</li></ol></li></ol>",
    "pron": "naw-kah'",
    "strongs_def": "éprouver de l'aversion",
    "xlit": "nâqaʻ"
}