{
    "derivation": "ou נֵרִיָּהוּ ; de H5216 (נִיר) et H3050 (יָהּ) ; lumière de Jah ;",
    "frequency": 10,
    "kjv_def": "Neriah.",
    "lemma": "נֵרִיָּה",
    "outline": "<span class=\"literal-meaning\">Neriah = &quot;lampe de Jéhovah&quot;.</span><ol><li> fils de Maaseiah et père de Baruch et Seraiah</li></ol>",
    "pron": "nay-ree-yaw'",
    "strongs_def": "Nerijah, un Israélien",
    "xlit": "Nêrîyâh"
}