{
    "derivation": "une racine primitive (peut-être identique à H5377 (נָשָׁא), par l'idée d'imposition) ;",
    "frequency": 5,
    "kjv_def": "[idiome] dette, exact, donneur d'usure.",
    "lemma": "נָשָׁא",
    "outline": "<ol><li> prêter à intérêt ou à usure, être un créancier<ol><li> (Qal) créancier (participe)</li><li> (Hiphil) agir comme un créancier</li></ol></li></ol>",
    "pron": "naw-shaw'",
    "strongs_def": "prêter avec des intérêts ; par voie de conséquence, rembourser une dette",
    "xlit": "nâshâʼ"
}