{
    "derivation": "une racine primitive ;",
    "frequency": 50,
    "kjv_def": "capacité, être capable, atteindre (à), (être capable de, peut) obtenir, poser à, mettre, atteindre, enlever, s'enrichir, [idiome] sûrement, (sur-) prendre (prise de, sur, sur).",
    "lemma": "נָשַׂג",
    "outline": "<ol><li> atteindre, dépasser, s'emparer de<ol><li> (Hiphil)<ol><li> dépasser</li><li> atteindre, parvenir à, faire atteindre</li><li> être capable d'assurer, d'atteindre, d'avoir suffisamment</li></ol></li></ol></li></ol>",
    "pron": "naw-sag'",
    "strongs_def": "atteindre (au sens propre ou figuré)",
    "xlit": "nâsag"
}