{
    "derivation": "de H5382 (נָשָׁה) ;",
    "frequency": 1,
    "kjv_def": "l'oubli.",
    "lemma": "נְשִׁיָּה",
    "outline": "<ol><li> oubli, oubli</li></ol>",
    "pron": "nesh-ee-yaw'",
    "strongs_def": "oblivion",
    "xlit": "nᵉshîyâh"
}