{
    "derivation": "de H5398 (נָשַׁף) ;",
    "frequency": 12,
    "kjv_def": "obscurité, aube du jour (matin), nuit, crépuscule.",
    "lemma": "נֶשֶׁף",
    "outline": "<ol><li> crépuscule<ol><li> crépuscule du soir</li><li> crépuscule du matin</li></ol></li></ol>",
    "pron": "neh'-shef",
    "strongs_def": "proprement, une brise, c'est-à-dire (implicitement) le crépuscule (lorsque la brise du soir prévaut)",
    "xlit": "nesheph"
}