{
    "derivation": "une racine primitive ;",
    "frequency": 16,
    "kjv_def": "mordre, prêter à usure.",
    "lemma": "נָשַׁךְ",
    "outline": "<ol><li> mordre<ol><li> (Qal) mordre</li><li> (Piel) mordre</li></ol><li> payer, donner des intérêts, prêter à intérêt ou à usure<ol><li> (Qal) donner des intérêts</li><li> (Hiphil) faire donner des intérêts</li></ol></li></ol>",
    "pron": "naw-shak'",
    "strongs_def": "frapper avec un aiguillon (comme un serpent) ; au sens figuré, opprimer avec les intérêts d'un prêt",
    "xlit": "nâshak"
}