{
    "derivation": "une racine primitive ;",
    "frequency": 2,
    "kjv_def": "souffler.",
    "lemma": "נָשַׁף",
    "outline": "<ol><li> (Qal) pour souffler</li></ol>",
    "pron": "naw-shaf'",
    "strongs_def": "faire de la brise, c'est-à-dire souffler frais (comme le vent)",
    "xlit": "nâshaph"
}