{
    "derivation": "une racine primitive (identique à H5400 (נָשַׂק), par l'idée d'attacher ; comparer H2388 (חָזַק), H2836 (חָשַׁק)) ;",
    "frequency": 35,
    "kjv_def": "armé (hommes), règle, baiser, qui a touché.",
    "lemma": "נָשַׁק",
    "outline": "<ol><li> mettre ensemble, embrasser<ol><li> (Qal) embrasser</li><li> (Piel) embrasser</li><li> (Hiphil) toucher doucement</li></ol><li> manipuler, être équipé de<ol><li> (Qal) être équipé</li></ol></li></ol>",
    "pron": "naw-shak'",
    "strongs_def": "embrasser, au sens propre ou figuré (toucher) ; également (comme mode d'attachement), équiper d'armes",
    "xlit": "nâshaq"
}