{
    "derivation": "de H5414 (נָתַן) ; donné ;",
    "frequency": 42,
    "kjv_def": "Nathan.",
    "lemma": "נָתָן",
    "outline": "<span class=\"literal-meaning\">Nathan = &quot;donneur&quot;</span><ol><li> fils de David par Bethsabée</li><li> le prophète éminent au temps de David et de Salomon</li><li> un homme de Zoba, père d'un des puissants guerriers de David</li><li> père d'Azaria qui dirigeait les officiers de Salomon</li><li> fils d'Attaï et père de Zabad, de la tribu de Juda</li><li> frère de Joël, de la tribu de Juda</li><li> l'un des chefs qui revint de Babylone avec Esdras</li><li> un homme ayant une femme étrangère au temps d'Esdras</li><li> chef d'une famille d'Israël qui se lamentera en regardant celui qu'elle a percé</li></ol>",
    "pron": "naw-thawn'",
    "strongs_def": "Nathan, le nom de cinq Israéliens",
    "xlit": "Nâthân"
}