{
    "derivation": "ou (féminin) נְתִיבָה ; ou נְתִבָה ; (Jérémie 6:16), d'une racine inutilisée signifiant traîner ;",
    "frequency": 26,
    "kjv_def": "chemin(-way), [idiome] voyage(-ler), chemin.",
    "lemma": "נָתִיב",
    "outline": "<ol><li> foulé par les pieds, chemin, sentier</li><li> chemin, sentier, voyageur</li></ol>",
    "pron": "naw-theeb'",
    "strongs_def": "une piste (battue)",
    "xlit": "nâthîyb"
}