{
    "derivation": "ou נָתוּן (Esdras 8:17), (la forme propre comme participe passif), de H5414 (נָתַן) ; un donné, c'est-à-dire (au pluriel seulement)",
    "frequency": 17,
    "kjv_def": "Nethinims.",
    "lemma": "נָתִין",
    "outline": "<ol><li> Néthiniens<ol><li> esclaves du temple affectés aux lévites et aux prêtres pour le service du sanctuaire</li></ol></li></ol>",
    "pron": "naw-theen'",
    "strongs_def": "les Nethinim, ou serviteurs du Temple (tels qu'ils sont affectés à cette tâche)",
    "xlit": "Nâthîyn"
}