{
    "derivation": "de H5433 (סָבָא) ;",
    "frequency": 4,
    "kjv_def": "boire, ivrogne, vin.",
    "lemma": "סֹבֶא",
    "outline": "<ol><li> boisson, liqueur, vin</li></ol>",
    "pron": "so'-beh",
    "strongs_def": "potation, concrètement (vin), ou abstraitement (carousal)",
    "xlit": "çôbeʼ"
}