{
    "derivation": "patrie de H5434 (סְבָא) ;",
    "frequency": 1,
    "kjv_def": "Sabean.",
    "lemma": "סְבָאִי",
    "outline": "<span class=\"literal-meaning\">Sabéens = \"ivrognes\"</span><ol><li> les gens de Seba</li></ol>",
    "pron": "seb-aw-ee'",
    "strongs_def": "un Sebaite, ou habitant de Seba",
    "xlit": "Çᵉbâʼîy"
}