{
    "derivation": "(uniquement sous la forme סֻבָּל ; de H5445 (סָבַל) ;",
    "frequency": 3,
    "kjv_def": "fardeau.",
    "lemma": "סֹבֶל",
    "outline": "<ol><li> fardeau, charge</li></ol>",
    "pron": "so'-bel",
    "strongs_def": "une charge (au sens figuré)",
    "xlit": "çôbel"
}