{
    "derivation": "de H5445 (סָבַל) ;",
    "frequency": 5,
    "kjv_def": "(porter, porteur de) fardeau(x).",
    "lemma": "סַבָּל",
    "outline": "<ol><li> porteur du fardeau</li></ol>",
    "pron": "sab-bawl'",
    "strongs_def": "un porteur",
    "xlit": "çabbâl"
}