{
    "derivation": "(araméen) correspondant à H5445 (סָבַל) ;",
    "frequency": "",
    "kjv_def": "fortement posées.",
    "lemma": "סְבַל",
    "outline": "",
    "pron": "seb-al'",
    "strongs_def": "à ériger",
    "xlit": "çᵉbal"
}