{
    "derivation": "ou סַבְתָּה ; probablement d'origine étrangère ;",
    "frequency": 2,
    "kjv_def": "Sabta, Sabtah.",
    "lemma": "סַבְתָּא",
    "outline": "<span class=\"literal-meaning\">Sabta ou Sabtah = &quot;frapper&quot;</span><ol><li> le 3ème fils de Cush</li></ol>",
    "pron": "sab-taw'",
    "strongs_def": "Sabta ou Sabtah, nom d'un fils de Cush, et du pays occupé par sa postérité",
    "xlit": "Çabtâʼ"
}