{
    "derivation": "(Araméen) correspondant à H5456 (סָגַד)",
    "frequency": 12,
    "kjv_def": "le culte.",
    "lemma": "סְגִד",
    "outline": "<ol><li> se prosterner, rendre hommage, adorer<ol><li> (P'al) rendre hommage</li></ol></li></ol>",
    "pron": "seg-eed'",
    "strongs_def": "{se prosterner (en hommage)}",
    "xlit": "çᵉgid"
}