{
    "derivation": "d'une racine inutilisée signifiant \"estop\" ;",
    "frequency": 2,
    "kjv_def": "des stocks.",
    "lemma": "סַד",
    "outline": "<ol><li> stocks (pour les pieds)</li></ol>",
    "pron": "sad",
    "strongs_def": "les stocks",
    "xlit": "çad"
}