{
    "derivation": "de H5475 (סוֹד) ; un confident ;",
    "frequency": 1,
    "kjv_def": "Sodi.",
    "lemma": "סוֹדִי",
    "outline": "<span class=\"literal-meaning\">Sodi = &quot;connaissance&quot;</span><ol><li> père de Gaddiel, l'espion choisi dans la tribu de Zabulon</li></ol>",
    "pron": "so-dee'",
    "strongs_def": "Sodi, un Israélite",
    "xlit": "Çôwdîy"
}