{
    "derivation": "d'une racine inutilisée signifiant essuyer ; balayer ;",
    "frequency": 1,
    "kjv_def": "Suah.",
    "lemma": "סוּחַ",
    "outline": "<span class=\"literal-meaning\">Suah = &quot;balayage&quot;</span><ol><li> un Asherite, fils de Zopha</li></ol>",
    "pron": "soo'-akh",
    "strongs_def": "Suach, un Israélite",
    "xlit": "Çûwach"
}