{
    "derivation": "identique à H548 (אֲמָנָה) ;",
    "frequency": 1,
    "kjv_def": "Amana.",
    "lemma": "אֲמָנָה",
    "outline": "<span class=\"literal-meaning\">Amana = &quot;appui&quot;</span><ol><li> rivière se jetant dans la plaine de Damas depuis Antilebanon</li><li> région montagneuse d'où provient la rivière</li></ol>",
    "pron": "am-aw-naw'",
    "strongs_def": "Amanah, une montagne près de Damas",
    "xlit": "ʼĂmânâh"
}