{
    "derivation": "probablement de la même racine que H4533 (מַסְוֶה) ;",
    "frequency": 1,
    "kjv_def": "vêtements.",
    "lemma": "סוּת",
    "outline": "<ol><li> vêtement, vesture</li></ol>",
    "pron": "sooth",
    "strongs_def": "la couverture, c'est-à-dire les vêtements",
    "xlit": "çûwth"
}