{
    "derivation": "identique à H5494 (סוּר) ;",
    "frequency": 1,
    "kjv_def": "Sur.",
    "lemma": "סוּר",
    "outline": "<span class=\"literal-meaning\">Sur = &quot;se détourner&quot;</span><ol><li> une porte de temple</li></ol>",
    "pron": "soor",
    "strongs_def": "Sur, une porte du temple",
    "xlit": "Çûwr"
}