{
    "derivation": "de H5498 (סָחַב) ;",
    "frequency": 2,
    "kjv_def": "de l'influence.",
    "lemma": "סְחָבָה",
    "outline": "<ol><li> rag, clout (choses tirées ou traînées)</li></ol>",
    "pron": "seh-khaw-baw'",
    "strongs_def": "un chiffon",
    "xlit": "çᵉchâbâh"
}