{
    "derivation": "une racine primitive ;",
    "frequency": 2,
    "kjv_def": "balayer (loin).",
    "lemma": "סָחַף",
    "outline": "<ol><li> se prosterner, battre en brèche<ol><li> (Qal) se prosterner (participe)</li><li> (Niphal) être prosterné</li></ol></li></ol>",
    "pron": "saw-khaf'",
    "strongs_def": "pour gratter",
    "xlit": "çâchaph"
}