{
    "derivation": "à partir de H5500 (סָחָה) ;",
    "frequency": 1,
    "kjv_def": "le décapage.",
    "lemma": "סְחִי",
    "outline": "<ol><li> offscourings</li></ol>",
    "pron": "seh-khee'",
    "strongs_def": "refuser (comme balayé)",
    "xlit": "çᵉchîy"
}