{
    "derivation": "de H5526 (סָכַךְ) ;",
    "frequency": 1,
    "kjv_def": "multitude.",
    "lemma": "סָךְ",
    "outline": "<ol><li> foule, multitude</li></ol>",
    "pron": "sawk",
    "strongs_def": "proprement, un fourré d'hommes, c'est-à-dire une foule",
    "xlit": "çâk"
}