{
    "derivation": "de H5549 (סָלַל) ; un talus ;",
    "frequency": 1,
    "kjv_def": "Silla.",
    "lemma": "סִלָּא",
    "outline": "<span class=\"literal-meaning\">Silla = &quot;une route&quot;</span><ol><li> le lieu du meurtre du roi Joas de Judée ; site inconnu</li></ol>",
    "pron": "sil-law'",
    "strongs_def": "Silla, un lieu à Jérusalem",
    "xlit": "Çillâʼ"
}