{
    "derivation": "une racine primitive ;",
    "frequency": 1,
    "kjv_def": "s'endurcir.",
    "lemma": "סָלַד",
    "outline": "<ol><li> (Piel) sauter, bondir, bondir, sauter de joie</li></ol>",
    "pron": "saw-lad'",
    "strongs_def": "probablement bondir (de joie), c'est-à-dire exulter",
    "xlit": "çâlad"
}