{
    "derivation": "de H5541 (סָלָה) ;",
    "frequency": 74,
    "kjv_def": "Selah.",
    "lemma": "סֶלָה",
    "outline": "<ol><li> élever, exalter<ol><li> Selah<ol><li> un terme technique musical indiquant probablement une accentuation, une pause, une interruption</li></ol></li></ol></li></ol>",
    "pron": "seh'-law",
    "strongs_def": "suspension (de la musique), c'est-à-dire pause",
    "xlit": "çelâh"
}