{
    "derivation": "ou סַלּוּא ; ou סָלוּא ; ou סַלַּי ; de H5541 (סָלָה) ; pesé ;",
    "frequency": 6,
    "kjv_def": "Sallai, Sallu, Salu.",
    "lemma": "סַלּוּ",
    "outline": "<span class=\"literal-meaning\">Sallu ou Salu ou Sallai = &quot;pesé&quot;.</span><ol><li> prêtre au temps de Zerubbabel</li><li> père de Zimri, le prince des Siméonites, qui fut tué par Phinehas</li><li> un Benjamite post-exilique</li></ol>",
    "pron": "sal-loo'",
    "strongs_def": "Sallu ou Sallai, le nom de deux Israélites",
    "xlit": "Çallûw"
}