{
    "derivation": "de H5545 (סָלַח) ;",
    "frequency": 1,
    "kjv_def": "prêt à pardonner.",
    "lemma": "סַלָּח",
    "outline": "<ol><li> prêt à pardonner, pardonner</li></ol>",
    "pron": "saw-lawkh'",
    "strongs_def": "placable",
    "xlit": "çallâch"
}