{
    "derivation": "de H5545 (סָלַח) ;",
    "frequency": 3,
    "kjv_def": "le pardon, l'indulgence.",
    "lemma": "סְלִיחָה",
    "outline": "<ol><li> pardon</li></ol>",
    "pron": "sel-ee-khaw'",
    "strongs_def": "pardon",
    "xlit": "çᵉlîychâh"
}