{
    "derivation": "d'une racine inutilisée. signifiant marcher ; marcher ;",
    "frequency": 4,
    "kjv_def": "Salcah, Salchah.",
    "lemma": "סַלְכָה",
    "outline": "<span class=\"literal-meaning\">Salcah ou Salchah = &quot; migration &quot;.</span><ol><li> ville ou district situé à l'extrême limite orientale de Bashan et attribué à la tribu de Gad ; le \"Sulkhad\" moderne, situé à 90 km à l'est du Jourdain, à l'extrémité sud de la chaîne de montagnes du Hauran</li></ol>",
    "pron": "sal-kaw'",
    "strongs_def": "Salcah, lieu situé à l'est du Jourdain",
    "xlit": "Çalkâh"
}