{
    "derivation": "de H553 (אָמַץ) ;",
    "frequency": 1,
    "kjv_def": "plus fort.",
    "lemma": "אֹמֶץ",
    "outline": "<ol><li> force</li></ol>",
    "pron": "o'-mets",
    "strongs_def": "force",
    "xlit": "ʼômets"
}