{
    "derivation": "de H5568 (סָמַר) ;",
    "frequency": 1,
    "kjv_def": "rugueux.",
    "lemma": "סָמָר",
    "outline": "<ol><li> hérissé, rugueux</li></ol>",
    "pron": "saw-mar'",
    "strongs_def": "hérissé, c'est-à-dire hirsute",
    "xlit": "çâmâr"
}