{
    "derivation": "une racine primitive ;",
    "frequency": 48,
    "kjv_def": "supporter, établir, (up-) tenir, poser, s'appuyer, s'allonger, mettre, se reposer, se mettre en place, se tenir fermement, rester (soi-même), soutenir.",
    "lemma": "סָמַךְ",
    "outline": "<ol><li> s'appuyer, s'allonger, se reposer, supporter, mettre, soutenir, s'appuyer sur<ol><li> (Qal)<ol><li> s'appuyer ou s'allonger sur, se reposer sur, s'appuyer contre</li><li> soutenir, maintenir, soutenir</li></ol><li> (Niphal) se soutenir ou s'arc-bouter</li><li> (Piel) soutenir, rafraîchir, revivre</li></ol></li></ol>",
    "pron": "saw-mak'",
    "strongs_def": "soutenir (au sens propre ou figuré) ; par réflexe, s'appuyer ou s'agripper (dans un sens favorable ou défavorable)",
    "xlit": "çâmak"
}