{
    "derivation": "d'une racine inutilisée signifiant piquer ; épineux ;",
    "frequency": 3,
    "kjv_def": "Senaah, Hassenaah (avec l'article).",
    "lemma": "סְנָאָה",
    "outline": "<span class=\"literal-meaning\">Senaah ou Hassenaah [avec l'article] = &quot;épineux&quot;.</span><ol><li> ancêtre d'une famille qui revint d'exil avec Zerubbabel</li></ol>",
    "pron": "sen-aw-aw'",
    "strongs_def": "Senaah, un lieu en Palestine",
    "xlit": "Çᵉnâʼâh"
}