{
    "derivation": "d'une racine inutilisée signifiant piquer ;",
    "frequency": 6,
    "kjv_def": "bush.",
    "lemma": "סְנֶה",
    "outline": "<ol><li> un buisson, un buisson d'épines<ol><li> le buisson ardent de Moïse</li><li> peut-être un buisson de mûres</li></ol></li></ol>",
    "pron": "sen-eh'",
    "strongs_def": "une ronce",
    "xlit": "çᵉneh"
}