{
    "derivation": "de H5586 (סָעַף) ;",
    "frequency": 6,
    "kjv_def": "Branche (extrême), falaise, sommet.",
    "lemma": "סָעִיף",
    "outline": "<ol><li> fente, branche<ol><li> fente (d'un rocher)</li><li> branches, rameaux</li></ol></li></ol>",
    "pron": "saw-eef'",
    "strongs_def": "une fissure (de roches) ; aussi une branche (comme subdivisée)",
    "xlit": "çâʻîyph"
}