{
    "derivation": "une racine primitive ;",
    "frequency": 1,
    "kjv_def": "tempête.",
    "lemma": "סָעָה",
    "outline": "<ol><li> (Qal) se précipiter (du vent de tempête)</li></ol>",
    "pron": "saw-aw'",
    "strongs_def": "de se précipiter",
    "xlit": "çâʻâh"
}