{
    "derivation": "(araméen) correspondant à H5582 (סָעַד) ;",
    "frequency": 1,
    "kjv_def": "aider.",
    "lemma": "סְעַד",
    "outline": "<ol><li> (Aphel) appuyer, soutenir</li></ol>",
    "pron": "seh-ad'",
    "strongs_def": "pour aider",
    "xlit": "çᵉʻad"
}