{
    "derivation": "de H5596 (סָפַח) ;",
    "frequency": 2,
    "kjv_def": "la gale.",
    "lemma": "סַפַּחַת",
    "outline": "<ol><li> éruption, croûte, lésion<ol><li> soit maligne ou bénigne</li></ol></li></ol>",
    "pron": "sap-pakh'-ath",
    "strongs_def": "la gale (comme faisant tomber les cheveux)",
    "xlit": "çappachath"
}