{
    "derivation": "racine primitive ; proprement, arracher, c'est-à-dire terminer ; mais utilisé seulement comme dénominatif de H5592 (סַף) (dans le sens de vestibule),",
    "frequency": "",
    "kjv_def": "être un portier.",
    "lemma": "סָפַף",
    "outline": "",
    "pron": "saw-faf'",
    "strongs_def": "d'attendre au seuil",
    "xlit": "çâphaph"
}