{
    "derivation": "ou שָׂפַק ; (1 Rois 20:10 ; Job 27:23 ; Isaïe 2:6), une racine primitive ;",
    "frequency": 10,
    "kjv_def": "taper, frapper, frapper, suffire, se vautrer.",
    "lemma": "סָפַק",
    "outline": "<ol><li> frapper, gifler<ol><li> (Qal)<ol><li> gifler, frapper</li><li> gifler, châtier</li><li> éclabousser, vomir</li></ol><li> (Hiphil) faire applaudir</li></ol></li></ol>",
    "pron": "saw-fak'",
    "strongs_def": "frapper des mains (en signe de pitié, de dérision, de chagrin, d'indignation ou de punition) ; par implication de satisfaction, être suffisant ; par implication d'excès, vomir",
    "xlit": "çâphaq"
}