{
    "derivation": "de H5603 (סָפַן) ;",
    "frequency": 1,
    "kjv_def": "navire.",
    "lemma": "סְפִינָה",
    "outline": "<ol><li> bateau, navire</li></ol>",
    "pron": "sef-ee-naw'",
    "strongs_def": "un navire (de mer) (comme plafonné avec un pont)",
    "xlit": "çᵉphîynâh"
}