{
    "derivation": "de H5608 (סָפַר) ;",
    "frequency": 11,
    "kjv_def": "saphir.",
    "lemma": "סַפִּיר",
    "outline": "<ol><li> saphir, lapis-lazuli</li></ol>",
    "pron": "sap-peer'",
    "strongs_def": "une pierre précieuse (peut-être utilisée pour gratter d'autres substances), probablement le saphir",
    "xlit": "çappîyr"
}