{
    "derivation": "(Araméen) du même que H5609 (סְפַר) ;",
    "frequency": 6,
    "kjv_def": "scribe.",
    "lemma": "סָפֵר",
    "outline": "<ol><li> scribe, secrétaire</li></ol>",
    "pron": "saw-fare'",
    "strongs_def": "un scribe (séculier ou sacré)",
    "xlit": "çâphêr"
}