{
    "derivation": "une racine primitive ;",
    "frequency": 7,
    "kjv_def": "dépassant, main, écarter, étirer soi, bannir.",
    "lemma": "סָרַח",
    "outline": "<ol><li> se laisser aller, se déchaîner, être débordé, dépasser, surplomber, se développer luxueusement<ol><li> (Qal)<ol><li> se libérer, être sans contrainte, s'étendre<ol><li> déborder, s'étendre (participe)</li></ol><li> surplomber</li></ol><li> (Niphal) être laissé libre ou licencié ou parti</li></ol></li></ol>",
    "pron": "saw-rakh'",
    "strongs_def": "étendre (même à l'excès)",
    "xlit": "çârach"
}