{
    "derivation": "d'une racine inutilisée signifiant piquer ;",
    "frequency": 1,
    "kjv_def": "des baies.",
    "lemma": "סָרָב",
    "outline": "<ol><li> rebelle, rebelle<ol><li> signification douteuse</li></ol></li></ol>",
    "pron": "saw-rawb'",
    "strongs_def": "un chardon",
    "xlit": "çârâb"
}