{
    "derivation": "de H5635 (סָרַף) ;",
    "frequency": 1,
    "kjv_def": "des baies.",
    "lemma": "סַרְפָּד",
    "outline": "<ol><li> une plante non identifiée du désert<ol><li> signification incertaine ; peut être de l'ortie ou de l'abricot</li></ol></li></ol>",
    "pron": "sar-pawd'",
    "strongs_def": "une ortie (comme une brûlure)",
    "xlit": "çarpâd"
}