{
    "derivation": "pour H5589 (סְעַפָּה) ;",
    "frequency": "",
    "kjv_def": "une branche.",
    "lemma": "סַרְעַפָּה",
    "outline": "",
    "pron": "sar-ap-paw'",
    "strongs_def": "une brindille",
    "xlit": "çarʻappâh"
}