{
    "derivation": "une racine primitive ;",
    "frequency": "",
    "kjv_def": "brûler.",
    "lemma": "סָרַף",
    "outline": "",
    "pron": "saw-raf'",
    "strongs_def": "incinérer, c'est-à-dire être (proche de) la parenté (tel étant le privilège d'allumer le bûcher)",
    "xlit": "çâraph"
}