{
    "derivation": "à partir d'une racine inutilisée de signification incertaine ;",
    "frequency": 22,
    "kjv_def": "seigneur, assiette.",
    "lemma": "סֶרֶן",
    "outline": "<ol><li> seigneur, chef, tyran</li><li> essieu</li></ol>",
    "pron": "seh'-ren",
    "strongs_def": "un essieu ; au sens figuré, un pair",
    "xlit": "çeren"
}