{
    "derivation": "ou שָׂתַם ; (Nombres 24:15), une racine primitive ;",
    "frequency": 15,
    "kjv_def": "fermé, caché, secret, exclu, arrêté.",
    "lemma": "סָתַם",
    "outline": "<ol><li> s'arrêter, se taire, se tenir à l'écart<ol><li> (Qal)<ol><li> arrêter</li><li> se taire, se tenir à l'écart</li><li> secret (participe)</li></ol><li> (Niphal) to be stopped up</li><li> (Piel) to stop up</li></ol></li></ol>",
    "pron": "saw-tham'",
    "strongs_def": "arrêter ; implicitement, réparer ; au sens figuré, garder le secret",
    "xlit": "çâtham"
}