{
    "derivation": "une racine primitive ;",
    "frequency": 3,
    "kjv_def": "être (grandir) épais (-er).",
    "lemma": "עָבָה",
    "outline": "<ol><li> être épais, être gras, être grossier<ol><li> (Qal) être gras, être épais, être grossier</li></ol></li></ol>",
    "pron": "aw-baw'",
    "strongs_def": "pour être dense",
    "xlit": "ʻâbâh"
}