{
    "derivation": "ou עָבֻר ; participe passif de H5674 (עָבַר) ;",
    "frequency": 49,
    "kjv_def": "à cause de, pour (...), (intention) que, pour.",
    "lemma": "עָבוּר",
    "outline": "<ol><li> pour l'amour de, à cause de, à cause de, afin de</li><li> pour que</li></ol>",
    "pron": "aw-boor'",
    "strongs_def": "proprement, traversé, c'est-à-dire (abstraitement) transiter ; utilisé uniquement de manière adverbiale, en raison de, afin que",
    "xlit": "ʻâbûwr"
}