{
    "derivation": "identique à H5676 (עֵבֶר) ;",
    "frequency": 15,
    "kjv_def": "Eber, Heber.",
    "lemma": "עֵבֵר",
    "outline": "<span class=\"literal-meaning\">Eber ou Heber = &quot;la région au-delà&quot;.</span><ol><li> fils de Salah, arrière petit-fils de Sem, père de Peleg et de Joktan</li><li> un chef gadite</li><li> un Benjamite, fils d'Elpaal et descendant de Sharahaim</li><li> benjamite, fils de Shashak</li><li> prêtre du temps de Jojakim, fils de Jeshua</li></ol>",
    "pron": "ay'-ber",
    "strongs_def": "Eber, le nom de deux patriarches et de quatre Israélites",
    "xlit": "ʻÊbêr"
}