{
    "derivation": "de H5674 (עָבַר) ;",
    "frequency": 90,
    "kjv_def": "contre, au-delà, par, [idiome] de, sur, passage, quartier, (autre, ce) côté, droit.",
    "lemma": "עֵבֶר",
    "outline": "<ol><li> région au-delà ou en face, côté<ol><li> région à travers ou au-delà</li><li> côté, côté opposé</li></ol></li></ol>",
    "pron": "ay'-ber",
    "strongs_def": "à proprement parler, une région située de l'autre côté ; mais utilisé uniquement de manière adverbiale (avec ou sans préposition) sur le côté opposé (en particulier du Jourdain ; signifie habituellement l'est)",
    "xlit": "ʻêber"
}