{
    "derivation": "une racine primitive ;",
    "frequency": 1,
    "kjv_def": "emballer.",
    "lemma": "עָבַת",
    "outline": "<ol><li> (Piel) enrouler, tisser, tisser ensemble</li></ol>",
    "pron": "aw-bath'",
    "strongs_def": "entrelacer, c'est-à-dire (au sens figuré) pervertir",
    "xlit": "ʻâbath"
}