{
    "derivation": "une racine primitive ;",
    "frequency": 1,
    "kjv_def": "être pourri.",
    "lemma": "עָבַשׁ",
    "outline": "<ol><li> (Qal) se flétrir, dépérir</li></ol>",
    "pron": "aw-bash'",
    "strongs_def": "se dessécher",
    "xlit": "ʻâbash"
}