{
    "derivation": "de H5676 (עֵבֶר) ; transitoire ;",
    "frequency": "",
    "kjv_def": "Hebron. Peut-être une erreur d'écriture pour H5658 (עַבְדוֹן).",
    "lemma": "עֶבְרֹן",
    "outline": "",
    "pron": "eb-rone'",
    "strongs_def": "Ebron, un lieu en Palestine",
    "xlit": "ʻEbrôn"
}