{
    "derivation": "de même que H5696 (עָגֹל) ;",
    "frequency": 2,
    "kjv_def": "boucle d'oreille.",
    "lemma": "עָגִיל",
    "outline": "<ol><li> anneau, bague, boucle d'oreille<ol><li> parure pour hommes ou femmes</li></ol></li></ol>",
    "pron": "aw-gheel'",
    "strongs_def": "quelque chose de rond, par exemple un anneau (pour les oreilles)",
    "xlit": "ʻâgîyl"
}