{
    "derivation": "identique à H5697 (עֶגְלָה) ;",
    "frequency": 2,
    "kjv_def": "Eglah.",
    "lemma": "עֶגְלָה",
    "outline": "<span class=\"literal-meaning\">Eglah = &quot;une génisse&quot;</span><ol><li> épouse de David et mère d'Ithream</li></ol>",
    "pron": "eg-law'",
    "strongs_def": "Eglah, une femme de David",
    "xlit": "ʻEglâh"
}