{
    "derivation": "le temps passé, c'est-à-dire",
    "frequency": 5,
    "kjv_def": "ancien temps, hier(-nuit)",
    "lemma": "אֶמֶשׁ",
    "outline": "<ol><li> hier, hier soir</li><li> récemment (fig.)</li></ol>",
    "pron": "eh'-mesh",
    "strongs_def": "hier ou hier soir",
    "xlit": "ʼemesh"
}