{
    "derivation": "proprement, le même que H5703 (עַד) (utilisé comme préposition, adverbe ou conjonction ; spécialement avec une préposition) ;",
    "frequency": 1260,
    "kjv_def": "contre, et, comme, à, avant, par (que), même (à), pour (autant que), (soit-) à, [phrase] combien de temps, dans, aussi longtemps (beaucoup) que, (ainsi) que, jusqu'à, vers, jusqu'à, quand, pendant, ([phrase] comme) encore.",
    "lemma": "עַד",
    "outline": "<ol><li> jusqu'à, même jusqu'à, jusqu'à, jusqu'à, pendant, jusqu'à ce que, jusqu'à ce que<ol><li> de l'espace<ol><li> aussi loin que, jusqu'à, même jusqu'à</li></ol><li>en combinaison de..<ol><li>. jusqu'à, à la fois... et (avec 'min' - de)</li></ol><li>de temps<ol><li> même à, jusqu'à, jusqu'à, jusqu'à, pendant, fin</li></ol></li> de<li><li>degré<ol><li> même à, au degré de, même comme</li></ol><li> jusqu'à, pendant, au point que, de sorte que même</li></li></li></li> </ol>",
    "pron": "ad",
    "strongs_def": "aussi loin (ou longtemps, ou beaucoup) que, que ce soit dans l'espace (jusqu'à) ou dans le temps (pendant, pendant que, jusqu'à) ou dans le degré (à égalité avec)",
    "xlit": "ʻad"
}