{
    "derivation": "une racine primitive ;",
    "frequency": 10,
    "kjv_def": "orner, parer (soi-même), passer, emporter.",
    "lemma": "עָדָה",
    "outline": "<ol><li> passer sur, avancer, aller sur, passer par, enlever<ol><li> (Qal) passer sur, mettre sur</li><li> (Hiphil) enlever</li></ol></li></ol>",
    "pron": "aw-daw'",
    "strongs_def": "faire avancer, c'est-à-dire transmettre ou continuer ; causalement, enlever ; spécifiquement, parer (c'est-à-dire apporter un ornement sur)",
    "xlit": "ʻâdâh"
}