{
    "derivation": "de H5710 (עָדָה) ; ornement ;",
    "frequency": 8,
    "kjv_def": "Adah.",
    "lemma": "עָדָה",
    "outline": "<span class=\"literal-meaning\">Adah = &quot;ornement&quot;</span><ol><li> la 1ère des 2 épouses de Lamech et mère de Jabal et Jubal</li><li> une Hittitesse, 1 des 3 femmes d'Ésaü et mère d'Éliphaz<ol><li> appelée aussi \"Bashemath\"</li></ol></li></ol>",
    "pron": "aw-daw'",
    "strongs_def": "Adah, le nom de deux femmes",
    "xlit": "ʻÂdâh"
}