{
    "derivation": "identique à H5719 (עָדִין) ;",
    "frequency": 4,
    "kjv_def": "Adin.",
    "lemma": "עָדִין",
    "outline": "<span class=\"literal-meaning\">Adin = &quot;doux&quot; ou &quot;délicat&quot;.</span><ol><li> ancêtre d'une famille d'exilés qui revint avec Zerubbabel</li><li> un chef parmi les exilés revenus qui a signé l'alliance avec Néhémie</li></ol>",
    "pron": "aw-deen'",
    "strongs_def": "Adin, le nom de deux Israélites",
    "xlit": "ʻÂdîyn"
}