{
    "derivation": "probablement du participe passif du même que H5724 (עַדְלַי) ;",
    "frequency": 8,
    "kjv_def": "Adullam.",
    "lemma": "עֲדֻלָּם",
    "outline": "<span class=\"literal-meaning\">Adullam = &quot;justice du peuple&quot;.</span><ol><li> ville des Cananéens attribuée à Juda et située dans la plaine ; emplacement de la grotte où David s'est caché</li></ol>",
    "pron": "ad-ool-lawm'",
    "strongs_def": "Adullam, un lieu en Palestine",
    "xlit": "ʻĂdullâm"
}