{
    "derivation": "probablement à partir de H5719 (עָדִין) dans le sens original de mince (c'est-à-dire une lance) ;",
    "frequency": 1,
    "kjv_def": "Adino.",
    "lemma": "עֲדִינוֹ",
    "outline": "<span class=\"literal-meaning\">Adino = &quot;sa parure&quot;</span><ol><li> un des puissants guerriers de David</li></ol>",
    "pron": "ad-ee-no'",
    "strongs_def": "sa lance",
    "xlit": "ʻădîynôw"
}