{
    "derivation": "de H5712 (עֵדָה) ; festival ;",
    "frequency": 1,
    "kjv_def": "Adadah.",
    "lemma": "עֲדְעָדָה",
    "outline": "<span class=\"literal-meaning\">Adadah = &quot;festival&quot; ou &quot;frontière&quot;.</span><ol><li> une des villes de l'extrême sud de Juda</li></ol>",
    "pron": "ad-aw-daw'",
    "strongs_def": "Adadah, un lieu en Palestine",
    "xlit": "ʻĂdʻâdâh"
}