{
    "derivation": "(araméen) d'une racine correspondant à celle de H4975 (מֹתֶן) ;",
    "frequency": 1,
    "kjv_def": "terrible.",
    "lemma": "אֵמְתָּנִי",
    "outline": "<ol><li> terrible</li></ol>",
    "pron": "em-taw-nee'",
    "strongs_def": "bien lové (c'est-à-dire costaud) ou puissant",
    "xlit": "ʼêmᵉtânîy"
}