{
    "derivation": "une racine primitive ;",
    "frequency": 17,
    "kjv_def": "faire mal, s'incliner, rendre tordu, commettre l'iniquité, pervertir, (faire) pervers (-ly), troubler, [idiome] tourner, faire mal, faire mal.",
    "lemma": "עָוָה",
    "outline": "<ol><li> plier, tordre, déformer<ol><li> (Niphal) être plié, être courbé, être tordu, être perverti</li><li> (Piel) tordre, déformer</li><li> (Hiphil) faire de manière perverse</li></ol><li> commettre l'iniquité, faire le mal, pervertir<ol><li> (Qal) faire le mal, commettre l'iniquité</li><li> (Hiphil) commettre l'iniquité</li></ol></li></ol>",
    "pron": "aw-vaw'",
    "strongs_def": "tordre, au sens propre ou figuré",
    "xlit": "ʻâvâh"
}