{
    "derivation": "ou עֹד ; de H5749 (עוּד) ;",
    "frequency": 486,
    "kjv_def": "encore, [idiome] toute la vie, du tout, en plus, mais, autre, plus loin(-plus), désormais, (tout) plus longtemps, (tout) plus(-plus), [idiome] une fois, depuis, (être) encore, quand, (bien, le) pendant (avoir l'être), (comme, parce que, si, pendant) encore (dans).",
    "lemma": "עוֹד",
    "outline": "<ol><li> un cycle continu, une continuité</li><li> encore, pourtant, encore, d'ailleurs<ol><li> encore, pourtant (de la continuité ou de la persistance)</li><li> encore, pourtant, plus (d'addition ou de répétition)</li><li> encore</li><li> encore, de plus, d'ailleurs</li></ol></li></ol>",
    "pron": "ode",
    "strongs_def": "à proprement parler, itération ou continuation ; utilisé uniquement de manière adverbiale (avec ou sans préposition), encore, à plusieurs reprises, toujours, davantage",
    "xlit": "ʻôwd"
}