{
    "derivation": "ou עֹדֵד ; de H5749 (עוּד) ; réitération ;",
    "frequency": 3,
    "kjv_def": "Oded.",
    "lemma": "עוֹדֵד",
    "outline": "<span class=\"literal-meaning\">Oded = &quot;restaurateur&quot;</span><ol><li> père du prophète Azariah sous le règne du roi Asa de Juda</li><li> un prophète de Jéhovah en Samarie au moment de l'invasion de Juda par Pékah</li></ol>",
    "pron": "o-dade'",
    "strongs_def": "Oded, le nom de deux Israéliens",
    "xlit": "ʻÔwdêd"
}