{
    "derivation": "dénominatif de H5869 (עַיִן) ;",
    "frequency": "",
    "kjv_def": "œil.",
    "lemma": "עָוַן",
    "outline": "",
    "pron": "aw-van'",
    "strongs_def": "regarder (avec jalousie)",
    "xlit": "ʻâvan"
}