{
    "derivation": "(araméen) correspondant à H5775 (עוֹף)",
    "frequency": 2,
    "kjv_def": "volaille.",
    "lemma": "עוֹף",
    "outline": "<ol><li> volaille</li></ol>",
    "pron": "ofe",
    "strongs_def": "{un oiseau (comme couvert de plumes, ou plutôt comme couvert d'ailes), souvent collectivement}",
    "xlit": "ʻôwph"
}