{
    "derivation": "une racine primitive ;",
    "frequency": 1,
    "kjv_def": "s'assembler.",
    "lemma": "עוּשׁ",
    "outline": "<ol><li> (Qal) prêter assistance, venir en aide, se hâter</li></ol>",
    "pron": "oosh",
    "strongs_def": "de se hâter",
    "xlit": "ʻûwsh"
}