{
    "derivation": "ou (entièrement) עוֹז ; de H5810 (עָזַז) ;",
    "frequency": 92,
    "kjv_def": "audace, fort, puissance, pouvoir, force, fort.",
    "lemma": "עֹז",
    "outline": "<ol><li> pouvoir, force<ol><li> matérielle ou physique</li><li> personnel ou social ou politique</li></ol></li></ol>",
    "pron": "oze",
    "strongs_def": "la force dans diverses applications (force, sécurité, majesté, louange)",
    "xlit": "ʻôz"
}