{
    "derivation": "ou עֻזָּה ; féminin de H5797 (עֹז) ; force ;",
    "frequency": 14,
    "kjv_def": "Uzza, Uzzah.",
    "lemma": "עֻזָּא",
    "outline": "<span class=\"literal-meaning\">Uzza ou Uzzah = &quot;force&quot;.</span><ol><li> un homme tué par Jéhovah pour avoir touché l'arche sacrée</li><li> un Benjamite parmi les fils d'Ehud</li><li> ancêtre d'une famille d'esclaves du temple qui revint d'exil avec Zerubbabel</li><li> un lévite mérarite</li><li> le jardin où furent enterrés les rois Manassé et Amon de Juda</li></ol>",
    "pron": "ooz-zaw'",
    "strongs_def": "Uzza ou Uzzah, le nom de cinq Israélites",
    "xlit": "ʻUzzâʼ"
}