{
    "derivation": "identique à H5805 (עֲזוּבָה) ;",
    "frequency": 4,
    "kjv_def": "Azubah.",
    "lemma": "עֲזוּבָה",
    "outline": "<span class=\"literal-meaning\">Azubah = &quot;abandonné&quot;</span><ol><li> femme de Caleb, fils de Hezron</li><li> fille de Shilhi, femme du roi Asa, et mère du roi Josaphat de Juda</li></ol>",
    "pron": "az-oo-baw'",
    "strongs_def": "Azubah, le nom de deux israélites",
    "xlit": "ʻĂzûwbâh"
}