{
    "derivation": "de H5810 (עָזַז) ;",
    "frequency": 2,
    "kjv_def": "la puissance, la force.",
    "lemma": "עִזּוּז",
    "outline": "<ol><li> puissant, puissant</li></ol>",
    "pron": "iz-zooz'",
    "strongs_def": "forcé ; collectivement et concrètement, une armée",
    "xlit": "ʻizzûwz"
}