{
    "derivation": "de H5794 (עַז) ; fort ;",
    "frequency": "",
    "kjv_def": "Azzan.",
    "lemma": "עַזָּן",
    "outline": "",
    "pron": "az-zawn'",
    "strongs_def": "Azzan, un Israélite",
    "xlit": "ʻAzzân"
}