{
    "derivation": "(araméen) ou אֲנַחְנָה ; (araméen), correspondant à H587 (אֲנַחְנוּ) ;",
    "frequency": 4,
    "kjv_def": "nous.",
    "lemma": "אֲנַחְנָא",
    "outline": "<ol><li> nous (première pers. pl.)</li></ol>",
    "pron": "an-akh'-naw",
    "strongs_def": "nous",
    "xlit": "ʼănachnâʼ"
}