{
    "derivation": "de H5861 (עַיִט) ; hawk-ground ;",
    "frequency": 5,
    "kjv_def": "Etam.",
    "lemma": "עֵיטָם",
    "outline": "<span class=\"literal-meaning\">Etam = &quot;repaire de bêtes sauvages&quot;.</span><ol><li> un village de la tribu de Siméon</li><li> une ville de Judée fortifiée et pourvue d'une garnison par le roi Roboam de Judée et située entre Bethléem et Tekoa</li><li> une falaise ; site incertain</li></ol>",
    "pron": "ay-tawm'",
    "strongs_def": "Etam, un lieu en Palestine",
    "xlit": "ʻÊyṭâm"
}