{
    "derivation": "probablement de la même racine que H5170 (נַחַר) ; une gorge ou un passage étroit ;",
    "frequency": 1,
    "kjv_def": "Anaharath.",
    "lemma": "אֲנָחֲרָת",
    "outline": "<span class=\"literal-meaning\">Anaharath = &quot; le gémissement de la peur &quot;.</span><ol><li> (BDB) ville de Nephtali</li><li> (CLBL) ville dans Issachar</li></ol>",
    "pron": "an-aw-kha-rawth'",
    "strongs_def": "Anacharath, un lieu en Palestine",
    "xlit": "ʼĂnâchărâth"
}