{
    "derivation": "du même que H6166 (עֲרָד) ; fugitif ;",
    "frequency": 2,
    "kjv_def": "Irad.",
    "lemma": "עִירָד",
    "outline": "<span class=\"literal-meaning\">Irad = &quot;flotte&quot;</span><ol><li> fils d'Enoch, petit-fils de Caïn et père de Mehujael</li></ol>",
    "pron": "ee-rawd'",
    "strongs_def": "Irad, un antédiluvien",
    "xlit": "ʻÎyrâd"
}