{
    "derivation": "féminin de H5774 (עוּף) ;",
    "frequency": 2,
    "kjv_def": "l'obscurité.",
    "lemma": "עֵיפָה",
    "outline": "<ol><li> obscurité</li></ol>",
    "pron": "ay-faw'",
    "strongs_def": "obscurité (comme si elle était couverte)",
    "xlit": "ʻêyphâh"
}