{
    "derivation": "de H5892 (עִיר) et H4417 (מֶלַח) avec l'article de substance interp. ; ville du (du) sel ;",
    "frequency": "",
    "kjv_def": "la ville du sel.",
    "lemma": "עִיר הַמֶּלַח",
    "outline": "",
    "pron": "eer ham-meh'-lakh",
    "strongs_def": "Irham-Melach, un lieu près de la Palestine",
    "xlit": "ʻÎyr ham-Melach"
}