{
    "derivation": "identique à H5892 (עִיר) ;",
    "frequency": 1,
    "kjv_def": "Ir.",
    "lemma": "עִיר",
    "outline": "<span class=\"literal-meaning\">Ir = &quot;appartenant à une ville&quot;</span><ol><li> fils de Bela et père de Huppim et Shuppim</li></ol>",
    "pron": "eer",
    "strongs_def": "Ir, un Israélite",
    "xlit": "ʻÎyr"
}