{
    "derivation": "de H5892 (עִיר) ; un citoyen ;",
    "frequency": 1,
    "kjv_def": "Iru.",
    "lemma": "עִירוּ",
    "outline": "<span class=\"literal-meaning\">Iru = &quot;regarder&quot;</span><ol><li> fils de Caleb et petit-fils de Jephunneh</li></ol>",
    "pron": "ee-roo'",
    "strongs_def": "Iru, un Israélite",
    "xlit": "ʻÎyrûw"
}