{
    "derivation": "de H5892 (עִיר) et H8121 (שֶׁמֶשׁ) ; ville du soleil ;",
    "frequency": "",
    "kjv_def": "Irshemesh.",
    "lemma": "עִיר שֶׁמֶשׁ",
    "outline": "",
    "pron": "eer sheh'-mesh",
    "strongs_def": "Ir-Shemesh, un lieu en Palestine",
    "xlit": "ʻÎyr Shemesh"
}