{
    "derivation": "de H5892 (עִיר) ; ville ;",
    "frequency": 2,
    "kjv_def": "Iram.",
    "lemma": "עִירָם",
    "outline": "<span class=\"literal-meaning\">Iram = &quot;appartenant à une ville&quot;</span><ol><li> un chef des Edomites</li></ol>",
    "pron": "ee-rawm'",
    "strongs_def": "Iram, un Iduméen",
    "xlit": "ʻÎyrâm"
}