{
    "derivation": "probablement pour H5909 (עַכְבָּר) ;",
    "frequency": 7,
    "kjv_def": "Achbor.",
    "lemma": "עַכְבּוֹר",
    "outline": "<span class=\"literal-meaning\">Achbor = &quot;souris&quot;</span><ol><li> père du roi Baal-hanan d'Edom</li><li> fils de Michée et contemporain du roi Josias de Judée</li></ol>",
    "pron": "ak-bore'",
    "strongs_def": "Akbor, nom d'un Iduméen et de deux Israéliens",
    "xlit": "ʻAkbôwr"
}