{
    "derivation": "de H5913 (עָכַס) ;",
    "frequency": 2,
    "kjv_def": "stocks, ornementation tintante.",
    "lemma": "עֶכֶס",
    "outline": "<ol><li> bracelet de cheville, bangle</li></ol>",
    "pron": "eh'-kes",
    "strongs_def": "une entrave ; d'où un bracelet de cheville",
    "xlit": "ʻekeç"
}