{
    "derivation": "de H5927 (עָלָה) ;",
    "frequency": 18,
    "kjv_def": "branche, feuille.",
    "lemma": "עָלֶה",
    "outline": "<ol><li> feuille, feuillage</li></ol>",
    "pron": "aw-leh'",
    "strongs_def": "une feuille (comme celle qui pousse sur un arbre) ; collectivement, le feuillage",
    "xlit": "ʻâleh"
}