{
    "derivation": "de H578 (אָנָה) et H5971 (עַם) ; gémissement du (peuple) ;",
    "frequency": 1,
    "kjv_def": "Aniam.",
    "lemma": "אֲנִיעָם",
    "outline": "<span class=\"literal-meaning\">Aniam = &quot;Je suis le peuple&quot; ou &quot;lamentation du peuple&quot;.</span><ol><li> un homme de Manassé</li></ol>",
    "pron": "an-ee-awm'",
    "strongs_def": "Aniam, un Israélite",
    "xlit": "ʼĂnîyʻâm"
}