{
    "derivation": "(araméen) féminin issu d'une racine correspondant à H5927 (עָלָה) ;",
    "frequency": 3,
    "kjv_def": "occasion.",
    "lemma": "עִלָּה",
    "outline": "<ol><li> affaire, affaire, occasion</li></ol>",
    "pron": "il-law'",
    "strongs_def": "un prétexte (comme survenant artificiellement)",
    "xlit": "ʻillâh"
}