{
    "derivation": "de H5927 (עָלָה) ;",
    "frequency": 1,
    "kjv_def": "chambre. Comparer avec H5944 (עֲלִיָּה).",
    "lemma": "עַלִּית",
    "outline": "<ol><li> salle de toit, chambre de toit</li></ol>",
    "pron": "al-leeth'",
    "strongs_def": "une pièce au deuxième étage",
    "xlit": "ʻallîyth"
}