{
    "derivation": "(araméen) correspondant à H5769 (עוֹלָם) ;",
    "frequency": 20,
    "kjv_def": "pour (n-)toujours (durable), vieux.",
    "lemma": "עָלַם",
    "outline": "<ol><li> perpétuité, antiquité, pour toujours</li></ol>",
    "pron": "aw-lam'",
    "strongs_def": "temps éloigné, c'est-à-dire le futur ou le passé indéfini ; souvent adverbe, pour toujours",
    "xlit": "ʻâlam"
}