{
    "derivation": "féminin de H5958 (עֶלֶם) ;",
    "frequency": 7,
    "kjv_def": "demoiselle, jeune fille, vierge.",
    "lemma": "עַלְמָה",
    "outline": "<ol><li> vierge, jeune femme<ol><li> en âge de se marier</li><li> jeune fille ou jeune mariée</li></ol></li></ol>",
    "pron": "al-maw'",
    "strongs_def": "une jeune fille (voilée ou privée)",
    "xlit": "ʻalmâh"
}