{
    "derivation": "du même que H5960 (עַלְמוֹן) et le dual de H1960 (הֻיְּדָה) (comparer H1015 (בֵּית דִּבְלָתַיִם)) avec enclitique de direction ; Almon vers Diblathajim ;",
    "frequency": "",
    "kjv_def": "Almondilathaim.",
    "lemma": "עַלְמֹן דִּבְלָתָיְמָה",
    "outline": "",
    "pron": "al-mone' dib-lawthaw'-yem-aw",
    "strongs_def": "Almon-Diblathajemah, un endroit à Moab",
    "xlit": "ʻAlmôn Diblâthâyᵉmâh"
}