{
    "derivation": "une racine primitive ;",
    "frequency": 3,
    "kjv_def": "Paon, réjouis-toi, console-toi.",
    "lemma": "עָלַס",
    "outline": "<ol><li> se réjouir<ol><li> (Qal) se réjouir</li><li> (Niphal) exulter<ol><li> battre joyeusement des ailes (d'autruche)</li></ol><li> (Hithpael) se réjouir</li></ol></li></ol>",
    "pron": "aw-las'",
    "strongs_def": "sauter de joie, c'est-à-dire exulter, s'agiter joyeusement",
    "xlit": "ʻâlaç"
}