{
    "derivation": "une racine primitive ;",
    "frequency": "",
    "kjv_def": "se plaindre.",
    "lemma": "אָנַן",
    "outline": "",
    "pron": "aw-nan'",
    "strongs_def": "se lamenter, c'est-à-dire se plaindre",
    "xlit": "ʼânan"
}