{
    "derivation": "de H6004 (עָמַם) ;",
    "frequency": 1868,
    "kjv_def": "le peuple, les hommes, la nation, les gens.",
    "lemma": "עַם",
    "outline": "<ol><li> nation, peuple<ol><li> peuple, nation</li><li> personnes, membres de son peuple, compatriotes, compatriotes de son pays</li></ol><li> parent, apparenté</li></ol>",
    "pron": "am",
    "strongs_def": "un peuple (en tant qu'unité assemblée) ; spécifiquement, une tribu (comme celle d'Israël) ; d'où (collectivement) des troupes ou des assistants ; au sens figuré, un troupeau",
    "xlit": "ʻam"
}