{
    "derivation": "de H6004 (עָמַם) ;",
    "frequency": 1043,
    "kjv_def": "accompagnant, contre, et, comme ([idiome] long as), avant, à côté, par (raison de), pour tous, de (parmi, entre), dans, comme, plus que, de, (un-) à, avec(-al).",
    "lemma": "עִם",
    "outline": "<ol><li> avec<ol><li> avec</li><li> contre</li><li> vers</li><li> jusqu'à ce que</li><li> à côté de, sauf</li><li> en dépit de</li></ol></li></ol>",
    "pron": "eem",
    "strongs_def": "adverbe ou préposition, avec (c'est-à-dire en conjonction avec), dans des applications variées ; spécifiquement, également avec ; souvent avec un préfixe prépositionnel (et alors généralement non représenté en anglais)",
    "xlit": "ʻim"
}