{
    "frequency": 1,
    "kjv_def": "obliger.",
    "lemma": "אָנַס",
    "outline": "<ol><li> (Qal) obliger, contraindre</li></ol>",
    "pron": "aw-nas'",
    "strongs_def": "insister",
    "xlit": "ʼânaç"
}