{
    "derivation": "de H5971 (עַם) et H1935 (הוֹד) ; peuple de la splendeur ;",
    "frequency": 9,
    "kjv_def": "Ammihud.",
    "lemma": "עַמִּיהוּד",
    "outline": "<span class=\"literal-meaning\">Ammihud = &quot;ma parenté est majestueuse&quot;.</span><ol><li> ephraïmite, père d'Elishama, chef de la tribu au moment de l'exode</li><li> un Siméonite, père de Shemuel</li><li> père de Pedahel, prince de la tribu de Nephtali</li><li> père du roi Talmaï de Géshour</li><li> descendant de Juda par son fils Pharez</li></ol>",
    "pron": "am-mee-hood'",
    "strongs_def": "Ammihud, le nom de trois Israélites",
    "xlit": "ʻAmmîyhûwd"
}