{
    "derivation": "une racine primitive ;",
    "frequency": 11,
    "kjv_def": "(prendre) le travail (dans).",
    "lemma": "עָמַל",
    "outline": "<ol><li> travailler, peiner<ol><li> (Qal) travailler</li></ol></li></ol>",
    "pron": "aw-mal'",
    "strongs_def": "travailler, c'est-à-dire travailler durement et sans ménagement",
    "xlit": "ʻâmal"
}