{
    "derivation": "de H5971 (עַם) et H5068 (נָדַב) ; personnes de libéralité ;",
    "frequency": 13,
    "kjv_def": "Amminadab.",
    "lemma": "עַמִּינָדָב",
    "outline": "<span class=\"literal-meaning\">Amminadab = &quot;ma parenté est noble&quot;.</span><ol><li> fils de Ram ou Aram et père de Nahshon ou Naasson et ancêtre de Jésus ; beau-père d'Aaron</li><li> lévite kohathite et chef des fils d'Uzziel</li><li> lévite, fils de Kehath ; également \"Izhar\"</li></ol>",
    "pron": "am-mee-naw-dawb'",
    "strongs_def": "Amminadab, le nom de quatre Israélites",
    "xlit": "ʻAmmîynâdâb"
}