{
    "derivation": "de H6009 (עָמַק) ;",
    "frequency": 17,
    "kjv_def": "([idiome] dépassant) profond (chose).",
    "lemma": "עָמֹק",
    "outline": "<ol><li> profonde, mystérieuse, profondeurs<ol><li> profond</li><li> insaisissable</li></ol></li></ol>",
    "pron": "aw-moke'",
    "strongs_def": "profond (au sens propre ou figuré)",
    "xlit": "ʻâmôq"
}