{
    "derivation": "de H6009 (עָמַק) ;",
    "frequency": 4,
    "kjv_def": "plus profond, profondeur, étrange.",
    "lemma": "עָמֵק",
    "outline": "<ol><li> profond, insondable<ol><li> inintelligible (de la parole)</li></ol></li></ol>",
    "pron": "aw-make'",
    "strongs_def": "profond (au sens propre ou figuré)",
    "xlit": "ʻâmêq"
}