{
    "derivation": "d'une racine inutilisée signifiant probablement porter des fruits ;",
    "frequency": 19,
    "kjv_def": "(mûr) raisin, vin.",
    "lemma": "עֵנָב",
    "outline": "<ol><li> raisin(s)</li></ol>",
    "pron": "ay-nawb'",
    "strongs_def": "un raisin",
    "xlit": "ʻênâb"
}