{
    "derivation": "probablement de H6030 (עָנָה) ; une réponse ;",
    "frequency": 12,
    "kjv_def": "Anah.",
    "lemma": "עֲנָה",
    "outline": "<span class=\"literal-meaning\">Anah = &quot;réponse&quot;</span><ol><li> fils de Zibeon et père d'Aholibamah, une femme d'Esau</li><li> un chef Horite</li><li> fille de Zibeon</li></ol>",
    "pron": "an-aw'",
    "strongs_def": "Anah, nom de deux Edomites et d'une Edomite",
    "xlit": "ʻĂnâh"
}