{
    "derivation": "(Araméen) correspondant à H6031 (עָנָה)",
    "frequency": "",
    "kjv_def": "pauvres.",
    "lemma": "עֲנָה",
    "outline": "",
    "pron": "an-aw'",
    "strongs_def": "déprimer au sens propre ou figuré, transitif ou intransitif (dans diverses applications, comme suit)",
    "xlit": "ʻănâh"
}