{
    "derivation": "pour le pluriel de H5869 (עַיִן) ; fontaines ;",
    "frequency": 1,
    "kjv_def": "Anim.",
    "lemma": "עָנִים",
    "outline": "<span class=\"literal-meaning\">Anim = &quot;fontaines&quot;</span><ol><li> une ville dans les montagnes du sud de la Judée</li></ol>",
    "pron": "aw-neem'",
    "strongs_def": "Anim, un lieu en Palestine",
    "xlit": "ʻÂnîym"
}