{
    "derivation": "de H6031 (עָנָה) ; affligé ;",
    "frequency": 3,
    "kjv_def": "Unni.",
    "lemma": "עֻנִּי",
    "outline": "<span class=\"literal-meaning\">Unni = &quot;affligé&quot;</span><ol><li> un lévite gardien de porte à l'époque de David</li><li> un lévite concerné par l'office sacré après le retour de l'exil à Babylone</li></ol>",
    "pron": "oon-nee'",
    "strongs_def": "Unni, le nom de deux Israélites",
    "xlit": "ʻUnnîy"
}