{
    "derivation": "identique à H603 (אֲנָקָה) ;",
    "frequency": 1,
    "kjv_def": "furet.",
    "lemma": "אֲנָקָה",
    "outline": "<ol><li> un animal impur, furet, souris musquée, gecko<ol><li> peut-être un animal éteint, signification exacte inconnue</li></ol></li></ol>",
    "pron": "an-aw-kaw'",
    "strongs_def": "une sorte de lézard, probablement le gecko (d'après son gémissement)",
    "xlit": "ʼănâqâh"
}