{
    "derivation": "racine primitive ; couvrir ; utilisé uniquement comme dénominatif de H6051 (עָנָן), couvrir de nuages ;",
    "frequency": 11,
    "kjv_def": "[idiome] apporter, enchanteur, Meonemin, observer(-r des) temps, devin, sorcier.",
    "lemma": "עָנַן",
    "outline": "<ol><li> (Piel) faire apparaître, produire, apporter (nuages)</li><li> (Poel) pratiquer la divination, la conjuration<ol><li> observer les temps, pratiquer la divination ou le spiritisme ou la magie ou l'augure ou la sorcellerie</li><li> devin, enchanteur, sorcier, devin, diseur de bonne aventure, barbare, Meonenim (participe)</li></ol></li></ol>",
    "pron": "aw-nan'",
    "strongs_def": "au sens figuré, agir secrètement, c'est-à-dire pratiquer la magie",
    "xlit": "ʻânan"
}