{
    "derivation": "d'une racine inutilisée signifiant couvrir ;",
    "frequency": 7,
    "kjv_def": "une branche, un rameau.",
    "lemma": "עָנָף",
    "outline": "<ol><li> branche, rameau</li></ol>",
    "pron": "aw-nawf'",
    "strongs_def": "une brindille (pour couvrir les membres)",
    "xlit": "ʻânâph"
}