{
    "derivation": "(Araméen) correspondant à H6051 (עָנָן)",
    "frequency": 1,
    "kjv_def": "nuage.",
    "lemma": "עֲנַן",
    "outline": "<ol><li> nuage</li></ol>",
    "pron": "an-an'",
    "strongs_def": "{un nuage (comme couvrant le ciel), c'est-à-dire le nimbus ou le nuage d'orage}",
    "xlit": "ʻănan"
}