{
    "derivation": "identique à H6051 (עָנָן) ; nuage ;",
    "frequency": "",
    "kjv_def": "Anan.",
    "lemma": "עָנָן",
    "outline": "",
    "pron": "aw-nawn'",
    "strongs_def": "Anan, un Israélite",
    "xlit": "ʻÂnân"
}