{
    "derivation": "de H6049 (עָנַן) ;",
    "frequency": 87,
    "kjv_def": "nuage(-y).",
    "lemma": "עָנָן",
    "outline": "<ol><li> nuage, nuageux, masse nuageuse<ol><li> masse nuageuse (d'un nuage théophanique)</li><li> nuage</li></ol></li></ol>",
    "pron": "aw-nawn'",
    "strongs_def": "un nuage (comme couvrant le ciel), c'est-à-dire le nimbus ou le nuage d'orage",
    "xlit": "ʻânân"
}