{
    "derivation": "(araméen) correspondant à H6066 (עֹנֶשׁ) ;",
    "frequency": 1,
    "kjv_def": "la confiscation.",
    "lemma": "עֲנַשׁ",
    "outline": "<ol><li> (CLBL) infliger une amende</li><li> (BDB/TWOT) confiscation, amende, amercion</li></ol>",
    "pron": "an-ash'",
    "strongs_def": "une multitude",
    "xlit": "ʻănash"
}