{
    "derivation": "de H6059 (עָנַק) ;",
    "frequency": 3,
    "kjv_def": "chaîne.",
    "lemma": "עָנָק",
    "outline": "<ol><li> collier, pendentif de cou</li><li> (TWOT) cou</li></ol>",
    "pron": "aw-nawk'",
    "strongs_def": "un collier (comme pour étrangler)",
    "xlit": "ʻânâq"
}