{
    "derivation": "(araméen) correspondant à H859 (אַתָּה) ;",
    "frequency": 18,
    "kjv_def": "quant à toi, tu.",
    "lemma": "אַנְתָּה",
    "outline": "<ol><li> vous, tu (deuxième pers. sing.)</li></ol>",
    "pron": "an-taw'",
    "strongs_def": "tu",
    "xlit": "ʼantâh"
}