{
    "derivation": "de H6080 (עָפַר) ;",
    "frequency": 110,
    "kjv_def": "cendres, poussière, terre, sol, mortier, poudre, déchets.",
    "lemma": "עָפָר",
    "outline": "<ol><li> terre sèche, poussière, poudre, cendres, terre, sol, mortier, déchets<ol><li> terre sèche ou meuble</li><li> débris</li><li> mortier</li><li> minerai</li></ol></li></ol>",
    "pron": "aw-fawr'",
    "strongs_def": "poussière (en tant que poudre ou gris) ; de là, argile, terre, boue",
    "xlit": "ʻâphâr"
}