{
    "derivation": "de H6095 (עָצָה) ;",
    "frequency": 329,
    "kjv_def": "charpentier, potence, hélice, pin, planche, bâton, bâton, stock, bois, arbre, bois.",
    "lemma": "עֵץ",
    "outline": "<ol><li> arbre, bois, bois de construction, stock, planche, tige, bâton, potence<ol><li> arbre, arbres</li><li> bois, morceaux de bois, potence, bois de chauffage, bois de cèdre, lin boisé</li></ol></li></ol>",
    "pron": "ates",
    "strongs_def": "un arbre (de par sa fermeté) ; d'où le bois (pluriel bâtons)",
    "xlit": "ʻêts"
}