{
    "derivation": "de dérivation incertaine ;",
    "frequency": 58,
    "kjv_def": "Asa.",
    "lemma": "אָסָא",
    "outline": "<span class=\"literal-meaning\">Asa = &quot;guérisseur : injuste ( ?)&quot;</span><ol><li> roi de Juda, fils d'Abijam, père de Josaphat</li><li> un lévite</li></ol>",
    "pron": "aw-saw'",
    "strongs_def": "Asa, nom d'un roi et d'un lévite",
    "xlit": "ʼÂçâʼ"
}