{
    "derivation": "ou עָצֻם ; participe passif de H6105 (עָצַם) ;",
    "frequency": 31,
    "kjv_def": "faible, grand, puissant, doit, fort.",
    "lemma": "עָצוּם",
    "outline": "<ol><li> puissant, vaste, nombreux<ol><li> puissant, fort (en nombre)</li><li> nombreux, innombrables</li></ol></li></ol>",
    "pron": "aw-tsoom'",
    "strongs_def": "puissant (spécifiquement, une patte) ; par implication, nombreux",
    "xlit": "ʻâtsûwm"
}