{
    "derivation": "de H3289 (יָעַץ) ;",
    "frequency": 89,
    "kjv_def": "conseil, avis, conseil(l-(ou)), but.",
    "lemma": "עֵצָה",
    "outline": "<ol><li> conseil, avis, objectif</li></ol>",
    "pron": "ay-tsaw'",
    "strongs_def": "conseil ; par implication, plan ; également prudence",
    "xlit": "ʻêtsâh"
}