{
    "derivation": "de H6087 (עָצַב) ;",
    "frequency": 1,
    "kjv_def": "travail.",
    "lemma": "עָצֵב",
    "outline": "<ol><li> ouvrier, travailleur, travailleur</li></ol>",
    "pron": "aw-tsabe'",
    "strongs_def": "un ouvrier (embauché)",
    "xlit": "ʻâtsêb"
}