{
    "derivation": "une variation de H6089 (עֶצֶב) ;",
    "frequency": 3,
    "kjv_def": "idole, chagrin, méchant.",
    "lemma": "עֹצֶב",
    "outline": "<ol><li> douleur, chagrin</li><li> idole</li></ol>",
    "pron": "o'-tseb",
    "strongs_def": "une idole (telle que façonnée) ; également la douleur (corporelle ou mentale)",
    "xlit": "ʻôtseb"
}