{
    "derivation": "féminin de H6102 (עָצֵל) ;",
    "frequency": 2,
    "kjv_def": "la paresse.",
    "lemma": "עַצְלָה",
    "outline": "<ol><li> léthargie, paresse</li></ol>",
    "pron": "ats-law'",
    "strongs_def": "(de manière abstraite) l'indolence",
    "xlit": "ʻatslâh"
}