{
    "derivation": "ou עַצְמֹן ; de H6107 (עֶצֶם) ; semblable à un os ;",
    "frequency": 3,
    "kjv_def": "Azmon.",
    "lemma": "עַצְמוֹן",
    "outline": "<span class=\"literal-meaning\">Azmon = &quot;fort&quot;</span><ol><li> un lieu situé à l'extrême sud de Canaan</li></ol>",
    "pron": "ats-mone'",
    "strongs_def": "Atsmon, un endroit près de la Palestine",
    "xlit": "ʻAtsmôwn"
}