{
    "derivation": "de H6127 (עָקַל) ;",
    "frequency": 2,
    "kjv_def": "by(-way), chemin tortueux.",
    "lemma": "עֲקַלְקַל",
    "outline": "<ol><li> sinueux, sournois, tortueux</li></ol>",
    "pron": "ak-al-kal'",
    "strongs_def": "enroulement",
    "xlit": "ʻăqalqal"
}