{
    "derivation": "de H6123 (עָקַד) ;",
    "frequency": 7,
    "kjv_def": "anneau stratifié.",
    "lemma": "עָקֹד",
    "outline": "<ol><li> strié, rayé</li></ol>",
    "pron": "aw-kode'",
    "strongs_def": "rayé (avec bandes)",
    "xlit": "ʻâqôd"
}