{
    "derivation": "féminin d'une forme inutilisée de H6117 (עָקַב) signifiant une ruse ;",
    "frequency": 1,
    "kjv_def": "subtilité.",
    "lemma": "עׇקְבָה",
    "outline": "<ol><li> subtilité, sournoiserie, astuce</li></ol>",
    "pron": "ok-baw'",
    "strongs_def": "tromperie",
    "xlit": "ʻoqbâh"
}