{
    "derivation": "de H631 (אָסַר) ;",
    "frequency": 4,
    "kjv_def": "la bande, la prison.",
    "lemma": "אֵסוּר",
    "outline": "<ol><li> bande, obligation</li><li> maison des obligations, prison (au sens figuré)</li></ol>",
    "pron": "ay-soor'",
    "strongs_def": "un lien (notamment les menottes d'un prisonnier)",
    "xlit": "ʼêçûwr"
}