{
    "derivation": "(Araméen) correspondant à H6131 (עָקַר)",
    "frequency": "",
    "kjv_def": "arracher par les racines.",
    "lemma": "עֲקַר",
    "outline": "",
    "pron": "ak-ar'",
    "strongs_def": "arracher (surtout par les racines) ; en particulier, paralyser ; au sens figuré, exterminer}",
    "xlit": "ʻăqar"
}