{
    "derivation": "d'une racine inutilisée signifiant tordre ; tortueux ;",
    "frequency": 1,
    "kjv_def": "Akan. Comparer avec H3292 (יַעֲקָן).",
    "lemma": "עָקָן",
    "outline": "<span class=\"literal-meaning\">Akan = &quot;perspicacité&quot;.</span><ol><li> fils d'Ezer, descendant de Séir, et l'un des chefs des Horites d'Edom</li></ol>",
    "pron": "aw-kawn'",
    "strongs_def": "Akan, un Idummaean",
    "xlit": "ʻÂqân"
}