{
    "derivation": "de H6131 (עָקַר) ;",
    "frequency": 1,
    "kjv_def": "stock.",
    "lemma": "עֵקֶר",
    "outline": "<ol><li> membre, progéniture, rejeton</li></ol>",
    "pron": "ay'-ker",
    "strongs_def": "au sens figuré, une personne transplantée, c'est-à-dire un citoyen naturalisé",
    "xlit": "ʻêqer"
}