{
    "derivation": "de H6131 (עָקַר) ; éradication ;",
    "frequency": 22,
    "kjv_def": "Ekron.",
    "lemma": "עֶקְרוֹן",
    "outline": "<span class=\"literal-meaning\">Ekron = &quot;émigration&quot; ou &quot;arraché par les racines&quot;.</span><ol><li> la plus septentrionale des 5 principales villes des Philistins ; située dans les basses terres de Juda et donnée plus tard à Dan</li></ol>",
    "pron": "ek-rone'",
    "strongs_def": "Ekron, lieu en Palestine",
    "xlit": "ʻEqrôwn"
}