{
    "derivation": "de dérivation incertaine ;",
    "frequency": 6,
    "kjv_def": "scorpion.",
    "lemma": "עַקְרָב",
    "outline": "<ol><li> scorpion</li></ol>",
    "pron": "ak-rawb'",
    "strongs_def": "un scorpion ; au sens figuré, un fléau ou un fouet noué",
    "xlit": "ʻaqrâb"
}