{
    "derivation": "une racine primitive ;",
    "frequency": 7,
    "kjv_def": "creuser, creuser, arracher, s'enraciner.",
    "lemma": "עָקַר",
    "outline": "<ol><li> arracher, s'enraciner<ol><li> (Qal) arracher, déraciner</li><li> (Niphal) être arraché</li></ol><li> couper, couper le jarret<ol><li> (Piel) couper, couper le jarret</li></ol></li></ol>",
    "pron": "aw-kar'",
    "strongs_def": "arracher (surtout par les racines) ; en particulier, paralyser ; au sens figuré, exterminer",
    "xlit": "ʻâqar"
}