{
    "derivation": "comme H6141 (עִקֵּשׁ) ; pervers ;",
    "frequency": 3,
    "kjv_def": "Ikkesh.",
    "lemma": "עִקֵּשׁ",
    "outline": "<span class=\"literal-meaning\">Ikkesh = &quot;tordu&quot;</span><ol><li> père d'Ira, le Tekoïte, et l'un des puissants guerriers de David</li></ol>",
    "pron": "ik-kashe'",
    "strongs_def": "Ikkesh, un Israélite",
    "xlit": "ʻIqqêsh"
}