{
    "derivation": "une racine primitive (plutôt identique à H6148 (עָרַב) par l'idée d'association étroite) ;",
    "frequency": 8,
    "kjv_def": "être agréable (-ing), prendre plaisir à, être doux.",
    "lemma": "עָרֵב",
    "outline": "<ol><li> (Qal) être agréable, être doux, être plaisant<ol><li> (TWOT) doux, agréable</li></ol></li></ol>",
    "pron": "aw-rabe'",
    "strongs_def": "être agréable",
    "xlit": "ʻârêb"
}