{
    "derivation": "de H6150 (עָרַב) ;",
    "frequency": 134,
    "kjv_def": "jour, soir (-ing, marée), nuit.",
    "lemma": "עֶרֶב",
    "outline": "<ol><li> soirée, nuit, coucher de soleil<ol><li> soirée, coucher de soleil</li><li> nuit</li></ol></li></ol>",
    "pron": "eh'-reb",
    "strongs_def": "crépuscule",
    "xlit": "ʻereb"
}