{
    "derivation": "(araméen) correspondant à H6148 (עָרַב) ;",
    "frequency": 4,
    "kjv_def": "se mêler (soi-même), se mélanger.",
    "lemma": "עֲרַב",
    "outline": "<ol><li> mélanger, réunir<ol><li> (Pael) mixte (participe)</li><li> (Ithpael) mélangé (participe)</li></ol></li></ol>",
    "pron": "ar-ab'",
    "strongs_def": "mélanger",
    "xlit": "ʻărab"
}