{
    "derivation": "ou עֶרֶב ; (1 Rois 10:15), (avec l'article [préfixe], de H6148 (עָרַב) ;",
    "frequency": 15,
    "kjv_def": "Arabie, peuple mêlé, mélangé (multitude), trame.",
    "lemma": "עֵרֶב",
    "outline": "<ol><li> trame<ol><li> en tant que matériau mélangé, entrelacé</li><li> matériau tricoté</li></ol><li> mélange, personnes mélangées, société mélangée</li></ol>",
    "pron": "ay'-reb",
    "strongs_def": "la toile (ou les fils transversaux d'une étoffe) ; également un mélange, (ou une race bâtarde)",
    "xlit": "ʻêreb"
}