{
    "derivation": "une racine primitive (plutôt identique à H6148 (עָרַב) par l'idée de couvrir d'une texture) ;",
    "frequency": 3,
    "kjv_def": "être assombri, (vers) le soir.",
    "lemma": "עָרַב",
    "outline": "<ol><li> pour devenir le soir, devenir sombre<ol><li> (Qal) devenir le soir, s'assombrir</li><li> (Hiphil) passer la soirée, faire le soir</li></ol></li></ol>",
    "pron": "aw-rab'",
    "strongs_def": "pour devenir sombre au coucher du soleil",
    "xlit": "ʻârab"
}