{
    "derivation": "patrie de H1026 (בֵּית הָעֲרָבָה) ;",
    "frequency": 2,
    "kjv_def": "Arbahite.",
    "lemma": "עַרְבָתִי",
    "outline": "<span class=\"literal-meaning\">Arbathite = voir Betharabah &quot; maison du désert &quot;.</span><ol><li> un habitant de Beth-arabah</li></ol>",
    "pron": "ar-baw-thee'",
    "strongs_def": "un Arbathite ou un habitant de (Beth-) Arabah",
    "xlit": "ʻArbâthîy"
}