{
    "derivation": "de H5782 (עוּר) ; vigilant ;",
    "frequency": 2,
    "kjv_def": "Eri.",
    "lemma": "עֵרִי",
    "outline": "<span class=\"literal-meaning\">Eri = &quot; vigilant &quot;.</span><ol><li> fils de Gad et géniteur de la famille des Erites</li></ol>",
    "pron": "ay-ree'",
    "strongs_def": "Eri, un Israélite",
    "xlit": "ʻÊrîy"
}