{
    "derivation": "de H6168 (עָרָה) ;",
    "frequency": 54,
    "kjv_def": "la nudité, la honte, l'impureté (-ness).",
    "lemma": "עֶרְוָה",
    "outline": "<ol><li> nudité, nudité, honte, pudenda<ol><li> pudenda (impliquant une exposition honteuse)</li><li> nudité d'une chose, indécence, comportement inapproprié</li><li> exposé, non défendu (fig.)</li></ol></li></ol>",
    "pron": "er-vaw'",
    "strongs_def": "la nudité, au sens propre (surtout le pudenda) ou au sens figuré (disgrâce, tare)",
    "xlit": "ʻervâh"
}