{
    "derivation": "racine primitive ; proprement, dépouiller ; mais utilisé comme dénominatif à partir de H6189 (עָרֵל) ;",
    "frequency": 2,
    "kjv_def": "compte non circoncis, le prépuce doit être découvert.",
    "lemma": "עָרֵל",
    "outline": "<ol><li> rester incirconcis, compter incirconcis, compter comme prépuce<ol><li> (Qal)<ol><li> considérer comme incirconcis</li><li> rester non récolté (fig.)</li></ol><li> (Niphal) être compté comme incirconcis</li></ol></li></ol>",
    "pron": "aw-rale'",
    "strongs_def": "exposer ou enlever le prépuce, que ce soit au sens propre (se mettre à poil) ou au sens figuré (s'abstenir de se servir)",
    "xlit": "ʻârêl"
}