{
    "derivation": "(Jérémie 50:26) ou (féminin) עֲרֵמָה ; de H6192 (עָרַם) ;",
    "frequency": 11,
    "kjv_def": "tas (de maïs), gerbe.",
    "lemma": "עָרֵם",
    "outline": "<ol><li> tas, pile</li></ol>",
    "pron": "aw-rame'",
    "strongs_def": "un tas ; plus précisément, une gerbe",
    "xlit": "ʻârêm"
}