{
    "derivation": "féminin de H6193 (עֹרֶם) ;",
    "frequency": 5,
    "kjv_def": "la ruse, la prudence, la subtilité, la volonté, la sagesse.",
    "lemma": "עׇרְמָה",
    "outline": "<ol><li> finesse, astuce, prudence</li></ol>",
    "pron": "or-maw'",
    "strongs_def": "tromperie ; ou (dans le bon sens du terme) discrétion",
    "xlit": "ʻormâh"
}