{
    "derivation": "de H58 (אָבֵל) et H1004 (בַּיִת) et H4601 (מַעֲכָה) ; prairie de Beth-Maakah ;",
    "frequency": "",
    "kjv_def": "Abel-beth-maachah, Abel de Beth-maachah,",
    "lemma": "אָבֵל בֵּית־מֲעַכָה",
    "outline": "",
    "pron": "aw-bale' bayth ma-akaw'",
    "strongs_def": "Abel de Beth-maakah, un lieu en Palestine",
    "xlit": "ʼÂbêl Bêyth-Măʻakâh"
}