{
    "derivation": "une racine primitive ;",
    "frequency": 2,
    "kjv_def": "baisser (down).",
    "lemma": "עָרַף",
    "outline": "<ol><li> tomber, goutter<ol><li> (Qal) tomber, ruisseler</li></ol></li></ol>",
    "pron": "aw-raf'",
    "strongs_def": "tomber ; d'où l'expression \"goutte à goutte\"",
    "xlit": "ʻâraph"
}