{
    "derivation": "une racine primitive ;",
    "frequency": 4,
    "kjv_def": "mettre à nu, briser, soulever (peut-être par erreur cléricale pour raser), [idiome] complètement.",
    "lemma": "עָרַר",
    "outline": "<ol><li> se dépouiller, se mettre à nu, se dénuder<ol><li> (Qal) se dénuder, se dépouiller</li><li> (Poel) mettre à nu</li><li> (Hithpalpel) être complètement dépouillé, être complètement mis à nu</li><li> (Pilpel) briser</li></ol></li></ol>",
    "pron": "aw-rar'",
    "strongs_def": "mettre à nu ; au sens figuré, démolir",
    "xlit": "ʻârar"
}