{
    "derivation": "racine primitive (identique à par l'idée de pente) ; proprement, plier vers le bas ; mais utilisé seulement comme dénominatif à partir de H6203 (עֹרֶף),",
    "frequency": 6,
    "kjv_def": "qui est décapité, briser, briser (couper, rayer) le cou.",
    "lemma": "עָרַף",
    "outline": "<ol><li> (Qal) briser le cou (d'un animal)</li></ol>",
    "pron": "aw-raf'",
    "strongs_def": "briser le cou ; donc (au sens figuré) détruire",
    "xlit": "ʻâraph"
}