{
    "derivation": "de dérivation égyptienne ;",
    "frequency": 3,
    "kjv_def": "Asenath.",
    "lemma": "אָסְנַת",
    "outline": "<span class=\"literal-meaning\">Asenath = &quot;appartenant à la déesse Neith&quot;.</span><ol><li> l'épouse de Joseph</li></ol>",
    "pron": "aw-se-nath'",
    "strongs_def": "Asenath, l'épouse de Joseph",
    "xlit": "ʼÂçᵉnath"
}