{
    "derivation": "apparemment une forme du participe passif de H6213 (עָשָׂה) dans le sens originel de manier ; rugueux (c'est-à-dire senti) ;",
    "frequency": 97,
    "kjv_def": "Esau.",
    "lemma": "עֵשָׂו",
    "outline": "<span class=\"literal-meaning\">Ésaü = &quot;poilu</span><ol><li> fils aîné d'Isaac et de Rebecca et frère jumeau de Jacob ; il a vendu le droit d'aînesse pour de la nourriture lorsqu'il avait faim et la bénédiction divine est allée à Jacob ; géniteur des peuples arabes</li></ol>",
    "pron": "ay-sawv'",
    "strongs_def": "Esav, fils d'Isaac, y compris sa postérité",
    "xlit": "ʻÊsâv"
}