{
    "derivation": "ou עָשֻׁק ; participe passif de H6231 (עָשַׁק) ;",
    "frequency": 5,
    "kjv_def": "opprimé(-ion). (Douteux.)",
    "lemma": "עָשׁוּק",
    "outline": "<ol><li> oppression, extorsion</li></ol>",
    "pron": "aw-shook'",
    "strongs_def": "utilisé au masculin pluriel comme abstraitement, tyrannie",
    "xlit": "ʻâshûwq"
}