{
    "derivation": "une racine primitive ;",
    "frequency": 2628,
    "kjv_def": "accomplir, avancer, nommer, apte, être à, devenir, porter, octroyer, apporter, meurtrir, être occupé, [idiome] certainement, avoir la charge de, commettre, traiter (avec), pont, [phrase] déplaire, faire, (prêt) habiller(-ed), (put in) execute(-ion), exercise, fashion, [phrase] feast, (fight-) ing man, [phrase] finish, fit, fly, follow, fulfill, furnish, gather, get, go about, govern, grant, great, [phrase] hinder, hold (a feast), en effet, être industrieux, voyager, garder, travailler, maintenir, faire, rencontrer, observer, être occupé, offrir, officier, parer, faire passer, exécuter, pratiquer, préparer, se procurer, fournir, mettre, requérir, [idiome] sacrifier, servir, mettre, montrer, [idiome] pécher, dépenser, [idiome] sûrement, prendre, [idiome] complètement, tailler, [idiome] très, [phrase] vexer, être (warr-) ior, travailler(-man), céder, utiliser.",
    "lemma": "עָשָׂה",
    "outline": "<ol><li> faire, façonner, accomplir, fabriquer<ol><li> (Qal)<ol><li> faire, travailler, fabriquer, produire<ol><li> à faire</li><li> travailler</li><li> traiter (avec)</li><li> agir, agir avec effet, effet</li></ol><li>faire<ol><li> faire</li><li> produire</li><li> préparer</li><li> faire (une offrande)</li><li> s'occuper, mettre en ordre</li><li> observer, célébrer</li><li> acquérir (des biens)</li><li> nommer, ordonner, instituer</li></ol>faire<ol><li> naître</li></ol><ol><li> utiliser</li><li> dépenser, passer</li></ol><li>(Niphal)<ol><li> faire faire</li></ol></li></li><li><li><ol><li> faire</li></ol></li></li><li><li><ol><li></li></ol></li><li><ol><li> produire</li><li> offrir</li><li> observer</li><li> utiliser</li></ol><li> (Pual)</li></li> faire faire</li> </ol><li> (Piel) presser, serrer</li></ol>",
    "pron": "aw-saw'",
    "strongs_def": "faire ou faire, dans le sens le plus large et dans l'application la plus large possible",
    "xlit": "ʻâsâh"
}