{
    "derivation": "de H6238 (עָשַׁר) ;",
    "frequency": 23,
    "kjv_def": "riche (homme).",
    "lemma": "עָשִׁיר",
    "outline": "<ol><li> riche, fortuné</li><li> le riche, le riche, l'homme riche</li></ol>",
    "pron": "aw-sheer'",
    "strongs_def": "riche, au sens propre ou figuré (noble)",
    "xlit": "ʻâshîyr"
}