{
    "derivation": "de H6231 (עָשַׁק) ;",
    "frequency": 15,
    "kjv_def": "cruellement, extorsion, oppression, chose (obtenue par la ruse).",
    "lemma": "עֹשֶׁק",
    "outline": "<ol><li> oppression, extorsion, préjudice<ol><li> oppression</li><li> extorsion</li><li> gain par extorsion</li></ol></li></ol>",
    "pron": "o'-shek",
    "strongs_def": "préjudice, fraude, détresse (subjective), gain (concret) injuste",
    "xlit": "ʻôsheq"
}