{
    "derivation": "(araméen) masculin עֲשְׂרָה (araméen) ; correspond à H6235 (עֶשֶׂר) ;",
    "frequency": 6,
    "kjv_def": "dix, douze.",
    "lemma": "עֲשַׂר",
    "outline": "<ol><li> dix</li></ol>",
    "pron": "as-ar'",
    "strongs_def": "dix",
    "xlit": "ʻăsar"
}