{
    "derivation": "féminin de H6233 (עֹשֶׁק) ;",
    "frequency": 1,
    "kjv_def": "opprimée.",
    "lemma": "עׇשְׁקָה",
    "outline": "<ol><li> oppression, abus, détresse</li></ol>",
    "pron": "osh-kaw'",
    "strongs_def": "angoisse",
    "xlit": "ʻoshqâh"
}