{
    "derivation": "(Araméen) correspondant à H6242 (עֶשְׂרִים)",
    "frequency": 1,
    "kjv_def": "vingt.",
    "lemma": "עֶשְׂרִין",
    "outline": "<ol><li> vingt</li></ol>",
    "pron": "es-reen'",
    "strongs_def": "{vingt ; aussi (ordinal) vingtième}",
    "xlit": "ʻesrîyn"
}