{
    "derivation": "de H6235 (עֶשֶׂר) ;",
    "frequency": 315,
    "kjv_def": "(six-) score, vingt(-ieth).",
    "lemma": "עֶשְׂרִים",
    "outline": "<ol><li> vingt, vingtième</li></ol>",
    "pron": "es-reem'",
    "strongs_def": "vingt ; également (ordinal) vingtième",
    "xlit": "ʻesrîym"
}