{
    "derivation": "de H6252 (עַשְׁתָּרוֹת) et le dual de H7161 (קֶרֶן) ; Ashtaroth des (doubles) cornes (un symbole de la divinité) ;",
    "frequency": "",
    "kjv_def": "Ashtoreth Karnaim.",
    "lemma": "עַשְׁתְּרֹת קַרְנַיִם",
    "outline": "",
    "pron": "ash-ter-oth' kar-nah'-yim",
    "strongs_def": "Ashteroth-Karnaim, lieu situé à l'est du Jourdain",
    "xlit": "ʻAshtᵉrôth Qarnayim"
}