{
    "derivation": "de H5703 (עַד) ;",
    "frequency": 294,
    "kjv_def": "après, (al-) façons, [idiome] certain, [phrase] continuellement, [phrase] soir, long, (due) saison, si (longtemps) que, (même-, soir-, midi-) marée, (repas-), quel) temps, quand.",
    "lemma": "עֵת",
    "outline": "<ol><li> temps<ol><li> temps (d'un événement)</li><li> temps (habituel)</li><li> expériences, fortunes</li><li> événement, occasion</li></ol></li></ol>",
    "pron": "ayth",
    "strongs_def": "le temps, notamment (adverbe avec préposition) maintenant, quand, etc.",
    "xlit": "ʻêth"
}