{
    "derivation": "de H622 (אָסַף) ;",
    "frequency": 1,
    "kjv_def": "[idiome] ensemble.",
    "lemma": "אֲסֵפָה",
    "outline": "<ol><li> une collecte, un rassemblement</li></ol>",
    "pron": "as-ay-faw'",
    "strongs_def": "un ensemble de personnes (uniquement adverbial)",
    "xlit": "ʼăçêphâh"
}