{
    "derivation": "pour H6261 (עִתִּי) ;",
    "frequency": 4,
    "kjv_def": "Attai.",
    "lemma": "עַתַּי",
    "outline": "<span class=\"literal-meaning\">Attai = &quot;opportun&quot;</span><ol><li> judaïsant, petit-fils de Sheshan le Jérahmeelite par sa fille Ahlai qu'il avait donnée en mariage à Jarha, son esclave égyptien ; son petit-fils Zabad était l'un des puissants guerriers de David</li><li> l'un des guerriers à visage de lion de Gad, chefs de l'armée, qui ont rejoint David dans le désert</li><li> le deuxième fils du roi Roboam de Juda par Maacha, la fille d'Absalom</li></ol>",
    "pron": "at-tah'ee",
    "strongs_def": "Attai, le nom de trois Israéliens",
    "xlit": "ʻAttay"
}