{
    "derivation": "de H6275 (עָתַק) dans le sens de licence ;",
    "frequency": 4,
    "kjv_def": "arrogance, choses pénibles (dures), raideur.",
    "lemma": "עָתָק",
    "outline": "<ol><li> direct, audacieux, arrogant<ol><li> de la parole</li></ol></li></ol>",
    "pron": "aw-thawk'",
    "strongs_def": "impudent",
    "xlit": "ʻâthâq"
}