{
    "derivation": "de H6275 (עָתַק) ;",
    "frequency": 1,
    "kjv_def": "durable.",
    "lemma": "עָתֵק",
    "outline": "<ol><li> transmis en avant, avancé, endurant, durable, précieux, éminent, surpassant</li></ol>",
    "pron": "aw-thake'",
    "strongs_def": "antique, c'est-à-dire valorisé",
    "xlit": "ʻâthêq"
}