{
    "derivation": "d'une racine inutilisée signifiant forcer ; forcé ;",
    "frequency": 1,
    "kjv_def": "Othni.",
    "lemma": "עׇתְנִי",
    "outline": "<span class=\"literal-meaning\">Othni = &quot;lion de Jéhovah&quot;</span><ol><li> lévite, fils de Shemaiah, premier-né d'Obed-Edom</li></ol>",
    "pron": "oth-nee'",
    "strongs_def": "Othni, un Israélite",
    "xlit": "ʻOthnîy"
}