{
    "derivation": "de H6286 (פָּאַר) ;",
    "frequency": 2,
    "kjv_def": "noirceur.",
    "lemma": "פָּארוּר",
    "outline": "<ol><li> lueur, chaleur<ol><li> signification douteuse</li></ol></li></ol>",
    "pron": "paw-roor'",
    "strongs_def": "au sens propre, illuminé, c'est-à-dire une lueur ; au sens figuré, une bouffée (d'anxiété)",
    "xlit": "pâʼrûwr"
}