{
    "derivation": "féminin de H6311 (פֹּה) ;",
    "frequency": 86,
    "kjv_def": "coin, extrémité, quartier, côté.",
    "lemma": "פֵּאָה",
    "outline": "<ol><li> coin, bord, côté, quartier, extrémité<ol><li> coin</li><li> côté</li></ol></li></ol>",
    "pron": "pay-aw'",
    "strongs_def": "proprement, bouche au sens figuré, c'est-à-dire direction, région, extrémité",
    "xlit": "pêʼâh"
}