{
    "derivation": "de H6286 (פָּאַר) ;",
    "frequency": 7,
    "kjv_def": "beauté, bonnet, bien, ornement, pneu.",
    "lemma": "פְּאֵר",
    "outline": "<ol><li> coiffe, ornement, turban</li></ol>",
    "pron": "peh-ayr'",
    "strongs_def": "un embellissement, c'est-à-dire une coiffe fantaisie",
    "xlit": "pᵉʼêr"
}