{
    "derivation": "de H6293 (פָּגַע) ;",
    "frequency": 2,
    "kjv_def": "une chance, un événement.",
    "lemma": "פֶּגַע",
    "outline": "<ol><li> occurrence, événement, chance</li></ol>",
    "pron": "peh'-gah",
    "strongs_def": "impact (occasionnel)",
    "xlit": "pegaʻ"
}