{
    "derivation": "une racine primitive ;",
    "frequency": 14,
    "kjv_def": "se rencontrer (avec, ensemble).",
    "lemma": "פָּגַשׁ",
    "outline": "<ol><li> se réunir, se joindre, se rencontrer<ol><li> (Qal) se rencontrer, rencontrer</li><li> (Niphal) se réunir, se rencontrer</li><li> (Piel) se rencontrer, rencontrer</li></ol></li></ol>",
    "pron": "paw-gash'",
    "strongs_def": "entrer en contact avec, que ce soit par accident ou par violence ; au sens figuré, concourir",
    "xlit": "pâgash"
}