{
    "derivation": "de H6294 (פֶּגַע) et H410 (אֵל) ; accident de Dieu ;",
    "frequency": 5,
    "kjv_def": "Pagiel.",
    "lemma": "פַּגְעִיאֵל",
    "outline": "<span class=\"literal-meaning\">Pagiel = &quot;événement de Dieu&quot;</span><ol><li> fils d'Ocran et chef de la tribu d'Asher au moment de l'exode</li></ol>",
    "pron": "pag-ee-ale'",
    "strongs_def": "Pagiel, un Israélite",
    "xlit": "Pagʻîyʼêl"
}