{
    "derivation": "(Araméen) de dérivation perse ;",
    "frequency": 7,
    "kjv_def": "vite, immédiatement, vitesse (-ily).",
    "lemma": "אׇסְפַּרְנָא",
    "outline": "<ol><li> à fond</li><li> (CLBL) avec empressement, avec diligence</li></ol>",
    "pron": "os-par-naw'",
    "strongs_def": "diligemment",
    "xlit": "ʼoçparnâʼ"
}