{
    "derivation": "de H6299 (פָּדָה) ; rançon ;",
    "frequency": 2,
    "kjv_def": "Padon.",
    "lemma": "פָּדוֹן",
    "outline": "<span class=\"literal-meaning\">Padon = &quot;rançon&quot;</span><ol><li> un chef ou un ancêtre d'une famille d'esclaves du temple qui est revenu avec Zerubbabel</li></ol>",
    "pron": "paw-done'",
    "strongs_def": "Padon, un des Nethinim.",
    "xlit": "Pâdôwn"
}