{
    "derivation": "participe passif de H6299 (פָּדָה). rançonné (et donc présent sous H6299 (פָּדָה)) ;",
    "frequency": 4,
    "kjv_def": "(qui sont) à être (qui ont été) rachetés.",
    "lemma": "פָּדוּי",
    "outline": "<ol><li> rançon</li></ol>",
    "pron": "paw-doo'ee",
    "strongs_def": "comme abstraitement (au masculin pluriel) une rançon",
    "xlit": "pâdûwy"
}