{
    "derivation": "d'une racine inutilisée signifiant être gras ;",
    "frequency": 3,
    "kjv_def": "gras.",
    "lemma": "פֶּדֶר",
    "outline": "<ol><li> graisse, suif</li></ol>",
    "pron": "peh'der",
    "strongs_def": "suif",
    "xlit": "peder"
}