{
    "derivation": "une racine primitive ;",
    "frequency": 70,
    "kjv_def": "lier, attacher, ceindre, harnacher, tenir, garder, préparer, ordonner, préparer, prison(-er), mettre en liens, mettre en ordre, attacher.",
    "lemma": "אָסַר",
    "outline": "<ol><li> attacher, lier, emprisonner<ol><li> (Qal)<ol><li> attacher, lier</li><li> attacher, harnacher</li><li> lier (avec des cordons)</li><li> ceindre (rare et tardif)</li><li> commencer la bataille, faire l'attaque</li><li> d'obligation de serment (figuré)</li></ol><li> (Niphal) être emprisonné, lié</li><li> (Pual) être fait prisonnier</li></ol></li></ol>",
    "pron": "aw-sar'",
    "strongs_def": "atteler, atteler ; par analogie, attacher dans un sens ou dans l'autre, joindre une bataille",
    "xlit": "ʼâçar"
}