{
    "derivation": "de H6313 (פּוּג) ;",
    "frequency": 1,
    "kjv_def": "repos.",
    "lemma": "פּוּגָה",
    "outline": "<ol><li> assoupissement, arrêt, repos, soulagement</li></ol>",
    "pron": "poo-gaw'",
    "strongs_def": "entracte",
    "xlit": "pûwgâh"
}