{
    "derivation": "une racine primitive ;",
    "frequency": 67,
    "kjv_def": "briser (briser, secouer) en (à) morceaux, jeter (à l'étranger), disperser (selves), conduire, se retirer, disperser (à l'étranger), répandre à l'étranger.",
    "lemma": "פּוּץ",
    "outline": "<ol><li> se disperser, être dispersé, être éparpillé<ol><li> (Qal) être dispersé, être éparpillé</li><li> (Niphal)<ol><li> être dispersé</li><li> être répandu</li></ol><li> (Hiphil) disperser</li><li> Hithpael) disperser</li></ol><li> (Qal) couler, déborder</li><li> briser<ol><li> (Polel) briser</li><li> (Pilpel) mettre</li></ol></li>en pièces</ol>",
    "pron": "poots",
    "strongs_def": "mettre en pièces, au sens propre ou figuré (surtout pour disperser)",
    "xlit": "pûwts"
}