{
    "derivation": "une racine primitive ;",
    "frequency": 2,
    "kjv_def": "trébucher, bouger.",
    "lemma": "פּוּק",
    "outline": "<ol><li> tituber, chanceler, trébucher<ol><li> (Qal) faire un moulinet</li><li> (Hiphil)<ol><li> chanceler, vaciller</li><li> faire vaciller</li></ol></li></ol></li></ol>",
    "pron": "pook",
    "strongs_def": "d'hésiter",
    "xlit": "pûwq"
}