{
    "derivation": "une racine primitive (identique à H6338 (פָּזַז)) ;",
    "frequency": 2,
    "kjv_def": "sautez, devenez fort.",
    "lemma": "פָּזַז",
    "outline": "<ol><li> être lié, être agile, être souple<ol><li> (Qal) être agile</li><li> (Piel) bondir, faire preuve d'agilité</li></ol></li></ol>",
    "pron": "paw-zaz'",
    "strongs_def": "solidifier (comme par affinage) ; également faire jaillir (comme par séparation des membres)",
    "xlit": "pâzaz"
}