{
    "derivation": "une racine primitive ;",
    "frequency": "",
    "kjv_def": "briser, réduire à néant, [idiome] supprimer complètement.",
    "lemma": "פּוּר",
    "outline": "",
    "pron": "poor",
    "strongs_def": "pour écraser",
    "xlit": "pûwr"
}