{
    "derivation": "d'origine perse ;",
    "frequency": 1,
    "kjv_def": "Poratha.",
    "lemma": "פּוֹרָתָא",
    "outline": "<span class=\"literal-meaning\">Poratha = &quot;fécondité&quot; ou &quot;frustration&quot;.</span><ol><li> l'un des dix fils d'Haman, l'ennemi de Mardochée et d'Esther</li></ol>",
    "pron": "po-raw-thaw'",
    "strongs_def": "Poratha, un fils de Haman",
    "xlit": "Pôwrâthâʼ"
}