{
    "derivation": "d'origine étrangère ;",
    "frequency": 28,
    "kjv_def": "capitaine, adjoint, gouverneur.",
    "lemma": "פֶּחָה",
    "outline": "<ol><li> gouverneur</li></ol>",
    "pron": "peh-khaw'",
    "strongs_def": "un préfet (d'une ville ou d'un petit district)",
    "xlit": "pechâh"
}