{
    "derivation": "féminin de H6343 (פַּחַד) ;",
    "frequency": 1,
    "kjv_def": "peur.",
    "lemma": "פַּחְדָּה",
    "outline": "<ol><li> crainte, peur, crainte, crainte religieuse</li></ol>",
    "pron": "pakh-daw'",
    "strongs_def": "l'alarme (c'est-à-dire l'effroi)",
    "xlit": "pachdâh"
}