{
    "derivation": "une racine primitive ;",
    "frequency": 25,
    "kjv_def": "avoir peur, être effrayé, (être) dans la crainte, faire trembler.",
    "lemma": "פָּחַד",
    "outline": "<ol><li> craindre, trembler, révérer, redouter, être dans l'admiration ou la crainte<ol><li> (Qal)<ol><li> être dans la crainte</li><li> être dans la crainte</li></ol><li> (Piel) to be in great dread</li><li> (Hiphil) to cause to dread (en</li>anglais)</ol></li></ol>",
    "pron": "paw-kkad'",
    "strongs_def": "être surpris (par une alarme soudaine) ; d'où la peur en général",
    "xlit": "pâchad"
}