{
    "derivation": "de H6351 (פָּחַח) ;",
    "frequency": 27,
    "kjv_def": "gin, (fine) plaque, snare.",
    "lemma": "פַּח",
    "outline": "<ol><li> piège à oiseaux, piège, collet<ol><li> piège à oiseaux (littéral)</li><li> de calamités, de complots, source ou agent de calamité (fig.)</li></ol><li> plaque (de métal)</li></ol>",
    "pron": "pakh",
    "strongs_def": "une feuille (métallique) (comme martelée finement) ; également un filet à ressort (comme étalé comme une feuille)",
    "xlit": "pach"
}