{
    "derivation": "identique à H6343 (פַּחַד) ;",
    "frequency": 1,
    "kjv_def": "pierre.",
    "lemma": "פַּחַד",
    "outline": "<ol><li> cuisse</li></ol>",
    "pron": "pakh'-ad",
    "strongs_def": "un testicule (comme cause de honte apparentée à la peur)",
    "xlit": "pachad"
}