{
    "derivation": "ou פִּיָּה ; féminin de H6310 (פֶּה) ;",
    "frequency": "",
    "kjv_def": "(deux-) bord(-d).",
    "lemma": "פֵּיָה",
    "outline": "",
    "pron": "pay-aw'",
    "strongs_def": "un bord",
    "xlit": "pêyâh"
}