{
    "derivation": "de H6385 (פָּלַג) ;",
    "frequency": 10,
    "kjv_def": "rivière, ruisseau.",
    "lemma": "פֶּלֶג",
    "outline": "<ol><li> chenal, canal</li></ol>",
    "pron": "peh'-leg",
    "strongs_def": "un rill (c'est-à-dire un petit canal d'eau, comme pour l'irrigation)",
    "xlit": "peleg"
}