{
    "derivation": "une racine primitive ;",
    "frequency": 4,
    "kjv_def": "diviser.",
    "lemma": "פָּלַג",
    "outline": "<ol><li> diviser, diviser<ol><li> (Niphal) être divisé, être divisé</li><li> (Piel)<ol><li> se séparer, se fendre</li><li> diviser</li></ol></li></ol></li></ol>",
    "pron": "paw-lag'",
    "strongs_def": "diviser (au sens propre ou figuré)",
    "xlit": "pâlag"
}