{
    "derivation": "de H6403 (פָּלַט) ; échapper ;",
    "frequency": 2,
    "kjv_def": "Pelet. Voir aussi H1046 (בֵּית פֶּלֶט).",
    "lemma": "פֶּלֶט",
    "outline": "<span class=\"literal-meaning\">Pelet = &quot;délivrance&quot;</span><ol><li> fils de Jahdai et un descendant de Caleb</li><li> fils d'Azmaveth et l'un des puissants guerriers de David qui l'a rejoint à Ziklag</li></ol>",
    "pron": "peh'-let",
    "strongs_def": "Pelet, le nom de deux Israélites",
    "xlit": "Peleṭ"
}