{
    "derivation": "(Araméen) de H6399 (פְּלַח) ;",
    "frequency": 1,
    "kjv_def": "service.",
    "lemma": "פׇּלְחָן",
    "outline": "<ol><li> service, culte</li></ol>",
    "pron": "pol-khawn'",
    "strongs_def": "culte",
    "xlit": "polchân"
}