{
    "derivation": "du même que H6404 (פֶּלֶט) et H410 (אֵל) ; délivrance de Dieu ;",
    "frequency": 2,
    "kjv_def": "Paltiel, Phaltiel.",
    "lemma": "פַּלְטִיאֵל",
    "outline": "<span class=\"literal-meaning\">Paltiel ou Phaltiel = &quot;Dieu délivre&quot;.</span><ol><li> fils d'Azzan et prince de la tribu d'Issachar, désigné comme l'un des 12 pour le partage du pays de Canaan</li><li> fils de Laïsh de Gallim à qui Saül donna Michal en mariage après que sa folle jalousie ait chassé David comme un hors-la-loi</li></ol>",
    "pron": "pal-tee-ale'",
    "strongs_def": "Paltiel, le nom de deux Israélites",
    "xlit": "Palṭîyʼêl"
}