{
    "derivation": "une racine primitive (plutôt un dénominatif de H646 (אֵפוֹד)) ;",
    "frequency": 2,
    "kjv_def": "lier, ceindre.",
    "lemma": "אָפַד",
    "outline": "<ol><li> (Qal) lier, ceindre<ol><li> se ceindre (éphod)</li><li> (TWOT) éphod</li></ol></li></ol>",
    "pron": "aw-fad'",
    "strongs_def": "à ceindre (l'éphod)",
    "xlit": "ʼâphad"
}