{
    "derivation": "ou פְּלָאיָה ; de H6381 (פָּלָא) et H3050 (יָהּ) ; Jah a distingué ;",
    "frequency": 3,
    "kjv_def": "Pelaiah.",
    "lemma": "פְּלָיָה",
    "outline": "<span class=\"literal-meaning\">Pelaiah = &quot;Jéhovah fait des merveilles&quot;.</span><ol><li> fils d'Elioénaï et descendant de David dans la lignée royale</li><li> prêtre qui a aidé Esdras à expliquer la loi au peuple et a également scellé l'alliance avec Néhémie</li></ol>",
    "pron": "pel-aw-yaw'",
    "strongs_def": "Pelajah, le nom de trois Israélites",
    "xlit": "Pᵉlâyâh"
}