{
    "derivation": "d'une racine inutilisée signifiant être rond ;",
    "frequency": 10,
    "kjv_def": "(di-) personnel, participe",
    "lemma": "פֶּלֶךְ",
    "outline": "<ol><li> tourbillon de fuseau, de bâton, de quartier<ol><li> tourbillon de fuseau, de bâton</li><li> district, circuit</li></ol></li></ol>",
    "pron": "peh'-lek",
    "strongs_def": "un circuit (c'est-à-dire un district) ; également un fuseau (comme tourbillonné) ; de là, une béquille",
    "xlit": "pelek"
}