{
    "derivation": "une racine primitive ;",
    "frequency": "",
    "kjv_def": "tremblez.",
    "lemma": "פָּלַץ",
    "outline": "",
    "pron": "paw-lats'",
    "strongs_def": "proprement, peut-être pour déchirer, c'est-à-dire (par implication) pour frémir",
    "xlit": "pâlats"
}