{
    "derivation": "de dérivation incertaine ;",
    "frequency": 1,
    "kjv_def": "Pannag.",
    "lemma": "פַּנַּג",
    "outline": "<ol><li> Pannag - un aliment comestible, peut-être une pâtisserie<ol><li> signification douteuse</li></ol></li></ol>",
    "pron": "pan-nag'",
    "strongs_def": "probablement de la pâtisserie",
    "xlit": "pannag"
}