{
    "derivation": "une racine primitive ;",
    "frequency": 25,
    "kjv_def": "bake(-r, (-meats)).",
    "lemma": "אָפָה",
    "outline": "<ol><li> cuire<ol><li> (Qal)<ol><li> faire cuire</li><li> (subst) boulanger</li></ol><li> (Niphal) être cuit, faire cuire</li></ol></li></ol>",
    "pron": "aw-faw'",
    "strongs_def": "cuisiner, en particulier cuire au four",
    "xlit": "ʼâphâh"
}