{
    "derivation": "une racine primitive ;",
    "frequency": 1,
    "kjv_def": "d'apporter.",
    "lemma": "פָּנַק",
    "outline": "<ol><li> (Piel) gâter, choyer, élever, traiter délicatement</li></ol>",
    "pron": "paw-nak'",
    "strongs_def": "d'étouffer",
    "xlit": "pânaq"
}