{
    "derivation": "de H6452 (פָּסַח) ;",
    "frequency": 49,
    "kjv_def": "la Pâque (offrande).",
    "lemma": "פֶּסַח",
    "outline": "<ol><li> pâques<ol><li> sacrifice de la pâque</li><li> victime animale de la pâque</li><li> fête de la pâque</li></ol></li></ol>",
    "pron": "peh'-sakh",
    "strongs_def": "une préemption, c'est-à-dire une exemption ; utilisé uniquement en technique de la Pâque juive (la fête ou la victime)",
    "xlit": "peçach"
}