{
    "derivation": "une racine primitive ;",
    "frequency": 8,
    "kjv_def": "s'arrêter, devenir boiteux, sauter, passer par-dessus.",
    "lemma": "פָּסַח",
    "outline": "<ol><li> to pass over, spring over<ol><li> (Qal) passer outre</li><li> (Piel) sauter, passer outre</li></ol><li> to limp<ol><li> (Qal) to limp</li><li> (Niphal) to be boiling</li><li> (Piel) to limp</li></ol></li></ol>",
    "pron": "paw-sakh'",
    "strongs_def": "sautiller, c'est-à-dire (au sens figuré) sauter par-dessus (ou épargner) ; implicitement, hésiter ; également (au sens propre) boiter, danser",
    "xlit": "pâçach"
}