{
    "derivation": "ou אֵפוֹא ; de H6311 (פֹּה) ;",
    "frequency": 15,
    "kjv_def": "ici, maintenant, où ?",
    "lemma": "אֵפוֹ",
    "outline": "<ol><li> alors, maintenant, alors<ol><li> (qui) alors, (quoi) alors (avec interrogation)</li><li> alors (à l'impératif - c'est-à-dire savoir alors)</li><li> si...alors (avec adv)</li></ol></li></ol>",
    "pron": "ay-fo'",
    "strongs_def": "strictement une particule démonstrative, ici ; mais utilisée pour le temps, maintenant ou ensuite",
    "xlit": "ʼêphôw"
}