{
    "derivation": "de H6468 (פְּעֻלָּה) ; laborieux ;",
    "frequency": 1,
    "kjv_def": "Peulthai.",
    "lemma": "פְּעֻלְּתַי",
    "outline": "<span class=\"literal-meaning\">Peulthai = &quot;travail&quot;</span><ol><li> gardien lévite, 8e fils d'Obed-edom ; également \"Peullethai\"</li></ol>",
    "pron": "peh-ool-leh-thah'-ee",
    "strongs_def": "Peullethai, un Israélien",
    "xlit": "Pᵉʻullᵉthay"
}