{
    "derivation": "ou (féminin) פַּעֲמָה ; de H6470 (פָּעַם) ;",
    "frequency": 118,
    "kjv_def": "enclume, coin, pied(-step), aller, (cent-) plier, [idiome] maintenant, (ce) [phrase] une fois, ordre, rang, étape, [phrase] trois fois, (souvent-), deuxième, ce, deux) fois, deux fois, roue.",
    "lemma": "פַּעַם",
    "outline": "<ol><li> coup, battement, pied, pas, enclume, occurrence<ol><li> pied, coup de sabot, chute de pied, pas de pied</li><li> enclume</li><li> occurrence, temps, coup, battement<ol><li> une fois, une fois, deux fois, trois fois, à chaque fois, à cette répétition, à cette fois, maintenant, longuement, maintenant... maintenant, à une fois... à une autre fois</li></ol></li></ol></li></ol>",
    "pron": "pah'-am",
    "strongs_def": "un coup, au sens propre ou figuré (dans diverses applications, comme suit)",
    "xlit": "paʻam"
}