{
    "derivation": "de H6484 (פָּצַר) ;",
    "frequency": 1,
    "kjv_def": "[phrase] fichier.",
    "lemma": "פְּצִירָה",
    "outline": "<ol><li> prix, charge<ol><li> sens douteux</li><li> peut-être (CLBL) affûtage ou (BDB) émoussé</li></ol></li></ol>",
    "pron": "pets-ee-raw'",
    "strongs_def": "franchise",
    "xlit": "pᵉtsîyrâh"
}