{
    "derivation": "de H6471 (פַּעַם) ;",
    "frequency": 7,
    "kjv_def": "cloche.",
    "lemma": "פַּעֲמֹן",
    "outline": "<ol><li> cloche<ol><li> sur la robe du grand prêtre</li></ol></li></ol>",
    "pron": "pah-am-one'",
    "strongs_def": "une cloche (telle que frappée)",
    "xlit": "paʻămôn"
}