{
    "derivation": "de H6496 (פָּקִיד) ;",
    "frequency": 1,
    "kjv_def": "salle.",
    "lemma": "פְּקִדֻת",
    "outline": "<ol><li> surveillance, surveillant, gardien</li></ol>",
    "pron": "pek-ee-dooth'",
    "strongs_def": "supervision",
    "xlit": "pᵉqiduth"
}