{
    "derivation": "une racine primitive ;",
    "frequency": 3,
    "kjv_def": "blessure.",
    "lemma": "פָּצַע",
    "outline": "<ol><li> meurtrir, blesser, blesser par écrasement<ol><li> (Qal) blesser par écrasement</li></ol></li></ol>",
    "pron": "paw-tsah'",
    "strongs_def": "de se diviser, c'est-à-dire de blesser",
    "xlit": "pâtsaʻ"
}