{
    "derivation": "participe passif féminin de H6485 (פָּקַד) ;",
    "frequency": 31,
    "kjv_def": "compte, (qui ont la) charge, garde, ce qui... déposé, nombres, bureau(-r), commande, surveillance, [phrase] prison, compte, visite.",
    "lemma": "פְּקֻדָּה",
    "outline": "<ol><li> surveillance, soins, garde, mustering, visite, magasin<ol><li> visite, punition</li><li> surveillance, charge, office, surveillant, catégorie d'officiers</li><li> rassemblement</li><li> magasin</li></ol></li></ol>",
    "pron": "pek-ood-daw'",
    "strongs_def": "visite (dans de nombreux sens, principalement officiel)",
    "xlit": "pᵉquddâh"
}