{
    "derivation": "double de H639 (אַף) ; deux narines ;",
    "frequency": 2,
    "kjv_def": "Appaim.",
    "lemma": "אַפַּיִם",
    "outline": "<span class=\"literal-meaning\">Appaim = &quot;narines&quot;</span><ol><li> un fils de Nadab</li></ol>",
    "pron": "ap-pah'-yim",
    "strongs_def": "Appajim, un Israélite",
    "xlit": "ʼAppayim"
}