{
    "derivation": "de H6491 (פָּקַח) ;",
    "frequency": 2,
    "kjv_def": "voyant, sage.",
    "lemma": "פִּקֵּחַ",
    "outline": "<ol><li> voir, clairvoyant</li></ol>",
    "pron": "pik-kay'-akh",
    "strongs_def": "clairvoyant ; au sens figuré, intelligent",
    "xlit": "piqqêach"
}