{
    "derivation": "de H6491 (פָּקַח) et H3050 (יָהּ) ; Jah a observé ;",
    "frequency": 3,
    "kjv_def": "Pekahiah.",
    "lemma": "פְּקַחְיָה",
    "outline": "<span class=\"literal-meaning\">Pekahiah = &quot;Jéhovah voit&quot;</span><ol><li> fils du roi Menahem du royaume septentrional d'Israël, a succédé au trône en tant que 17e roi et a régné pendant 2 ans lorsqu'il a été assassiné par l'un des capitaines de son armée, Pekah</li></ol>",
    "pron": "pek-akh-yaw'",
    "strongs_def": "Pekachjah, un roi israélite",
    "xlit": "Pᵉqachyâh"
}