{
    "derivation": "de H58 (אָבֵל) et H4246 (מְחֹלָה)xlit mᵉchôwlâh corrigée en mᵉchôlâh ; prairie de danse ;",
    "frequency": "",
    "kjv_def": "Abel-meholah.",
    "lemma": "אָבֵל מְחוֹלָה",
    "outline": "",
    "pron": "aw-bale' mekh-o-law'",
    "strongs_def": "Abel-Mecholah, un lieu en Palestine",
    "xlit": "ʼÂbêl Mᵉchôwlâh"
}