{
    "derivation": "féminin de H6505 (פֶּרֶד) ;",
    "frequency": 3,
    "kjv_def": "mule.",
    "lemma": "פִּרְדָּה",
    "outline": "<ol><li> mule, mule</li></ol>",
    "pron": "pir-daw'",
    "strongs_def": "une mule",
    "xlit": "pirdâh"
}