{
    "derivation": "ou פַּרְוָר ; d'origine étrangère ;",
    "frequency": 3,
    "kjv_def": "Parbar, banlieue.",
    "lemma": "פַּרְבָּר",
    "outline": "<span class=\"literal-meaning\">Parbar = &quot;appartement ouvert&quot;</span><ol><li> une structure ou un bâtiment rattaché au côté ouest du temple de Salomon</li></ol>",
    "pron": "par-bawr'",
    "strongs_def": "Parbar ou Parvar, un quartier de Jérusalem",
    "xlit": "Parbâr"
}