{
    "derivation": "participe passif féminin de H6504 (פָּרַד) ;",
    "frequency": 1,
    "kjv_def": "graine.",
    "lemma": "פְּרֻדָה",
    "outline": "<ol><li> graine, grain de graine</li></ol>",
    "pron": "per-oo-daw'",
    "strongs_def": "quelque chose de séparé, c'est-à-dire un noyau",
    "xlit": "pᵉrudâh"
}