{
    "derivation": "identique à celui de H6510 (פָּרָה) ;",
    "frequency": 1,
    "kjv_def": "Parah.",
    "lemma": "פָּרָה",
    "outline": "<span class=\"literal-meaning\">Parah = &quot;ville des génisses</span><ol><li> une ville de Benjamin</li></ol>",
    "pron": "paw-raw'",
    "strongs_def": "Parah, un lieu en Palestine",
    "xlit": "Pârâh"
}