{
    "derivation": "de même que H6518 (פָּרָז) ;",
    "frequency": 3,
    "kjv_def": "ville (sans murs), village sans murs.",
    "lemma": "פְּרָזָה",
    "outline": "<ol><li> région ouverte, hameau, village sans murs, campagne ouverte</li></ol>",
    "pron": "per-aw-zaw'",
    "strongs_def": "un pays ouvert",
    "xlit": "pᵉrâzâh"
}