{
    "derivation": "féminin de H6499 (פַּר) ;",
    "frequency": 26,
    "kjv_def": "vache, génisse, kine.",
    "lemma": "פָּרָה",
    "outline": "<ol><li> vache, génisse</li></ol>",
    "pron": "paw-raw'",
    "strongs_def": "une génisse",
    "xlit": "pârâh"
}