{
    "derivation": "(araméen) correspondant à H1270 (בַּרְזֶל) ;",
    "frequency": 20,
    "kjv_def": "fer.",
    "lemma": "פַּרְזֶל",
    "outline": "<ol><li> fer</li></ol>",
    "pron": "par-zel'",
    "strongs_def": "fer",
    "xlit": "parzel"
}