{
    "derivation": "de H6527 (פָּרַט) ;",
    "frequency": 1,
    "kjv_def": "du raisin.",
    "lemma": "פֶּרֶט",
    "outline": "<ol><li> ce qui a été brisé, ce qui a été éparpillé<ol><li> raisins tombés</li></ol></li></ol>",
    "pron": "peh'-ret",
    "strongs_def": "une baie égarée ou unique",
    "xlit": "pereṭ"
}