{
    "derivation": "ou פְּרוֹזִי ; de H6519 (פְּרָזָה) ;",
    "frequency": 3,
    "kjv_def": "village.",
    "lemma": "פְּרָזִי",
    "outline": "<ol><li> villageois, habitant de la campagne, habitant d'un hameau</li><li> (TWOT) région ouverte</li></ol>",
    "pron": "per-aw-zee'",
    "strongs_def": "un rustique",
    "xlit": "pᵉrâzîy"
}