{
    "derivation": "d'origine perse ;",
    "frequency": 1,
    "kjv_def": "Parmasta.",
    "lemma": "פַּרְמַשְׁתָּא",
    "outline": "<span class=\"literal-meaning\">Parmashta = &quot; supérieur &quot;.</span><ol><li> un des 10 fils d'Haman, l'ennemi de Mardochée et de la reine Esther</li></ol>",
    "pron": "par-mash-taw'",
    "strongs_def": "Parmashta, un fils de Haman",
    "xlit": "Parmashtâʼ"
}