{
    "derivation": "de H6544 (פָּרַע) ;",
    "frequency": 2,
    "kjv_def": "serrures.",
    "lemma": "פֶּרַע",
    "outline": "<ol><li> cheveux, cheveux longs (de la tête), mèches</li><li> chef</li></ol>",
    "pron": "peh'-rah",
    "strongs_def": "les cheveux (comme ébouriffés)",
    "xlit": "peraʻ"
}