{
    "derivation": "ou פַּרְעֹה נְכוֹ ; de dérivation égyptienne ;",
    "frequency": 5,
    "kjv_def": "Pharaoh-necho, Pharaohnechoh.",
    "lemma": "פַּרְעֹה נְכֹה",
    "outline": "<span class=\"literal-meaning\">Pharaon-necho = &quot;grande maison - il est frappé&quot;.</span><ol><li> le Pharaon d'Egypte qui combattit le roi Josias de Judée à Megiddo et le tua</li></ol>",
    "pron": "par-o' nek-o'",
    "strongs_def": "Paroh-Nekoh (ou -Neko), un roi égyptien",
    "xlit": "Parʻôh Nᵉkôh"
}