{
    "derivation": "probablement de H6565 (פָּרַר) dans le sens de précipité ; rapide ;",
    "frequency": 1,
    "kjv_def": "Pharpar.",
    "lemma": "פַּרְפַּר",
    "outline": "<span class=\"literal-meaning\">Pharpar = &quot;rapide&quot;.</span><ol><li> un ruisseau dans le district de Damas identifié avec l'actuel 'Awaj' ; prend sa source sur les pentes sud-est du Mont Hermon et se jette dans le lac le plus au sud de Damas</li></ol>",
    "pron": "par-par'",
    "strongs_def": "Parpar, un fleuve de Syrie",
    "xlit": "Parpar"
}