{
    "derivation": "de H6546 (פַּרְעָה) ; chefferie ;",
    "frequency": 1,
    "kjv_def": "Pirathon.",
    "lemma": "פִּרְעָתוֹן",
    "outline": "<span class=\"literal-meaning\">Pirathon = &quot;princier&quot;.</span><ol><li> une ville d'Ephraïm dans la montagne des Amalécites<ol><li> peut-être la \"Ferata\" moderne, située à 2,5 km au sud de Jaffa, sur la route de Naplouse</li></ol></li></ol>",
    "pron": "pir-aw-thone'",
    "strongs_def": "Pirathon, un lieu en Palestine",
    "xlit": "Pirʻâthôwn"
}