{
    "derivation": "ou פִּרְעָתֹנִי ; patrice de H6552 (פִּרְעָתוֹן) ;",
    "frequency": 5,
    "kjv_def": "Pirathonite.",
    "lemma": "פִּרְעָתוֹנִי",
    "outline": "<span class=\"literal-meaning\">Pirathonien = voir Pirathon &quot; princier &quot;.</span><ol><li> un habitant de Pirathon</li></ol>",
    "pron": "pir-aw-tho-nee'",
    "strongs_def": "un Pirathonien ou un habitant de Pirathon",
    "xlit": "Pirʻâthôwnîy"
}