{
    "derivation": "de H6561 (פָּרַק) ;",
    "frequency": 2,
    "kjv_def": "crossway, vol.",
    "lemma": "פֶּרֶק",
    "outline": "<ol><li> séparation des chemins, entrée par effraction, pillage, carrefour</li></ol>",
    "pron": "peh'-rek",
    "strongs_def": "rapine ; également une fourche (dans les routes)",
    "xlit": "pereq"
}