{
    "derivation": "d'origine perse ;",
    "frequency": 1,
    "kjv_def": "Parshandatha.",
    "lemma": "פַּרְשַׁנְדָּתָא",
    "outline": "<span class=\"literal-meaning\">Parshandatha = &quot;donné par la prière&quot;.</span><ol><li> un des 10 fils d'Haman, l'ennemi de Mardochée et de la reine Esther</li></ol>",
    "pron": "par-shan-daw-thaw'",
    "strongs_def": "Parshandatha, un fils de Haman",
    "xlit": "Parshandâthâʼ"
}