{
    "derivation": "peut-être par composition de H6567 (פָּרָשׁ) et H6504 (פָּרַד) (dans le sens de chevaucher) (comparer H6576 (פַּרְשֵׁז)) ;",
    "frequency": "",
    "kjv_def": "saleté.",
    "lemma": "פַּרְשְׁדֹן",
    "outline": "",
    "pron": "par-shed-one'",
    "strongs_def": "l'entrejambe (ou l'anus)",
    "xlit": "parshᵉdôn"
}