{
    "derivation": "de H657 (אֶפֶס) et du pluriel de H1818 (דָּם) ; limite des gouttes de sang ;",
    "frequency": "",
    "kjv_def": "Ephes-dammim.",
    "lemma": "אֶפֶס דַּמִּים",
    "outline": "",
    "pron": "eh'-fes dam-meem'",
    "strongs_def": "Ephes-Dammim, un lieu en Palestine",
    "xlit": "ʼEpheç Dammîym"
}