{
    "derivation": "de H6626 (פָּתַת) ;",
    "frequency": 15,
    "kjv_def": "viande, morceau, pièce.",
    "lemma": "פַּת",
    "outline": "<ol><li> fragment, morceau, bouchée (de pain), morceau</li></ol>",
    "pron": "path",
    "strongs_def": "un peu",
    "xlit": "path"
}