{
    "derivation": "(araméen) correspondant à H6622 (פָּתַר) ;",
    "frequency": 2,
    "kjv_def": "faire (des interprétations), interpréter.",
    "lemma": "פְּשַׁר",
    "outline": "<ol><li> interpréter<ol><li> (P'al) interpréter</li><li> (Pael) interpréter</li></ol></li></ol>",
    "pron": "pesh-ar'",
    "strongs_def": "d'interpréter",
    "xlit": "pᵉshar"
}