{
    "derivation": "d'origine perse ;",
    "frequency": 2,
    "kjv_def": "décret, sentence.",
    "lemma": "פִּתְגָּם",
    "outline": "<ol><li> édit, décret</li></ol>",
    "pron": "pith-gawm'",
    "strongs_def": "une sentence (judiciaire)",
    "xlit": "pithgâm"
}