{
    "derivation": "(araméen) correspondant à H6605 (פָּתַח) ;",
    "frequency": "",
    "kjv_def": "ouvert.",
    "lemma": "פְּתַח",
    "outline": "",
    "pron": "peth-akh'",
    "strongs_def": "pour ouvrir",
    "xlit": "pᵉthach"
}