{
    "derivation": "de H6617 (פָּתַל) ;",
    "frequency": 1,
    "kjv_def": "tordu.",
    "lemma": "פְּתַלְתֹּל",
    "outline": "<ol><li> tordu, tortueux</li></ol>",
    "pron": "peth-al-tole'",
    "strongs_def": "tortueux (c'est-à-dire rusé)",
    "xlit": "pᵉthaltôl"
}