{
    "derivation": "de dérivation égyptienne ;",
    "frequency": 1,
    "kjv_def": "Pithom.",
    "lemma": "פִּתֹם",
    "outline": "<span class=\"literal-meaning\">Pithom = &quot;la ville de la justice&quot;.</span><ol><li> une des villes-entrepôts que le Pharaon fit construire aux Israélites</li></ol>",
    "pron": "pee-thome'",
    "strongs_def": "Pithom, un lieu en Egypte",
    "xlit": "Pithôm"
}