{
    "derivation": "une racine primitive ;",
    "frequency": 5,
    "kjv_def": "boussole.",
    "lemma": "אָפַף",
    "outline": "<ol><li> entourer, englober<ol><li> (Qal) englober</li></ol></li></ol>",
    "pron": "aw-faf'",
    "strongs_def": "pour entourer",
    "xlit": "ʼâphaph"
}