{
    "derivation": "de H3318 (יָצָא) ;",
    "frequency": "",
    "kjv_def": "ce (qui) vient de (hors de).",
    "lemma": "צָאָה",
    "outline": "",
    "pron": "tsaw-aw'",
    "strongs_def": "question, c'est-à-dire les excréments (humains)",
    "xlit": "tsâʼâh"
}