{
    "derivation": "ou פִּתְרֹן ; de H6622 (פָּתַר) ;",
    "frequency": 5,
    "kjv_def": "l'interprétation.",
    "lemma": "פִּתְרוֹן",
    "outline": "<ol><li> interprétation</li></ol>",
    "pron": "pith-rone'",
    "strongs_def": "interprétation (d'un rêve)",
    "xlit": "pithrôwn"
}