{
    "derivation": "une racine primitive ;",
    "frequency": 7,
    "kjv_def": "forcer (soi-même), retenir.",
    "lemma": "אָפַק",
    "outline": "<ol><li> tenir, être fort, se retenir, retenir<ol><li> (Hithpael)<ol><li> se retenir, s'abstenir</li><li> forcer, se contraindre</li></ol></li></ol></li></ol>",
    "pron": "aw-fak'",
    "strongs_def": "contenir, c'est-à-dire (réflexe.) s'abstenir",
    "xlit": "ʼâphaq"
}