{
    "derivation": "d'une racine inutilisée signifiant ouvrir (les yeux) ; (comparer H6597 (פִּתְאוֹם))",
    "frequency": 7,
    "kjv_def": "à l'instant, soudainement, très.",
    "lemma": "פֶּתַע",
    "outline": "<ol><li> soudain, en un instant</li></ol>",
    "pron": "peh'-thah",
    "strongs_def": "un clin d'œil, c'est-à-dire un moment(utilisé uniquement (avec ou sans préposition) adverbialement, rapide ou inattendu",
    "xlit": "pethaʻ"
}