{
    "derivation": "ou אֲפִיק ; de H662 (אָפַק) (dans le sens de force) ; forteresse ;",
    "frequency": 9,
    "kjv_def": "Aphek, Aphik.",
    "lemma": "אֲפֵק",
    "outline": "<span class=\"literal-meaning\">Aphek ou Aphik = &quot;enclos&quot;.</span><ol><li> une ville cananéenne près de Jezreel</li><li> une ville dans le territoire d'Asher</li><li> une ville au nord-est de Beyrouth en Transjordanie</li></ol>",
    "pron": "af-ake'",
    "strongs_def": "Aphek (ou Aphik), le nom de trois endroits en Palestine",
    "xlit": "ʼĂphêq"
}