{
    "derivation": "de H6638 (צָבָה) ;",
    "frequency": 0,
    "kjv_def": "houle.",
    "lemma": "צָבֶה",
    "outline": "<ol><li> gonflement, gonflé</li></ol>",
    "pron": "tsaw-beh'",
    "strongs_def": "turgescent",
    "xlit": "tsâbeh"
}