{
    "derivation": "participe passif du même que H6648 (צֶבַע) ;",
    "frequency": 1,
    "kjv_def": "moucheté.",
    "lemma": "צָבוּעַ",
    "outline": "<ol><li> coloré, panaché, moucheté</li></ol>",
    "pron": "tsaw-boo'-ah",
    "strongs_def": "teint (en rayures), c'est-à-dire la hyène",
    "xlit": "tsâbûwaʻ"
}