{
    "derivation": "une racine primitive ;",
    "frequency": 1,
    "kjv_def": "atteindre.",
    "lemma": "צָבַט",
    "outline": "<ol><li> (Qal) atteindre, tendre</li></ol>",
    "pron": "tsaw-bat'",
    "strongs_def": "à saisir, c'est-à-dire à distribuer",
    "xlit": "tsâbaṭ"
}