{
    "derivation": "féminin de H6643 (צְבִי) ;",
    "frequency": 2,
    "kjv_def": "roe.",
    "lemma": "צְבִיָּה",
    "outline": "<ol><li> gazelle, biche</li></ol>",
    "pron": "tseb-ee-yaw'",
    "strongs_def": "une gazelle femelle",
    "xlit": "tsᵉbîyâh"
}