{
    "derivation": "une racine primitive ;",
    "frequency": 3,
    "kjv_def": "détruire, chasser, se mettre à l'affût.",
    "lemma": "צָדָה",
    "outline": "<ol><li> (Qal) attendre</li><li> gaspiller<ol><li> (Niphal) être mis à terre</li></ol></li></ol>",
    "pron": "tsaw-daw'",
    "strongs_def": "chasser ; implicitement, désoler",
    "xlit": "tsâdâh"
}