{
    "derivation": "à partir d'une racine inutilisée signifiant \" semer \" ;",
    "frequency": 22,
    "kjv_def": "des cendres.",
    "lemma": "אֵפֶר",
    "outline": "<ol><li> cendres</li><li> (CLBL) inutilité (fig.)</li></ol>",
    "pron": "ay'-fer",
    "strongs_def": "cendres",
    "xlit": "ʼêpher"
}