{
    "derivation": "de H6663 (צָדַק) ;",
    "frequency": 157,
    "kjv_def": "justice, modérément, droit (-eous) (act, -ly, -ness).",
    "lemma": "צְדָקָה",
    "outline": "<ol><li> justice, droit<ol><li> droiture (dans le gouvernement)<ol><li> de juge, de dirigeant, de roi</li><li> de la loi</li><li> du roi davidique, le Messie</li></ol><li> droit (de l'attribut de Dieu)</li><li> droit (dans un cas ou une cause)</li><li> droit, véracité</li><li> droit (comme éthiquement juste)</li><li>droit (comme justifié), justification, salut<ol><li> de Dieu</li><li> prospérité (des gens)</li></ol><li> actes justes</li></li> </ol></li></ol>",
    "pron": "tsed-aw-kaw'",
    "strongs_def": "la justesse (abstraitement), subjectivement (rectitude), objectivement (justice), moralement (vertu) ou figurativement (prospérité)",
    "xlit": "tsᵉdâqâh"
}