{
    "derivation": "une racine primitive ; briller ; utilisé seulement comme dénominatif à partir de H3323 (יִצְהָר),",
    "frequency": "",
    "kjv_def": "faire de l'huile.",
    "lemma": "צָהַר",
    "outline": "",
    "pron": "tsaw-har'",
    "strongs_def": "pour extraire l'huile",
    "xlit": "tsâhar"
}