{
    "derivation": "ou צוֹבָה ; ou צֹבָה ; d'une racine inutilisée signifiant stationner ; une station ;",
    "frequency": 12,
    "kjv_def": "Zoba, Zobah.",
    "lemma": "צוֹבָא",
    "outline": "<span class=\"literal-meaning\">Zoba ou Zobah = &quot; station &quot;.</span><ol><li> nom d'une partie de la Syrie qui formait un royaume distinct à l'époque de Saül, David et Salomon ; située au nord-est de Damas</li></ol>",
    "pron": "tso-baw'",
    "strongs_def": "Zoba ou Zobah, une région de Syrie",
    "xlit": "Tsôwbâʼ"
}