{
    "derivation": "de H6687 (צוּף) ;",
    "frequency": "",
    "kjv_def": "nid d'abeille.",
    "lemma": "צוּף",
    "outline": "",
    "pron": "tsoof",
    "strongs_def": "peigne de miel (de l'égouttage)",
    "xlit": "tsûwph"
}