{
    "derivation": "ou צוֹפַי ; ou צִיף ; de H6688 (צוּף) ; rayon de miel ;",
    "frequency": 4,
    "kjv_def": "Zophai, Zuph.",
    "lemma": "צוּף",
    "outline": "<span class=\"literal-meaning\"> Zuph ou Zophai = &quot;rayon de miel&quot;.</span><ol><li> un lévite kohathite, ancêtre d'Elkana et de Samuel</li><li> un quartier au nord-ouest de Jérusalem où Saül a rencontré Samuel</li></ol>",
    "pron": "tsoof",
    "strongs_def": "Tsuph ou Tsophai ou Tsiph, nom d'un Israélite et d'un lieu en Palestine",
    "xlit": "Tsûwph"
}