{
    "derivation": "de H6852 (צָפַר) ; départ ;",
    "frequency": 4,
    "kjv_def": "Zophar.",
    "lemma": "צוֹפַר",
    "outline": "<span class=\"literal-meaning\">Zophar = &quot;moineau</span><ol><li> le 3ème ami de Job</li></ol>",
    "pron": "tso-far'",
    "strongs_def": "Tsophar, un ami de Job",
    "xlit": "Tsôwphar"
}