{
    "derivation": "féminin de H6697 (צוּר) ;",
    "frequency": 4,
    "kjv_def": "la forme, la roche.",
    "lemma": "צוּרָה",
    "outline": "<ol><li> forme, mode, design</li></ol>",
    "pron": "tsoo-raw'",
    "strongs_def": "un rocher (Job 28:10) ; aussi une forme (comme si elle était pressée)",
    "xlit": "tsûwrâh"
}