{
    "derivation": "une racine primitive (identique à travers l'idée d'étroitesse (d'un orifice)) ;",
    "frequency": 3,
    "kjv_def": "être fondu, couler.",
    "lemma": "צוּק",
    "outline": "<ol><li> (Qal) verser, fondre</li></ol>",
    "pron": "tsook",
    "strongs_def": "déverser, c'est-à-dire (au sens figuré) sentir, proférer",
    "xlit": "tsûwq"
}