{
    "derivation": "d'une racine inutilisée signifiant \"putréfier\" ;",
    "frequency": 1,
    "kjv_def": "à savourer.",
    "lemma": "צַחֲנָה",
    "outline": "<ol><li> puanteur, mauvaise odeur</li></ol>",
    "pron": "tsakh-an-aw'",
    "strongs_def": "odeur nauséabonde",
    "xlit": "tsachănâh"
}