{
    "derivation": "une racine primitive ;",
    "frequency": "",
    "kjv_def": "être plus blanc.",
    "lemma": "צָחַח",
    "outline": "",
    "pron": "tsaw-khakh'",
    "strongs_def": "éblouir, c'est-à-dire être d'un blanc éblouissant",
    "xlit": "tsâchach"
}