{
    "derivation": "de H6711 (צָחַק) ;",
    "frequency": 2,
    "kjv_def": "rire(-e) au mépris.",
    "lemma": "צְחֹק",
    "outline": "<ol><li> le rire, la risée</li></ol>",
    "pron": "tsekh-oke'",
    "strongs_def": "le rire (de plaisir ou de dérision)",
    "xlit": "tsᵉchôq"
}