{
    "derivation": "de H6705 (צָחַח) ;",
    "frequency": 1,
    "kjv_def": "sécheresse.",
    "lemma": "צַחְצָחָה",
    "outline": "<ol><li> région brûlée, terre desséchée</li></ol>",
    "pron": "tsakh-tsaw-khaw'",
    "strongs_def": "un endroit sec, c'est-à-dire un désert",
    "xlit": "tsachtsâchâh"
}