{
    "derivation": "du même que H6713 (צַחַר) ; blancheur ;",
    "frequency": 4,
    "kjv_def": "Zohar. Comparez H3328 (יִצְחַר).",
    "lemma": "צֹחַר",
    "outline": "<span class=\"literal-meaning\">Zohar = &quot;fauve&quot;</span><ol><li> judaïque, fils d'Ashur par sa femme Helah</li><li> père d'Ephron le Hittite</li><li> l'un des fils de Siméon ; également \"Zerah\"</li></ol>",
    "pron": "tso'-khar",
    "strongs_def": "Tsochar, nom d'un Hittite et d'un Israélite",
    "xlit": "Tsôchar"
}