{
    "derivation": "de même que H6678 (צוֹבָא) ; station ;",
    "frequency": 16,
    "kjv_def": "Ziba.",
    "lemma": "צִיבָא",
    "outline": "<span class=\"literal-meaning\">Ziba = &quot;statue&quot;</span><ol><li> un serviteur de Saül que David a nommé intendant du fils de Jonathan, Mephibosheth</li></ol>",
    "pron": "tsee-baw'",
    "strongs_def": "Tsiba, un Israélite",
    "xlit": "Tsîybâʼ"
}