{
    "derivation": "ou צִחָא ; comme féminin de H6704 (צִחֶה) ; sécheresse ;",
    "frequency": 3,
    "kjv_def": "Ziha.",
    "lemma": "צִיחָא",
    "outline": "<span class=\"literal-meaning\">Ziha = &quot;desséché&quot;</span><ol><li> ancêtre d'une famille d'esclaves du temple qui revint d'exil à Babylone avec Zerubbabel</li><li> chef des esclaves du temple à Ophel à l'époque de Néhémie</li></ol>",
    "pron": "tsee-khaw'",
    "strongs_def": "Tsicha, le nom de deux Nethinim",
    "xlit": "Tsîychâʼ"
}