{
    "derivation": "ou צִידֹן ; de H6679 (צוּד) dans le sens de prendre du poisson ; pêche ;",
    "frequency": 22,
    "kjv_def": "Sidon, Zidon.",
    "lemma": "צִידוֹן",
    "outline": "<span class=\"literal-meaning\">Sidon = &quot; chasse &quot;.</span><ol><li> ancienne ville phénicienne, sur la côte méditerranéenne au nord de Tyr</li></ol>",
    "pron": "tsee-done'",
    "strongs_def": "Tsidon, nom d'un fils de Canaan et d'un lieu en Palestine",
    "xlit": "Tsîydôwn"
}