{
    "derivation": "d'une racine inutilisée signifiant \"parcheminer\" ;",
    "frequency": 16,
    "kjv_def": "stérile, sécheresse, sec (terre, lieu), endroit solitaire, région sauvage.",
    "lemma": "צִיָּה",
    "outline": "<ol><li> sécheresse, sécheresse, désert</li></ol>",
    "pron": "tsee-yaw'",
    "strongs_def": "aridité ; concrètement, un désert",
    "xlit": "tsîyâh"
}