{
    "derivation": "de même que H6723 (צִיָּה) ;",
    "frequency": 2,
    "kjv_def": "un endroit sec.",
    "lemma": "צִיוֹן",
    "outline": "<ol><li> sécheresse, terre ou terrain desséché</li></ol>",
    "pron": "tsee-yone'",
    "strongs_def": "un désert",
    "xlit": "tsîyôwn"
}