{
    "derivation": "de H6751 (צָלַל) ;",
    "frequency": 49,
    "kjv_def": "défense, ombre (-ow).",
    "lemma": "צֵל",
    "outline": "<ol><li> ombre, nuance<ol><li> ombre (sur le cadran)</li><li> ombre (comme protection)</li><li> ombre (symbolique du caractère éphémère de la vie)</li></ol></li></ol>",
    "pron": "tsale",
    "strongs_def": "l'ombre, au sens propre ou figuré",
    "xlit": "tsêl"
}