{
    "derivation": "de H6738 (צֵל) et H6703 (צַח) ; teinte claire ;",
    "frequency": 1,
    "kjv_def": "Zelzah.",
    "lemma": "צֶלְצַח",
    "outline": "<span class=\"literal-meaning\">Zelzah = &quot; ombre &quot;.</span><ol><li> lieu situé sur la frontière de Benjamin, près de la tombe de Rachel, à 8 km au sud-ouest de Jérusalem</li></ol>",
    "pron": "tsel-tsakh'",
    "strongs_def": "Tseltsach, un lieu en Palestine",
    "xlit": "Tseltsach"
}