{
    "derivation": "d'une racine inutilisée signifiant fendre ; fissure ;",
    "frequency": 2,
    "kjv_def": "Zelek.",
    "lemma": "צֶלֶק",
    "outline": "<span class=\"literal-meaning\">Zelek = &quot;fissure&quot;</span><ol><li> un Ammonite et un guerrier pour David</li></ol>",
    "pron": "tseh'-lek",
    "strongs_def": "Tselek, un Israélite",
    "xlit": "Tseleq"
}