{
    "derivation": "ou (féminin) צַלְעָה ; de H6760 (צָלַע) ;",
    "frequency": 41,
    "kjv_def": "poutre, planche, chambre, coin, feuille, planche, côte, côté (chambre).",
    "lemma": "צֵלָע",
    "outline": "<ol><li> côté, côte, poutre<ol><li> côte (de l'homme)</li><li> côte (d'une colline, d'une crête, etc.)</li><li> chambres latérales ou cellules (de la structure d'un temple)</li><li> côte, planche, panneau (de cèdre ou de sapin)</li><li> battant (de porte)</li><li> côté (de l'arche)</li></ol></li></ol>",
    "pron": "tsay-law'",
    "strongs_def": "une côte (comme courbée), au sens propre (du corps) ou au sens figuré (d'une porte, c'est-à-dire un vantail) ; de là, un côté, au sens propre (d'une personne) ou au sens figuré (d'un objet ou du ciel, c'est-à-dire un quartier) ; en architecture, un bois ou une planche (individuelle ou collective, c'est-à-dire un plancher ou un plafond)",
    "xlit": "tsêlâʻ"
}