{
    "derivation": "de H6770 (צָמֵא) ;",
    "frequency": 17,
    "kjv_def": "soif(-y).",
    "lemma": "צָמָא",
    "outline": "<ol><li> soif</li></ol>",
    "pron": "tsaw-maw'",
    "strongs_def": "la soif (au sens propre ou figuré)",
    "xlit": "tsâmâʼ"
}