{
    "derivation": "une racine primitive ;",
    "frequency": 33,
    "kjv_def": "porter, faire naître, (faire, faire) bourgeonner (en avant), (faire, faire) croître (encore, en haut), (faire) jaillir (en avant, en haut).",
    "lemma": "צָמַח",
    "outline": "<ol><li> germer, jaillir, grandir<ol><li> (Qal)<ol><li> germer, jaillir<ol><li> de plantes</li><li> de cheveux</li><li> de la parole (fig.)</li></ol><li> (Piel) croître abondamment ou épais</li><li> (Hiphil)<ol><li> faire croître</li><li> faire germer</li></ol></li></ol></li></ol>",
    "pron": "tsaw-makh'",
    "strongs_def": "germer (transitif ou intransitif, littéral ou figuratif)",
    "xlit": "tsâmach"
}