{
    "derivation": "une racine primitive ;",
    "frequency": 5,
    "kjv_def": "attacher, encadrer, joindre (soi).",
    "lemma": "צָמַד",
    "outline": "<ol><li> lier, joindre, attacher<ol><li> (Niphal) se joindre, s'attacher, s'attacher à</li><li> (Pual) être attaché, être lié</li><li> (Hiphil) combiner, emboîter, accrocher</li></ol></li></ol>",
    "pron": "tsaw-mad'",
    "strongs_def": "relier, c'est-à-dire ceindre ; au sens figuré, servir, (mentalement) inventer",
    "xlit": "tsâmad"
}