{
    "derivation": "de H6779 (צָמַח) ;",
    "frequency": 12,
    "kjv_def": "branche, bourgeon, ce qui (où) a poussé (sur), printemps (-ing).",
    "lemma": "צֶמַח",
    "outline": "<ol><li> germe, croissance, branche<ol><li> germination, croissance, pousse</li><li> croissance (du processus)</li><li> germe, pousse (du Messie à partir de l'arbre davidique)</li></ol></li></ol>",
    "pron": "tseh'-makh",
    "strongs_def": "un germe (généralement concret), au sens propre ou figuré",
    "xlit": "tsemach"
}