{
    "derivation": "double de H6785 (צֶמֶר) ; double toison ;",
    "frequency": 2,
    "kjv_def": "Zemaraim.",
    "lemma": "צְמָרַיִם",
    "outline": "<span class=\"literal-meaning\">Zemaraim = &quot; double toison de laine &quot;.</span><ol><li> une ville du nord de Benjamin, près de Béthel</li><li> une colline en Ephraïm</li></ol>",
    "pron": "tsem-aw-rah'-yim",
    "strongs_def": "Tsemarajim, un lieu en Palestine",
    "xlit": "Tsᵉmârayim"
}