{
    "derivation": "féminin de H6791 (צֵן) ;",
    "frequency": 22,
    "kjv_def": "bouclier, froid, crochet, bouclier, cible.",
    "lemma": "צִנָּה",
    "outline": "<ol><li> quelque chose de perçant, crochet, barbillon<ol><li> sens douteux</li></ol><li> fraîcheur, froid (de la neige)</li><li> bouclier, grand bouclier,<ol><li> bouclier de bouclier</li></ol></li></ol>",
    "pron": "tsin-naw'",
    "strongs_def": "un crochet (comme pointu) ; également un (grand) bouclier (comme s'il protégeait en piquant) ; également le froid (comme perçant)",
    "xlit": "tsinnâh"
}