{
    "derivation": "ou צֹנֶה ; pour H6629 (צֹאן) ;",
    "frequency": 2,
    "kjv_def": "mouton.",
    "lemma": "צֹנֵא",
    "outline": "<ol><li> troupeau, moutons</li></ol>",
    "pron": "tso-nay'",
    "strongs_def": "un troupeau",
    "xlit": "tsônêʼ"
}