{
    "derivation": "d'une racine inutilisée signifiant être épineux ;",
    "frequency": "",
    "kjv_def": "épine.",
    "lemma": "צֵן",
    "outline": "",
    "pron": "tsane",
    "strongs_def": "une épine ; d'où une haie de cactus",
    "xlit": "tsên"
}