{
    "derivation": "une racine primitive ;",
    "frequency": 5,
    "kjv_def": "exil captif, voyage, (faire) errer(-er).",
    "lemma": "צָעָה",
    "outline": "<ol><li> se baisser, se courber, s'incliner<ol><li> (Qal)<ol><li> s'abaisser, se courber</li><li> s'incliner, se pencher</li></ol><li> (Piel) basculer</li></ol></li></ol>",
    "pron": "tsaw-aw'",
    "strongs_def": "renverser (dans le but de répandre ou de déverser), c'est-à-dire (au sens figuré) dépeupler ; implicitement, emprisonner ou conquérir ; (réflexe) s'allonger (pour le coït)",
    "xlit": "tsâʻâh"
}