{
    "derivation": "de H6801 (צָנַף) ;",
    "frequency": 1,
    "kjv_def": "[idiome] jeter.",
    "lemma": "צְנֵפָה",
    "outline": "<ol><li> enroulement, chose enveloppée, balle</li></ol>",
    "pron": "tsen-ay-faw'",
    "strongs_def": "une balle",
    "xlit": "tsᵉnêphâh"
}