{
    "derivation": "une racine primitive ;",
    "frequency": 2,
    "kjv_def": "humblement, bassement.",
    "lemma": "צָנַע",
    "outline": "<ol><li> être humble, être modeste, être bas<ol><li> (Qal) faire preuve d'humilité</li></ol><li> (Hiphil) modeste</li></ol>",
    "pron": "tsaw-nah'",
    "strongs_def": "d'humilier",
    "xlit": "tsânaʻ"
}