{
    "derivation": "d'une racine inutilisée signifiant \"garnir de sculptures\" ;",
    "frequency": 1,
    "kjv_def": "image (travail).",
    "lemma": "צַעְצֻעַ",
    "outline": "<ol><li> choses formées, images, figures sculptées</li></ol>",
    "pron": "tsah-tsoo'-ah",
    "strongs_def": "sculpture",
    "xlit": "tsaʻtsuaʻ"
}