{
    "derivation": "de dérivation égyptienne ;",
    "frequency": "",
    "kjv_def": "Zoan.",
    "lemma": "צֹעַן",
    "outline": "",
    "pron": "tso'-an",
    "strongs_def": "Tsoan, un lieu en Égypte",
    "xlit": "Tsôʻan"
}