{
    "derivation": "ou צָעוֹר ; de H6819 (צָעַר) ;",
    "frequency": 22,
    "kjv_def": "le moins, petit (une), petit (une), [phrase] jeune (-er, -est).",
    "lemma": "צָעִיר",
    "outline": "<ol><li> petit, insignifiant, jeune<ol><li> peu, insignifiant</li><li> insignifiant, moyen</li><li> jeune, plus jeune, le plus jeune</li></ol></li></ol>",
    "pron": "tsaw-eer'",
    "strongs_def": "peu ; (en nombre) peu ; (en âge) jeune, (en valeur) ignoble",
    "xlit": "tsâʻîyr"
}