{
    "derivation": "ou (dual) צַעֲנַיִם ; pluriel de H6813 (צָעַן) ; déménagements ;",
    "frequency": 2,
    "kjv_def": "Zaannannim, Zaanaim.",
    "lemma": "צַעֲנַנִּים",
    "outline": "<span class=\"literal-meaning\">Zaanannim ou Zaanaim = &quot;déplacements&quot;.</span><ol><li> un lieu en Nephtali près de Kedesh</li></ol>",
    "pron": "tsah-an-an-neem'",
    "strongs_def": "Tsaanannim ou Tsaanajim, un lieu en Palestine",
    "xlit": "Tsaʻănannîym"
}