{
    "derivation": "de H680 (אָצַל) (dans le sens de joindre) ;",
    "frequency": 61,
    "kjv_def": "à, (dur) par, (de) (à côté), près (à), vers, avec. Voir aussi H1018 (בֵּית הָאֵצֶל).",
    "lemma": "אֵצֶל",
    "outline": "<ol><li> à côté de, par, près de, proximité, joindre, proximité</li><li> (BDB)<ol><li> conjonction, proximité</li><li> à côté de, à proximité de, contigu à, de à côté de</li></ol></li></ol>",
    "pron": "ay'-tsel",
    "strongs_def": "un côté ; (en tant que préposition) proche",
    "xlit": "ʼêtsel"
}