{
    "derivation": "ou צְפִי ; de H6822 (צָפָה) ; observateur ;",
    "frequency": 3,
    "kjv_def": "Zephi, Zepho.",
    "lemma": "צְפוֹ",
    "outline": "<span class=\"literal-meaning\">Zépho ou Zéphi = &quot;tour de guet&quot;.</span><ol><li> fils d'Éliphaz et petit-fils d'Ésaü, l'un des chefs des Édomites</li></ol>",
    "pron": "tsef-o'",
    "strongs_def": "Tsepho ou Tsephi, un Iduméen",
    "xlit": "Tsᵉphôw"
}