{
    "derivation": "une racine primitive ;",
    "frequency": 36,
    "kjv_def": "regarder, espionner, regarder (bien), attendre, (faire) le guet (-man).",
    "lemma": "צָפָה",
    "outline": "<ol><li> surveiller, espionner, faire le guet, observer, veiller<ol><li> (Qal) surveiller, espionner</li><li> (Piel) surveiller, regarder de près</li></ol></li></ol>",
    "pron": "tsaw-faw'",
    "strongs_def": "proprement, se pencher en avant, c'est-à-dire regarder au loin ; implicitement, observer, attendre",
    "xlit": "tsâphâh"
}