{
    "derivation": "identique à H6833 (צִפּוֹר) ;",
    "frequency": 7,
    "kjv_def": "Zippor.",
    "lemma": "צִפּוֹר",
    "outline": "<span class=\"literal-meaning\">Zippor = &quot;moineau&quot;</span><ol><li> père de Balak, le roi de Moab, au moment de l'exode</li></ol>",
    "pron": "tsip-pore'",
    "strongs_def": "Tsippor, un Moabite",
    "xlit": "Tsippôwr"
}