{
    "derivation": "d'une racine inutilisée signifiant \"extruder\" ;",
    "frequency": 5,
    "kjv_def": "vipère, cockatrice.",
    "lemma": "צֶפַע",
    "outline": "<ol><li> serpent venimeux<ol><li> un serpent vipère ou une vipère</li></ol></li></ol>",
    "pron": "tseh'-fah or tsiphoniy tsif-o-nee'",
    "strongs_def": "une vipère (en tirant la langue, c'est-à-dire en sifflant)",
    "xlit": "tsephaʻ"
}