{
    "derivation": "de H6822 (צָפָה) ;",
    "frequency": 0,
    "kjv_def": "la tour de guet.",
    "lemma": "צָפִית",
    "outline": "<ol><li> tapis, moquette</li><li> (CLBL) montre</li></ol>",
    "pron": "tsaw-feeth'",
    "strongs_def": "une sentinelle",
    "xlit": "tsâphîyth"
}