{
    "derivation": "féminin formé comme H6842 (צָפִיר) ;",
    "frequency": 3,
    "kjv_def": "diadème, matin.",
    "lemma": "צְפִירָה",
    "outline": "<ol><li> tresse, chapelet, couronne, couronne<ol><li> tresse, couronne, diadème</li></ol></li></ol>",
    "pron": "tsef-ee-raw'",
    "strongs_def": "une couronne (qui entoure la tête) ; également une tournure des événements (c'est-à-dire une mésaventure)",
    "xlit": "tsᵉphîyrâh"
}