{
    "derivation": "de dérivation égyptienne ;",
    "frequency": 1,
    "kjv_def": "Zaphnath-paaneah.",
    "lemma": "צׇפְנַת פַּעְנֵחַ",
    "outline": "<span class=\"literal-meaning\">Zaphnath-paaneah = &quot;trésor du repos glorieux&quot;</span><ol><li> nom donné par Pharaon à Joseph</li></ol>",
    "pron": "tsof-nath' pah-nay'-akh",
    "strongs_def": "Tsophnath-Paneach, le nom égyptien de Joseph",
    "xlit": "Tsophnath Paʻnêach"
}