{
    "derivation": "d'une racine inutilisée signifiant encercler ;",
    "frequency": 1,
    "kjv_def": "chapiter.",
    "lemma": "צֶפֶת",
    "outline": "<ol><li> capital plaqué (de pilier)</li></ol>",
    "pron": "tseh'-feth",
    "strongs_def": "un chapiteau d'une colonne",
    "xlit": "tsepheth"
}