{
    "derivation": "une racine primitive ;",
    "frequency": 4,
    "kjv_def": "bavardages, piaillements, chuchotements.",
    "lemma": "צָפַף",
    "outline": "<ol><li> (Pilpel) gazouiller, pépier<ol><li> d'oiseaux</li><li> de fantômes</li></ol></li></ol>",
    "pron": "tsaw-faf'",
    "strongs_def": "roucouler ou gazouiller (comme un oiseau)",
    "xlit": "tsâphaph"
}