{
    "derivation": "de H6852 (צָפַר) et d'un mot inutilisé ailleurs signifiant un marécage ;",
    "frequency": 13,
    "kjv_def": "grenouille.",
    "lemma": "צְפַרְדֵּעַ",
    "outline": "<ol><li> grenouilles</li></ol>",
    "pron": "tsef-ar-day'-ah",
    "strongs_def": "une lézarde des marais, c'est-à-dire une grenouille",
    "xlit": "tsᵉphardêaʻ"
}