{
    "derivation": "de H6852 (צָפַר) (au sens dénominatif (de H6833 (צִפּוֹר)) de gratter) ;",
    "frequency": 2,
    "kjv_def": "clou, pointe.",
    "lemma": "צִפֹּרֶן",
    "outline": "<ol><li> ongle, pointe de stylet<ol><li> ongle du doigt</li><li> pointe (d'un diamant)</li></ol></li></ol>",
    "pron": "tsip-po'-ren",
    "strongs_def": "proprement, une griffe, c'est-à-dire un ongle (humain) ; également la pointe d'un astyle (ou d'un stylo, avec une pointe en adamant)",
    "xlit": "tsippôren"
}