{
    "derivation": "de H6696 (צוּר) ;",
    "frequency": 2,
    "kjv_def": "silex, pierre tranchante.",
    "lemma": "צֹר",
    "outline": "<ol><li> silex, caillou dur<ol><li> utilisé comme couteau</li></ol></li></ol>",
    "pron": "tsore",
    "strongs_def": "une pierre (comme si elle était pressée fort ou jusqu'à la pointe) ; (par implication, d'utilisation) un couteau",
    "xlit": "tsôr"
}