{
    "derivation": "ou צָר ; de H6887 (צָרַר) ; comparer comme dans H6864 (צֹר)",
    "frequency": 111,
    "kjv_def": "adversaire, affligé(-tion), angoisse, proche, détresse, ennemi, silex, ennemi, étroit, petit, chagrin, détroit, tribulation, trouble.",
    "lemma": "צַר",
    "outline": "<ol><li> étroit, serré</li><li> détroit, détresse</li><li> adversaire, ennemi, oppresseur</li><li> caillou dur, silex</li></ol>",
    "pron": "tsar",
    "strongs_def": "étroit ; (en tant que nom) un endroit étroit (généralement au sens figuré, c'est-à-dire des ennuis) ; également un caillou ; (transitif) un adversaire (comme la foule)",
    "xlit": "tsar"
}