{
    "derivation": "une racine primitive ;",
    "frequency": 33,
    "kjv_def": "couler, (re-) fine(-er), fondateur, orfèvre, fondre, pur, purger, essayer.",
    "lemma": "צָרַף",
    "outline": "<ol><li> fondre, raffiner, tester<ol><li> (Qal)<ol><li> fondre, raffiner</li><li> tester</li><li> tester (et prouver que c'est vrai)</li><li> fondeur, affineur, orfèvre (participe)</li></ol><li> (Niphal) être raffiné</li><li> (Piel) être un raffineur<ol><li> raffineur (participe)</li></ol></li></ol></li></ol>",
    "pron": "tsaw-raf'",
    "strongs_def": "fusionner (métal), c'est-à-dire affiner (au sens propre ou figuré)",
    "xlit": "tsâraph"
}