{
    "derivation": "apparemment une autre forme pour H6880 (צִרְעָה) ;",
    "frequency": 10,
    "kjv_def": "Zareah, Zorah, Zoreah.",
    "lemma": "צׇרְעָה",
    "outline": "<span class=\"literal-meaning\">Zareah ou Zoreah ou Zorah = &quot;frelon&quot;.</span><ol><li> ville de Dan, résidence de Manoah et ville natale de Samson</li></ol>",
    "pron": "tsor-aw'",
    "strongs_def": "Tsorah, un lieu en Palestine",
    "xlit": "Tsorʻâh"
}