{
    "derivation": "apparemment par transcription erronée pour H6868 (צְרֵדָה) ;",
    "frequency": 1,
    "kjv_def": "Zererath.",
    "lemma": "צְרֵרָה",
    "outline": "<span class=\"literal-meaning\">Zererath = &quot;oppression</span><ol><li> une ville ou un territoire de Manassé et la maison de Jéroboam<ol><li> comme 06868</li></ol></li></ol>",
    "pron": "tser-ay-raw'",
    "strongs_def": "Tsererah pour Tseredah",
    "xlit": "Tsᵉrêrâh"
}