{
    "derivation": "de H6958 (קוֹא) ;",
    "frequency": 5,
    "kjv_def": "cormoran.",
    "lemma": "קָאַת",
    "outline": "<ol><li> un oiseau cérémoniellement impur<ol><li> peut-être un pélican ou un cormoran</li><li> peut-être un oiseau éteint, dont la signification exacte est inconnue</li></ol></li></ol>",
    "pron": "kaw-ath'",
    "strongs_def": "probablement le pélican (à cause des vomissements)",
    "xlit": "qâʼath"
}