{
    "derivation": "de H6895 (קָבַב) ;",
    "frequency": 1,
    "kjv_def": "tente.",
    "lemma": "קֻבָּה",
    "outline": "<ol><li> grande tente voûtée, tente</li></ol>",
    "pron": "koob-baw'",
    "strongs_def": "un pavillon (comme une cavité en forme de dôme)",
    "xlit": "qubbâh"
}