{
    "derivation": "de H6901 (קָבַל) au sens d'opposé (voir H6904 (קֹבֶל)) ;",
    "frequency": 0,
    "kjv_def": "avant.",
    "lemma": "קָבָל",
    "outline": "<ol><li> quelque chose devant, moteur d'attaque, quelque chose avant<ol><li> avant</li><li> moteur de siège, bélier</li></ol><li> avant</li></ol>",
    "pron": "kaw-bawl'",
    "strongs_def": "la présence, c'est-à-dire (adverbialement) en face de",
    "xlit": "qâbâl"
}