{
    "derivation": "du féminin pluriel de H6913 (קֶבֶר) et H8378 (תַּאֲוָה) avec l'article intercalé ; tombes de la nostalgie ;",
    "frequency": 5,
    "kjv_def": "Kibroth-hattaavah.",
    "lemma": "קִבְרוֹת הַתַּאֲוָה",
    "outline": "<span class=\"literal-meaning\">Kibroth-hattaavah = &quot;tombes de la convoitise&quot;.</span><ol><li> une station d'Israël dans le désert, à 3 campements du Sinaï, près du golfe d'Akabah</li></ol>",
    "pron": "kib-roth' hat-tahav-aw'",
    "strongs_def": "Kibroth-hat-Taavh, un endroit dans le désert",
    "xlit": "Qibrôwth hat-Taʼă-vâh"
}