{
    "derivation": "probablement pour H739 (אֲרִיאֵל) ;",
    "frequency": 1,
    "kjv_def": "vaillant.",
    "lemma": "אֶרְאֵל",
    "outline": "<ol><li> (CLBL) héros, vaillant</li><li> (BDB) forme et signification douteuses</li><li> (TWOT) Ariel ou foyer</li></ol>",
    "pron": "er-ale'",
    "strongs_def": "un héros (collectivement)",
    "xlit": "ʼerʼêl"
}