{
    "derivation": "ou (féminin) קִבְרָה ; de H6912 (קָבַר) ;",
    "frequency": 68,
    "kjv_def": "lieu de sépulture, tombe, sépulcre.",
    "lemma": "קֶבֶר",
    "outline": "<ol><li> tombe, sépulcre, tombeau</li></ol>",
    "pron": "keh'-ber",
    "strongs_def": "un sépulcre",
    "xlit": "qeber"
}