{
    "derivation": "participe passif de H6923 (קָדַם) ;",
    "frequency": 1,
    "kjv_def": "ancienne.",
    "lemma": "קָדוּם",
    "outline": "<ol><li> antiquité, ancien, pressant<ol><li> signification douteuse</li></ol></li></ol>",
    "pron": "kaw-doom'",
    "strongs_def": "un héros immaculé",
    "xlit": "qâdûwm"
}