{
    "derivation": "ou קָדִם ; de H6923 (קָדַם) ;",
    "frequency": 69,
    "kjv_def": "est (-vers, vent).",
    "lemma": "קָדִים",
    "outline": "<ol><li> est, vent d'est<ol><li> est (de la direction)</li><li> vent d'est</li></ol></li></ol>",
    "pron": "kaw-deem'",
    "strongs_def": "la partie avant ou frontale ; d'où (par orientation) l'Est (souvent adverbialement, vers l'Est, pour faire court le vent d'Est)",
    "xlit": "qâdîym"
}