{
    "derivation": "féminin de H6924 (קֶדֶם) ;",
    "frequency": 4,
    "kjv_def": "est(-ward).",
    "lemma": "קִדְמָה",
    "outline": "<ol><li> devant, front, est, antiquité, est<ol><li> devant, contre, front</li><li> à l'est de, est</li></ol></li></ol>",
    "pron": "kid-maw'",
    "strongs_def": "la partie avant (ou relativement) Est (souvent de manière adverbiale, à l'est ou devant)",
    "xlit": "qidmâh"
}