{
    "derivation": "(araméen) correspondant à H6918 (קָדוֹשׁ).",
    "frequency": 13,
    "kjv_def": "saint (One), saint.",
    "lemma": "קַדִּישׁ",
    "outline": "<ol><li> saint, séparé</li><li> (TWOT) anges, saints</li></ol>",
    "pron": "kad-deesh'",
    "strongs_def": "{sacré (cérémonieusement ou moralement) ; (comme nom) Dieu (par éminence), un ange, un saint, un sanctuaire}",
    "xlit": "qaddîysh"
}