{
    "derivation": "de H6919 (קָדַח) ;",
    "frequency": 2,
    "kjv_def": "ague brûlante, fièvre.",
    "lemma": "קַדַּחַת",
    "outline": "<ol><li> fièvre</li></ol>",
    "pron": "kad-dakh'-ath",
    "strongs_def": "l'inflammation, c'est-à-dire la maladie fébrile",
    "xlit": "qaddachath"
}