{
    "derivation": "de H6923 (קָדַם) ;",
    "frequency": "",
    "kjv_def": "est.",
    "lemma": "קַדְמוֹן",
    "outline": "",
    "pron": "kad-mone'",
    "strongs_def": "est",
    "xlit": "qadmôwn"
}