{
    "derivation": "une racine primitive ;",
    "frequency": 175,
    "kjv_def": "nommer, offrir, consacrer, dédier, souiller, sanctifier, (être, garder) saint(-er, lieu), garder, préparer, proclamer, purifier, sanctifier(-ied un, soi), [idiome] entièrement.",
    "lemma": "קָדַשׁ",
    "outline": "<ol><li> consacrer, sanctifier, préparer, dédier, être sanctifié, être saint, être sanctifié, être séparé<ol><li> (Qal)<ol><li> être mis à part, être consacré</li><li> être sanctifié</li><li> consacré, tabou</li></ol><li>(Niphal)<ol><li> se montrer sacré ou majestueux</li><li> être honoré, être traité comme sacré</li><li> être saint</li></ol><li>(Piel)<ol><li> mettre à part comme sacré, consacrer, dédier</li><li> observer comme saint, garder sacré</li><li> honorer comme sacré, sanctifier</li><li> consacrer</li></ol><li>(Pual)<ol><li> être consacré consacré</li><li> consacré,</li></ol><ol><li> dédié</li></ol><li>(Hiphil)<ol><li> mettre à part, consacrer, consacrer</li><li> considérer ou traiter comme sacré ou sanctifier</li><li> consacrer</li></ol><li> (Hithpael)<ol><li> se tenir à part ou séparé</li><li> se faire sanctifier (de Dieu)</li></ol></li></li> être<li><li><ol><li> observé comme saint</li><li> se consacrer soi-même</li></ol></li></li></li></li></li> </ol></li></ol>",
    "pron": "kaw-dash'",
    "strongs_def": "être (caustiquement, faire, prononcer ou constater comme) propre (cérémoniellement ou moralement)",
    "xlit": "qâdash"
}