{
    "derivation": "de H6942 (קָדַשׁ) ;",
    "frequency": 6,
    "kjv_def": "sodomite, impur.",
    "lemma": "קָדֵשׁ",
    "outline": "<ol><li> prostitué masculin du temple</li></ol>",
    "pron": "kaw-dashe'",
    "strongs_def": "une personne (quasi) sacrée, c'est-à-dire (techniquement) un dévot (masculin) de l'idolâtrie licencieuse (par la prostitution)",
    "xlit": "qâdêsh"
}