{
    "derivation": "une racine primitive ;",
    "frequency": 4,
    "kjv_def": "être à fleur de peau, être brusque.",
    "lemma": "קָהָה",
    "outline": "<ol><li> être émoussé, être ennuyeux<ol><li> (Qal) être émoussé, être terne</li><li> (Piel) être émoussé</li></ol></li></ol>",
    "pron": "kaw-haw'",
    "strongs_def": "être ennuyeux",
    "xlit": "qâhâh"
}