{
    "derivation": "adverbe de H6937 (קָדַר) ;",
    "frequency": 1,
    "kjv_def": "avec tristesse.",
    "lemma": "קְדֹרַנִּית",
    "outline": "<ol><li> avec tristesse</li></ol>",
    "pron": "ked-o-ran-neeth'",
    "strongs_def": "noirs (c'est-à-dire en sac) ; utilisé adverbialement, dans les herbes de deuil",
    "xlit": "qᵉdôrannîyth"
}