{
    "derivation": "patronymiquement de H6955 (קְהָת) ;",
    "frequency": 15,
    "kjv_def": "Kohathites.",
    "lemma": "קֳהָתִי",
    "outline": "<span class=\"literal-meaning\">Les Kohathites = voir Kohath &quot;assemblée&quot;.</span><ol><li> les descendants de Kohath, le 2ème fils de Levi</li></ol>",
    "pron": "ko-haw-thee'",
    "strongs_def": "un Kohathite (collectivement) ou des descendants de Kehath",
    "xlit": "Qŏhâthîy"
}