{
    "derivation": "de H6950 (קָהַל) ;",
    "frequency": 2,
    "kjv_def": "assemblée, congrégation.",
    "lemma": "קְהִלָּה",
    "outline": "<ol><li> assemblée, congrégation</li></ol>",
    "pron": "keh-hil-law'",
    "strongs_def": "un assemblage",
    "xlit": "qᵉhillâh"
}