{
    "derivation": "féminin du participe actif de H6950 (קָהַל) ;",
    "frequency": 7,
    "kjv_def": "prédicateur.",
    "lemma": "קֹהֶלֶת",
    "outline": "<ol><li> collecteur (de phrases), prédicateur, orateur public, orateur dans une assemblée, Qoheleth</li></ol>",
    "pron": "ko-heh'-leth",
    "strongs_def": "une assembleuse (c'est-à-dire une conférencière) ; abstraitement, la prédication (utilisé comme \"nom de plume\", Koheleth)",
    "xlit": "qôheleth"
}