{
    "derivation": "une forme collatérale à H3553 (כּוֹבַע) ;",
    "frequency": 2,
    "kjv_def": "casque.",
    "lemma": "קוֹבַע",
    "outline": "<ol><li> casque</li></ol>",
    "pron": "ko'-bah or ko-bah'",
    "strongs_def": "un casque",
    "xlit": "qôwbaʻ"
}