{
    "derivation": "une racine primitive ;",
    "frequency": 6,
    "kjv_def": "mendiant, se détestant lui-même.",
    "lemma": "קוּט",
    "outline": "<ol><li> avoir horreur, être affligé, éprouver du dégoût<ol><li> (Qal) ressentir du dégoût</li><li> (Niphal)<ol><li> éprouver de la répugnance envers soi-même</li><li> détester</li></ol><li> (Hithpolel) se détester soi-même</li></ol></li></ol>",
    "pron": "koot",
    "strongs_def": "proprement, couper, c'est-à-dire détester (au sens figuré)",
    "xlit": "qûwṭ"
}