{
    "derivation": "de H6965 (קוּם) ;",
    "frequency": 1,
    "kjv_def": "droit.",
    "lemma": "קוֹמְמִיּוּת",
    "outline": "<ol><li> droiture (comme adv)</li></ol>",
    "pron": "ko-mem-ee-yooth'",
    "strongs_def": "l'élévation, c'est-à-dire (adverbialement) l'érection (au sens figuré)",
    "xlit": "qôwmᵉmîyûwth"
}