{
    "derivation": "une racine primitive ; également dénominatif de H7023 (קִיר)",
    "frequency": 6,
    "kjv_def": "démolir, chasser, détruire, creuser.",
    "lemma": "קוּר",
    "outline": "<ol><li> (Qal) forer, creuser, creuser pour l'eau</li><li> être froid<ol><li> (Hiphil) rendre ou garder froid</li></ol><li> (Pilpel) détruire, briser</li></ol>",
    "pron": "koor",
    "strongs_def": "creuser une tranchée ; implicitement, jeter en avant ; emmurer, que ce soit au sens propre (construire un mur) ou au sens figuré (estop)",
    "xlit": "qûwr"
}