{
    "derivation": "ou קֹץ ; de H6972 (קוּץ) (dans le sens de piquer) ;",
    "frequency": 12,
    "kjv_def": "épine.",
    "lemma": "קוֹץ",
    "outline": "<ol><li> épine, buisson d'épines<ol><li> épineux</li><li> épine</li></ol></li></ol>",
    "pron": "kotse",
    "strongs_def": "une épine",
    "xlit": "qôwts"
}