{
    "derivation": "une racine primitive (identique à travers l'idée de se couper de (comparer H6962 (קוּט))) ;",
    "frequency": "",
    "kjv_def": "abhorrer, être affligé, être chagriné, détester, vexer, être fatigué.",
    "lemma": "קוּץ",
    "outline": "",
    "pron": "koots",
    "strongs_def": "être (causalement, faire) dégoûté ou anxieux",
    "xlit": "qûwts"
}