{
    "derivation": "de H6957 (קַו) (dans le sens d'une fixation) ;",
    "frequency": 2,
    "kjv_def": "[idiome] distribué.",
    "lemma": "קַו־קַו",
    "outline": "<ol><li> pourrait</li></ol>",
    "pron": "kav-kav'",
    "strongs_def": "robuste",
    "xlit": "qav-qav"
}