{
    "derivation": "participe passif féminin de H6972 (קוּץ) dans son sens premier ;",
    "frequency": 2,
    "kjv_def": "serrure.",
    "lemma": "קְוֻצָּה",
    "outline": "<ol><li> mèche, mèches de cheveux</li></ol>",
    "pron": "kev-oots-tsaw'",
    "strongs_def": "une mèche (comme tondre)",
    "xlit": "qᵉvutstsâh"
}