{
    "derivation": "participe passif féminin de H6999 (קָטַר) ; parfumé ;",
    "frequency": 4,
    "kjv_def": "Keturah.",
    "lemma": "קְטוּרָה",
    "outline": "<span class=\"literal-meaning\">Keturah = &quot;encens&quot;</span><ol><li> épouse d'Abraham après la mort de Sarah</li></ol>",
    "pron": "ket-oo-raw'",
    "strongs_def": "Keturah, une femme d'Abraham",
    "xlit": "Qᵉṭûwrâh"
}