{
    "derivation": "d'une racine inutilisée signifiant \"couper\" ;",
    "frequency": 3,
    "kjv_def": "détruire, destruction.",
    "lemma": "קֶטֶב",
    "outline": "<ol><li> destruction</li></ol>",
    "pron": "keh'-teb",
    "strongs_def": "ruine",
    "xlit": "qeṭeb"
}