{
    "derivation": "de H6979 (קוּר) ;",
    "frequency": 2,
    "kjv_def": "web.",
    "lemma": "קוּר",
    "outline": "<ol><li> fil, film, web</li></ol>",
    "pron": "koor",
    "strongs_def": "(seulement au pluriel) des tranchées, c'est-à-dire une toile (comme si elle était ainsi formée)",
    "xlit": "qûwr"
}