{
    "derivation": "identique à H6996 (קָטָן) ; petit ;",
    "frequency": 1,
    "kjv_def": "Hakkatan (y compris l'article).",
    "lemma": "קָטָן",
    "outline": "<span class=\"literal-meaning\">Hakkatan = &quot;le petit&quot;</span><ol><li> père de Johanan, le chef des Bene-Azgad qui revint d'exil avec Esdras</li></ol>",
    "pron": "kaw-tawn'",
    "strongs_def": "Katan, un Israélite",
    "xlit": "Qâṭân"
}