{
    "derivation": "une racine primitive ;",
    "frequency": 1,
    "kjv_def": "être coupé.",
    "lemma": "קָטַט",
    "outline": "<ol><li> (Qal) être coupé, se briser, se casser<ol><li> signification douteuse</li></ol></li></ol>",
    "pron": "kaw-tat'",
    "strongs_def": "couper, c'est-à-dire (au sens figuré) détruire",
    "xlit": "qâṭaṭ"
}