{
    "derivation": "de même que H68 (אֶבֶן) ;",
    "frequency": 2,
    "kjv_def": "roue, tabouret.",
    "lemma": "אֹבֶן",
    "outline": "<ol><li> roue, disque<ol><li> tour de potier</li><li> tabouret porteur, tabouret de sage-femme</li></ol></li></ol>",
    "pron": "o' ben",
    "strongs_def": "une paire de pierres (seulement double) ; un tour de potier ou un tabouret de sage-femme (constitué de deux disques horizontaux avec un support entre eux)",
    "xlit": "ʼôben"
}