{
    "derivation": "(araméen) d'une racine correspondant à H7000 (קָטַר) ;",
    "frequency": 3,
    "kjv_def": "le doute, l'articulation.",
    "lemma": "קְטַר",
    "outline": "<ol><li> nœud, articulation, problème<ol><li> les articulations (de la hanche)</li><li> difficultés, doutes (fig)</li></ol></li></ol>",
    "pron": "ket-ar'",
    "strongs_def": "un nœud (comme ficelé), c'est-à-dire (au sens figuré) une énigme ; également une vertèbre (comme un nœud)",
    "xlit": "qᵉṭar"
}