{
    "derivation": "de H6999 (קָטַר) ; fumigène ;",
    "frequency": 1,
    "kjv_def": "Kitron.",
    "lemma": "קִטְרוֹן",
    "outline": "<span class=\"literal-meaning\">Kitron = &quot;encens&quot;</span><ol><li> une ville de Zabulon</li></ol>",
    "pron": "kit-rone'",
    "strongs_def": "Kitron, un lieu en Palestine",
    "xlit": "Qiṭrôwn"
}