{
    "derivation": "(araméen) de H6966 (קוּם) ;",
    "frequency": 2,
    "kjv_def": "décret, loi.",
    "lemma": "קְיָם",
    "outline": "<ol><li> décret, loi</li></ol>",
    "pron": "keh-yawm'",
    "strongs_def": "un décret (découlant de la loi)",
    "xlit": "qᵉyâm"
}