{
    "derivation": "ou קִר ; (Isaïe 22:5), ou (féminin) קִירָה ; de H6979 (קוּר) ;",
    "frequency": 74,
    "kjv_def": "maçon, côté, ville, très, mur.",
    "lemma": "קִיר",
    "outline": "<ol><li> mur, côté<ol><li> le mur (de la maison ou de la chambre)</li><li> les côtés (de l'autel)</li></ol></li></ol>",
    "pron": "keer",
    "strongs_def": "un mur (comme celui construit dans une tranchée)",
    "xlit": "qîyr"
}