{
    "derivation": "peut-être de H7006 (קָיָה) ;",
    "frequency": 5,
    "kjv_def": "gourde.",
    "lemma": "קִיקָיוֹן",
    "outline": "<ol><li> une plante<ol><li> peut-être une gourde, une plante à huile de ricin, une gourde bouteille</li></ol></li></ol>",
    "pron": "kee-kaw-yone'",
    "strongs_def": "la gourde (comme nauséeuse)",
    "xlit": "qîyqâyôwn"
}