{
    "derivation": "une racine primitive ;",
    "frequency": 82,
    "kjv_def": "abate, make bright, bring into contempt, (ac-) curse, despise, (be) ease(-y, -ier), (be a, make, make somewhat, move, seem a, set) light(-en, -er, -ly, -ly afflict, -ly esteem, thing), [idiom] slight(-ly), be swift(-er), (be, be more, make, re-) vile, whet.",
    "lemma": "קָלַל",
    "outline": "<ol><li> être léger, être rapide, être insignifiant, être de peu d'importance, être léger<ol><li> (Qal)<ol><li> être léger, être réduit (d'eau)</li><li> être rapide</li><li> être insignifiant, être de peu d'importance</li></ol><li>(Niphal)<ol><li> être rapide, se montrer rapide</li><li> paraître insignifiant, être trop insignifiant, être insignifiant</li><li> être peu estimé</li></ol><li>(Piel)<ol><li> rendre méprisable</li><li> maudire</li></ol><li> (Pual) être maudit</li><li>(Hiphil)<ol><li> rendre léger, alléger</li><li> traiter avec mépris, apporter le mépris ou le déshonneur</li></ol><li>(Pilpel)<ol><li> secouer</li><li> pour aiguiser</li></ol><li> (Hithpalpel) se secouer, être remué de droite et de gauche</li></li></li></li></li> </ol></li></ol>",
    "pron": "kaw-lal'",
    "strongs_def": "être (causalement, rendre) léger, au sens propre (rapide, petit, pointu, etc.) ou au sens figuré (facile, insignifiant, vil, etc.)",
    "xlit": "qâlal"
}