{
    "derivation": "de H7043 (קָלַל) ;",
    "frequency": 2,
    "kjv_def": "bruni, poli.",
    "lemma": "קָלָל",
    "outline": "<ol><li> bruni, poli</li></ol>",
    "pron": "kaw-lawl'",
    "strongs_def": "éclairci (comme s'il était aiguisé)",
    "xlit": "qâlâl"
}