{
    "derivation": "de H7038 (קָלַט) ; mutiler ;",
    "frequency": 3,
    "kjv_def": "Kelita.",
    "lemma": "קְלִיטָא",
    "outline": "<span class=\"literal-meaning\">Kelita = &quot;infirme&quot;.</span><ol><li> un lévite qui avait une femme étrangère à l'époque d'Esdras<ol><li> également 'Kelaiah'</li></ol></li></ol>",
    "pron": "kel-ee-taw'",
    "strongs_def": "Kelita, le nom de trois Israélites",
    "xlit": "Qᵉlîyṭâʼ"
}