{
    "derivation": "d'une racine inutilisée signifiant probablement broyer ;",
    "frequency": 15,
    "kjv_def": "farine, farine.",
    "lemma": "קֶמַח",
    "outline": "<ol><li> farine, farine, farine de farine</li></ol>",
    "pron": "keh'-makh",
    "strongs_def": "farine",
    "xlit": "qemach"
}