{
    "derivation": "intensive de H7049 (קָלַע) ;",
    "frequency": 1,
    "kjv_def": "slinger.",
    "lemma": "קַלָּע",
    "outline": "<ol><li> frondeur</li></ol>",
    "pron": "kal-law'",
    "strongs_def": "un slinger",
    "xlit": "qallâʻ"
}