{
    "derivation": "une racine primitive ;",
    "frequency": 2,
    "kjv_def": "réduire, flétrir.",
    "lemma": "קָמַל",
    "outline": "<ol><li> se décomposer, se flétrir<ol><li> (Qal) moisir, être flétri</li></ol></li></ol>",
    "pron": "kaw-mal'",
    "strongs_def": "se flétrir",
    "xlit": "qâmal"
}