{
    "derivation": "une racine primitive ;",
    "frequency": 85,
    "kjv_def": "atteindre, acheter (-er), apprendre à garder le bétail, obtenir, provoquer la jalousie, posséder (-or), acheter, récupérer, racheter, [idiome] sûrement, [idiome] vraiment.",
    "lemma": "קָנָה",
    "outline": "<ol><li> obtenir, acquérir, créer, acheter, posséder<ol><li> (Qal)<ol><li> obtenir, acquérir, se procurer<ol><li> de Dieu qui est à l'origine, qui crée, qui rachète son peuple<ol><li> possesseur</li></ol><li> d'Eve acquérant</li><li> d'acquérir la connaissance, la sagesse</li></ol><li> acheter</li></ol><li> (Niphal) d'être acheté</li><li> (Hiphil) de faire posséder</li></ol></li></ol>",
    "pron": "kaw-naw'",
    "strongs_def": "ériger, c'est-à-dire créer ; par extension, se procurer, notamment par achat (causalement, vendre) ; implicitement, posséder",
    "xlit": "qânâh"
}