{
    "derivation": "(araméen) correspondant à H7069 (קָנָה) ;",
    "frequency": "",
    "kjv_def": "acheter.",
    "lemma": "קְנָא",
    "outline": "",
    "pron": "ken-aw'",
    "strongs_def": "d'acheter",
    "xlit": "qᵉnâʼ"
}