{
    "derivation": "de H7069 (קָנָה) ;",
    "frequency": 10,
    "kjv_def": "obtenir, des biens, [idiome] avec de l'argent, des richesses, de la substance.",
    "lemma": "קִנְיָן",
    "outline": "<ol><li> chose acquise, acquisition, possession, propriété achetée, richesse<ol><li> chose acquise (par achat)</li><li> créatures (plus général)</li></ol></li></ol>",
    "pron": "kin-yawn'",
    "strongs_def": "création, c'est-à-dire (concrètement) les créatures ; également acquisition, achat, richesse",
    "xlit": "qinyân"
}