{
    "derivation": "une racine primitive ;",
    "frequency": 13,
    "kjv_def": "tisserand(-r).",
    "lemma": "אָרַג",
    "outline": "<ol><li> tisser<ol><li> (Qal)<ol><li> tisser (tissu)</li><li> tresser (les cheveux de Samson)</li><li> tisser (subst.)</li><li> intriguer (fig.)</li></ol></li></ol></li></ol>",
    "pron": "aw-rag'",
    "strongs_def": "tresser ou tisser",
    "xlit": "ʼârag"
}