{
    "derivation": "féminin de H7070 (קָנֶה) ; roseau ;",
    "frequency": 3,
    "kjv_def": "Kanah.",
    "lemma": "קָנָה",
    "outline": "<span class=\"literal-meaning\">Kanah = &quot;roseau</span><ol><li> un cours d'eau se jetant dans la mer Méditerranée qui marquait la frontière entre Ephraïm au sud et Manassé au nord</li><li> une ville marquant la limite d'Asher</li></ol>",
    "pron": "kaw-naw'",
    "strongs_def": "Kanah, nom d'un ruisseau et d'un lieu en Palestine",
    "xlit": "Qânâh"
}