{
    "derivation": "une racine primitive ;",
    "frequency": 7,
    "kjv_def": "fermer (fermer), sauter, arrêter, s'écarter du chemin.",
    "lemma": "קָפַץ",
    "outline": "<ol><li> se rapprocher, se fermer, se cloîtrer, s'enfermer, s'arrêter<ol><li> (Qal) fermer</li><li> (Niphal)<ol><li> se renfermer (de la mort)</li><li> se renfermer dans la mort</li></ol><li> (Piel) se rapprocher, sauter (participe)</li></ol></li></ol>",
    "pron": "kaw-fats'",
    "strongs_def": "rapprocher, c'est-à-dire se rapprocher ; implicitement, bondir (en contractant les membres) ; spécifiquement, mourir (en rassemblant les pieds)",
    "xlit": "qâphats"
}