{
    "derivation": "identique à celui de H7102 (קְצִיעָה) ;",
    "frequency": 1,
    "kjv_def": "Kezia.",
    "lemma": "קְצִיעָה",
    "outline": "<span class=\"literal-meaning\">Kezia = &quot; casse &quot;.</span><ol><li> la 2ème des filles nées à Job après son procès</li></ol>",
    "pron": "kets-ee-aw'",
    "strongs_def": "Ketsiah, une fille de Job",
    "xlit": "Qᵉtsîyʻâh"
}