{
    "derivation": "de H7112 (קָצַץ) ; brusque ;",
    "frequency": "",
    "kjv_def": "Keziz.",
    "lemma": "קְצִיץ",
    "outline": "",
    "pron": "kets-eets'",
    "strongs_def": "Keziz, une vallée en Palestine",
    "xlit": "Qᵉtsîyts"
}