{
    "derivation": "de H7114 (קָצַר) ;",
    "frequency": 5,
    "kjv_def": "peu, hâte, petit, bientôt.",
    "lemma": "קָצֵר",
    "outline": "<ol><li> court, impatient<ol><li> en taille, en nombre, en vie, en force, etc</li></ol></li></ol>",
    "pron": "kaw-tsare'",
    "strongs_def": "court (que ce soit en taille, en nombre, en durée, en force ou en caractère)",
    "xlit": "qâtsêr"
}