{
    "derivation": "de H7114 (קָצַר) ;",
    "frequency": 1,
    "kjv_def": "l'angoisse.",
    "lemma": "קֹצֶר",
    "outline": "<ol><li> brièveté, impatience, angoisse</li></ol>",
    "pron": "ko'-tser",
    "strongs_def": "la brièveté (d'esprit), c'est-à-dire l'impatience",
    "xlit": "qôtser"
}