{
    "derivation": "contracté à partir d'une racine inutilisée signifiant refroidir ;",
    "frequency": 4,
    "kjv_def": "froid, excellent (de la marge).",
    "lemma": "קַר",
    "outline": "<ol><li> cool<ol><li> cool, calme, sang-froid (d'esprit)</li></ol></li></ol>",
    "pron": "kar",
    "strongs_def": "frais ; au sens figuré, calme",
    "xlit": "qar"
}