{
    "derivation": "une racine primitive ;",
    "frequency": 49,
    "kjv_def": "[idiome] du tout, réduit, beaucoup de découragement, chagrin, moissonneur, lothe, deuil, moisson (-er), (être, cirer) court (-en, -er), straiten, trouble, vexer.",
    "lemma": "קָצַר",
    "outline": "<ol><li> être court, être impatient, être vexé, être affligé<ol><li> (Qal) être court</li><li> (Piel) de raccourcir</li><li> (Hiphil) raccourcir</li></ol><li> to reap, harvest<ol><li> (Qal) to reap, harvest</li><li> (Hiphil) to reap, harvest</li></ol></li></ol>",
    "pron": "kaw-tsar'",
    "strongs_def": "réduire, c'est-à-dire diminuer (transitif ou intransitif, au sens propre ou figuré) ; en particulier, récolter (de l'herbe ou du grain)",
    "xlit": "qâtsar"
}