{
    "derivation": "de même que H7119 (קַר) ;",
    "frequency": 1,
    "kjv_def": "froid.",
    "lemma": "קֹר",
    "outline": "<ol><li> froid</li></ol>",
    "pron": "kore",
    "strongs_def": "froid",
    "xlit": "qôr"
}