{
    "derivation": "de H7126 (קָרַב) ;",
    "frequency": 2,
    "kjv_def": "s'approcher, s'approcher.",
    "lemma": "קְרָבָה",
    "outline": "<ol><li> une approche, un rapprochement</li></ol>",
    "pron": "ker-aw-baw'",
    "strongs_def": "approche",
    "xlit": "qᵉrâbâh"
}