{
    "derivation": "ou קֹרַח ; de H7139 (קָרַח) ;",
    "frequency": 7,
    "kjv_def": "cristal, givre, glace.",
    "lemma": "קֶרַח",
    "outline": "<ol><li> givre, glace, cristal de glace<ol><li> givre (de la nuit)</li><li> glace</li></ol></li></ol>",
    "pron": "keh'-rakh",
    "strongs_def": "glace (comme si elle était chauve, c'est-à-dire lisse) ; de là, grêle ; par ressemblance, cristal de roche",
    "xlit": "qerach"
}