{
    "derivation": "de H7121 (קָרָא) ;",
    "frequency": 3,
    "kjv_def": "célèbre, renommé.",
    "lemma": "קָרִיא",
    "outline": "<ol><li> appelé, convoqué, appelé un</li></ol>",
    "pron": "kaw-ree'",
    "strongs_def": "appelé, c'est-à-dire sélectionner",
    "xlit": "qârîyʼ"
}