{
    "derivation": "de H7139 (קָרַח) ;",
    "frequency": 3,
    "kjv_def": "chauve (tête).",
    "lemma": "קֵרֵחַ",
    "outline": "<ol><li> chauve</li></ol>",
    "pron": "kay-ray'-akh",
    "strongs_def": "chauve (à l'arrière de la tête)",
    "xlit": "qêrêach"
}