{
    "derivation": "du même que H714 (אַרְדְּ) ; itinérance ;",
    "frequency": 1,
    "kjv_def": "Ardon.",
    "lemma": "אַרְדּוֹן",
    "outline": "<span class=\"literal-meaning\">Ardon = &quot;soumetteur : fugitif&quot;.</span><ol><li> un fils de Caleb</li></ol>",
    "pron": "ar-dohn'",
    "strongs_def": "Ardon, un Israélite",
    "xlit": "ʼArdôwn"
}