{
    "derivation": "une racine primitive ; pousser ou encorner ; utilisé uniquement comme dénominatif à partir de H7161 (קֶרֶן),",
    "frequency": "",
    "kjv_def": "ont des cornes, brillent.",
    "lemma": "קָרַן",
    "outline": "",
    "pron": "kaw-ran'",
    "strongs_def": "tirer des cornes ; au sens figuré, des rayons",
    "xlit": "qâran"
}