{
    "derivation": "identique à H7172 (קַרְקַע) ; rez-de-chaussée ;",
    "frequency": 1,
    "kjv_def": "Karkaa.",
    "lemma": "קַרְקַע",
    "outline": "<span class=\"literal-meaning\">Karkaa = &quot; plancher &quot;.</span><ol><li> un point de repère sur la frontière sud de Juda<ol><li> site inconnu</li></ol></li></ol>",
    "pron": "kar-kah'",
    "strongs_def": "Karka (avec le préfixe article), un lieu en Palestine",
    "xlit": "Qarqaʻ"
}