{
    "derivation": "de H7169 (קָרַץ) ;",
    "frequency": 1,
    "kjv_def": "destruction.",
    "lemma": "קֶרֶץ",
    "outline": "<ol><li> mordant, pince, dard<ol><li> insecte piqueur, mouche du coche, mouche du coche</li></ol></li></ol>",
    "pron": "keh'-rets",
    "strongs_def": "extirpation (comme par constriction)",
    "xlit": "qerets"
}