{
    "derivation": "de H6979 (קוּר) ; fondation ;",
    "frequency": 1,
    "kjv_def": "Karkor.",
    "lemma": "קַרְקֹר",
    "outline": "<span class=\"literal-meaning\">Karkor = &quot;fondement&quot;</span><ol><li> lieu situé à l'est du Jourdain, en Galaad, où Zébah et Zalmunna furent de nouveau mis en déroute par Gédéon</li></ol>",
    "pron": "kar-kore'",
    "strongs_def": "Karkor, lieu situé à l'est du Jourdain",
    "xlit": "Qarqôr"
}