{
    "derivation": "une racine primitive ;",
    "frequency": 28,
    "kjv_def": "être cruel, être plus féroce, rendre pénible, être ((demander un), être dans, avoir, sembler, serait) dur(-en, (travail), -ly, chose), être endolori, (être, rendre) raide(-en, (-necked)).",
    "lemma": "קָשָׁה",
    "outline": "<ol><li> être dur, être sévère, être féroce, être dur<ol><li> (Qal)<ol><li> être dur, être difficile</li><li> être dur, être sévère</li></ol><li>(Niphal)<ol><li> to be ill-treated</li><li> to be hard pressed</li></ol><li> (Piel) to have severe labour (of women)</li><li> (Hiphil)<ol><li> to make difficult, make difficulty</li><li> to make severe, make burdensome</li><li>to make hard, make stiff, make stubborn<ol><li> of obstinacy (fig)</li></ol><li> to show stubbornness</li></li></ol></li></li> </ol></li></ol>",
    "pron": "kaw-shaw'",
    "strongs_def": "proprement, être dense, c'est-à-dire dur ou sévère (dans diverses applications)",
    "xlit": "qâshâh"
}