{
    "derivation": "de H7190 (קְשִׁי) ; sol dur ;",
    "frequency": 2,
    "kjv_def": "Kishion, Keshon.",
    "lemma": "קִשְׁיוֹן",
    "outline": "<span class=\"literal-meaning\">Kishion = &quot;dur&quot;</span><ol><li> ville située sur la frontière d'Issachar et attribuée aux Lévites Gershonites</li></ol>",
    "pron": "kish-yone'",
    "strongs_def": "Kishjon, un lieu en Palestine",
    "xlit": "Qishyôwn"
}