{
    "derivation": "de H7194 (קָשַׁר) ;",
    "frequency": 16,
    "kjv_def": "confédération, conspiration, trahison.",
    "lemma": "קֶשֶׁר",
    "outline": "<ol><li> conspiration, trahison, alliance (illégale)</li></ol>",
    "pron": "keh'-sher",
    "strongs_def": "une alliance (illégale)",
    "xlit": "qesher"
}