{
    "derivation": "une variation orthographique de H719 (אַרְוַד) ; fugitif ;",
    "frequency": 1,
    "kjv_def": "Arod.",
    "lemma": "אֲרוֹד",
    "outline": "<span class=\"literal-meaning\">Arod = &quot;Je soumettrai, j'errerai&quot;.</span><ol><li> un fils de Gad</li></ol>",
    "pron": "ar-ode'",
    "strongs_def": "Arod, un Israélite",
    "xlit": "ʼĂrôwd"
}