{
    "derivation": "participe actif de H7200 (רָאָה) ;",
    "frequency": 6,
    "kjv_def": "vision.",
    "lemma": "רֹאֶה",
    "outline": "<ol><li> voyant, prophète</li><li> vision (prophétique)</li></ol>",
    "pron": "ro-eh'",
    "strongs_def": "un voyant (comme souvent rendu) ; mais aussi (abstraitement) une vision",
    "xlit": "rôʼeh"
}