{
    "derivation": "de H7200 (רָאָה) ;",
    "frequency": 1,
    "kjv_def": "le miroir.",
    "lemma": "רְאִי",
    "outline": "<ol><li> miroir</li></ol>",
    "pron": "reh-ee'",
    "strongs_def": "un miroir (tel que vu)",
    "xlit": "rᵉʼîy"
}