{
    "derivation": "pour H7203 (רֹאֶה) ; prophète ;",
    "frequency": 1,
    "kjv_def": "Haroeh (y compris l'article).",
    "lemma": "רֹאֵה",
    "outline": "<span class=\"literal-meaning\">Haroeh = &quot;vision&quot;</span><ol><li> un homme de Juda</li></ol>",
    "pron": "ro-ay'",
    "strongs_def": "Roeh, un Israélite",
    "xlit": "Rôʼêh"
}