{
    "derivation": "patronyme de H721 (אַרְוָדִי) ;",
    "frequency": 2,
    "kjv_def": "Arodi, Arodites.",
    "lemma": "אֲרוֹדִי",
    "outline": "<span class=\"literal-meaning\">Arodi ou Arodites = &quot;Je soumettrai, j'errerai&quot;.</span><ol><li> descendants d'Arod</li></ol>",
    "pron": "ar-o-dee'",
    "strongs_def": "un Arodite ou un descendant d'Arod",
    "xlit": "ʼĂrôwdîy"
}