{
    "derivation": "probablement le même que H7218 (רֹאשׁ) ;",
    "frequency": 1,
    "kjv_def": "Rosh.",
    "lemma": "רֹאשׁ",
    "outline": "<span class=\"literal-meaning\">Rosh = &quot;tête&quot;</span><ol><li> un fils de Benjamin</li></ol>",
    "pron": "roshe",
    "strongs_def": "Rosh, le nom d'un Israélite et d'une nation étrangère",
    "xlit": "Rôʼsh"
}