{
    "derivation": "de H7231 (רָבַב) ;",
    "frequency": 16,
    "kjv_def": "beaucoup, million, multiplier, dix mille.",
    "lemma": "רְבָבָה",
    "outline": "<ol><li> multitude, myriade, dix mille</li></ol>",
    "pron": "reb-aw-baw'",
    "strongs_def": "abondance (en nombre), c'est-à-dire (spécifiquement) une myriade (définie ou indéfinie)",
    "xlit": "rᵉbâbâh"
}