{
    "derivation": "de H7231 (רָבַב) ;",
    "frequency": 6,
    "kjv_def": "douche.",
    "lemma": "רָבִיב",
    "outline": "<ol><li> averses copieuses, averses abondantes<ol><li> comme apportant la fertilité</li><li> d'influence prophétique (fig)</li></ol></li></ol>",
    "pron": "raw-beeb'",
    "strongs_def": "une pluie (comme une accumulation de gouttes)",
    "xlit": "râbîyb"
}