{
    "derivation": "de H7257 (רָבַץ) ;",
    "frequency": 4,
    "kjv_def": "où chacun s'est couché, couché dans, lieu de repos.",
    "lemma": "רֵבֶץ",
    "outline": "<ol><li> lieu de repos ou d'habitation, lieu de couchage</li></ol>",
    "pron": "reh'-bets",
    "strongs_def": "un divan ou un lieu de repos",
    "xlit": "rêbets"
}