{
    "derivation": "(Araméen) correspondant à H7264 (רָגַז)",
    "frequency": 1,
    "kjv_def": "provoquer la colère.",
    "lemma": "רְגַז",
    "outline": "<ol><li> (Aphel) se mettre en colère, enrager</li></ol>",
    "pron": "reg-az'",
    "strongs_def": "frémir (sous l'effet d'une émotion violente, en particulier la colère ou la peur)",
    "xlit": "rᵉgaz"
}