{
    "derivation": "d'une racine inutilisée signifiant \"empiler\" ;",
    "frequency": 2,
    "kjv_def": "une motte.",
    "lemma": "רֶגֶב",
    "outline": "<ol><li> motte (de terre)</li></ol>",
    "pron": "reh'-gheb",
    "strongs_def": "une masse d'argile",
    "xlit": "regeb"
}