{
    "derivation": "intensif de H7264 (רָגַז) ;",
    "frequency": 1,
    "kjv_def": "tremblant.",
    "lemma": "רַגָּז",
    "outline": "<ol><li> tremblant, frémissant, tremblant</li></ol>",
    "pron": "rag-gawz'",
    "strongs_def": "timide",
    "xlit": "raggâz"
}