{
    "derivation": "(Araméen) de H7265 (רְגַז) ;",
    "frequency": 1,
    "kjv_def": "rage.",
    "lemma": "רְגַז",
    "outline": "<ol><li> rage</li></ol>",
    "pron": "reg-az'",
    "strongs_def": "colère violente",
    "xlit": "rᵉgaz"
}