{
    "derivation": "intensif de H7287 (רָדָה) ; dominateur ;",
    "frequency": 1,
    "kjv_def": "Raddai.",
    "lemma": "רַדַּי",
    "outline": "<span class=\"literal-meaning\">Raddai = &quot;piétiner&quot;</span><ol><li> le 5ème fils de Jessé et frère de David</li></ol>",
    "pron": "rad-dah'-ee",
    "strongs_def": "Raddai, un Israélite",
    "xlit": "Radday"
}