{
    "derivation": "de H7280 (רָגַע).",
    "frequency": 23,
    "kjv_def": "instant, moment, espace, soudain.",
    "lemma": "רֶגַע",
    "outline": "<ol><li> un moment</li><li> pour un moment, à un moment... à un autre moment</li><li> à un moment</li></ol>",
    "pron": "reh'-gah",
    "strongs_def": "un clin d'œil (des yeux), c'est-à-dire un très court instant",
    "xlit": "regaʻ"
}