{
    "derivation": "une racine primitive ;",
    "frequency": "",
    "kjv_def": "avoir peur.",
    "lemma": "רָהָה",
    "outline": "",
    "pron": "raw-haw'",
    "strongs_def": "à craindre",
    "xlit": "râhâh"
}