{
    "derivation": "identique à H7293 (רַהַב) ;",
    "frequency": 3,
    "kjv_def": "Rahab.",
    "lemma": "רַהַב",
    "outline": "<span class=\"literal-meaning\">Rahab = &quot;largeur&quot;</span><ol><li> tempête, arrogance (mais seulement comme noms)<ol><li> monstre marin mythique</li><li> nom emblématique de l'Egypte</li></ol></li></ol>",
    "pron": "rah'-hab",
    "strongs_def": "Rahab (c'est-à-dire vantarde), épithète de l'Égypte",
    "xlit": "Rahab"
}