{
    "derivation": "d'une racine inutilisée signifiant apparemment creuser ;",
    "frequency": 4,
    "kjv_def": "galerie, gouttière, creux.",
    "lemma": "רַהַט",
    "outline": "<ol><li> creux, creux</li><li> mèche de cheveux<ol><li> signification douteuse</li></ol></li></ol>",
    "pron": "rah'-hat",
    "strongs_def": "un canal ou un abreuvoir ; par ressemblance une boucle de cheveux (formant des lignes parallèles)",
    "xlit": "rahaṭ"
}