{
    "derivation": "une racine primitive ;",
    "frequency": 103,
    "kjv_def": "décomposer, diviser rapidement, valet de pied, garde, apporter à la hâte, (faire) courir (loin, à travers), poste.",
    "lemma": "רוּץ",
    "outline": "<ol><li> courir<ol><li> (Qal)<ol><li> courir</li><li> coureurs (participe comme subst)</li></ol><li> (Polel) courir rapidement, s'élancer</li><li> (Hiphil)<ol><li> apporter ou se déplacer rapidement, se dépêcher</li></ol></li>de<li><ol><li> chasser, faire fu</li></ol></li>ir</ol></li></ol>",
    "pron": "roots",
    "strongs_def": "courir (pour quelque raison que ce soit, notamment pour se précipiter)",
    "xlit": "rûwts"
}