{
    "derivation": "une racine primitive ;",
    "frequency": 2,
    "kjv_def": "famine, cire maigre.",
    "lemma": "רָזָה",
    "outline": "<ol><li> être ou devenir ou devenir maigre<ol><li> (Qal) rendre maigre</li><li> (Niphal) être rendu maigre</li></ol></li></ol>",
    "pron": "raw-zaw'",
    "strongs_def": "émacier, c'est-à-dire rendre (devenir) mince (au sens propre ou figuré)",
    "xlit": "râzâh"
}