{
    "derivation": "une racine primitive ;",
    "frequency": 25,
    "kjv_def": "être un en-(faire) large(-ing), faire de la place, faire (ouvrir) large.",
    "lemma": "רָחַב",
    "outline": "<ol><li> être ou devenir large, être ou devenir grand<ol><li> (Qal) être élargi, être agrandi</li><li> (Niphal) pâturage large ou spacieux (participe)</li><li> (Hiphil)<ol><li> rendre large</li><li> élargir</li></ol></li></ol></li></ol>",
    "pron": "raw-khab'",
    "strongs_def": "élargir (intransitif ou transitif, au sens propre ou figuré)",
    "xlit": "râchab"
}