{
    "derivation": "de H7329 (רָזָה) ;",
    "frequency": 2,
    "kjv_def": "maigre.",
    "lemma": "רָזֶה",
    "outline": "<ol><li> maigre</li></ol>",
    "pron": "raw-zeh'",
    "strongs_def": "mince",
    "xlit": "râzeh"
}