{
    "derivation": "de H7337 (רָחַב) ;",
    "frequency": 21,
    "kjv_def": "large, large, en liberté, fier, étendu.",
    "lemma": "רָחָב",
    "outline": "<ol><li> vaste, large</li></ol>",
    "pron": "raw-khawb'",
    "strongs_def": "spacieux, dans toutes les directions, au sens propre comme au figuré",
    "xlit": "râchâb"
}