{
    "derivation": "de H732 (אָרַח) ;",
    "frequency": 59,
    "kjv_def": "manière, chemin, race, rang, voyageur, troupe, (by-, high-) way.",
    "lemma": "אֹרַח",
    "outline": "<ol><li> voie, chemin<ol><li> chemin, route</li><li> le chemin, la voie, le passage de la vie (fig.)</li><li> manière de vivre (fig.)</li><li> voyageur, voyageuse (meton)</li></ol></li></ol>",
    "pron": "o'-rakh",
    "strongs_def": "une route bien tracée (au sens propre ou figuré) ; également une caravane",
    "xlit": "ʼôrach"
}