{
    "derivation": "de H7355 (רָחַם) ;",
    "frequency": 13,
    "kjv_def": "plein de compassion, miséricordieux.",
    "lemma": "רַחוּם",
    "outline": "<ol><li> compatissant<ol><li> toujours de Dieu, à une exception près</li></ol></li></ol>",
    "pron": "rakh-oom'",
    "strongs_def": "compatissant",
    "xlit": "rachûwm"
}