{
    "derivation": "de H7355 (רָחַם) ;",
    "frequency": 44,
    "kjv_def": "entrailles, compassion, demoiselle, amour tendre, (grande, tendre) miséricorde, pitié, matrice.",
    "lemma": "רַחַם",
    "outline": "<ol><li> utérus</li><li> compassion</li></ol>",
    "pron": "rakh'-am",
    "strongs_def": "la compassion (au pluriel) ; par extension, l'utérus (comme chérir le fœtus) ; par implication, une jeune fille",
    "xlit": "racham"
}