{
    "derivation": "identique à H7353 (רָחֵל) ;",
    "frequency": 47,
    "kjv_def": "Rachel.",
    "lemma": "רָחֵל",
    "outline": "<span class=\"literal-meaning\">Rachel = &quot;brebis&quot;</span><ol><li> fille de Laban, épouse de Jacob, et mère de Joseph et Benjamin</li></ol>",
    "pron": "raw-khale'",
    "strongs_def": "Rachel, une femme de Jacob",
    "xlit": "Râchêl"
}