{
    "derivation": "de H7368 (רָחַק) ;",
    "frequency": 1,
    "kjv_def": "qui sont loin.",
    "lemma": "רָחֵק",
    "outline": "<ol><li> enlever, quitter<ol><li> ceux qui partent (comme subst)</li></ol><li> (TWOT) éloigné, loin</li></ol>",
    "pron": "raw-khake'",
    "strongs_def": "à distance",
    "xlit": "râchêq"
}