{
    "derivation": "une racine primitive ;",
    "frequency": 3,
    "kjv_def": "voltigent, bougent, tremblent.",
    "lemma": "רָחַף",
    "outline": "<ol><li> (Qal) s'adoucir, se détendre</li><li> (Piel) faire du surplace</li></ol>",
    "pron": "raw-khaf'",
    "strongs_def": "broyer du noir ; implicitement, être détendu",
    "xlit": "râchaph"
}