{
    "derivation": "participe passif féminin de H732 (אָרַח) (dans le sens de nommer) ;",
    "frequency": 6,
    "kjv_def": "allocation, régime, dîner, victuailles.",
    "lemma": "אֲרֻחָה",
    "outline": "<ol><li> repas, allocation, ration<ol><li> alimentation</li><li> régime alimentaire</li></ol></li></ol>",
    "pron": "ar-oo-khaw'",
    "strongs_def": "une ration de nourriture",
    "xlit": "ʼăruchâh"
}