{
    "derivation": "une racine primitive ;",
    "frequency": 1,
    "kjv_def": "être mouillé.",
    "lemma": "רָטַב",
    "outline": "<ol><li> (Qal) pour être humide</li></ol>",
    "pron": "raw-tab'",
    "strongs_def": "d'être humide",
    "xlit": "râṭab"
}