{
    "derivation": "de H7386 (רֵיק) ;",
    "frequency": 16,
    "kjv_def": "sans cause, vide, en vain, nul.",
    "lemma": "רֵיקָם",
    "outline": "<ol><li> en vain, vide<ol><li> en état de vide, vide, vide</li><li> en vain, sans effet, vainement</li></ol></li></ol>",
    "pron": "ray-kawm'",
    "strongs_def": "vide ; au sens figuré (objectif) inefficace, (subjectif) immérité",
    "xlit": "rêyqâm"
}