{
    "derivation": "ou (pleinement) אֲבִינֵר ; de H1 (אָב) et H5216 (נִיר) ; père de la lumière (c'est-à-dire éclairant) ;",
    "frequency": 63,
    "kjv_def": "Abner.",
    "lemma": "אַבְנֵר",
    "outline": "<span class=\"literal-meaning\">Abner = &quot;mon père est une lampe&quot;</span><ol><li> Cousin de Saül et capitaine de l'armée, tué par trahison par Joab</li></ol>",
    "pron": "ab-nare'",
    "strongs_def": "Abner, un Israélite",
    "xlit": "ʼAbnêr"
}