{
    "derivation": "une racine primitive ;",
    "frequency": 17,
    "kjv_def": "(épice) marchand.",
    "lemma": "רָכַל",
    "outline": "<ol><li> trafiquer (sens douteux)<ol><li> (Qal) trafiquant, commerçant (participe) (subst)</li></ol></li></ol>",
    "pron": "raw-kal'",
    "strongs_def": "voyager pour le commerce",
    "xlit": "râkal"
}