{
    "derivation": "de H7405 (רָכַס) ;",
    "frequency": 1,
    "kjv_def": "fierté.",
    "lemma": "רֹכֶס",
    "outline": "<ol><li> pièges, complots, bande, ligue, conspiration<ol><li> signification douteuse</li></ol></li></ol>",
    "pron": "ro'-kes",
    "strongs_def": "un collet (pour les mailles liées)",
    "xlit": "rôkeç"
}