{
    "derivation": "(araméen) correspondant à H7411 (רָמָה) ;",
    "frequency": 12,
    "kjv_def": "couler (vers le bas), imposer.",
    "lemma": "רְמָה",
    "outline": "<ol><li> jeter, lancer<ol><li> (P'al)<ol><li> jeter</li><li> jeter<ol><li> de tribut (fig)</li></ol><li>(Peil)<ol><li> être jeté</li><li> pour être placé, être fixé</li></ol><li> (Ithp'el) être jeté</li></li> </ol></li></ol>",
    "pron": "rem-aw'",
    "strongs_def": "jeter, fixer, évaluer (au sens figuré)",
    "xlit": "rᵉmâh"
}