{
    "derivation": "une racine primitive ;",
    "frequency": "",
    "kjv_def": "exalter, s'élever, s'élever, monter.",
    "lemma": "רָמַם",
    "outline": "",
    "pron": "raw-mam'",
    "strongs_def": "s'élever (au sens propre ou figuré)",
    "xlit": "râmam"
}