{
    "derivation": "d'une racine inutilisée et de H3050 (יָהּ) (signifiant peut-être parer) ; Jah a paré ;",
    "frequency": 13,
    "kjv_def": "Remaliah.",
    "lemma": "רְמַלְיָהוּ",
    "outline": "<span class=\"literal-meaning\">Remaliah = &quot; protégé par Jéhovah &quot;.</span><ol><li> père du roi Pékah du royaume d'Israël du Nord</li></ol>",
    "pron": "rem-al-yaw'-hoo",
    "strongs_def": "Remaljah, un Israélite",
    "xlit": "Rᵉmalyâhûw"
}