{
    "derivation": "d'origine perse ;",
    "frequency": 2,
    "kjv_def": "Aridatha.",
    "lemma": "אֲרִידָתָא",
    "outline": "<span class=\"literal-meaning\">Aridatha = &quot;le lion du décret&quot;</span><ol><li> un fils d'Haman</li></ol>",
    "pron": "ar-ee-daw-thaw'",
    "strongs_def": "Aridatha, un fils de Haman",
    "xlit": "ʼĂrîydâthâʼ"
}