{
    "derivation": "de H7413 (רָמָה) et H3895 (לְחִי) ; hauteur d'un os de la mâchoire ;",
    "frequency": "",
    "kjv_def": "Ramath-lehi.",
    "lemma": "רָמַת לֶחִי",
    "outline": "",
    "pron": "raw'-math lekh'-ee",
    "strongs_def": "Ramath-Lechi, un lieu en Palestine",
    "xlit": "Râmath Lechîy"
}