{
    "derivation": "de H7411 (רָמָה) ; hauteur ;",
    "frequency": 1,
    "kjv_def": "Remeth.",
    "lemma": "רֶמֶת",
    "outline": "<span class=\"literal-meaning\">Remeth = &quot;hauteur&quot;</span><ol><li> une ville d'Issachar<ol><li> probablement la même chose que 'Ramoth' 07433</li></ol></li></ol>",
    "pron": "reh'-meth",
    "strongs_def": "Remeth, un lieu en Palestine",
    "xlit": "Remeth"
}