{
    "derivation": "de H7442 (רָנַן) ;",
    "frequency": "",
    "kjv_def": "chanson.",
    "lemma": "רֹן",
    "outline": "",
    "pron": "rone",
    "strongs_def": "un cri (de délivrance)",
    "xlit": "rôn"
}