{
    "derivation": "(Araméen) correspondant à H738 (אֲרִי)",
    "frequency": 10,
    "kjv_def": "lion.",
    "lemma": "אַרְיֵה",
    "outline": "<ol><li> lion</li></ol>",
    "pron": "ar-yay'",
    "strongs_def": "{un lion}",
    "xlit": "ʼaryêh"
}