{
    "derivation": "intensif de H7442 (רָנַן) ;",
    "frequency": 0,
    "kjv_def": "le chant.",
    "lemma": "רַנֵּן",
    "outline": "<ol><li> pleurer, crier</li></ol>",
    "pron": "ran-nane'",
    "strongs_def": "criant (de joie)",
    "xlit": "rannên"
}