{
    "derivation": "de H7489 (רָעַע) ;",
    "frequency": 19,
    "kjv_def": "([idiome] être si mauvais, méchanceté, ([idiome] être si) mauvais, méchanceté, tristesse, chagrin, méchanceté.",
    "lemma": "רֹעַ",
    "outline": "<ol><li> méchanceté, mal<ol><li> méchanceté, mauvaise qualité</li><li> volontarisme</li><li> mal, méchanceté (éthique)</li><li> tristesse</li></ol></li></ol>",
    "pron": "ro'-ah",
    "strongs_def": "la méchanceté (comme le mariage), physiquement ou moralement",
    "xlit": "rôaʻ"
}