{
    "derivation": "de H7462 (רָעָה) au sens de H7453 (רֵעַ) ;",
    "frequency": 6,
    "kjv_def": "un autre, un copain, un voisin.",
    "lemma": "רְעוּת",
    "outline": "<ol><li> compagne, compagne, voisine</li></ol>",
    "pron": "reh-ooth'",
    "strongs_def": "un associé féminin ; généralement un associé supplémentaire",
    "xlit": "rᵉʻûwth"
}