{
    "derivation": "d'origine perse ;",
    "frequency": 1,
    "kjv_def": "Arisai.",
    "lemma": "אֲרִיסַי",
    "outline": "<span class=\"literal-meaning\">Arisai = &quot;lion de mes bannières ( ?)&quot;</span><ol><li> un fils d'Haman</li></ol>",
    "pron": "ar-ee-sah'-ee",
    "strongs_def": "Arisai, un fils d'Haman",
    "xlit": "ʼĂrîyçay"
}