{
    "derivation": "de H7453 (רֵעַ) ; social ;",
    "frequency": 1,
    "kjv_def": "Rei.",
    "lemma": "רֵעִי",
    "outline": "<span class=\"literal-meaning\">Rei = &quot;ami&quot;</span><ol><li> une personne de la cour de David qui est restée loyale pendant la rébellion d'Adonias</li></ol>",
    "pron": "ray-ee'",
    "strongs_def": "Rei, un Israélite",
    "xlit": "Rêʻîy"
}