{
    "derivation": "de H7481 (רָעַם) et H3050 (יָהּ) ; Jah a secoué ;",
    "frequency": 1,
    "kjv_def": "Raamiah.",
    "lemma": "רַעַמְיָה",
    "outline": "<span class=\"literal-meaning\">Raamiah = &quot;tonnerre de Jéhovah&quot;.</span><ol><li> celui qui est revenu d'exil avec Zerubbabel<ol><li> également \"Reelaiah\"</li></ol></li></ol>",
    "pron": "rah-am-yaw'",
    "strongs_def": "Raamjah, un Israélite",
    "xlit": "Raʻamyâh"
}