{
    "derivation": "une racine primitive ;",
    "frequency": 13,
    "kjv_def": "faire fâcher, rugir, tonner, troubler.",
    "lemma": "רָעַם",
    "outline": "<ol><li> tonner<ol><li> (Qal)<ol><li> pour faire le bruit du tonnerre, le tonnerre</li><li> faire rage</li></ol><li> (Hiphil)<ol><li> to thunder, cause thunder</li><li> to tremble, cause to tremble (par extension)</li></ol></li></ol></li></ol>",
    "pron": "raw-am'",
    "strongs_def": "culbuter, c'est-à-dire être violemment agité ; en particulier, s'écraser (de tonnerre) ; au sens figuré, irriter (avec colère)",
    "xlit": "râʻam"
}