{
    "derivation": "(araméen) correspondant à H7488 (רַעֲנָן) ;",
    "frequency": 1,
    "kjv_def": "florissant.",
    "lemma": "רַעֲנַן",
    "outline": "<ol><li> florissant</li></ol>",
    "pron": "rah-aw-nan'",
    "strongs_def": "vert, c'est-à-dire (au sens figuré) prospère",
    "xlit": "raʻănan"
}