{
    "derivation": "de H7481 (רָעַם) ;",
    "frequency": 6,
    "kjv_def": "tonnerre.",
    "lemma": "רַעַם",
    "outline": "<ol><li> tonnerre</li></ol>",
    "pron": "rah'am",
    "strongs_def": "un coup de tonnerre",
    "xlit": "raʻam"
}