{
    "derivation": "une racine primitive ;",
    "frequency": 34,
    "kjv_def": "différer, tirer, allonger, (être, devenir, faire, pro-) long, [phrase] (out-, over-) vivre, s'attarder (longtemps).",
    "lemma": "אָרַךְ",
    "outline": "<ol><li> être long, prolonger<ol><li> (Qal) être long</li><li> (Hiphil)<ol><li> prolonger (jours)</li><li> faire durer (cordes de tente)</li><li> grandir longtemps, continuer longtemps</li></ol></li></ol></li></ol>",
    "pron": "aw-rak'",
    "strongs_def": "être (causatif, faire) long (au sens propre ou figuré)",
    "xlit": "ʼârak"
}