{
    "derivation": "(Araméen) correspondant à H7489 (רָעַע)",
    "frequency": 2,
    "kjv_def": "se casser, se meurtrir.",
    "lemma": "רְעַע",
    "outline": "<ol><li> (P'al) écraser, casser, éclater</li></ol>",
    "pron": "reh-ah'",
    "strongs_def": "{properly, to spoil (littéralement, en brisant en morceaux) ; figurativement, to make (or be) good fornothing, i.e. mauvais (physiquement, socialement ou moralement)}",
    "xlit": "rᵉʻaʻ"
}