{
    "derivation": "une racine primitive ;",
    "frequency": 2,
    "kjv_def": "se briser en morceaux, se vexer.",
    "lemma": "רָעַץ",
    "outline": "<ol><li> (Qal) pour briser</li></ol>",
    "pron": "raw-ats'",
    "strongs_def": "briser en morceaux ; au sens figuré, harceler",
    "xlit": "râʻats"
}