{
    "derivation": "de H7503 (רָפָה) ;",
    "frequency": "",
    "kjv_def": "la faiblesse.",
    "lemma": "רִפְיוֹן",
    "outline": "",
    "pron": "rif-yone'",
    "strongs_def": "relâchement",
    "xlit": "riphyôwn"
}