{
    "derivation": "probablement de H7503 (רָפָה) ;",
    "frequency": 1,
    "kjv_def": "décrochage.",
    "lemma": "רֶפֶת",
    "outline": "<ol><li> stable, décrochage</li></ol>",
    "pron": "reh'-feth",
    "strongs_def": "une stalle pour le bétail (parce qu'il s'y repose)",
    "xlit": "repheth"
}