{
    "derivation": "une racine primitive ;",
    "frequency": 1,
    "kjv_def": "maigre.",
    "lemma": "רָפַק",
    "outline": "<ol><li> se soutenir<ol><li> (Hithpael) se soutenir, s'appuyer</li></ol></li></ol>",
    "pron": "raw-fak'",
    "strongs_def": "s'incliner",
    "xlit": "râphaq"
}