{
    "derivation": "de H7521 (רָצָה) ; plaisir ;",
    "frequency": 1,
    "kjv_def": "Rezia.",
    "lemma": "רִצְיָא",
    "outline": "<span class=\"literal-meaning\">Rezia = &quot;délice&quot;</span><ol><li> un Asherite parmi les fils d'Ulla</li></ol>",
    "pron": "rits-yaw'",
    "strongs_def": "Ritsjah, un Israélite",
    "xlit": "Ritsyâʼ"
}