{
    "derivation": "probablement pour H7522 (רָצוֹן) ;",
    "frequency": 11,
    "kjv_def": "Rezin.",
    "lemma": "רְצִין",
    "outline": "<span class=\"literal-meaning\">Rezin = &quot;ferme&quot;</span><ol><li> roi de Damas pendant les règnes des rois Jotham et Ahaz de Juda</li><li> le géniteur d'une famille d'esclaves du temple qui revint de captivité avec Zerubbabel</li></ol>",
    "pron": "rets-een'",
    "strongs_def": "Retsin, le nom d'un Syrien et d'un Israélite",
    "xlit": "Rᵉtsîyn"
}