{
    "derivation": "de H7523 (רָצַח) ;",
    "frequency": 2,
    "kjv_def": "massacre, épée.",
    "lemma": "רֶצַח",
    "outline": "<ol><li> bouleversant</li></ol>",
    "pron": "reh-tsakh",
    "strongs_def": "un écrasement ; spécifiquement, un cri de meurtre",
    "xlit": "retsach"
}