{
    "derivation": "de H7538 (רָקָב) ;",
    "frequency": 1,
    "kjv_def": "pourri.",
    "lemma": "רִקָּבוֹן",
    "outline": "<ol><li> pourriture, décomposition, pourriture</li></ol>",
    "pron": "rik-kaw-bone'",
    "strongs_def": "la carie (par les caries)",
    "xlit": "riqqâbôwn"
}