{
    "derivation": "de H7556 (רָקַק) ;",
    "frequency": 3,
    "kjv_def": "cracher (-ting, -tle).",
    "lemma": "רֹק",
    "outline": "<ol><li> crachats</li></ol>",
    "pron": "roke",
    "strongs_def": "crachats",
    "xlit": "rôq"
}