{
    "derivation": "de H748 (אָרַךְ) ;",
    "frequency": 95,
    "kjv_def": "Pour toujours, longtemps, longtemps.",
    "lemma": "אֹרֶךְ",
    "outline": "<ol><li> durée<ol><li> durée physique</li><li> de temps</li></ol><li> tolérance, retenue (de la patience)</li></ol>",
    "pron": "o'rek'",
    "strongs_def": "longueur",
    "xlit": "ʼôrek"
}