{
    "derivation": "une racine primitive ;",
    "frequency": 9,
    "kjv_def": "danser, sauter, bondir, sautiller.",
    "lemma": "רָקַד",
    "outline": "<ol><li> sauter à propos de<ol><li> (Qal) sauter sur place</li><li> (Piel) danser, sauter</li><li> (Hiphil) faire sautiller</li></ol></li></ol>",
    "pron": "raw-kad'",
    "strongs_def": "proprement dit, trépigner, c'est-à-dire bondir (sauvagement ou joyeusement)",
    "xlit": "râqad"
}