{
    "derivation": "de H7543 (רָקַח) ;",
    "frequency": 1,
    "kjv_def": "apothicaire.",
    "lemma": "רַקָּח",
    "outline": "<ol><li> pommadier, parfumeur</li></ol>",
    "pron": "rak-kawkh'",
    "strongs_def": "un parfumeur masculin",
    "xlit": "raqqâch"
}