{
    "derivation": "de, H7556 (רָקַק) dans son sens premier ;",
    "frequency": 8,
    "kjv_def": "gâteau, gaufre.",
    "lemma": "רָקִיק",
    "outline": "<ol><li> gâteau fin, gaufrette</li></ol>",
    "pron": "raw-keek'",
    "strongs_def": "un gâteau fin",
    "xlit": "râqîyq"
}