{
    "derivation": "de H7551 (רָקַם) ;",
    "frequency": 12,
    "kjv_def": "brodé (travail), diverses couleurs, (vêtement de) broderie (des deux côtés).",
    "lemma": "רִקְמָה",
    "outline": "<ol><li> des trucs bariolés, brodés</li></ol>",
    "pron": "rik-maw'",
    "strongs_def": "panachage de couleurs ; spécifiquement, la broderie",
    "xlit": "riqmâh"
}