{
    "derivation": "de H8313 (שָׂרַף) ;",
    "frequency": 7,
    "kjv_def": "flèche, charbon (brûlant), chaleur brûlante, étincelle, coup de foudre.",
    "lemma": "רֶשֶׁף",
    "outline": "<ol><li> flamme, éclair, étincelle<ol><li> flamme</li><li> coup de feu</li></ol></li></ol>",
    "pron": "reh'-shef",
    "strongs_def": "un charbon vivant ; par analogie, un éclair ; au sens figuré, une flèche, (comme un éclair dans l'air) ; en particulier, la fièvre",
    "xlit": "resheph"
}