{
    "derivation": "(Araméen) correspondant à H7559 (רָשַׁם)",
    "frequency": 7,
    "kjv_def": "signer, écrire.",
    "lemma": "רְשַׁם",
    "outline": "<ol><li> inscrire, signer<ol><li> (P'al) inscrire, signer</li><li> (P'al)<ol><li> être inscrit, être écrit</li><li> être signé</li></ol></li></ol></li></ol>",
    "pron": "resh-am'",
    "strongs_def": "{d'enregistrer}",
    "xlit": "rᵉsham"
}