{
    "derivation": "(Araméen) patrie de H751 (אֶרֶךְ) ;",
    "frequency": 1,
    "kjv_def": "Archevite.",
    "lemma": "אַרְכְּוַי",
    "outline": "<span class=\"literal-meaning\">Archevites = &quot;long&quot;</span><ol><li> originaire de la ville d'Erech</li></ol>",
    "pron": "ar-kev-ah'ee",
    "strongs_def": "un Arkevite (collectivement) ou un natif d'Erek",
    "xlit": "ʼArkᵉvay"
}