{
    "derivation": "une racine primitive ;",
    "frequency": 2,
    "kjv_def": "appauvrir.",
    "lemma": "רָשַׁשׁ",
    "outline": "<ol><li> battre, briser<ol><li> (Poel) abattre, briser</li><li> (Pual) être battu</li></ol></li></ol>",
    "pron": "raw-shash'",
    "strongs_def": "démolir",
    "xlit": "râshash"
}