{
    "derivation": "une racine primitive ;",
    "frequency": 19,
    "kjv_def": "(femme pour) tirer (-er, eau).",
    "lemma": "שָׁאַב",
    "outline": "<ol><li> puiser (l'eau)<ol><li> (Qal)<ol><li> tirer (de l'eau)</li><li> les femmes qui puisent l'eau (participe)</li></ol></li></ol></li></ol>",
    "pron": "sahw-ab'",
    "strongs_def": "pour mettre l'eau en botte",
    "xlit": "shâʼab"
}