{
    "derivation": "féminin de H7574 (רֶתֶם) ;",
    "frequency": 2,
    "kjv_def": "Rithmah.",
    "lemma": "רִתְמָה",
    "outline": "<span class=\"literal-meaning\">Rithmah = &quot;lande&quot;</span><ol><li> station d'Israël dans le désert, probablement au nord-est de Hazeroth</li></ol>",
    "pron": "rith-maw'",
    "strongs_def": "Rithmah, un endroit dans le Désert",
    "xlit": "Rithmâh"
}