{
    "derivation": "de H7582 (שָׁאָה) ;",
    "frequency": 1,
    "kjv_def": "la désolation.",
    "lemma": "שַׁאֲוָה",
    "outline": "<ol><li> tempête dévastatrice</li></ol>",
    "pron": "shah-av-aw'",
    "strongs_def": "une tempête (comme une ruée)",
    "xlit": "shaʼăvâh"
}