{
    "derivation": "du même que H759 (אַרְמוֹן) ; le haut plateau ;",
    "frequency": 133,
    "kjv_def": "Aram, Mésopotamie, Syrie, Syriens.",
    "lemma": "אֲרָם",
    "outline": "<span class=\"literal-meaning\">Aram ou Araméens = &quot;exalté&quot;.</span><ol><li> Aram ou Syrie la nation</li><li> le peuple syrien ou araméen. Aram<span class=\"literal-meaning\">= &quot;exalté&quot;</span>.</li><li> cinquième fils de Sem</li><li> petit-fils de Nahor</li><li> un descendant d'Asher</li></ol>",
    "pron": "arawm'",
    "strongs_def": "Aram ou Syrie, et ses habitants ; nom du fils de Sem, petit-fils de Nahor, et d'un Israélite",
    "xlit": "ʼĂrâm"
}