{
    "derivation": "de H7582 (שָׁאָה) ;",
    "frequency": 1,
    "kjv_def": "destruction.",
    "lemma": "שְׁאִיָּה",
    "outline": "<ol><li> ruine</li></ol>",
    "pron": "sheh-ee-yaw'",
    "strongs_def": "désolation",
    "xlit": "shᵉʼîyâh"
}