{
    "derivation": "de H7604 (שָׁאַר) ;",
    "frequency": 5,
    "kjv_def": "du levain.",
    "lemma": "שְׂאֹר",
    "outline": "<ol><li> levain</li></ol>",
    "pron": "seh-ore'",
    "strongs_def": "barm ou gâteau de levure (comme gonflant par fermentation)",
    "xlit": "sᵉʼôr"
}