{
    "derivation": "de H7599 (שָׁאַן) ;",
    "frequency": 10,
    "kjv_def": "qui est à l'aise, calme, tumulte. Comparer avec H7946 (שַׁלְאֲנָן).",
    "lemma": "שַׁאֲנָן",
    "outline": "<ol><li> à l'aise, tranquille, sûr<ol><li> à l'aise, sûr de lui</li><li> à l'aise, insouciant, dévergondé, arrogant</li></ol><li> sécurité, fierté, arrogance<ol><li> une</li><li> arrogance</li><li> à l'aise</li></ol></li></ol>",
    "pron": "shah-an-awn'",
    "strongs_def": "sûr ; dans un mauvais sens, hautain",
    "xlit": "shaʼănân"
}