{
    "derivation": "patronyme de H7614 (שְׁבָא) ;",
    "frequency": 1,
    "kjv_def": "Sabean.",
    "lemma": "שְׁבָאִי",
    "outline": "<span class=\"literal-meaning\">Sabéens = &quot;ivrogne&quot; ou &quot;celui qui vient&quot;.</span><ol><li> le peuple de la nation de Saba</li></ol>",
    "pron": "sheb-aw-ee'",
    "strongs_def": "un Shebaite ou un descendant de Sheba",
    "xlit": "Shᵉbâʼîy"
}