{
    "derivation": "de H7617 (שָׁבָה) ; ravisseur ;",
    "frequency": 1,
    "kjv_def": "Shobi.",
    "lemma": "שֹׁבִי",
    "outline": "<span class=\"literal-meaning\">Shobi = &quot;glorieux&quot;</span><ol><li> fils de Nahash de Rabbah, des enfants d'Ammon, il a soutenu David pendant la rébellion d'Absalom</li></ol>",
    "pron": "sho-bee'",
    "strongs_def": "Shobi, un Ammonite",
    "xlit": "Shôbîy"
}