{
    "derivation": "de même que H7616 (שָׁבָב) ;",
    "frequency": 1,
    "kjv_def": "étincelle.",
    "lemma": "שָׁבִיב",
    "outline": "<ol><li> flamme<ol><li> signification douteuse</li></ol></li></ol>",
    "pron": "shaw-beeb'",
    "strongs_def": "flamme (comme divisée en langues)",
    "xlit": "shâbîyb"
}