{
    "derivation": "d'une racine inutilisée signifiant \"entrelacer\" ;",
    "frequency": 1,
    "kjv_def": "caul.",
    "lemma": "שָׁבִיס",
    "outline": "<ol><li> bandeau frontal<ol><li> pour la tête de la femme</li></ol></li></ol>",
    "pron": "shaw-beece'",
    "strongs_def": "un filet pour les cheveux",
    "xlit": "shâbîyç"
}