{
    "derivation": "féminin de H7628 (שְׁבִי) ;",
    "frequency": 12,
    "kjv_def": "captifs (-ité).",
    "lemma": "שִׁבְיָה",
    "outline": "<ol><li> captivité, captifs<ol><li> (état de) captivité</li><li> captifs</li></ol></li></ol>",
    "pron": "shib-yaw'",
    "strongs_def": "l'exil (de manière abstraite ou concrète et collective)",
    "xlit": "shibyâh"
}