{
    "derivation": "de H7646 (שָׂבַע) ;",
    "frequency": 8,
    "kjv_def": "abondance, pléthore (-ness, -ly).",
    "lemma": "שָׂבָע",
    "outline": "<ol><li> abondance, satiété<ol><li> abondance (de pain)</li><li> satiété</li></ol></li></ol>",
    "pron": "saw-baw'",
    "strongs_def": "abondance",
    "xlit": "sâbâʻ"
}