{
    "derivation": "ou שְׁבַנְיָהוּ ; du même que H7644 (שֶׁבְנָא) et H3050 (יָהּ) ; Jah a grandi (c'est-à-dire prospéré) ;",
    "frequency": 7,
    "kjv_def": "Shebaniah.",
    "lemma": "שְׁבַנְיָה",
    "outline": "<span class=\"literal-meaning\">Shebaniah = &quot; augmenté par Jéhovah &quot;.</span><ol><li> un lévite qui a scellé l'alliance avec Néhémie</li><li> un prêtre qui a scellé l'alliance avec Néhémie</li><li> un deuxième lévite qui scella l'alliance avec Néhémie</li><li> prêtre désigné par David pour souffler dans les trompettes devant l'arche de Dieu</li></ol>",
    "pron": "sheb-an-yaw'",
    "strongs_def": "Shebanjah, le nom de trois ou quatre Israélites",
    "xlit": "Shᵉbanyâh"
}