{
    "derivation": "multiple de H7651 (שֶׁבַע) ;",
    "frequency": 91,
    "kjv_def": "soixante-dix, soixante-dix et dix ([phrase] -teen).",
    "lemma": "שִׁבְעִים",
    "outline": "<ol><li> soixante-dix</li></ol>",
    "pron": "shib-eem'",
    "strongs_def": "soixante-dix",
    "xlit": "shibʻîym"
}