{
    "derivation": "une racine primitive ;",
    "frequency": "",
    "kjv_def": "broder, mettre.",
    "lemma": "שָׁבַץ",
    "outline": "",
    "pron": "shaw-bats'",
    "strongs_def": "entrelacer des fils (colorés) en carrés ; par implication (de réticulation) inchasser des pierres précieuses dans de l'or",
    "xlit": "shâbats"
}