{
    "derivation": "ou שֵׁבֶר ; de H7665 (שָׁבַר) ;",
    "frequency": 44,
    "kjv_def": "affliction, brèche, rupture, brisé (-pieds, -mains), meurtrissure, écrasement, destruction, blessure, interprétation, vexation.",
    "lemma": "שֶׁבֶר",
    "outline": "<ol><li> rupture, fracture, écrasement, brèche, crash, ruine, éclatement<ol><li> briser, fracture, éclater, écraser</li><li> s'écraser</li><li> rupture (d'un rêve), interprétation</li><li> carrières</li></ol></li></ol>",
    "pron": "sheh'-ber",
    "strongs_def": "une fracture, au sens figuré, une ruine ; spécifiquement, une solution (d'un rêve)",
    "xlit": "sheber"
}