{
    "derivation": "dénominatif de H7668 (שֶׁבֶר) ;",
    "frequency": 21,
    "kjv_def": "acheter, vendre.",
    "lemma": "שָׁבַר",
    "outline": "<ol><li> acheter ou acheter du grain<ol><li> (Qal) acheter du grain</li><li> (Hiphil) vendre du grain</li></ol></li></ol>",
    "pron": "shaw-bar'",
    "strongs_def": "vendre des céréales",
    "xlit": "shâbar"
}