{
    "derivation": "; une racine primitive ;",
    "frequency": "",
    "kjv_def": "augmenter, magnifier.",
    "lemma": "שָׂגָא",
    "outline": "",
    "pron": "saw-gaw'",
    "strongs_def": "croître, c'est-à-dire (au sens causal) s'agrandir, (au sens figuré) se féliciter",
    "xlit": "sâgâʼ"
}