{
    "derivation": "une racine primitive ;",
    "frequency": 71,
    "kjv_def": "(causer, laisser, faire) cesser, célébrer, faire (faire) échouer, garder (sabbat), souffrir pour manquer, laisser, mettre à l'écart (vers le bas), (faire) reposer, débarrasser, encore, enlever.",
    "lemma": "שָׁבַת",
    "outline": "<ol><li> cesser, se désister, se reposer<ol><li> (Qal)<ol><li> cesser</li><li> se reposer, se désister (du travail)</li></ol><li> (Niphal) cesser</li><li>(Hiphil)<ol><li> faire cesser, mettre fin à</li><li> exterminer, détruire</li><li> faire cesser de</li></ol></li> faire<li><ol><li> disparaître</li><li> faire échouer</li></ol><li> (Qal) garder ou observer le sabbat</li></li> </ol>",
    "pron": "shaw-bath'",
    "strongs_def": "se reposer, c'est-à-dire renoncer à l'effort ; utilisé dans de nombreuses relations implicites (causatives, figuratives ou spécifiques)",
    "xlit": "shâbath"
}