{
    "derivation": "intensif de H7673 (שָׁבַת) ;",
    "frequency": 111,
    "kjv_def": "([phrase] chaque) sabbat.",
    "lemma": "שַׁבָּת",
    "outline": "<ol><li> Sabbat<ol><li> sabbat</li><li> jour des expiations</li><li> année sabbatique</li><li> semaine</li><li> produits (en année sabbatique)</li></ol></li></ol>",
    "pron": "shab-bawth'",
    "strongs_def": "l'entracte, c'est-à-dire (spécifiquement) le sabbat",
    "xlit": "shabbâth"
}