{
    "derivation": "probablement de H7686 (שָׁגָה) ; errant ;",
    "frequency": 1,
    "kjv_def": "Shage.",
    "lemma": "שָׁגֶא",
    "outline": "<span class=\"literal-meaning\">Shage = &quot;errant&quot;</span><ol><li> père de Hannathon le Hararite, l'un des puissants guerriers de David</li></ol>",
    "pron": "shaw-gay'",
    "strongs_def": "Shage, un Israélite",
    "xlit": "Shâgeʼ"
}