{
    "derivation": "de H7682 (שָׂגַב) ; en hauteur ;",
    "frequency": "",
    "kjv_def": "Segub.",
    "lemma": "שְׂגוּב",
    "outline": "",
    "pron": "seg-oob'",
    "strongs_def": "Segub, le nom de deux Israélites",
    "xlit": "Sᵉgûwb"
}