{
    "derivation": "une racine primitive ;",
    "frequency": 4,
    "kjv_def": "grandir (vers le haut), augmenter.",
    "lemma": "שָׂגָה",
    "outline": "<ol><li> croître, augmenter<ol><li> (Qal) croître (grand)</li><li> (Hiphil) augmenter</li></ol></li></ol>",
    "pron": "saw-gaw'",
    "strongs_def": "élargir (surtout vers le haut, également au sens figuré)",
    "xlit": "sâgâh"
}