{
    "derivation": "une racine primitive ;",
    "frequency": 21,
    "kjv_def": "(faire) s'égarer, tromper, se tromper, se ravir, pécher par ignorance, (laisser, faire) errer.",
    "lemma": "שָׁגָה",
    "outline": "<ol><li> s'égarer, errer, se tromper<ol><li> (Qal)<ol><li> se tromper, s'égarer</li><li> faire des embardées, des méandres, tourner, rouler, s'enivrer, se tromper (en état d'ivresse)</li><li> s'égarer (moralement)</li><li> commettre un péché par ignorance ou inadvertance, se tromper (par ignorance)</li></ol><li> (Hiphil)<ol><li> to lead astray</li><li> to lead astray, mislead (mentally)</li></ol>to<ol><li> lead astray (morally)</li></ol></li></ol></li></ol>",
    "pron": "shaw-gaw'",
    "strongs_def": "s'égarer (causalement, induire en erreur), généralement (au sens figuré) se tromper, en particulier (moralement) transgresser ; par extension (par l'idée d'ivresse) se laisser emporter, (au sens figuré) être enchanté",
    "xlit": "shâgâh"
}