{
    "derivation": "ou שִׁגָּיֹנָה ; de H7686 (שָׁגָה) ;",
    "frequency": 2,
    "kjv_def": "Shiggaion, Shigionoth.",
    "lemma": "שִׁגָּיוֹן",
    "outline": "<ol><li> chanson ?<ol><li> utilisé dans le titre du Ps 7</li><li> signification douteuse</li></ol></li></ol>",
    "pron": "shig-gaw-yone'",
    "strongs_def": "proprement, aberration, c'est-à-dire (techniquement) un dithyrambe ou un poème décousu",
    "xlit": "shiggâyôwn"
}