{
    "derivation": "une racine primitive ;",
    "frequency": 57,
    "kjv_def": "mort, détruire(-er), opprimer, voler, dépouiller(-er), [idiome] complètement, (mettre) en ruine.",
    "lemma": "שָׁדַד",
    "outline": "<ol><li> s'attaquer violemment à, spolier, dévaster, ruiner, détruire, gâcher<ol><li> (Qal)<ol><li> détruire violemment, dévaster, spolier, assaillir</li><li> dévaster, spolier (participe) (subst)</li></ol><li> (Niphal) être complètement ruiné</li><li>(Piel)<ol><li> agresser</li><li> dévaster</li></ol><li> (Pual) être dévasté</li><li> (Poel) détruire violemment</li><li> (Hophal) être dévasté</li></li> </ol></li></ol>",
    "pron": "shaw-dad'",
    "strongs_def": "proprement, être costaud, c'est-à-dire (au sens figuré) puissant (passif, imprenable) ; implicitement, ravager",
    "xlit": "shâdad"
}