{
    "derivation": "une racine primitive ;",
    "frequency": 3,
    "kjv_def": "briser les mottes, herser.",
    "lemma": "שָׂדַד",
    "outline": "<ol><li> (Piel) pour herser</li></ol>",
    "pron": "saw-dad'",
    "strongs_def": "abraser, c'est-à-dire herser le champ",
    "xlit": "sâdad"
}