{
    "derivation": "identique à H7718 (שֹׁהַם) ;",
    "frequency": 1,
    "kjv_def": "Shoham.",
    "lemma": "שֹׁהַם",
    "outline": "<span class=\"literal-meaning\">Shoham = &quot;onyx&quot;</span><ol><li> un lévite mérarite, fils de Jaaziah</li></ol>",
    "pron": "sho'-ham",
    "strongs_def": "Shoham, un Israélite",
    "xlit": "Shôham"
}