{
    "derivation": "(araméen) identique à H7714 (שַׁדְרַךְ)",
    "frequency": 14,
    "kjv_def": "Shadrach.",
    "lemma": "שַׁדְרַךְ",
    "outline": "<span class=\"literal-meaning\">Shadrach = &quot;royal&quot; ou &quot;le grand scribe&quot;.</span><ol><li> l'ami pieux de Daniel que Nabuchodonosor a rebaptisé Shadrach ; l'un des trois amis qui, avec Daniel, ont refusé de se rendre impurs en mangeant de la nourriture à la table du roi, ce qui allait à l'encontre des lois alimentaires que Dieu avait données aux Juifs ; également l'un des trois qui ont été jetés dans la fournaise ardente pour avoir refusé de se prosterner devant une image sculptée de Nabuchodonosor et qui ont été sauvés par l'ange du Seigneur<ol><li> aussi, 'Hananiah' (02608)</li></ol></li></ol>",
    "pron": "shad-rak'",
    "strongs_def": "{Shadrak, le nom babylonien d'un des compagnons de Daniel}",
    "xlit": "Shadrak"
}