{
    "derivation": "ou (féminin) שׁוֹאָה ; ou שֹׁאָה ; d'une racine inutilisée signifiant se précipiter ;",
    "frequency": 12,
    "kjv_def": "désolation(-ion), détruire, destruction, tempête, déperdition.",
    "lemma": "שׁוֹא",
    "outline": "<ol><li> ravager</li><li> dévastation, ruine, gaspillage<ol><li> dévastation, ruine</li><li> ruine, gaspillage (de terre)</li></ol></li></ol>",
    "pron": "sho",
    "strongs_def": "une tempête ; par implication, la dévastation",
    "xlit": "shôwʼ"
}