{
    "derivation": "une racine primitive ;",
    "frequency": "",
    "kjv_def": "faire demi-tour.",
    "lemma": "שׂוּג",
    "outline": "",
    "pron": "soog",
    "strongs_def": "de se retirer",
    "xlit": "sûwg"
}