{
    "derivation": "(araméen) ; correspondant à H7737 (שָׁוָה) ;",
    "frequency": "",
    "kjv_def": "faites comme ça.",
    "lemma": "שְׁוָה",
    "outline": "",
    "pron": "shev-aw'",
    "strongs_def": "ressembler à",
    "xlit": "shᵉvâh"
}