{
    "derivation": "une racine primitive ;",
    "frequency": 21,
    "kjv_def": "avail, behave, bring forth, compare, countervail, (be, make) equal, lay, be (make, a-) like, make plain, profit, reckon.",
    "lemma": "שָׁוָה",
    "outline": "<ol><li> s'accorder avec, être ou devenir semblable, niveler, ressembler<ol><li> (Qal)<ol><li> être comme</li><li> équivalent (participe)</li><li> mettre, placer</li><li> mettre (participe)</li></ol><li> (Piel) niveler, lisser, tranquille</li><li> (Hiphil) rendre semblable</li><li> (Nithpael) être semblable</li></ol><li> (Piel) mettre, placer</li></ol>",
    "pron": "shaw-vaw'",
    "strongs_def": "au sens propre, niveler, c'est-à-dire égaliser ; au sens figuré, ressembler ; implicitement, ajuster (c'est-à-dire contrebalancer, être approprié, composer, placer, céder, etc.)",
    "xlit": "shâvâh"
}