{
    "derivation": "du même que H7640 (שֹׁבֶל) ; débordement ;",
    "frequency": 9,
    "kjv_def": "Shobal.",
    "lemma": "שׁוֹבָל",
    "outline": "<span class=\"literal-meaning\">Shobal = &quot;qui coule&quot;</span><ol><li> 2ème fils de Seir le Horite (Edom) et l'un des ducs des Horites</li><li> fils de Caleb, petit-fils de Hur, et fondateur de Kirjath-Jearim</li><li> judaïque, fils de Hur et descendant de Caleb<ol><li> peut-être le même que le 2</li></ol></li></ol>",
    "pron": "sho-bawl'",
    "strongs_def": "Shobal, nom d'un Edomite et de deux Israélites",
    "xlit": "Shôwbâl"
}