{
    "derivation": "du même que H7740 (שָׁוֵה) et le dual de H7151 (קִרְיָה) ; plaine d'une ville double ;",
    "frequency": "",
    "kjv_def": "Shaveh Kiriathaim.",
    "lemma": "שָׁוֵה קִרְיָתַיִם",
    "outline": "",
    "pron": "shaw-vay' kir-yawthah'-yim",
    "strongs_def": "Shaveh-Kirjathajim, lieu situé à l'est du Jourdain",
    "xlit": "Shâvêh Qiryâthayim"
}