{
    "derivation": "une racine primitive ;",
    "frequency": 1,
    "kjv_def": "méditer.",
    "lemma": "שׂוּחַ",
    "outline": "<ol><li> (Qal) méditer, muse, communier, parler, se plaindre<ol><li> sens incertain</li></ol></li></ol>",
    "pron": "soo'-akh",
    "strongs_def": "méditer de manière pensive",
    "xlit": "sûwach"
}