{
    "derivation": "patronyme de H7744 (שׁוּחַ) ;",
    "frequency": 5,
    "kjv_def": "Shuhite.",
    "lemma": "שׁוּחִי",
    "outline": "<span class=\"literal-meaning\">Shuhite = voir Shua &quot; richesse &quot;.</span><ol><li> un appellatif ethnique appliqué seulement à Bildad, l'ami de Job</li></ol>",
    "pron": "shoo-khee'",
    "strongs_def": "un Shuchite ou un descendant de Shuach",
    "xlit": "Shûwchîy"
}