{
    "derivation": "probablement d'origine étrangère ;",
    "frequency": 9,
    "kjv_def": "Arphaxad.",
    "lemma": "אַרְפַּכְשַׁד",
    "outline": "<span class=\"literal-meaning\">Arphaxad = &quot;J'échouerai comme le sein : il a maudit le sein&quot;.</span><ol><li> troisième fils de Sem</li></ol>",
    "pron": "ar-pak-shad'",
    "strongs_def": "Arpakshad, fils de Noé, et la région qu'il a habitée",
    "xlit": "ʼArpakshad"
}