{
    "derivation": "ou שִׂים ; une racine primitive ;",
    "frequency": 583,
    "kjv_def": "tout sage, nommer, apporter, appeler (un nom), prendre soin, jeter, changer, charger, commettre, considérer, transmettre, déterminer, [phrase] déguiser, disposer, faire, obtenir, donner, entasser, tenir, imputer, poser (en bas, en haut), laisser, regarder, faire (en haut), marquer, [phrase] nommer, ordonner, ordonner, ordonner, peindre, placer, préserver, mettre (sur), considérer, répéter, récompenser, (faire) mettre (sur, en haut), montrer, fermement, prendre, dire, fouler aux pieds, (sur)tourner, entièrement, travailler.",
    "lemma": "שׂוּם",
    "outline": "<ol><li> mettre, placer, établir, nommer, faire<ol><li> (Qal)<ol><li> mettre, poser, déposer, mettre ou déposer sur, mettre la main (violente) sur</li><li> placer, diriger, diriger vers<ol><li> étendre (compassion) (fig)</li></ol><li> établir, ordonner, établir, fonder, nommer, constituer, faire, déterminer, fixer</li><li> pour établir, stationner, mettre, mettre en place, planter, fixer</li><li> pour faire, faire pour, transformer en, constituer, façonner, travailler, faire passer, nommer, donner</li></ol><li> (Hiphil) mettre en place ou faire un signe</li><li> (Hophal) être mis en place</li></ol></li></ol>",
    "pron": "soom",
    "strongs_def": "mettre (utilisé dans une grande variété d'applications, au sens propre, au sens figuré, par déduction et de manière elliptique)",
    "xlit": "sûwm"
}