{
    "derivation": "identique à H7769 (שׁוּעַ) ;",
    "frequency": 2,
    "kjv_def": "Shua, Shuah.",
    "lemma": "שׁוּעַ",
    "outline": "<span class=\"literal-meaning\">Shuah = &quot;richesse&quot;</span><ol><li> père de la femme de Juda</li></ol>",
    "pron": "shoo'-ah",
    "strongs_def": "Shua, un Canaanite",
    "xlit": "Shûwaʻ"
}