{
    "derivation": "de H776 (אֶרֶץ) ; terreux ;",
    "frequency": 1,
    "kjv_def": "Arza.",
    "lemma": "אַרְצָא",
    "outline": "<span class=\"literal-meaning\">Arza = &quot;terreux&quot;</span><ol><li> gouvernante d'Elah, roi d'Israël</li></ol>",
    "pron": "ar-tsaw'",
    "strongs_def": "Artsa, un Israélite",
    "xlit": "ʼartsâʼ"
}