{
    "derivation": "patronyme de H8197 (שְׁפוּפָם) ;",
    "frequency": 1,
    "kjv_def": "Shuphamite.",
    "lemma": "שׁוּפָמִי",
    "outline": "<span class=\"literal-meaning\">Shuphamites = voir Shupham &quot;nudité&quot;.</span><ol><li> Benjamites, les descendants de Shupham</li></ol>",
    "pron": "shoo-faw-mee'",
    "strongs_def": "un Shuphamite (collectivement) ou des descendants de Shephupham",
    "xlit": "Shûwphâmîy"
}