{
    "derivation": "ou שֹׁפָר ; de H8231 (שָׁפַר) dans le sens original d'inciser ;",
    "frequency": 72,
    "kjv_def": "cornet, trompette.",
    "lemma": "שׁוֹפָר",
    "outline": "<ol><li> cor, corne de bélier</li></ol>",
    "pron": "sho-far'",
    "strongs_def": "un cornet (comme donnant un son clair) ou un cor courbe",
    "xlit": "shôwphâr"
}