{
    "derivation": "une racine primitive ;",
    "frequency": "",
    "kjv_def": "aller, singulier Voir aussi H7891 (שִׁיר).",
    "lemma": "שׁוּר",
    "outline": "",
    "pron": "shoor",
    "strongs_def": "proprement, tourner, c'est-à-dire se déplacer (comme une prostituée ou un marchand)",
    "xlit": "shûwr"
}