{
    "derivation": "comme H8321 (שֹׂרֵק) ; une vigne ;",
    "frequency": 1,
    "kjv_def": "Sorek.",
    "lemma": "שׂוֹרֵק",
    "outline": "<span class=\"literal-meaning\">Sorek = &quot;vignes de choix</span><ol><li> un oued de Palestine dans lequel vivait Dalila</li></ol>",
    "pron": "so-rake'",
    "strongs_def": "Sorek, une vallée en Palestine",
    "xlit": "Sôwrêq"
}