{
    "derivation": "de H7889 (שִׁימוֹן) ;",
    "frequency": 1,
    "kjv_def": "ennemi.",
    "lemma": "שׁוּר",
    "outline": "<ol><li> guetteur, ennemi<ol><li> (BDB) signifiant douteux</li></ol></li></ol>",
    "pron": "shoor",
    "strongs_def": "un ennemi (à l'affût)",
    "xlit": "shûwr"
}