{
    "derivation": "d'origine étrangère ;",
    "frequency": 4,
    "kjv_def": "Ararat, Arménie.",
    "lemma": "אֲרָרַט",
    "outline": "<span class=\"literal-meaning\">Ararat = &quot; la malédiction inversée : précipitation de la malédiction &quot;.</span><ol><li> une région montagneuse de l'est de l'Arménie, entre la rivière Araxe et les lacs Van et Oroomiah, le site où l'arche de Noé s'est arrêtée</li><li> (TWOT) la montagne où l'arche de Noé s'est arrêtée</li></ol>",
    "pron": "ar-aw-rat'",
    "strongs_def": "Ararat (ou plutôt Arménie)",
    "xlit": "ʼĂrâraṭ"
}