{
    "derivation": "(araméen) correspondant à H5800 (עָזַב) ;",
    "frequency": 9,
    "kjv_def": "livrer.",
    "lemma": "שְׁזַב",
    "outline": "<ol><li> (Peel ou Peil) pour délivrer</li></ol>",
    "pron": "shez-ab'",
    "strongs_def": "quitter, c'est-à-dire (causalement) libérer",
    "xlit": "shᵉzab"
}