{
    "derivation": "d'une racine inutilisée signifiant probablement rugir ;",
    "frequency": 7,
    "kjv_def": "(féroce) lion.",
    "lemma": "שַׁחַל",
    "outline": "<ol><li> lion<ol><li> de Jéhovah, les méchants (fig)</li></ol></li></ol>",
    "pron": "shakh'-al",
    "strongs_def": "un lion (d'après son rugissement caractéristique)",
    "xlit": "shachal"
}