{
    "derivation": "d'une racine inutilisée signifiant peler, c'est-à-dire émacier ;",
    "frequency": 2,
    "kjv_def": "coucou.",
    "lemma": "שַׁחַף",
    "outline": "<ol><li> un oiseau cérémoniellement impur<ol><li> coucou, mouette, goéland, goéland marin</li><li> peut-être un oiseau éteint, signification exacte inconnue</li></ol></li></ol>",
    "pron": "shakh'-af",
    "strongs_def": "la mouette (comme mince)",
    "xlit": "shachaph"
}