{
    "derivation": "une racine primitive (identique à H7836 (שָׁחַר) par l'idée du crépuscule de l'aube précoce) ;",
    "frequency": 1,
    "kjv_def": "être noir.",
    "lemma": "שָׁחַר",
    "outline": "<ol><li> être noir<ol><li> (Qal) être noir (de peau)</li></ol></li></ol>",
    "pron": "shaw-khar'",
    "strongs_def": "être faible ou sombre (en couleur)",
    "xlit": "shâchar"
}