{
    "derivation": "une racine primitive ;",
    "frequency": 6,
    "kjv_def": "décliner, aller de côté, tourner.",
    "lemma": "שָׂטָה",
    "outline": "<ol><li> se détourner, s'écarter, tourner, décliner<ol><li> (Qal) se détourner</li></ol></li></ol>",
    "pron": "saw-taw'",
    "strongs_def": "s'écarter du devoir",
    "xlit": "sâṭâh"
}