{
    "derivation": "double de H7837 (שַׁחַר) ; double aube ;",
    "frequency": 1,
    "kjv_def": "Shaharaim.",
    "lemma": "שַׁחֲרַיִם",
    "outline": "<span class=\"literal-meaning\">Shaharaim = &quot; double aurore &quot;.</span><ol><li> benjamite, père de Jobab, Zibia, Mesha, Malcham, Jeuz, Shachia, Mirma, Abitub et Elpaal</li></ol>",
    "pron": "shakh-ar-ah'-yim",
    "strongs_def": "Shacharajim, un Israélite",
    "xlit": "Shachărayim"
}