{
    "derivation": "(Araméen) correspondant à H7843 (שָׁחַת)",
    "frequency": "",
    "kjv_def": "corrompu, faute.",
    "lemma": "שְׁחַת",
    "outline": "",
    "pron": "shekh-ath'",
    "strongs_def": "{dégradation, c'est-à-dire (causalité) ruine (au sens propre ou figuré)}",
    "xlit": "shᵉchath"
}