{
    "derivation": "de H7836 (שָׁחַר) et H3050 (יָהּ) ; Jah a cherché ;",
    "frequency": 1,
    "kjv_def": "Shehariah.",
    "lemma": "שְׁחַרְיָה",
    "outline": "<span class=\"literal-meaning\">Shehariah = &quot;l'aube de Jéhovah&quot;.</span><ol><li> un Benjamite, fils de Joram</li></ol>",
    "pron": "shekh-ar-yaw'",
    "strongs_def": "Shecharjah, un Israélien",
    "xlit": "Shᵉcharyâh"
}