{
    "derivation": "de H7743 (שׁוּחַ) ;",
    "frequency": 23,
    "kjv_def": "corruption, destruction, fossé, tombe, fosse.",
    "lemma": "שַׁחַת",
    "outline": "<ol><li> fosse, destruction, tombe<ol><li> fosse (pour attraper les lions)</li><li> fosse (de l'enfer)</li></ol></li></ol>",
    "pron": "shakh'-ath",
    "strongs_def": "une fosse (surtout comme piège) ; au sens figuré, la destruction",
    "xlit": "shachath"
}