{
    "derivation": "une racine primitive ;",
    "frequency": 6,
    "kjv_def": "(être) un adversaire, résister.",
    "lemma": "שָׂטַן",
    "outline": "<ol><li> (Qal) être ou agir comme un adversaire, résister, s'opposer</li></ol>",
    "pron": "saw-tan'",
    "strongs_def": "attaquer, accuser (au sens figuré)",
    "xlit": "sâṭan"
}