{
    "derivation": "(Araméen) correspondant à H7867 (שִׂיב)",
    "frequency": 5,
    "kjv_def": "aîné.",
    "lemma": "שִׂיב",
    "outline": "<ol><li> être grisonnant, être hirsute, avoir une tête hirsute<ol><li> (P'al) anciens (subst)</li></ol></li></ol>",
    "pron": "seeb",
    "strongs_def": "{profondément, vieillir, c'est-à-dire (implicitement) devenir grisonnant}",
    "xlit": "sîyb"
}