{
    "derivation": "identique (origine et formation) à H784 (אֵשׁ) ;",
    "frequency": 1,
    "kjv_def": "sont là, aucun ne peut. Comparez H3426 (יֵשׁ).",
    "lemma": "אִשׁ",
    "outline": "<ol><li> il y a, il y a</li></ol>",
    "pron": "eesh",
    "strongs_def": "entité, utilisée uniquement de manière adverbiale, il y a ou sont",
    "xlit": "ʼish"
}