{
    "derivation": "féminin de H7869 (שֵׂיב) ;",
    "frequency": 19,
    "kjv_def": "(être) gris (grey hoar,-y) cheveux (tête,-ed), vieillesse.",
    "lemma": "שֵׂיבָה",
    "outline": "<ol><li> âge, cheveux gris, tête hérissée, vieillesse<ol><li> cheveux gris, cheveux blancs</li><li> vieillesse</li></ol></li></ol>",
    "pron": "say-baw'",
    "strongs_def": "vieillesse",
    "xlit": "sêybâh"
}