{
    "derivation": "de H7878 (שִׂיחַ) ;",
    "frequency": 13,
    "kjv_def": "babillage, communication, plainte, méditation, prière, parler.",
    "lemma": "שִׂיחַ",
    "outline": "<ol><li> méditation, plainte, rêverie<ol><li> plaint, plainte</li><li> les suivants sont douteux<ol><li> rêverie</li><li> anxiété, trouble</li><li> parler</li></ol></li></ol></li></ol>",
    "pron": "see'-akh",
    "strongs_def": "une contemplation ; par voie de conséquence, un énoncé",
    "xlit": "sîyach"
}