{
    "derivation": "apparemment pour H3452 (יְשִׁימוֹן) ; désert ;",
    "frequency": 1,
    "kjv_def": "Shimon.",
    "lemma": "שִׁימוֹן",
    "outline": "<span class=\"literal-meaning\">Shimon = &quot;désert&quot;</span><ol><li> judaïque, père d'Amnon, Rinnah, Ben-Hanan et Tilon</li></ol>",
    "pron": "shee-mone'",
    "strongs_def": "Shimon, un Israélite",
    "xlit": "Shîymôwn"
}