{
    "derivation": "ou שִׁילֹנִי ; ou שִׁלֹנִי ; de H7887 (שִׁילֹה) ;",
    "frequency": 6,
    "kjv_def": "Shilonite.",
    "lemma": "שִׁילוֹנִי",
    "outline": "<span class=\"literal-meaning\">Shilonite = voir Shiloh &quot; lieu de repos &quot;.</span><ol><li> un habitant de Shiloh</li></ol>",
    "pron": "shee-lo-nee'",
    "strongs_def": "un Shilonite ou un habitant de Shiloh",
    "xlit": "Shîylôwnîy"
}