{
    "derivation": "d'une racine inutilisée signifiant uriner ;",
    "frequency": "",
    "kjv_def": "pisse.",
    "lemma": "שַׁיִן",
    "outline": "",
    "pron": "shah'-yin",
    "strongs_def": "urine",
    "xlit": "shayin"
}