{
    "derivation": "de H5526 (סָכַךְ) dans le sens de H7753 (שׂוּךְ) ;",
    "frequency": "",
    "kjv_def": "piquer.",
    "lemma": "שֵׂךְ",
    "outline": "",
    "pron": "sake",
    "strongs_def": "une ronce (comme dans une haie)",
    "xlit": "sêk"
}