{
    "derivation": "de H7896 (שִׁית) ;",
    "frequency": 7,
    "kjv_def": "épines.",
    "lemma": "שַׁיִת",
    "outline": "<ol><li> buissons d'épines</li></ol>",
    "pron": "shah'-yith",
    "strongs_def": "les broussailles ou déchets, c'est-à-dire la pousse sauvage de mauvaises herbes ou de ronces (comme si elles avaient été mises sur le terrain)",
    "xlit": "shayith"
}