{
    "derivation": "d'une racine inutilisée signifiant blanchir, c'est-à-dire blanchir ; Voir H8336 (שֵׁשׁ).",
    "frequency": 1,
    "lemma": "שַׁיִשׁ",
    "outline": "<ol><li> albâtre</li></ol>",
    "pron": "shah'-yish",
    "strongs_def": "blanc, c'est-à-dire du marbre.",
    "xlit": "shayish"
}