{
    "derivation": "infinitif de H7921 (שָׁכֹל) ;",
    "frequency": 3,
    "kjv_def": "perte d'enfants, gâtisme.",
    "lemma": "שְׁכוֹל",
    "outline": "<ol><li> deuil, perte d'enfants</li></ol>",
    "pron": "shek-ole'",
    "strongs_def": "deuil",
    "xlit": "shᵉkôwl"
}