{
    "derivation": "d'une racine inutilisée signifiant apparemment \"surmonter\" ; un observatoire (avec l'article) ;",
    "frequency": 1,
    "kjv_def": "Sechu.",
    "lemma": "שֵׂכוּ",
    "outline": "<span class=\"literal-meaning\">Sechu = &quot;la tour de guet&quot;.</span><ol><li> un endroit près de Rama avec un grand puits</li></ol>",
    "pron": "say'-koo",
    "strongs_def": "Seku, un lieu en Palestine",
    "xlit": "Sêkûw"
}