{
    "derivation": "de H7901 (שָׁכַב) ;",
    "frequency": 9,
    "kjv_def": "charnellement, la copulation, l'accouplement, la semence.",
    "lemma": "שְׁכָבָה",
    "outline": "<ol><li> acte de mentir, couche, revêtement<ol><li> acte de mensonge (des relations sexuelles)</li><li> couche</li></ol></li></ol>",
    "pron": "shek-aw-baw'",
    "strongs_def": "une position allongée (de la rosée, ou pour l'acte sexuel)",
    "xlit": "shᵉkâbâh"
}