{
    "derivation": "ou שַׁכֻּל ; de H7921 (שָׁכֹל) ;",
    "frequency": 6,
    "kjv_def": "stérile, privé d'enfants (petits).",
    "lemma": "שַׁכּוּל",
    "outline": "<ol><li> sans enfant (à cause d'un deuil)</li><li> endeuillé, privé de progéniture</li></ol>",
    "pron": "shak-kool'",
    "strongs_def": "en deuil",
    "xlit": "shakkûwl"
}