{
    "derivation": "féminine du même que H7906 (שֵׂכוּ) ;",
    "frequency": 1,
    "kjv_def": "photo.",
    "lemma": "שְׂכִיָּה",
    "outline": "<ol><li> image, navire, embarcation<ol><li> sens très douteux</li></ol></li></ol>",
    "pron": "sek-ee-yaw'",
    "strongs_def": "un objet visible",
    "xlit": "sᵉkîyâh"
}