{
    "derivation": "de H7911 (שָׁכַח) ;",
    "frequency": 1,
    "kjv_def": "oublier.",
    "lemma": "שָׁכֵחַ",
    "outline": "<ol><li> oublier, oublier, oublier</li></ol>",
    "pron": "shaw-kay'-akh",
    "strongs_def": "oublieux",
    "xlit": "shâkêach"
}