{
    "derivation": "(araméen) correspondant à H7919 (שָׂכַל)",
    "frequency": "",
    "kjv_def": "considérer.",
    "lemma": "שְׂכַל",
    "outline": "",
    "pron": "sek-al'",
    "strongs_def": "{être (causativement, faire ou agir) circonspect et donc, intelligent}",
    "xlit": "sᵉkal"
}