{
    "derivation": "ou שֵׂכֶל ; de H7919 (שָׂכַל) ;",
    "frequency": 16,
    "kjv_def": "discrétion, connaissance, politique, prudence, sens, compréhension, sagesse, sage.",
    "lemma": "שֶׂכֶל",
    "outline": "<ol><li> prudence, perspicacité, compréhension<ol><li> prudence, bon sens</li><li> perspicacité, compréhension</li><li> ruse, astuce (mauvais sens)</li></ol></li></ol>",
    "pron": "seh'-kel",
    "strongs_def": "l'intelligence ; par conséquent, le succès",
    "xlit": "sekel"
}