{
    "derivation": "une racine primitive ;",
    "frequency": 23,
    "kjv_def": "perdre (des enfants), stérile, jeter un veau (fruit, jeune), être (faire) sans enfant, priver, détruire, [idiome] attendre, perdre des enfants, faire une fausse couche, voler des enfants, gâcher.",
    "lemma": "שָׁכֹל",
    "outline": "<ol><li> être endeuillé, rendre sans enfant, faire une fausse couche<ol><li> (Qal) être en deuil</li><li> (Piel)<ol><li> rendre sans enfant</li><li> provoquer la stérilité, montrer la stérilité ou l'avortement</li><li> faire une fausse couche</li></ol><li> (Hiphil) faire une fausse couche (participe)</li></ol></li></ol>",
    "pron": "shaw-kole'",
    "strongs_def": "proprement, faire une fausse couche, c'est-à-dire subir un avortement ; par analogie, faire le deuil (au sens propre ou figuré)",
    "xlit": "shâkôl"
}