{
    "derivation": "(Araméen) de H7920 (שְׂכַל) ;",
    "frequency": 3,
    "kjv_def": "compréhension.",
    "lemma": "שׇׂכְלְתָנוּ",
    "outline": "<ol><li> aperçu</li></ol>",
    "pron": "sok-leth-aw-noo'",
    "strongs_def": "intelligence",
    "xlit": "soklᵉthânûw"
}