{
    "derivation": "racine primitive ; proprement, incliner (l'épaule à un fardeau) ; mais utilisé seulement comme dénominatif à partir de H7926 (שְׁכֶם) ;",
    "frequency": 65,
    "kjv_def": "(se lever, être debout, se lever (soi-même), se lever) tôt (betimes), matin.",
    "lemma": "שָׁכַם",
    "outline": "<ol><li> se lever ou commencer tôt<ol><li> (Hiphil)<ol><li> se lever tôt, commencer tôt</li><li> tôt (comme adverbe)</li></ol></li></ol></li></ol>",
    "pron": "shaw-kam'",
    "strongs_def": "littéralement, charger (à dos d'homme ou de bête), c'est-à-dire partir tôt le matin",
    "xlit": "shâkam"
}