{
    "derivation": "de H376 (אִישׁ) et H1168 (בַּעַל) ; homme de Baal ;",
    "frequency": 2,
    "kjv_def": "Eshbaal.",
    "lemma": "אֶשְׁבַּעַל",
    "outline": "<span class=\"literal-meaning\">Eshbaal = &quot;un homme de Baal&quot;</span><ol><li> le quatrième fils de Saül, également appelé Ishbosheth</li></ol>",
    "pron": "esh-bah'-al",
    "strongs_def": "Eshbaal (ou Ishbosheth), fils de Saül",
    "xlit": "ʼEshbaʻal"
}