{
    "derivation": "(Araméen) correspondant à H7931 (שָׁכַן)",
    "frequency": "",
    "kjv_def": "faire habiter, avoir une habitation.",
    "lemma": "שְׁכַן",
    "outline": "",
    "pron": "shek-an'",
    "strongs_def": "{résider ou rester en permanence (au sens propre ou figuré)}",
    "xlit": "shᵉkan"
}