{
    "derivation": "une racine primitive (apparemment apparentée (par transmission) à H7901 (שָׁכַב) par l'idée de logement ; comparer H5531 (סִכְלוּת), H7925 (שָׁכַם)) ;",
    "frequency": 128,
    "kjv_def": "demeurer, continuer, (faire, faire habiter), avoir une habitation, habiter, poser, placer, (faire) rester, reposer, installer.",
    "lemma": "שָׁכַן",
    "outline": "<ol><li> s'établir, demeurer, habiter, tabernacle, résider<ol><li> (Qal)<ol><li> s'installer pour demeurer</li><li> demeurer, habiter, résider</li></ol><li>(Piel)<ol><li> to make settle down, establish</li><li> to make or cause to dwell</li></ol><li> (Hiphil)<ol><li> to lay, place, set, establish, settle, fix</li><li> to cause to dwell or abide</li></ol></li></li> </ol></li></ol>",
    "pron": "shaw-kan'",
    "strongs_def": "résider ou rester en permanence (au sens propre ou figuré)",
    "xlit": "shâkan"
}