{
    "derivation": "pour H7943 (שִׁכָּרוֹן) ;",
    "frequency": 1,
    "kjv_def": "Shicron.",
    "lemma": "שִׁכְּרוֹן",
    "outline": "<span class=\"literal-meaning\">Shicron = &quot;ivrognerie</span><ol><li> un point de repère sur la frontière nord-ouest de Juda, situé entre Ekron et Jabneel</li></ol>",
    "pron": "shik-ker-one'",
    "strongs_def": "l'ivresse, Shikkeron, un endroit en Palestine",
    "xlit": "Shikkᵉrôwn"
}