{
    "derivation": "racine primitive ; proprement, signifiant être blanc ; utilisé seulement comme dénominatif à partir de H7950 (שֶׁלֶג) ;",
    "frequency": 1,
    "kjv_def": "être comme la neige.",
    "lemma": "שָׁלַג",
    "outline": "<ol><li> (Hiphil) à la neige, être comme la neige</li></ol>",
    "pron": "shaw-lag'",
    "strongs_def": "être blanc comme neige (avec les vêtements de lin des morts)",
    "xlit": "shâlag"
}