{
    "derivation": "pour H7600 (שַׁאֲנָן) ;",
    "frequency": 1,
    "kjv_def": "être à l'aise.",
    "lemma": "שַׁלְאֲנָן",
    "outline": "<ol><li> à l'aise, tranquille, en sécurité</li></ol>",
    "pron": "shal-an-awn'",
    "strongs_def": "tranquille",
    "xlit": "shalʼănân"
}