{
    "derivation": "le même que H7939 (שָׂכָר) ; récompense ;",
    "frequency": 2,
    "kjv_def": "Sacar.",
    "lemma": "שָׂכָר",
    "outline": "<span class=\"literal-meaning\">Sacar = &quot;salaire&quot;</span><ol><li> père d'Ahiam, l'un des puissants guerriers de David</li><li> portier lévite coréen, 4ème fils d'Obed-Edom au temps de David</li></ol>",
    "pron": "saw-kar'",
    "strongs_def": "Sakar, le nom de deux Israélites",
    "xlit": "Sâkâr"
}