{
    "derivation": "de H7951 (שָׁלָה) ;",
    "frequency": 1,
    "kjv_def": "la prospérité.",
    "lemma": "שֶׁלֶו",
    "outline": "<ol><li> facilité, prospérité</li></ol>",
    "pron": "sheh'-lev",
    "strongs_def": "sécurité",
    "xlit": "shelev"
}