{
    "derivation": "de H7949 (שָׁלַג) ;",
    "frequency": 19,
    "kjv_def": "neige(-y).",
    "lemma": "שֶׁלֶג",
    "outline": "<ol><li> neige</li></ol>",
    "pron": "sheh'-leg",
    "strongs_def": "la neige (probablement en raison de sa blancheur)",
    "xlit": "sheleg"
}