{
    "derivation": "ou שִׁלֻּם ; de H7999 (שָׁלַם) ;",
    "frequency": 3,
    "kjv_def": "rétribution, récompense.",
    "lemma": "שִׁלּוּם",
    "outline": "<ol><li> requit, récompense<ol><li> requit, rétribution</li><li> récompense, pot-de-vin</li></ol></li></ol>",
    "pron": "shil-loom'",
    "strongs_def": "un requit, c'est-à-dire une rétribution (sûre), (vénale) une rémunération",
    "xlit": "shillûwm"
}