{
    "derivation": "de H7971 (שָׁלַח) ;",
    "frequency": 8,
    "kjv_def": "fléchette, plante, [idiome] repousser, épée, arme.",
    "lemma": "שֶׁלַח",
    "outline": "<ol><li> arme, missile, germe<ol><li> missile, arme</li><li> germer, tirer</li></ol></li></ol>",
    "pron": "sheh'-lakh",
    "strongs_def": "un missile d'attaque, c'est-à-dire une lance ; également (au sens figuré) une pousse de croissance, c'est-à-dire une branche",
    "xlit": "shelach"
}