{
    "derivation": "féminin de H796 (אַשְׁדּוֹדִי) ;",
    "frequency": "",
    "kjv_def": "dans le discours d'Ashdod.",
    "lemma": "אַשְׁדּוֹדִית",
    "outline": "",
    "pron": "ash-do-deeth'",
    "strongs_def": "(seulement adverbe) dans la langue d'Ashdod",
    "xlit": "ʼAshdôwdîyth"
}