{
    "derivation": "ou (à l'imitation de H7974 (שֶׁלַח)) שֶׁלַח ; (Néhémie 3:15), de H7971 (שָׁלַח) ; ruisseau ;",
    "frequency": 2,
    "kjv_def": "Shiloah, Siloah.",
    "lemma": "שִׁלֹחַ",
    "outline": "<span class=\"literal-meaning\">Shiloah ou Siloah = &quot;envoyé&quot;.</span><ol><li> une fontaine située au sud-est de Jérusalem</li></ol>",
    "pron": "shee-lo'-akh",
    "strongs_def": "Shiloach, une fontaine de Jérusalem",
    "xlit": "Shilôach"
}