{
    "derivation": "pluriel de H7973 (שֶׁלַח) ; javelots ou pousses ;",
    "frequency": 1,
    "kjv_def": "Shilhim.",
    "lemma": "שִׁלְחִים",
    "outline": "<span class=\"literal-meaning\">Shilhim = &quot;fontaines&quot;.</span><ol><li> une ville dans la partie sud de Juda</li></ol>",
    "pron": "shil-kheem'",
    "strongs_def": "Shilchim, un lieu en Palestine",
    "xlit": "Shilchîym"
}