{
    "derivation": "de H7980 (שָׁלַט) ;",
    "frequency": 7,
    "kjv_def": "bouclier.",
    "lemma": "שֶׁלֶט",
    "outline": "<ol><li> bouclier</li></ol>",
    "pron": "sheh'-let",
    "strongs_def": "probablement un bouclier (pour contrôler, c'est-à-dire protéger la personne)",
    "xlit": "sheleṭ"
}