{
    "derivation": "(Araméen) de H7981 (שְׁלֵט) ;",
    "frequency": 14,
    "kjv_def": "la domination.",
    "lemma": "שׇׁלְטָן",
    "outline": "<ol><li> domination, souveraineté<ol><li> domination, souveraineté</li><li> royaume</li></ol></li></ol>",
    "pron": "shol-tawn'",
    "strongs_def": "l'empire (de manière abstraite ou concrète)",
    "xlit": "sholṭân"
}