{
    "derivation": "de H7997 (שָׁלַל) ;",
    "frequency": 73,
    "kjv_def": "la proie, le butin.",
    "lemma": "שָׁלָל",
    "outline": "<ol><li> proie, pillage, butin, butin<ol><li> proie</li><li> butin, dépouille, pillage (de guerre)</li><li> pillage (privé)</li><li> gain (sens douteux)</li></ol></li></ol>",
    "pron": "shaw-lawl'",
    "strongs_def": "butin",
    "xlit": "shâlâl"
}