{
    "derivation": "une racine primitive ;",
    "frequency": 116,
    "kjv_def": "réparer, (faire) une fin, finir, complet, donner à nouveau, réparer, (re)payer (à nouveau), (faire) (être) en paix(-able), qui est parfait, exécuter, (faire) prospérer(-ous), recompenser, rendre, requérir, faire la restitution, restaurer, récompenser, [idiome] sûrement.",
    "lemma": "שָׁלַם",
    "outline": "<ol><li> être dans une alliance de paix, être en paix<ol><li> (Qal)<ol><li> être en paix</li><li> être en paix (participe)</li></ol><li> (Pual) celui qui est en alliance de paix (participe)</li><li>(Hiphil)<ol><li> faire la paix avec</li></ol></li> faire être en<li><ol><li> paix</li></ol><li> (Hophal) vivre en paix</li></li> </ol><li> to be complete, be sound<ol><li>(Qal)<ol><li> to be complete, be finished, be ended</li><li> to be sound, be uninjured</li></ol><li>(Piel)<ol><li> to complete, finish</li><li> to make safe</li><li> to make whole or good, restore, make compensation</li><li> to make good, pay</li><li> to requite, recompense, reward</li></ol><li>(Pual)<ol><li> to be performed</li><li> to be repaid, be requited</li></ol><li> (Hiphil)<ol><li> to complete, perform</li><li> to make an end of</li></ol></li></li></li></li></ol></li></ol>",
    "pron": "shaw-lam'",
    "strongs_def": "être en sécurité (dans son esprit, son corps ou son patrimoine) ; au sens figuré, être (causalement, faire) achevé ; par implication, être amical ; par extension, être réciproque (dans diverses applications)",
    "xlit": "shâlam"
}