{
    "derivation": "de la racine de H79 (אָבַק) ;",
    "frequency": 6,
    "kjv_def": "(petit) poussière, poudre.",
    "lemma": "אָבָק",
    "outline": "<ol><li> poussière<ol><li> au sol</li><li> nuages (fig.)</li></ol></li></ol>",
    "pron": "aw-bawk'",
    "strongs_def": "particules légères (comme volatiles)",
    "xlit": "ʼâbâq"
}