{
    "derivation": "identique à H8008 (שַׂלְמָה) ; vêtements ;",
    "frequency": 1,
    "kjv_def": "Le saumon. Comparer avec H8012 (שַׂלְמוֹן).",
    "lemma": "שַׂלְמָה",
    "outline": "<span class=\"literal-meaning\">Salmon = &quot; vêtement &quot;.</span><ol><li> père de Boaz, beau-père de Ruth, et grand-père de David<ol><li> aussi 'Salmah', 'Salma'</li></ol></li></ol>",
    "pron": "sal-maw'",
    "strongs_def": "Salmah, un Israélite",
    "xlit": "Salmâh"
}