{
    "derivation": "de H7999 (שָׁלַם) ;",
    "frequency": 1,
    "kjv_def": "une récompense.",
    "lemma": "שִׁלֵּם",
    "outline": "<ol><li> récompense, requalification</li></ol>",
    "pron": "shil-lame'",
    "strongs_def": "requête",
    "xlit": "shillêm"
}