{
    "derivation": "féminin de H7966 (שִׁלּוּם) ;",
    "frequency": 1,
    "kjv_def": "une récompense.",
    "lemma": "שִׁלֻּמָה",
    "outline": "<ol><li> récompense, requalification, rétribution</li></ol>",
    "pron": "shil-loo-maw'",
    "strongs_def": "vengeance",
    "xlit": "shillumâh"
}