{
    "derivation": "une racine primitive peut-être à l'origine pour intensifier, c'est-à-dire tripler ; mais apparemment utilisée seulement comme dénominatif à partir de H7969 (שָׁלוֹשׁ),",
    "frequency": 9,
    "kjv_def": "faire la troisième fois, (diviser en, rester) trois (jours, -plier, parties, années).",
    "lemma": "שָׁלַשׁ",
    "outline": "<ol><li> faire une troisième fois, faire trois fois, diviser en trois parties<ol><li> (Piel) faire une troisième fois, diviser en trois parties</li><li> (Pual) être âgé de trois ans, être triplé</li></ol></li></ol>",
    "pron": "shaw-lash'",
    "strongs_def": "être (causalement, faire) en triple exemplaire (par restauration, en portions, en brins, en jours ou en années)",
    "xlit": "shâlash"
}