{
    "derivation": "de dérivation étrangère ;",
    "frequency": 2,
    "kjv_def": "Shalmaneser. Comp H8020 (שַׁלְמַן).",
    "lemma": "שַׁלְמַנְאֶסֶר",
    "outline": "<span class=\"literal-meaning\">Shalmaneser = &quot;adorateur du feu&quot;.</span><ol><li> Roi assyrien qui a probablement régné entre Tiglath-Pileser et Sargon ; a envahi le royaume du nord d'Israël lorsque le dernier roi Hoshea était sur le trône ; a forcé Hoshea à payer un tribut mais a dû réinvestir lorsque Hoshea a renoncé ; il n'est pas certain que Shalmaneser ou Sargon ait terminé le siège qui a finalement mis fin au royaume du nord<ol><li> peut-être un nom commun pour les rois assyriens au 8ème siècle avant J.-C</li></ol></li></ol>",
    "pron": "shal-man-eh'-ser",
    "strongs_def": "Shalmaneser, un roi assyrien",
    "xlit": "Shalmanʼeçer"
}