{
    "derivation": "de dérivation étrangère ;",
    "frequency": 1,
    "kjv_def": "Shalman. Comparez H8022 (שַׁלְמַנְאֶסֶר).",
    "lemma": "שַׁלְמַן",
    "outline": "<span class=\"literal-meaning\">Shalman = &quot;adorateur du feu&quot;.</span><ol><li> une contraction de Shalmaneser roi d'Assyrie<ol><li> peut-être un obscur roi assyrien, prédécesseur de Pul</li></ol></li></ol>",
    "pron": "shal-man'",
    "strongs_def": "Shalman, un roi apparemment d'Assyrie",
    "xlit": "Shalman"
}