{
    "derivation": "une particule primitive (plutôt du pronom relatif, H834 (אֲשֶׁר)) ;",
    "frequency": 833,
    "kjv_def": "en elle, [phrase] de là, là (-dans, [phrase] de, [phrase] hors), [phrase] vers, [phrase] vers.",
    "lemma": "שָׁם",
    "outline": "<ol><li> là, de là<ol><li> là</li><li> par là (après les verbes de mouvement)</li><li> de là, de là</li><li> puis (comme adverbe de temps)</li></ol></li></ol>",
    "pron": "shawm",
    "strongs_def": "là (transfert dans le temps) puis ; souvent là, ou de là",
    "xlit": "shâm"
}