{
    "derivation": "féminin du même que H8028 (שֶׁלֶשׁ) ; triplication ;",
    "frequency": 1,
    "kjv_def": "Shilshah.",
    "lemma": "שִׁלְשָׁה",
    "outline": "<span class=\"literal-meaning\">Shilshah = &quot;fort&quot;</span><ol><li> un Asherite, fils de Zopha</li></ol>",
    "pron": "shil-shaw'",
    "strongs_def": "Shilshah, un Israélite",
    "xlit": "Shilshâh"
}