{
    "derivation": "un mot primitif (peut-être plutôt à travers l'idée de position définie et ostensible ; comparer H8064 (שָׁמַיִם)) ;",
    "frequency": 864,
    "kjv_def": "[phrase] base, (in-) fame(-ous), named(-d), renommée, rapport.",
    "lemma": "שֵׁם",
    "outline": "<ol><li> nom<ol><li> nom</li><li> réputation, renommée, gloire</li><li> le Nom (comme désignation de Dieu)</li><li> mémorial, monument</li></ol></li></ol>",
    "pron": "shame",
    "strongs_def": "une appellation, en tant que marque ou mémorial de l'individualité ; par implication, honneur, autorité, caractère",
    "xlit": "shêm"
}