{
    "derivation": "identique à H8034 (שֵׁם) ; nom ;",
    "frequency": 17,
    "kjv_def": "Sem, Shem.",
    "lemma": "שֵׁם",
    "outline": "<span class=\"literal-meaning\">Sem = &quot;nom&quot;</span><ol><li> le fils aîné de Noé et le géniteur des tribus sémitiques</li></ol>",
    "pron": "shame",
    "strongs_def": "Sem, un fils de Noé (souvent inclus dans sa postérité)",
    "xlit": "Shêm"
}