{
    "derivation": "de H8074 (שָׁמֵם) ;",
    "frequency": 39,
    "kjv_def": "étonnement, désolation (-ion), gaspillage, chose merveilleuse.",
    "lemma": "שַׁמָּה",
    "outline": "<ol><li> gaspillage, horreur, consternation<ol><li> un gaspillage (de terre, de ville, etc.)</li><li> consternation, horreur</li></ol></li></ol>",
    "pron": "sham-maw'",
    "strongs_def": "la ruine ; par implication, la consternation",
    "xlit": "shammâh"
}