{
    "derivation": "de dérivation incertaine ;",
    "frequency": 2,
    "kjv_def": "Shamgar.",
    "lemma": "שַׁמְגַּר",
    "outline": "<span class=\"literal-meaning\">Shamgar = &quot;épée&quot;</span><ol><li> fils d'Anath et juge d'Israël ; avec un aiguillon de bœuf, il tua 600 Philistins et délivra Israël</li></ol>",
    "pron": "sham-gar'",
    "strongs_def": "Shamgar, un juge israélite",
    "xlit": "Shamgar"
}