{
    "derivation": "pour H8048 (שַׁמָּה) ; désolation ;",
    "frequency": 1,
    "kjv_def": "Shamhuth.",
    "lemma": "שַׁמְהוּת",
    "outline": "<span class=\"literal-meaning\">Shamhuth = &quot;désolation&quot;.</span><ol><li> le 5ème capitaine (des divisions militaires) pour le 5ème mois au temps de David<ol><li> aussi 'Shammoth' (08054) et 'Shammah' (08048)</li></ol></li></ol>",
    "pron": "sham-hooth'",
    "strongs_def": "Shamhuth, un Israélite",
    "xlit": "Shamhûwth"
}