{
    "derivation": "de H8074 (שָׁמֵם) ; renommé ;",
    "frequency": 5,
    "kjv_def": "Shammua, Shammuah.",
    "lemma": "שַׁמּוּעַ",
    "outline": "<span class=\"literal-meaning\">Shammua = &quot;renommé&quot;</span><ol><li> fils de Zaccur et l'espion de la tribu de Ruben</li><li> fils de David par sa femme Bethsabée<ol><li> également \"Shammuah\" et \"Shimea\"</li></ol><li>un lévite, fils de Galal et père d'Abda qui vivait à Jérusalem après le retour d'exil au temps de Néhémie<ol><li> également \"Shemaiah\"</li></ol><li> un prêtre, chef de la famille de Bilga au temps de Jojakim après le retour d'exil</li></li> </ol>",
    "pron": "sham-moo'-ah",
    "strongs_def": "Shammua, le nom de quatre Israélites",
    "xlit": "Shammûwaʻ"
}