{
    "derivation": "apparemment de H8034 (שֵׁם) et H3045 (יָדַע) ; nom de connaissant ;",
    "frequency": 3,
    "kjv_def": "Shemida, Shemidah.",
    "lemma": "שְׁמִידָע",
    "outline": "<span class=\"literal-meaning\">Shemida = &quot;sage&quot;</span><ol><li> un fils de Galaad, petit-fils de Manassé, et géniteur d'une famille à Manassé</li></ol>",
    "pron": "shem-ee-daw'",
    "strongs_def": "Shemida, un Israélite",
    "xlit": "Shᵉmîydâʻ"
}