{
    "derivation": "de H8104 (שָׁמַר) dans le sens original de piquer ;",
    "frequency": 11,
    "kjv_def": "adamant (pierre), brier, diamant.",
    "lemma": "שָׁמִיר",
    "outline": "<ol><li> épine(s), adamant, silex<ol><li> épines, buissons d'épines</li><li> adamant (comme tranchant)</li><li> une pierre pointue, un silex<ol><li> peut-être un diamant</li></ol></li></ol></li></ol>",
    "pron": "shaw-meer'",
    "strongs_def": "une épine ; également (d'après son acuité à gratter) une pierre précieuse, probablement le diamant",
    "xlit": "shâmîyr"
}