{
    "derivation": "une racine primitive ;",
    "frequency": 86,
    "kjv_def": "s'étonner, être étonné, (être un) étonnement (-ment), (être, apporter dans, à, poser, mentir, faire) désolation (-ion, lieux), être démuni, détruire (soi), (poser, mentir, faire) gaspillage, merveille.",
    "lemma": "שָׁמֵם",
    "outline": "<ol><li> être désolé, être consterné, être stupéfié, stupéfier<ol><li> (Qal)<ol><li> être désolé, être défloré, être déserté, être consterné</li><li> être consterné, être stupéfait</li></ol><li>(Niphal)<ol><li> être désolée, être rendue désolante</li><li> être épouvantée</li></ol><li> (Polel)<ol><li> être stupéfaite</li><li>épouvanter, causer de l'horreur (participe)<ol><li> causer de l'horreur, épouvanter (subst)</li></ol><li>(Hiphil)<ol><li> dévaster, ravager, rendre désolée</li><li> épouvanter, montrer de l'horreur</li></ol><li> (Hophal) désoler, être désolée</li><li> (Hithpolel)<ol><li> causer d'être désolée</li><li> être épouvantée, être stupéfaite</li><li> se causer de la désolation, se causer de la ruine</li></ol></li></li></li></ol></li></li> </ol>",
    "pron": "shaw-mame'",
    "strongs_def": "assommer (ou intransitivement, engourdir), c'est-à-dire dévaster ou (au sens figuré) stupéfier (généralement dans un sens passif)",
    "xlit": "shâmêm"
}