{
    "derivation": "de H8085 (שָׁמַע) ;",
    "frequency": 18,
    "kjv_def": "bruit, renommée, entendre (-ing), fort, rapport, discours, nouvelles.",
    "lemma": "שֵׁמַע",
    "outline": "<ol><li> rapport, une audience</li></ol>",
    "pron": "shay'-mah",
    "strongs_def": "quelque chose d'entendu, c'est-à-dire un son, une rumeur, une annonce ; abstraitement, un public",
    "xlit": "shêmaʻ"
}