{
    "derivation": "une racine primitive ;",
    "frequency": "",
    "kjv_def": "devenir (faire, cirer) gras.",
    "lemma": "שָׁמַן",
    "outline": "",
    "pron": "shaw-man'",
    "strongs_def": "briller, c'est-à-dire (par analogie) être (causalement, rendre) gras ou grossier",
    "xlit": "shâman"
}