{
    "derivation": "de H8080 (שָׁמַן) ;",
    "frequency": 193,
    "kjv_def": "onction, [idiome] gras (choses), [idiome] fructueux, huile(-ed), onguent, olive, [phrase] pin.",
    "lemma": "שֶׁמֶן",
    "outline": "<ol><li> graisse, huile<ol><li> gras, graisse</li><li> huile, huile d'olive<ol><li> comme aliment, médicament ou onguent</li><li> pour l'onction</li></ol><li> graisse (de terres fertiles, de vallées) (métaphore)</li></ol></li></ol>",
    "pron": "sheh'-men",
    "strongs_def": "graisse, surtout liquide (comme celle de l'olive, souvent parfumée) ; au sens figuré, richesse",
    "xlit": "shemen"
}