{
    "derivation": "féminin de H8088 (שֵׁמַע) ; annonciation ;",
    "frequency": 2,
    "kjv_def": "Shimeah.",
    "lemma": "שִׁמְעָה",
    "outline": "<span class=\"literal-meaning\">Shimeah = &quot;renommée&quot;</span><ol><li> frère de David, le 3ème fils de Jesse<ol><li> aussi 'Shammah', et 'Shimma'</li></ol></li></ol>",
    "pron": "shim-aw'",
    "strongs_def": "Shimah, un Israélite",
    "xlit": "Shimʻâh"
}