{
    "derivation": "féminin de H808 (אָשִׁישׁ) ;",
    "frequency": 4,
    "kjv_def": "flagon.",
    "lemma": "אֲשִׁישָׁה",
    "outline": "<ol><li> gâteau aux raisins, utilisé lors des fêtes sacrificielles<ol><li> traduit systématiquement dans l'AV par &quot;flacon de vin&quot;.</li></ol></li></ol>",
    "pron": "ash-ee-shaw'",
    "strongs_def": "quelque chose de serré, par exemple un gâteau de raisins secs ou d'autres comfits",
    "xlit": "ʼăshîyshâh"
}