{
    "derivation": "patronymiquement de H8095 (שִׁמְעוֹן) ;",
    "frequency": 4,
    "kjv_def": "tribu de Simeon, Simeonites.",
    "lemma": "שִׁמְעֹנִי",
    "outline": "<span class=\"literal-meaning\">Siméonites = voir Siméon &quot;écoute&quot;.</span><ol><li> descendants de Siméon</li></ol>",
    "pron": "shim-o-nee'",
    "strongs_def": "un Shimonite (collectivement) ou des descendants de Shimon",
    "xlit": "Shimʻônîy"
}