{
    "derivation": "pour H8087 (שֶׁמַע) ;",
    "frequency": 1,
    "kjv_def": "Shema.",
    "lemma": "שְׁמָע",
    "outline": "<span class=\"literal-meaning\">Shema = &quot;entendre&quot;</span><ol><li> ville de Juda, à la limite de la tribu, vers Édom au sud<ol><li> identique à 08088 ; ce mot 08090 ne se trouve pas dans le texte hébreu</li></ol></li></ol>",
    "pron": "shem-aw'",
    "strongs_def": "Shema, un lieu en Palestine",
    "xlit": "Shᵉmâʻ"
}