{
    "derivation": "de H8105 (שֶׁמֶר) dans son sens premier ; vigilant ;",
    "frequency": 4,
    "kjv_def": "Shimri.",
    "lemma": "שִׁמְרִי",
    "outline": "<span class=\"literal-meaning\">Shimri = &quot;vigilant&quot;</span><ol><li> un Siméonite, fils de Shemaiah et père de Jedaiah</li><li> père de Jediael, l'un des puissants guerriers de David</li><li> un Lévite mérarite, fils de Hosah</li><li> un lévite kohathite, fils d'Elizaphan</li></ol>",
    "pron": "shim-ree'",
    "strongs_def": "Shimri, le nom de quatre Israélites",
    "xlit": "Shimrîy"
}