{
    "derivation": "identique à H811 (אֶשְׁכּוֹל) ;",
    "frequency": 6,
    "kjv_def": "Eshcol.",
    "lemma": "אֶשְׁכֹּל",
    "outline": "<span class=\"literal-meaning\">Eshcol = \"amas\"</span><ol><li> une région d'Hébron, la vallée d'Eshcol</li><li> amorite, frère de Mamré, habitant à Hébron</li></ol>",
    "pron": "esh-kole'",
    "strongs_def": "Eshcol, nom d'un Amorite, et d'une vallée en Palestine",
    "xlit": "ʼEshkôl"
}