{
    "derivation": "patronymiquement à partir d'un nom non utilisé de H7762 (שׁוּם) signifiant probablement odeur d'ail ;",
    "frequency": 1,
    "kjv_def": "Shumathites.",
    "lemma": "שֻׁמָתִי",
    "outline": "<span class=\"literal-meaning\">Shumathites = \"les exaltés\"</span><ol><li> un descendant ou un habitant de Shumah</li></ol>",
    "pron": "shoo-maw-thee'",
    "strongs_def": "un Shumathite (collectivement) ou des descendants de Shumah",
    "xlit": "Shumâthîy"
}