{
    "derivation": "une racine primitive ;",
    "frequency": 147,
    "kjv_def": "ennemi, foe, (être) détesté(-ful, -r), odieux, [idiome] complètement.",
    "lemma": "שָׂנֵא",
    "outline": "<ol><li> haïr, être haïssable<ol><li> (Qal) haïr<ol><li> de l'homme</li><li> de Dieu</li><li> haïr, celui qui hait, ennemi (participe) (subst)</li></ol><li> (Niphal) être haï</li><li> (Piel) haïr (participe)<ol><li> des personnes, des nations, de Dieu, de la sagesse</li></ol></li></ol></li></ol>",
    "pron": "saw-nay'",
    "strongs_def": "détester (personnellement)",
    "xlit": "sânêʼ"
}