{
    "derivation": "d'origine étrangère ;",
    "frequency": 3,
    "kjv_def": "Ashkénaze.",
    "lemma": "אַשְׁכְּנַז",
    "outline": "<span class=\"literal-meaning\">Ashkenaz = &quot;l'homme comme l'aspersion, le feu comme la dispersion&quot;.</span><ol><li> un descendant de Japhet</li><li> un peuple du nord, peut-être de Bithynie</li></ol>",
    "pron": "ash-ken-az'",
    "strongs_def": "Ashkénaz, un Japhéthite, et ses descendants",
    "xlit": "ʼAshkᵉnaz"
}