{
    "derivation": "une racine primitive ;",
    "frequency": 22,
    "kjv_def": "faire (parler, frapper) à nouveau, modifier, doubler, (être donné à) changer, déguiser, (être) divers, pervertir, préférer, répéter, retourner, faire la deuxième fois.",
    "lemma": "שָׁנָה",
    "outline": "<ol><li> répéter, refaire, changer, altérer<ol><li> (Qal) changer</li><li> (Niphal) se répéter</li><li> (Piel) changer, altérer</li><li> (Hithpael) se déguiser</li></ol></li></ol>",
    "pron": "shaw-naw'",
    "strongs_def": "plier, c'est-à-dire dupliquer (au sens propre ou figuré) ; par implication, transmuter (transitif ou intransitif)",
    "xlit": "shânâh"
}