{
    "derivation": "ou שְׂנִיר ; d'une racine inutilisée signifiant être pointé ; pic ;",
    "frequency": 4,
    "kjv_def": "Senir, Shenir.",
    "lemma": "שְׁנִיר",
    "outline": "<span class=\"literal-meaning\">Senir ou Shenir = &quot;montagne de neige&quot;.</span><ol><li> le nom amorite du Mont Hermon</li></ol>",
    "pron": "shen-eer'",
    "strongs_def": "Shenir ou Senir, un sommet du Liban",
    "xlit": "Shᵉnîyr"
}