{
    "derivation": "de H8138 (שָׁנָה) ;",
    "frequency": 157,
    "kjv_def": "encore, l'un ou l'autre, (an-) autre, deuxième (fois).",
    "lemma": "שֵׁנִי",
    "outline": "<ol><li> deuxième<ol><li> deuxième (le numéro ordinal)</li><li> encore (une deuxième fois)</li><li> autre, autre (quelque chose qui se distingue d'une autre chose)</li></ol></li></ol>",
    "pron": "shay-nee'",
    "strongs_def": "proprement, double, c'est-à-dire deuxième ; aussi adverbialement, de nouveau",
    "xlit": "shênîy"
}