{
    "derivation": "ou שָׁשָׂה ; (Esaïe 10:13), une racine primitive ;",
    "frequency": 11,
    "kjv_def": "destructeur, voleur, gâcheur (-er).",
    "lemma": "שָׁסָה",
    "outline": "<ol><li> dépouiller, piller, prendre le butin<ol><li> (Qal)<ol><li> piller</li><li> pilleurs (participe)</li></ol><li> (Poel) piller</li></ol></li></ol>",
    "pron": "shaw-saw'",
    "strongs_def": "de piller",
    "xlit": "shâçâh"
}