{
    "derivation": "féminin de H8163 (שָׂעִיר) ;",
    "frequency": "",
    "kjv_def": "enfant.",
    "lemma": "שְׂעִירָה",
    "outline": "",
    "pron": "seh-ee-raw'",
    "strongs_def": "une chèvre",
    "xlit": "sᵉʻîyrâh"
}