{
    "derivation": "d'une racine inutilisée signifiant creuser ;",
    "frequency": 3,
    "kjv_def": "poignée, creux de la main.",
    "lemma": "שֹׁעַל",
    "outline": "<ol><li> main creuse, creux de la main, poignée<ol><li> main creuse, creux de la main</li><li> poignée</li></ol></li></ol>",
    "pron": "sho'-al",
    "strongs_def": "la paume ; par extension, une poignée",
    "xlit": "shôʻal"
}