{
    "derivation": "patrie de H8169 (שַׁעַלְבִים) ;",
    "frequency": 2,
    "kjv_def": "Shaalbonite.",
    "lemma": "שַׁעַלְבֹנִי",
    "outline": "<span class=\"literal-meaning\">Shaalbonite = voir Shaalbim &quot; lieu des renards &quot;.</span><ol><li> un habitant de Shaalbim ou Shaalabbin</li></ol>",
    "pron": "shah-al-bo-nee'",
    "strongs_def": "un Shaalbonite ou un habitant de Shaalbin",
    "xlit": "Shaʻalbônîy"
}