{
    "derivation": "une racine primitive ;",
    "frequency": 9,
    "kjv_def": "pleurer (out) (par confusion avec H7768 (שָׁוַע)), dandiner, ravir (soi), jouer, fermer.",
    "lemma": "שָׁעַע",
    "outline": "<ol><li> caresser, être barbouillé, être aveuglé<ol><li> (Qal)<ol><li> s'enduire, être aveuglé</li><li> s'enduire les yeux</li></ol><li> (Hiphil) s'enduire (des yeux), s'enduire les yeux</li><li> (Hithpalpel) s'aveugler, être aveug</li>lé</ol><li> to sport, take delight in<ol><li> (Pilpel) faire du sport, prendre du plaisir, se faire plaisir</li><li> (Palpal) être caressé</li><li> (Hithpalpel) se faire plaisir</li></ol></li></ol>",
    "pron": "shaw-ah'",
    "strongs_def": "(dans une bonne acception) regarder (avec complaisance), c'est-à-dire caresser, plaire ou amuser (soi-même) ; (dans une mauvaise acception) regarder (avec consternation), c'est-à-dire regarder fixement",
    "xlit": "shâʻaʻ"
}