{
    "derivation": "(araméen) correspondant à H8181 (שֵׂעָר) ;",
    "frequency": 3,
    "kjv_def": "cheveux.",
    "lemma": "שְׂעַר",
    "outline": "<ol><li> cheveux (de la tête)</li></ol>",
    "pron": "seh-ar'",
    "strongs_def": "cheveux",
    "xlit": "sᵉʻar"
}