{
    "derivation": "de H8175 (שָׂעַר) ;",
    "frequency": 4,
    "kjv_def": "effrayé, [idiome] horriblement, [idiome] douloureux, tempête. Voir H8181 (שֵׂעָר).",
    "lemma": "שַׂעַר",
    "outline": "<ol><li> orage, tempête, terreur, horreur</li></ol>",
    "pron": "sah'-ar",
    "strongs_def": "une tempête ; également une terreur",
    "xlit": "saʻar"
}