{
    "derivation": "de H5586 (סָעַף) ; fluctuation ;",
    "frequency": 2,
    "kjv_def": "Shaaph.",
    "lemma": "שַׁעַף",
    "outline": "<span class=\"literal-meaning\">Shaaph = &quot;division</span><ol><li> fils de Jahdai, de la famille de Caleb, frère de Jerahmeel</li><li> fils de Caleb, frère de Jerahmeel, par sa concubine Maachah et père de Madmannah</li></ol>",
    "pron": "shah'-af",
    "strongs_def": "Shaaph, le nom de deux Israélites",
    "xlit": "Shaʻaph"
}