{
    "derivation": "une racine primitive ; fendre ou ouvrir, c'est-à-dire (littéralement, mais seulement comme dénominatif de H8179 (שַׁעַר)) ; comparer voir H7778 (שׁוֹעֵר)",
    "frequency": 1,
    "kjv_def": "penser.",
    "lemma": "שָׁעַר",
    "outline": "<ol><li> ouvrir, raisonner, calculer, compter, estimer<ol><li> (Qal) calculer Pr 23:7</li></ol></li></ol>",
    "pron": "shaw-ar'",
    "strongs_def": "faire office de gardien ; (au sens figuré) estimer",
    "xlit": "shâʻar"
}