{
    "derivation": "de H8176 (שָׁעַר) ;",
    "frequency": 1,
    "kjv_def": "vilain.",
    "lemma": "שֹׁעָר",
    "outline": "<ol><li> horrible, dégoûtant, vil, offensant</li></ol>",
    "pron": "sho-awr'",
    "strongs_def": "dur ou horrible, c'est-à-dire offensant",
    "xlit": "shôʻâr"
}