{
    "derivation": "féminin de H8181 (שֵׂעָר) ;",
    "frequency": 7,
    "kjv_def": "cheveux.",
    "lemma": "שַׂעֲרָה",
    "outline": "<ol><li> un seul cheveu</li></ol>",
    "pron": "sah-ar-aw'",
    "strongs_def": "pilosité",
    "xlit": "saʻărâh"
}