{
    "derivation": "de H816 (אָשַׁם) ;",
    "frequency": 3,
    "kjv_def": "celui qui est défectueux, coupable.",
    "lemma": "אָשֵׁם",
    "outline": "<ol><li> coupable, fautif (et obligé d'offrir une offrande de culpabilité)</li></ol>",
    "pron": "aw-shame'",
    "strongs_def": "coupable ; d'où la présentation en offrande",
    "xlit": "ʼâshêm"
}