{
    "derivation": "féminin issu d'une racine inutilisée signifiant s'étendre (comme une famille ; voir H4940 (מִשְׁפָּחָה)) ;",
    "frequency": 63,
    "kjv_def": "(bond-, hand-) maid(-en, -servant), wench, bondwoman, womanservant.",
    "lemma": "שִׁפְחָה",
    "outline": "<ol><li> femme de chambre, servante, esclave<ol><li> servante, serviteur (comme appartenant à une maîtresse)</li><li> d'adresse, d'orateur, d'humilité (fig)</li></ol></li></ol>",
    "pron": "shif-khaw'",
    "strongs_def": "une femme esclave (en tant que membre du ménage)",
    "xlit": "shiphchâh"
}