{
    "derivation": "de dérivation perse ;",
    "frequency": 1,
    "kjv_def": "Shaashgaz.",
    "lemma": "שַׁעַשְׁגַּז",
    "outline": "<span class=\"literal-meaning\">Shaashgaz = &quot;serviteur des belles&quot;</span><ol><li> l'eunuque du palais de Xerxès qui était chargé des femmes de la 2e maison</li></ol>",
    "pron": "shah-ash-gaz'",
    "strongs_def": "Shaashgaz, un eunuque de Xerxès",
    "xlit": "Shaʻashgaz"
}