{
    "derivation": "(Araméen) intensif d'une forme correspondant à H8208 (שָׁפִיר) ;",
    "frequency": 2,
    "kjv_def": "équitable.",
    "lemma": "שַׁפִּיר",
    "outline": "<ol><li> juste, beau (de feuillage)</li></ol>",
    "pron": "shap-peer'",
    "strongs_def": "belle",
    "xlit": "shappîyr"
}