{
    "derivation": "une racine primitive ;",
    "frequency": 29,
    "kjv_def": "abaisser, abaisser (jeter, mettre), avilir, humilier (soi-même), être (apporter, déposer, faire, mettre) bas (-er).",
    "lemma": "שָׁפֵל",
    "outline": "<ol><li> être ou devenir bas, s'enfoncer, être humilié, être abaissé<ol><li> (Qal) être ou devenir bas</li><li> (Hiphil)<ol><li> mettre ou faire mettre bas, humilier</li><li> mettre dans un endroit plus bas, montrer de l'abaissement</li><li> s'abaisser, s'asseoir</li></ol></li></ol></li></ol>",
    "pron": "shaw-fale'",
    "strongs_def": "déprimer ou enfoncer (attente au sens figuré, humilier, intransitif ou transitif)",
    "xlit": "shâphêl"
}