{
    "derivation": "apparemment à partir d'une racine inutilisée (signifiant probablement laisser des interstices) ;",
    "frequency": 2,
    "kjv_def": "battant, treillis.",
    "lemma": "אֶשְׁנָב",
    "outline": "<ol><li> treillis de fenêtre</li></ol>",
    "pron": "esh-nawb'",
    "strongs_def": "une fenêtre à treillis",
    "xlit": "ʼeshnâb"
}