{
    "derivation": "une racine primitive ;",
    "frequency": 1,
    "kjv_def": "trésor.",
    "lemma": "שָׂפַן",
    "outline": "<ol><li> couvrir, recouvrir, panneau, cacher, trésorer<ol><li> (Qal)<ol><li> couvert, lambris, trésors (participe)</li></ol></li></ol></li></ol>",
    "pron": "saw-fan'",
    "strongs_def": "dissimuler (comme un objet de valeur)",
    "xlit": "sâphan"
}