{
    "derivation": "identique à H8235 (שִׁפְרָה) ;",
    "frequency": 1,
    "kjv_def": "Shiphrah.",
    "lemma": "שִׁפְרָה",
    "outline": "<span class=\"literal-meaning\">Shiphrah = &quot; belle &quot;.</span><ol><li> l'une des deux sages-femmes hébraïques qui reçurent l'ordre de Pharaon de tuer tous les enfants mâles nés chez les Hébreux, mais qui désobéirent</li></ol>",
    "pron": "shif-raw'",
    "strongs_def": "Shiphrah, une Israélite",
    "xlit": "Shiphrâh"
}