{
    "derivation": "un dénominatif de H8247 (שָׁקֵד) ;",
    "frequency": 6,
    "kjv_def": "faire comme (à, selon la mode de) des amandes.",
    "lemma": "שָׁקַד",
    "outline": "<ol><li> (Pual) tasses en forme de fleur d'amandier (participe)</li></ol>",
    "pron": "shaw-kad'",
    "strongs_def": "être (intensivement, faire) en forme d'amande",
    "xlit": "shâqad"
}