{
    "derivation": "de H8257 (שָׁקַע) ;",
    "frequency": 1,
    "kjv_def": "une virgule creuse.",
    "lemma": "שְׁקַעְרוּרָה",
    "outline": "<ol><li> dépression, creux</li></ol>",
    "pron": "shek-ah-roo-raw'",
    "strongs_def": "une dépression",
    "xlit": "shᵉqaʻrûwrâh"
}