{
    "derivation": "de H8254 (שָׁקַל) ;",
    "frequency": 88,
    "kjv_def": "shekel.",
    "lemma": "שֶׁקֶל",
    "outline": "<ol><li> shekel<ol><li> l'unité principale de poids ou de mesure<ol><li> or - 1/10000 d'un talent et égal à 220 grains</li><li> argent - 1/3000 d'un talent et égal à 132 grains</li><li> le cuivre - 1/1500 de talent et égal à 528 grains</li></ol></li></ol></li></ol>",
    "pron": "sheh'-kel",
    "strongs_def": "probablement un poids ; utilisé comme étalon commercial",
    "xlit": "sheqel"
}