{
    "derivation": "de H8248 (שָׁקָה) ;",
    "frequency": 2,
    "kjv_def": "boire, moelle.",
    "lemma": "שִׁקּוּי",
    "outline": "<ol><li> boisson, rafraîchissement</li></ol>",
    "pron": "shik-koo'-ee",
    "strongs_def": "une boisson ; l'humidité, c'est-à-dire (au sens figuré) un rafraîchissement",
    "xlit": "shiqqûwy"
}