{
    "derivation": "ou (féminin) שִׁקְמָה ; de dérivation incertaine ;",
    "frequency": 7,
    "kjv_def": "sycomore (fruit, arbre).",
    "lemma": "שִׁקְמָה",
    "outline": "<ol><li> sycomore (portant des figues)</li></ol>",
    "pron": "shik-maw'",
    "strongs_def": "un sycomore (généralement l'arbre)",
    "xlit": "shiqmâh"
}