{
    "derivation": "une racine primitive ;",
    "frequency": 6,
    "kjv_def": "avoir de l'appétit, se dresser l'un contre l'autre, long, large, courir (aller et venir).",
    "lemma": "שָׁקַק",
    "outline": "<ol><li> courir, se déplacer, se précipiter, faire des allers-retours, être avide ou gourmand ou assoiffé<ol><li> (Qal) roving, ranging, longing, rush out on (participe)</li><li> (Hithpalpel) se précipiter en avant et en arrière, se précipiter en arrière et en avant</li></ol></li></ol>",
    "pron": "shaw-kak'",
    "strongs_def": "courir (comme une bête de proie) ; implicitement, chercher avec avidité",
    "xlit": "shâqaq"
}