{
    "derivation": "une racine primitive ;",
    "frequency": 7,
    "kjv_def": "abhorrer, rendre abominable, avoir en abomination, détester, [idiome] complètement.",
    "lemma": "שָׁקַץ",
    "outline": "<ol><li> (Piel) détester, rendre abominable, considérer comme immonde, rendre détestable<ol><li> détester</li><li> rendre détestable</li></ol></li></ol>",
    "pron": "shaw-kats'",
    "strongs_def": "être sale, c'est-à-dire (de manière intensive) détester, polluer",
    "xlit": "shâqats"
}