{
    "derivation": "de H8266 (שָׁקַר) ;",
    "frequency": 113,
    "kjv_def": "sans raison, trompeur(-ful), faux(-hood, -ly), feint, menteur, [phrase] mensonge, menteur, vain (chose), à tort.",
    "lemma": "שֶׁקֶר",
    "outline": "<ol><li> mensonge, tromperie, déception, fausseté<ol><li> tromperie (ce qui trompe ou déçoit ou trahit quelqu'un)</li><li> tromperie, fraude, tort<ol><li> frauduleusement, injustement (comme adverbe)</li></ol><li>mensonge (injurieux dans un témoignage)<ol><li> témoigner faux, faux serment, jurer faussement</li></ol><li> fausseté (des prophètes faux ou trompés)</li><li>mensonge, mensonge (en général)<ol><li> langue fausse</li></ol><li> en vain</li></li></li> </ol></li></ol>",
    "pron": "sheh'-ker",
    "strongs_def": "une contre-vérité ; implicitement, une imposture (souvent adverbial)",
    "xlit": "sheqer"
}