{
    "derivation": "de dérivation étrangère ;",
    "frequency": "",
    "kjv_def": "Sharezer.",
    "lemma": "שַׁרְאֶצֶר",
    "outline": "",
    "pron": "shar-eh'-tser",
    "strongs_def": "Sharetser, le nom d'un Assyrien et d'un Israélite",
    "xlit": "Sharʼetser"
}