{
    "derivation": "probablement de H8281 (שָׁרָה) au sens d'habitation (comparer H8271 (שְׁרֵא)) et H2580 (חֵן) ; demeure de plaisir ;",
    "frequency": 1,
    "kjv_def": "Sharuhen.",
    "lemma": "שָׁרוּחֶן",
    "outline": "<span class=\"literal-meaning\">Sharuhen = &quot;refuge de la grâce&quot;</span><ol><li> une ville de Juda attribuée à Siméon</li></ol>",
    "pron": "shaw-roo-khen'",
    "strongs_def": "Sharuchen, un lieu en Palestine",
    "xlit": "Shârûwchen"
}