{
    "derivation": "de H8276 (שָׂרַג) ; vrille ;",
    "frequency": 5,
    "kjv_def": "Serug.",
    "lemma": "שְׂרוּג",
    "outline": "<span class=\"literal-meaning\">Serug = &quot;branche&quot;</span><ol><li> fils de Reu et arrière-grand-père d'Abraham</li></ol>",
    "pron": "ser-oog'",
    "strongs_def": "Serug, un patriarche postdiluvien",
    "xlit": "Sᵉrûwg"
}