{
    "derivation": "patrie de H8289 (שָׁרוֹן) ;",
    "frequency": 1,
    "kjv_def": "Sharonite.",
    "lemma": "שָׁרוֹנִי",
    "outline": "<span class=\"literal-meaning\">Sharonite = voir Sharon &quot;une plaine&quot;.</span><ol><li> habitant du district de Sharon</li></ol>",
    "pron": "shaw-ro-nee'",
    "strongs_def": "un Sharonite ou un habitant du Sharon",
    "xlit": "Shârôwnîy"
}