{
    "derivation": "de H8313 (שָׂרַף) ;",
    "frequency": 7,
    "kjv_def": "ardent (serpent), séraphin.",
    "lemma": "שָׂרָף",
    "outline": "<ol><li> serpent, serpent ardent<ol><li> serpent venimeux (ardent par effet de brûlure du poison)</li></ol><li> séraphin, séraphin<ol><li> êtres majestueux avec 6 ailes, mains ou voix humaines qui assistent Dieu</li></ol></li></ol>",
    "pron": "saw-rawf'",
    "strongs_def": "brûlant, c'est-à-dire (au sens figuré) venimeux (serpent) ; plus précisément, un saraph ou une créature symbolique (d'après leur couleur cuivrée)",
    "xlit": "sârâph"
}