{
    "derivation": "pour H5587 (סָעִף) ;",
    "frequency": 2,
    "kjv_def": "pensée.",
    "lemma": "שַׂרְעַף",
    "outline": "<ol><li> pensées inquiétantes, pensées</li></ol>",
    "pron": "sar-af'",
    "strongs_def": "cogitation",
    "xlit": "sarʻaph"
}