{
    "derivation": "de H8313 (שָׂרַף) ;",
    "frequency": 13,
    "kjv_def": "brûlante.",
    "lemma": "שְׂרֵפָה",
    "outline": "<ol><li> brûler</li></ol>",
    "pron": "ser-ay-faw'",
    "strongs_def": "crémation",
    "xlit": "sᵉrêphâh"
}