{
    "derivation": "une racine primitive ;",
    "frequency": 6,
    "kjv_def": "Tout à fait, se faire un prince, (porter) la règle.",
    "lemma": "שָׂרַר",
    "outline": "<ol><li> être ou agir en tant que prince, régner, contester, avoir le pouvoir, l'emporter sur, régner, gouverner<ol><li> (Qal) régner sur, gouverner</li><li> (Hithpael) pour le dominer</li></ol></li></ol>",
    "pron": "saw-rar'",
    "strongs_def": "avoir (transitivement, exercer ; réflexivement, obtenir) la domination",
    "xlit": "sârar"
}