{
    "derivation": "masculin שִׁשָּׁה ; un nombre primitif ; comparer H7797 (שׂוּשׂ)",
    "frequency": 215,
    "kjv_def": "six(-teen, -teenth), sixième.",
    "lemma": "שֵׁשׁ",
    "outline": "<ol><li> six<ol><li> six (nombre cardinal)</li><li> sixième (nombre ordinal)</li><li> en combinaison avec d'autres nombres</li></ol></li></ol>",
    "pron": "shaysh",
    "strongs_def": "six (comme un surplus au-delà de cinq ou des doigts de la main) ; comme ord. sixième",
    "xlit": "shêsh"
}