{
    "derivation": "de H8327 (שָׁרַשׁ) (comparer H8331 (שַׁרְשָׁה)) ;",
    "frequency": 7,
    "kjv_def": "chaîne.",
    "lemma": "שַׁרְשְׁרָה",
    "outline": "<ol><li> chaîne</li></ol>",
    "pron": "shar-sher-aw'",
    "strongs_def": "une chaîne ; (architectural) probablement une guirlande",
    "xlit": "sharshᵉrâh"
}