{
    "derivation": "un dénominatif de H8337 (שֵׁשׁ) ;",
    "frequency": "",
    "kjv_def": "donnez le sixième participe",
    "lemma": "שָׁשָׁה",
    "outline": "",
    "pron": "shaw-shaw'",
    "strongs_def": "diviser en six ou en six",
    "xlit": "shâshâh"
}