{
    "derivation": "peut-être de H8336 (שֵׁשׁ) ; blanchâtre ;",
    "frequency": 1,
    "kjv_def": "Shashai.",
    "lemma": "שָׁשַׁי",
    "outline": "<span class=\"literal-meaning\">Shashai = &quot;noble&quot;</span><ol><li> un fils de Bani qui a répudié sa femme étrangère à l'époque d'Esdras</li></ol>",
    "pron": "shaw-shah'-ee",
    "strongs_def": "Shashai, un Israélite",
    "xlit": "Shâshay"
}