{
    "derivation": "de H7896 (שִׁית) ;",
    "frequency": 2,
    "kjv_def": "fesses.",
    "lemma": "שֵׁתָה",
    "outline": "<ol><li> siège (du corps), fesses</li></ol>",
    "pron": "shay-thaw'",
    "strongs_def": "le siège (de la personne)",
    "xlit": "shêthâh"
}