{
    "derivation": "(Araméen) correspondant à H8354 (שָׁתָה)",
    "frequency": 5,
    "kjv_def": "boire.",
    "lemma": "שְׁתָה",
    "outline": "<ol><li> (P'al) pour boire</li></ol>",
    "pron": "sheth-aw'",
    "strongs_def": "{s'imbiber (au sens propre ou figuré)}",
    "xlit": "shᵉthâh"
}