{
    "derivation": "féminin de H8358 (שְׁתִי) ;",
    "frequency": "",
    "kjv_def": "boire.",
    "lemma": "שְׁתִיָּה",
    "outline": "",
    "pron": "sheth-ee-yaw'",
    "strongs_def": "potation",
    "xlit": "shᵉthîyâh"
}