{
    "derivation": "une racine primitive ;",
    "frequency": 7,
    "kjv_def": "être dessiné, marquer, (Rimmon-) methoar (par union avec H7417 (רִמּוֹן)).",
    "lemma": "תָּאַר",
    "outline": "<ol><li> (Qal) être dessiné, incliner, délimiter, étendre<ol><li> signification douteuse</li></ol><li> (Piel) dessiner les grandes lignes, tracer les contours</li></ol>",
    "pron": "taw-ar'",
    "strongs_def": "délimiter ; réflexe. étendre",
    "xlit": "tâʼar"
}