{
    "derivation": "apparemment de H1101 (בָּלַל) ;",
    "frequency": 2,
    "kjv_def": "confusion.",
    "lemma": "תֶּבֶל",
    "outline": "<ol><li> confusion (violation de la nature ou de l'ordre divin)<ol><li> la perversion (dans le péché sexuel)</li></ol></li></ol>",
    "pron": "teh'-bel",
    "strongs_def": "le mélange, c'est-à-dire la bestialité contre-nature",
    "xlit": "tebel"
}