{
    "derivation": "de H1624 (גָּרָה) ;",
    "frequency": 1,
    "kjv_def": "souffler.",
    "lemma": "תִּגְרָה",
    "outline": "<ol><li> contestation, dispute, conflit, hostilité</li></ol>",
    "pron": "tig-raw'",
    "strongs_def": "la lutte, c'est-à-dire l'infliction",
    "xlit": "tigrâh"
}