{
    "derivation": "de H1129 (בָּנָה) ;",
    "frequency": 20,
    "kjv_def": "figure, forme, ressemblance, modèle, similitude.",
    "lemma": "תַּבְנִית",
    "outline": "<ol><li> modèle, plan, forme, construction, figure<ol><li> construction, structure<ol><li> signification douteuse</li></ol><li> modèle</li><li> figure, image (des idoles)</li></ol></li></ol>",
    "pron": "tab-neeth'",
    "strongs_def": "structure ; par implication, un modèle, une ressemblance",
    "xlit": "tabnîyth"
}