{
    "derivation": "de H1101 (בָּלַל) au sens premier de couler ;",
    "frequency": 1,
    "kjv_def": "une tare.",
    "lemma": "תְּבַּלֻּל",
    "outline": "<ol><li> obscurité, défaut (de vision), confusion</li></ol>",
    "pron": "teb-al-lool'",
    "strongs_def": "une cataracte (dans l'œil)",
    "xlit": "tᵉballul"
}