{
    "derivation": "peut-être de H1763 (דְּחַל) ; crainte ;",
    "frequency": 2,
    "kjv_def": "Tidal.",
    "lemma": "תִּדְעָל",
    "outline": "<span class=\"literal-meaning\">Tidal = &quot;grand fils&quot;</span><ol><li> chef de diverses tribus nomades et allié de Chedorlaomer</li></ol>",
    "pron": "tid-awl'",
    "strongs_def": "Tidal, un Canaanite",
    "xlit": "Tidʻâl"
}