{
    "derivation": "du même que H840 (אֲשַׂרְאֵל) ; droit envers Dieu ;",
    "frequency": 1,
    "kjv_def": "Asarelah. Comparez H3480 (יְשַׂרְאֵלָה).",
    "lemma": "אֲשַׂרְאֵלָה",
    "outline": "<span class=\"literal-meaning\">Asarelah = &quot;Dieu tient&quot;</span><ol><li> un fils d'Asaph, nommé musicien du sanctuaire par David</li></ol>",
    "pron": "as-ar-ale'-aw",
    "strongs_def": "Asarelah, un Israélite",
    "xlit": "ʼĂsarʼêlâh"
}