{
    "derivation": "de H3013 (יָגָה) ;",
    "frequency": 4,
    "kjv_def": "la lourdeur, le chagrin.",
    "lemma": "תּוּגָה",
    "outline": "<ol><li> chagrin, lourdeur, tristesse</li></ol>",
    "pron": "too-gaw'",
    "strongs_def": "dépression (des esprits) ; concrètement, un chagrin",
    "xlit": "tûwgâh"
}