{
    "derivation": "(araméen) correspondant à H8539 (תָּמַהּ) ou peut-être à H7582 (שָׁאָה) par l'idée de balayer jusqu'à la ruine (comparer H8428 (תָּוָה)) ;",
    "frequency": 1,
    "kjv_def": "être étonné.",
    "lemma": "תְּוַהּ",
    "outline": "<ol><li> (P'al) être surpris, être alarmé</li></ol>",
    "pron": "tev-ah'",
    "strongs_def": "étonner, c'est-à-dire (réflexe. par implication) s'alarmer",
    "xlit": "tᵉvahh"
}