{
    "derivation": "ou תֹּעֵבַה ; participe actif féminin de H8581 (תַּעָב) ;",
    "frequency": 117,
    "kjv_def": "abominable (coutume, chose), abomination.",
    "lemma": "תּוֹעֵבַה",
    "outline": "<ol><li> une chose dégoûtante, une abomination, un abominable<ol><li> au sens rituel (aliments impurs, idoles, mariages mixtes)</li><li> au sens éthique (de la méchanceté, etc.)</li></ol></li></ol>",
    "pron": "to-ay-baw'",
    "strongs_def": "à proprement parler, quelque chose de dégoûtant (moralement), c'est-à-dire (en tant que nom) une horreur ; en particulier l'idolâtrie ou (concrètement) une idole",
    "xlit": "tôwʻêbah"
}