{
    "derivation": "ou תֹּר ; probablement identique à H8447 (תּוֹר) ;",
    "frequency": 14,
    "kjv_def": "(tortue) colombe.",
    "lemma": "תּוֹר",
    "outline": "<ol><li> colombe, tourterelle</li></ol>",
    "pron": "tore",
    "strongs_def": "une colombe, souvent (au sens figuré) comme terme d'affection",
    "xlit": "tôwr"
}