{
    "derivation": "(araméen) correspondant (par permutation) à H7794 (שׁוֹר) ;",
    "frequency": 7,
    "kjv_def": "taureau, bœuf.",
    "lemma": "תּוֹר",
    "outline": "<ol><li> taureau, jeune taureau, bœuf (pour le sacrifice)</li></ol>",
    "pron": "tore",
    "strongs_def": "un taureau",
    "xlit": "tôwr"
}