{
    "derivation": "d'une racine inutilisée signifiant frapper ;",
    "frequency": 1,
    "kjv_def": "des fléchettes.",
    "lemma": "תּוֹתָח",
    "outline": "<ol><li> une arme<ol><li> peut-être une massue ou une masse</li></ol></li></ol>",
    "pron": "to-thawkh'",
    "strongs_def": "un club",
    "xlit": "tôwthâch"
}