{
    "derivation": "ou תֹּרָה ; de H3384 (יָרָה) ;",
    "frequency": 219,
    "kjv_def": "loi.",
    "lemma": "תּוֹרָה",
    "outline": "<ol><li> loi, direction, instruction<ol><li> instruction, direction (humaine ou divine)<ol><li> corps d'enseignement prophétique</li><li> instruction dans l'ère messianique</li><li> corps de directives ou d'instructions sacerdotales</li><li> corps de directives juridiques</li></ol><li>loi<ol><li> loi de l'holocauste</li><li> loi spéciale, codes de loi</li></ol><li> coutume, manière</li><li> la loi deutéronomique ou mosaïque</li></li> </ol></li></ol>",
    "pron": "to-raw'",
    "strongs_def": "un précepte ou une loi, en particulier le Décalogue ou Pentateuque",
    "xlit": "tôwrâh"
}