{
    "derivation": "probablement de H2583 (חָנָה) ; station ;",
    "frequency": 2,
    "kjv_def": "Tahan.",
    "lemma": "תַּחַן",
    "outline": "<span class=\"literal-meaning\">Tahan = &quot;camp</span><ol><li> ephraïmite, fils de Télah et géniteur d'une famille d'Ephraïm</li></ol>",
    "pron": "takh'-an",
    "strongs_def": "Tachan, le nom de deux Israéliens",
    "xlit": "Tachan"
}