{
    "derivation": "de H2554 (חָמַס) ;",
    "frequency": 2,
    "kjv_def": "un faucon de nuit.",
    "lemma": "תַּחְמָס",
    "outline": "<ol><li> un oiseau impur lors des cérémonies<ol><li> un nom de l'autruche mâle</li><li> (CLBL) probablement la chouette chevêche</li><li> peut-être un oiseau éteint, signification exacte inconnue</li></ol></li></ol>",
    "pron": "takh-mawce'",
    "strongs_def": "une espèce d'oiseau impur (de par sa violence), peut-être un hibou",
    "xlit": "tachmâç"
}