{
    "derivation": "(Araméen) d'une racine correspondant à H833 (אָשַׁר) ;",
    "frequency": 2,
    "kjv_def": "mur.",
    "lemma": "אֻשַּׁרְנָא",
    "outline": "<ol><li> mur, lambris, poutres, structure (sens précis et dérivation incertaine)</li></ol>",
    "pron": "oosh-ar-naw'",
    "strongs_def": "un mur (de par sa verticalité)",
    "xlit": "ʼushsharnâʼ"
}