{
    "derivation": "ou (féminin) תַּחֲנוּנָה ; de H2603 (חָנַן) ;",
    "frequency": 18,
    "kjv_def": "la retraite, la supplication.",
    "lemma": "תַּחֲנוּן",
    "outline": "<ol><li> supplication, demande de faveur<ol><li> à l'homme</li><li> à Dieu</li></ol></li></ol>",
    "pron": "takh-an-oon'",
    "strongs_def": "prière sincère",
    "xlit": "tachănûwn"
}