{
    "derivation": "de dérivation égyptienne ;",
    "frequency": 3,
    "kjv_def": "Tahpènes.",
    "lemma": "תַּחְפְּנֵיס",
    "outline": "<span class=\"literal-meaning\">Tahpenes = &quot;femme du roi&quot;.</span><ol><li> une reine d'Égypte à l'époque de David et de Salomon</li></ol>",
    "pron": "takh-pen-ace'",
    "strongs_def": "Tachpenes, une femme égyptienne",
    "xlit": "Tachpᵉnêyç"
}