{
    "derivation": "identique à H8476 (תַּחַשׁ) ;",
    "frequency": 1,
    "kjv_def": "Thahash.",
    "lemma": "תַּחַשׁ",
    "outline": "<span class=\"literal-meaning\">Thahash = &quot;dugong&quot;</span><ol><li> fils de Nahor par sa concubine Reumah et neveu d'Abraham</li></ol>",
    "pron": "takh'-ash",
    "strongs_def": "Tachash, un parent d'Abraham",
    "xlit": "Tachash"
}