{
    "derivation": "probablement pour H8489 (תֵּימָנִי) ;",
    "frequency": 1,
    "kjv_def": "Temeni.",
    "lemma": "תֵּימְנִי",
    "outline": "<span class=\"literal-meaning\">Temeni = &quot;sud&quot;</span><ol><li> judaïque, fils d'Ashur par l'une de ses deux femmes Naarah</li></ol>",
    "pron": "tay-men-ee'",
    "strongs_def": "Temeni, un Israélite",
    "xlit": "Têymᵉnîy"
}