{
    "derivation": "de H3559 (כּוּן) ; ou probablement identique à H8498 (תְּכוּנָה) ;",
    "frequency": "",
    "kjv_def": "siège.",
    "lemma": "תְּכוּנָה",
    "outline": "",
    "pron": "tek-oo-naw'",
    "strongs_def": "quelque chose d'arrangé ou de fixe, c'est-à-dire un lieu",
    "xlit": "tᵉkûwnâh"
}