{
    "derivation": "ou תּוֹך ; (Psaume 72:14), de la même base que H8432 (תָּוֶךְ) (dans le sens de couper en morceaux) ;",
    "frequency": 3,
    "kjv_def": "tromperie, fraude.",
    "lemma": "תֹּךְ",
    "outline": "<ol><li> blessure, oppression, oppresseur</li><li> (TWOT) fraude, tromperie, fourbe</li></ol>",
    "pron": "toke",
    "strongs_def": "oppression",
    "xlit": "tôk"
}