{
    "derivation": "contracté à partir de H1 (אָב) et d'une racine inutilisée (signifiant probablement être populeux) ; père d'une multitude ;",
    "frequency": 175,
    "kjv_def": "Abraham.",
    "lemma": "אַבְרָהָם",
    "outline": "<span class=\"literal-meaning\">Abraham = &quot;père d'une multitude&quot; ou &quot;chef de la multitude&quot;.</span><ol><li> ami de Dieu et fondateur de la nation hébraïque par le biais de l'alliance élective de Dieu</li></ol>",
    "pron": "ab-raw-hawm'",
    "strongs_def": "Abraham, nom ultérieur d'Abram",
    "xlit": "ʼAbrâhâm"
}