{
    "derivation": "de H8505 (תָּכַן) ;",
    "frequency": 2,
    "kjv_def": "mesure, conte.",
    "lemma": "תֹּכֶן",
    "outline": "<ol><li> mesure, une quantité mesurée</li></ol>",
    "pron": "to'-ken",
    "strongs_def": "une quantité fixe",
    "xlit": "tôken"
}