{
    "derivation": "ou תּוּכִּי ;",
    "frequency": 2,
    "kjv_def": "le paon.",
    "lemma": "תֻּכִּי",
    "outline": "<ol><li> paon, babouin, singe<ol><li> paon</li><li> (TWOT) babouin, singe</li></ol></li></ol>",
    "pron": "took-kee'",
    "strongs_def": "probablement d'origine étrangère ; une créature importée, probablement un paon",
    "xlit": "tukkîy"
}