{
    "derivation": "de H3615 (כָּלָה) ;",
    "frequency": 1,
    "kjv_def": "la perfection.",
    "lemma": "תִּכְלָה",
    "outline": "<ol><li> perfection, achèvement, complétude</li></ol>",
    "pron": "tik-law'",
    "strongs_def": "exhaustivité",
    "xlit": "tiklâh"
}