{
    "derivation": "de H3811 (לָאָה) ;",
    "frequency": 4,
    "kjv_def": "travail, voyage, ennui.",
    "lemma": "תְּלָאָה",
    "outline": "<ol><li> labeur, difficulté, détresse, lassitude</li></ol>",
    "pron": "tel-aw-aw'",
    "strongs_def": "détresse",
    "xlit": "tᵉlâʼâh"
}