{
    "derivation": "ou תְּלַשַּׂר ; d'origine étrangère ;",
    "frequency": "",
    "kjv_def": "Telassar.",
    "lemma": "תְּלַאשַּׂר",
    "outline": "",
    "pron": "tel-as-sar'",
    "strongs_def": "Telassar, une région d'Assyrie",
    "xlit": "Tᵉlaʼssar"
}