{
    "derivation": "par contraction de H8524 (תָּלַל) ;",
    "frequency": 5,
    "kjv_def": "tas, [idiome] force.",
    "lemma": "תֵּל",
    "outline": "<ol><li> monticule, tas, amas de ruines<ol><li> monticule (du tas de ruines de la ville)</li><li> monticule, colline (de l'élévation sur laquelle se trouvait la ville)</li></ol></li></ol>",
    "pron": "tale",
    "strongs_def": "un monticule",
    "xlit": "têl"
}