{
    "derivation": "d'une racine inutilisée signifiant accumuler ;",
    "frequency": 5,
    "kjv_def": "sillon, crête.",
    "lemma": "תֶּלֶם",
    "outline": "<ol><li> sillon</li></ol>",
    "pron": "teh'-lem",
    "strongs_def": "une banque ou une terrasse",
    "xlit": "telem"
}