{
    "derivation": "probablement de H8518 (תָּלָה) ;",
    "frequency": 1,
    "kjv_def": "le carquois.",
    "lemma": "תְּלִי",
    "outline": "<ol><li> carquois<ol><li> carquois (avec ses flèches)</li><li> carquois (comme suspendu à l'épaule)</li></ol></li></ol>",
    "pron": "tel-ee'",
    "strongs_def": "un carquois (en bandoulière)",
    "xlit": "tᵉlîy"
}