{
    "derivation": "(araméen) ou תַּלְתִּי ; (araméen), ordinal de H8532 (תְּלָת) ;",
    "frequency": 2,
    "kjv_def": "troisième.",
    "lemma": "תְּלִיתַי",
    "outline": "<ol><li> troisième<ol><li> troisième (le numéro ordinal)</li></ol></li></ol>",
    "pron": "tel-ee-thah'-ee",
    "strongs_def": "troisième",
    "xlit": "tᵉlîythay"
}