{
    "derivation": "(araméen) correspondant à H226 (אוֹת) ;",
    "frequency": 3,
    "kjv_def": "signe.",
    "lemma": "אָת",
    "outline": "<ol><li> signe, signes miraculeux, merveilles</li></ol>",
    "pron": "awth",
    "strongs_def": "un présage",
    "xlit": "ʼâth"
}