{
    "derivation": "(Araméen) masculin תְּלָתָה ; (Araméen), ou תְּלָתָא ; (Araméen), correspondant à H7969 (שָׁלוֹשׁ) ;",
    "frequency": 11,
    "kjv_def": "troisième, trois.",
    "lemma": "תְּלָת",
    "outline": "<ol><li> trois<ol><li> trois (nombre cardinal)</li><li> troisième (nombre ordinal)</li></ol></li></ol>",
    "pron": "tel-awth'",
    "strongs_def": "trois ou troisième",
    "xlit": "tᵉlâth"
}