{
    "derivation": "Multiple (araméen) de H8532 (תְּלָת) ;",
    "frequency": 2,
    "kjv_def": "trente.",
    "lemma": "תְּלָתִין",
    "outline": "<ol><li> trente</li></ol>",
    "pron": "tel-aw-theen'",
    "strongs_def": "dix fois trois",
    "xlit": "tᵉlâthîyn"
}