{
    "derivation": "ou תְּמֹל ; probablement pour H865 (אֶתְמוֹל) ; parfois avec H8032 (שִׁלְשׁוֹם)",
    "frequency": 23,
    "kjv_def": "[phrase] avant (-temps), [phrase] ces (trois) jours, [phrase] jusqu'à présent, [phrase] temps passé, hier.",
    "lemma": "תְּמוֹל",
    "outline": "<ol><li> avant, avant ce temps, avant le temps, jusqu'à présent, dernièrement, autrefois, ces jours-ci, temps passé, hier, avant-hier, récemment, anciennement<ol><li> hier<ol><li> récemment, autrefois (usage habituel) (fig)</li></ol><li> comme autrefois, donc plus récemment</li><li> d'hier, déjà</li></ol></li></ol>",
    "pron": "tem-ole'",
    "strongs_def": "proprement dit, il y a, c'est-à-dire depuis un temps (court ou long) ; en particulier hier, ou avant-hier",
    "xlit": "tᵉmôwl"
}