{
    "derivation": "une racine primitive ;",
    "frequency": 61,
    "kjv_def": "accomplir, cesser, être propre (passer-) ed, consommer, avoir fait, (venir à une, avoir une, faire une) fin, échouer, venir à la plénitude, être tout parti, [idiome] être tout ici, être (faire) parfait, être dépensé, somme, être (se montrer) droit, être gaspillé, entier.",
    "lemma": "תָּמַם",
    "outline": "<ol><li> être complet, être terminé, être à la fin<ol><li> (Qal)<ol><li> être terminé, être achevé<ol><li> complètement, entièrement, entièrement (comme auxiliaire avec le verbe)</li></ol><li> être terminé, prendre fin, cesser d'</li><li> être complet (de nombre)</li><li> être consommé, être épuisé, être dépensé</li><li> être terminé, être consommé, être détruit</li><li> être complet, être sain, être intact, être droit (éthiquement)</li><li> compléter, finir</li><li> être complètement traversé</li></ol><li> (Niphal) être consommé</li><li>(Hiphil)<ol><li> finir, compléter, parfaire</li><li> finir, cesser de faire, cesser de faire</li><li> compléter, résumer, rendre complet</li><li> détruire (impureté)</li><li> rendre sain</li></ol><li> (Hithpael) agir avec intégrité, agir avec droiture</li></li> </ol></li></ol>",
    "pron": "taw-mam'",
    "strongs_def": "compléter, dans un bon ou un mauvais sens, au sens propre ou au sens figuré, transitif ou intransitif",
    "xlit": "tâmam"
}