{
    "derivation": "de dérivation incertaine ;",
    "frequency": 5,
    "kjv_def": "coulter, plowshare.",
    "lemma": "אֵת",
    "outline": "<ol><li> soc de charrue</li></ol>",
    "pron": "ayth",
    "strongs_def": "une houe ou un autre instrument de creusement",
    "xlit": "ʼêth"
}