{
    "derivation": "(Araméen) correspondant à H8147 (שְׁנַיִם) ;",
    "frequency": 1,
    "kjv_def": "deuxième.",
    "lemma": "תִּנְיָן",
    "outline": "<ol><li> deuxième</li></ol>",
    "pron": "tin-yawn'",
    "strongs_def": "deuxième",
    "xlit": "tinyân"
}