{
    "derivation": "ou תַּנִּים ; (Ezéchiel 29:3), intensif du même que H8565 (תַּן) ;",
    "frequency": 27,
    "kjv_def": "dragon, monstre des mers, serpent, baleine.",
    "lemma": "תַּנִּין",
    "outline": "<ol><li> dragon, serpent, monstre marin<ol><li> dragon ou dinosaure</li><li> monstre marin ou fluvial</li><li> serpent, serpent venimeux</li></ol></li></ol>",
    "pron": "tan-neen'",
    "strongs_def": "un monstre marin ou terrestre, c'est-à-dire un serpent de mer ou un chacal",
    "xlit": "tannîyn"
}