{
    "derivation": "de H6031 (עָנָה) ;",
    "frequency": 1,
    "kjv_def": "la lourdeur.",
    "lemma": "תַּעֲנִית",
    "outline": "<ol><li> humiliation (par le jeûne), pratique ascétique du jeûne</li></ol>",
    "pron": "tah-an-eeth'",
    "strongs_def": "l'affliction (de soi), c'est-à-dire le jeûne",
    "xlit": "taʻănîyth"
}