{
    "derivation": "ou תַּעְנָךְ ; de dérivation incertaine ;",
    "frequency": 7,
    "kjv_def": "Taanach, Tanach.",
    "lemma": "תַּעֲנָךְ",
    "outline": "<span class=\"literal-meaning\">Taanach ou Tanach = &quot; sable &quot;.</span><ol><li> ancienne ville cananéenne conquise par Josué et attribuée à la demi-tribu de Manassé bien que dans le territoire d'Issachar ; donnée aux Lévites kohathites ; située à l'ouest du Jourdain et près des eaux de Megiddo</li></ol>",
    "pron": "tah-an-awk'",
    "strongs_def": "Taanak ou Tanak, un lieu en Palestine",
    "xlit": "Taʻănâk"
}