{
    "derivation": "identique à H8598 (תַּפּוּחַ) ;",
    "frequency": 6,
    "kjv_def": "Tappuah.",
    "lemma": "תַּפּוּחַ",
    "outline": "<span class=\"literal-meaning\">Tappuah = &quot;la ville de la pomme&quot;</span><ol><li> un Judaïque de la famille de Caleb, fils de Hebron</li><li> une ville dans la plaine de Juda</li><li> une ville à la frontière d'Ephraïm</li><li> un territoire situé dans les limites de Manassé</li></ol>",
    "pron": "tap-poo'-akh",
    "strongs_def": "Tappuach, nom de deux lieux en Palestine, et d'un Israélite",
    "xlit": "Tappûwach"
}