{
    "derivation": "de H6168 (עָרָה) ;",
    "frequency": 13,
    "kjv_def": "(pen-) couteau, rasoir, fourreau, rasoir, gaine.",
    "lemma": "תַּעַר",
    "outline": "<ol><li> rasoir, fourreau (rendre nu)<ol><li> rasoir</li><li> fourreau (de l'épée)</li></ol></li></ol>",
    "pron": "tah'-ar",
    "strongs_def": "un couteau ou un rasoir (comme étant nu) ; également un fourreau (comme étant nu, c'est-à-dire vide)",
    "xlit": "taʻar"
}