{
    "derivation": "de H8608 (תָּפַף) contracté ;",
    "frequency": 17,
    "kjv_def": "tabret, timbre.",
    "lemma": "תֹּף",
    "outline": "<ol><li> tambourin, tambourin</li></ol>",
    "pron": "tofe",
    "strongs_def": "un tambourin",
    "xlit": "tôph"
}