{
    "derivation": "de même que H8602 (תָּפֵל) ;",
    "frequency": 3,
    "kjv_def": "folly, foolishly.",
    "lemma": "תִּפְלָה",
    "outline": "<ol><li> ce qui est vide, folie, stupide, insensé</li><li> (BDB) insipide, inconvenant (moral)</li></ol>",
    "pron": "tif-law'",
    "strongs_def": "frivolité",
    "xlit": "tiphlâh"
}