{
    "derivation": "de H6419 (פָּלַל) ;",
    "frequency": 77,
    "kjv_def": "la prière.",
    "lemma": "תְּפִלָּה",
    "outline": "<ol><li> prière<ol><li> prière</li><li> prier une prière</li><li> maison de prière</li><li> entendre la prière</li><li> dans les titres Ps (de la prière poétique ou liturgique)</li></ol></li></ol>",
    "pron": "tef-il-law'",
    "strongs_def": "intercession, supplication ; par implication, un hymne",
    "xlit": "tᵉphillâh"
}