{
    "derivation": "probablement du même que H386 (אֵיתָן) (dans le sens de patience) ;",
    "frequency": 34,
    "kjv_def": "(elle) cul.",
    "lemma": "אָתוֹן",
    "outline": "<ol><li> elle-cul, elle-donkey</li></ol>",
    "pron": "aw-thone'",
    "strongs_def": "une femelle âne (de par sa docilité)",
    "xlit": "ʼâthôwn"
}