{
    "derivation": "une racine primitive ;",
    "frequency": 4,
    "kjv_def": "(les femmes qui) cousent (ensemble).",
    "lemma": "תָּפַר",
    "outline": "<ol><li> coudre ensemble<ol><li> (Qal) coudre, coudre ensemble</li><li> (Piel)<ol><li> coudre</li><li> coudre (participe)</li></ol></li></ol></li></ol>",
    "pron": "taw-far'",
    "strongs_def": "de coudre",
    "xlit": "tâphar"
}