{
    "derivation": "de H8628 (תָּקַע) (au sens musical) ;",
    "frequency": 1,
    "kjv_def": "trompette.",
    "lemma": "תָּקוֹעַ",
    "outline": "<ol><li> un instrument à vent, une trompette</li></ol>",
    "pron": "taw-ko'-ah",
    "strongs_def": "une trompette",
    "xlit": "tâqôwaʻ"
}