{
    "derivation": "(araméen) correspondant à H8254 (שָׁקַל) ;",
    "frequency": 3,
    "kjv_def": "Tekel, sois pesé.",
    "lemma": "תְּקַל",
    "outline": "<ol><li> peser<ol><li> (P'il) être pesé</li></ol><li> tekel, shekel<ol><li> (P'al) tekel - une unité de poids, shekel</li></ol></li></ol>",
    "pron": "tek-al'",
    "strongs_def": "pour équilibrer",
    "xlit": "tᵉqal"
}