{
    "derivation": "une racine primitive ;",
    "frequency": "",
    "kjv_def": "mettre en ordre, rendre droit.",
    "lemma": "תָּקַן",
    "outline": "",
    "pron": "taw-kan'",
    "strongs_def": "égaliser, c'est-à-dire redresser (intransitif ou transitif) ; au sens figuré, composer",
    "xlit": "tâqan"
}