{
    "derivation": "un dénominatif de H7275 (רָגַם) dans le sens de jeter par-dessus ;",
    "frequency": 1,
    "kjv_def": "interpréter.",
    "lemma": "תִּרְגַּם",
    "outline": "<ol><li> (Pual) interpréter, traduire</li></ol>",
    "pron": "teer-gam'",
    "strongs_def": "à transférer, c'est-à-dire à traduire",
    "xlit": "tirgam"
}