{
    "derivation": "de H7322 (רוּף) au sens de son congénère H7495 (רָפָא) ;",
    "frequency": 1,
    "kjv_def": "médecine.",
    "lemma": "תְּרוּפָה",
    "outline": "<ol><li> guérison</li></ol>",
    "pron": "ter-oo-faw'",
    "strongs_def": "un remède",
    "xlit": "tᵉrûwphâh"
}