{
    "derivation": "de H7477 (רָעַל) ;",
    "frequency": 3,
    "kjv_def": "l'étonnement, le tremblement.",
    "lemma": "תַּרְעֵלָה",
    "outline": "<ol><li> titubant, titubant</li></ol>",
    "pron": "tar-ay-law'",
    "strongs_def": "enroulement",
    "xlit": "tarʻêlâh"
}