{
    "derivation": "(Araméen) de H8651 (תְּרַע) ;",
    "frequency": 1,
    "kjv_def": "porteur.",
    "lemma": "תָּרָע",
    "outline": "<ol><li> portier, portière (dans le temple)</li></ol>",
    "pron": "taw-raw'",
    "strongs_def": "un portier",
    "xlit": "târâʻ"
}