{
    "derivation": "de dérivation étrangère ;",
    "frequency": 1,
    "kjv_def": "Tartak.",
    "lemma": "תַּרְתָּק",
    "outline": "<span class=\"literal-meaning\">Tartak = &quot;prince des ténèbres&quot;</span><ol><li> une des divinités du peuple avite de Samarie<ol><li> selon la tradition, vénéré sous la forme d'un âne</li></ol></li></ol>",
    "pron": "tar-tawk'",
    "strongs_def": "Tartak, une divinité des Avvites",
    "xlit": "Tartâq"
}