{
    "derivation": "patrial d'un nom inutilisé signifiant recours ;",
    "frequency": 6,
    "kjv_def": "Tishbite.",
    "lemma": "תִּשְׁבִּי",
    "outline": "<span class=\"literal-meaning\">Tishbite = &quot;captivité</span><ol><li> la maison d'Elijah<ol><li> site inconnu mais peut-être la ville de Tishbe</li></ol><li> un habitant de Tishbe ou Tishbi ou Tesheb<ol><li> site inconnu et nom incertain</li></ol></li></ol>",
    "pron": "tish-bee'",
    "strongs_def": "un Tishbite ou habitant de Tishbeh (en Galaad)",
    "xlit": "Tishbîy"
}