{
    "derivation": "ou תְּשֻׁעָה ; de H7768 (שָׁוַע) au sens de H3467 (יָשַׁע) ;",
    "frequency": 34,
    "kjv_def": "délivrance, aide, sécurité, salut, victoire.",
    "lemma": "תְּשׁוּעָה",
    "outline": "<ol><li> salut, délivrance<ol><li> la délivrance (généralement par Dieu par l'intermédiaire de l'homme)</li><li> salut (au sens spirituel)</li></ol></li></ol>",
    "pron": "tesh-oo-aw'",
    "strongs_def": "le sauvetage (au sens propre ou figuré, des personnes, national ou spirituel)",
    "xlit": "tᵉshûwʻâh"
}