{
    "derivation": "ou (masculin) תִּשְׁעָה ; peut-être de H8159 (שָׁעָה) à travers l'idée d'une rotation vers le nombre suivant ou complet dix ;",
    "frequency": 58,
    "kjv_def": "neuf ([phrase] -teen, [phrase] -teenth, -th).",
    "lemma": "תֵּשַׁע",
    "outline": "<ol><li> neuf, nonad<ol><li> neuf (en tant que nombre cardinal)</li><li> neuvième (en tant que nombre ordinal)</li><li> en combinaison avec d'autres nombres</li></ol></li></ol>",
    "pron": "tay'-shah",
    "strongs_def": "neuf ou (ordinal) neuvième",
    "xlit": "têshaʻ"
}