{
    "derivation": "pluriel d'une racine inutilisée (signifiant probablement \"marcher\") ; lieux ;",
    "frequency": 1,
    "kjv_def": "des espions. b",
    "lemma": "אֲתָרִים",
    "outline": "<ol><li> signification incertaine - peut-être col de montagne ou route des caravanes</li></ol>",
    "pron": "ath-aw-reem'",
    "strongs_def": "Atharim, un lieu près de la Palestine",
    "xlit": "ʼĂthârîym"
}