{
    "derivation": "pluriel de H178 (אוֹב) ; peaux d'eau ;",
    "frequency": 4,
    "kjv_def": "Oboth.",
    "lemma": "אֹבֹת",
    "outline": "<span class=\"literal-meaning\">Oboth = &quot;citernes&quot;.</span><ol><li> site indéterminé d'un camp israélite dans le désert (peut-être à la frontière est de Moab)</li></ol>",
    "pron": "o-both'",
    "strongs_def": "Oboth, un lieu dans le désert",
    "xlit": "ʼôbôth"
}