{
    "derivation": "de H875 (בְּאֵר) et H2416 (חַי) (avec préfixe) et H7203 (רֹאֶה) ; puits d'un vivant (Un) mon Voyant ;",
    "frequency": "",
    "kjv_def": "Bière-lahai-roi.",
    "lemma": "בְּאֵר לַחַי רֹאִי",
    "outline": "",
    "pron": "be-ayr' lakh-ah'ee ro-ee'",
    "strongs_def": "Beer-Lachai-Roi, un endroit dans le désert",
    "xlit": "Bᵉʼêr la-Chay Rôʼîy"
}