{
    "derivation": "participe actif féminin d'une racine inutilisée signifiant creuser ;",
    "frequency": 1,
    "kjv_def": "pomme (de l'œil).",
    "lemma": "בָּבָה",
    "outline": "<ol><li> la pomme (pupille) de l'œil</li></ol>",
    "pron": "baw-baw'",
    "strongs_def": "quelque chose de creux (comme une porte), par exemple la pupille de l'œil",
    "xlit": "bâbâh"
}