{
    "derivation": "ou אֲגָג ; de dérivation incertaine (comparer H89 (אָגֵא)) ; flamme ;",
    "frequency": 8,
    "kjv_def": "Agag.",
    "lemma": "אֲגַג",
    "outline": "<span class=\"literal-meaning\">Agag = &quot;je surplomberai&quot;</span><ol><li> roi d'Amalek, épargné par Saül mais tué par Samuel</li></ol>",
    "pron": "ag-ag'",
    "strongs_def": "Agag, titre des rois amalécites",
    "xlit": "ʼĂgag"
}