{
    "derivation": "une racine primitive ;",
    "frequency": 2,
    "kjv_def": "imaginer, feindre.",
    "lemma": "בָּדָא",
    "outline": "<ol><li> concevoir, inventer, inventer (mauvais sens)<ol><li> (Qal)<ol><li> concevoir</li><li> concevoir</li></ol></li></ol></li></ol>",
    "pron": "baw-daw'",
    "strongs_def": "(au sens figuré) inventer",
    "xlit": "bâdâʼ"
}