{
    "derivation": "de H909 (בָּדַד) ;",
    "frequency": 12,
    "kjv_def": "seul, désolé, seulement, solitaire.",
    "lemma": "בָּדָד",
    "outline": "<ol><li> isolement, retrait, séparation<ol><li> une ville isolée</li></ol><li> seule<ol><li> sécurité (fig.)</li></ol></li></ol>",
    "pron": "baw-dawd'",
    "strongs_def": "séparé ; adverbe, séparément",
    "xlit": "bâdâd"
}