{
    "derivation": "probablement une forme abrégée H5662 (עֹבַדְיָה) ; serviteur de Jéhovah ;",
    "frequency": 1,
    "kjv_def": "Bedeiah.",
    "lemma": "בֵּדְיָה",
    "outline": "<span class=\"literal-meaning\">Bedeiah = &quot; serviteur de Jéhovah &quot;.</span><ol><li> un exilé israélite qui a pris une femme étrangère</li></ol>",
    "pron": "bay-de-yaw'",
    "strongs_def": "Bedejah, un israélite",
    "xlit": "Bêdᵉyâh"
}