{
    "derivation": "une racine primitive ;",
    "frequency": 42,
    "kjv_def": "(faire, mettre) la différence, diviser (asunder), (faire) séparer (self, -ation), couper (out), [idiome] complètement.",
    "lemma": "בָּדַל",
    "outline": "<ol><li> diviser, séparer<ol><li> (Hiphil)<ol><li> diviser, séparer, trancher</li><li> séparer, mettre à part</li><li> faire une distinction, une différence</li><li> diviser en parties</li></ol><li> (Niphal)<ol><li> se séparer de (réflexe de 1a2)</li><li> se retirer de</li><li> se séparer de se séparer de</li><li> être séparé</li><li> être exclu</li><li> être mis à part</li></ol></li></ol></li></ol>",
    "pron": "baw-dal'",
    "strongs_def": "diviser (dans différents sens au sens propre ou figuré, séparer, distinguer, différer, sélectionner, etc.)",
    "xlit": "bâdal"
}