{
    "derivation": "de H914 (בָּדַל) ;",
    "frequency": 1,
    "kjv_def": "pièce.",
    "lemma": "בָּדָל",
    "outline": "<ol><li> un morceau, un morceau coupé, un morceau (d'une oreille)</li></ol>",
    "pron": "baw-dawl'",
    "strongs_def": "une partie",
    "xlit": "bâdâl"
}