{
    "derivation": "racine primitive ; ouvrir ; utilisé seulement comme dénominatif à partir de H919 (בֶּדֶק) ;",
    "frequency": "",
    "kjv_def": "réparation.",
    "lemma": "בָּדַק",
    "outline": "",
    "pron": "baw-dak'",
    "strongs_def": "pour réparer une brèche",
    "xlit": "bâdaq"
}