{
    "derivation": "de H918 (בָּדַק) ;",
    "frequency": 10,
    "kjv_def": "violation, calker.",
    "lemma": "בֶּדֶק",
    "outline": "<ol><li> fissure, rente, brèche, fuite (dans un bâtiment)</li></ol>",
    "pron": "beh'-dek",
    "strongs_def": "un vide ou une fuite (dans un bâtiment ou un navire)",
    "xlit": "bedeq"
}