{
    "derivation": "à partir d'une racine inutilisée (signifiant être brillant) ;",
    "frequency": 1,
    "kjv_def": "brillant.",
    "lemma": "בָּהִיר",
    "outline": "<ol><li> brillant, éclatant (de lumière)</li></ol>",
    "pron": "baw-here'",
    "strongs_def": "brillant",
    "xlit": "bâhîyr"
}