{
    "derivation": "une racine primitive ;",
    "frequency": 37,
    "kjv_def": "être (faire) effrayé(e) (peur, étonné(e), consterné(e), téméraire), (être, obtenir, faire) hâter (-n, -y, -ily), (donner) promptement (-ily), pousser, troubler, vexer.",
    "lemma": "בָּהַל",
    "outline": "<ol><li> troubler, alarmer, terrifier, se hâter, être troublé, être anxieux, avoir peur, être pressé, être nerveux<ol><li> (Niphal)<ol><li> être troublé, consterné, terrifié, inquiet</li><li> être pressé, être hâtif</li></ol><li>(Piel)<ol><li> se hâter, agir hâtivement, être pressé, être pressé</li><li> de consterner, terrifier</li></ol><li>(Pual)<ol><li> se h</li></ol></li></li><li><li><ol><li> âter</li></ol></li></li><li><li><ol><li></li><li>, gagner hâtivement (part.)</li></ol><li> (Hiphil)<ol><li> se hâter, se presser, se hâter</li><li> de consterner, terrifier</li></ol></li></li></li> </ol></li></ol>",
    "pron": "baw-hal'",
    "strongs_def": "trembler intérieurement (ou palpiter), c'est-à-dire (au sens figuré) être (causatif, faire) (soudainement) alarmé ou agité ; implicitement, se hâter anxieusement",
    "xlit": "bâhal"
}