{
    "derivation": "participe passif féminin de H936 (בּוּז) ;",
    "frequency": 1,
    "kjv_def": "méprisé.",
    "lemma": "בּוּזָה",
    "outline": "<ol><li> mépris</li></ol>",
    "pron": "boo-zaw'",
    "strongs_def": "quelque chose de méprisé ; un objet de mépris",
    "xlit": "bûwzâh"
}