{
    "derivation": "identique à H944 (בּוּל) (dans le sens de pluie) ;",
    "frequency": 1,
    "kjv_def": "Bul.",
    "lemma": "בּוּל",
    "outline": "<span class=\"literal-meaning\">Bul = &quot;augmenter : produire&quot;</span><ol><li> le huitième mois hébraïque, correspondant aux mois modernes d'octobre et de novembre</li></ol>",
    "pron": "bool",
    "strongs_def": "Bul, le huitième mois hébreu",
    "xlit": "Bûwl"
}