{
    "derivation": "une racine primitive ;",
    "frequency": 12,
    "kjv_def": "répugner, fouler (sous le pied), être pollué.",
    "lemma": "בּוּס",
    "outline": "<ol><li> fouler aux pieds, rejeter, piétiner<ol><li> (Qal)<ol><li> de fouler aux pieds, de piétiner (des guerriers)</li><li> de rejet (fig.)</li></ol><li>(Polel)<ol><li> fouler aux pieds (dans le mauvais sens du terme)</li><li> profaner</li></ol><li> (Hithpolel)<ol><li> fouler aux pieds</li><li>pour chasser</li></ol></li>les<li><ol><li><ol><li> mouvements aveugles des enfants</li></ol></li></ol></li>de<li><ol><li><ol><li> Jérusalem (fig.)</li></ol><li> (Hophal) être foulé aux pieds</li></li></ol></li></li> </ol>",
    "pron": "boos",
    "strongs_def": "piétiner (au sens propre ou figuré)",
    "xlit": "bûwç"
}