{
    "derivation": "une racine primitive ;",
    "frequency": 113,
    "kjv_def": "(être, faire, amener à, causer, mettre à, avec, a-) honteux(-d), être (mis à) confondu(-fusion), devenir sec, retarder, être long.",
    "lemma": "בּוּשׁ",
    "outline": "<ol><li> faire honte, être honteux, être déconcerté, être déçu<ol><li> (Qal)<ol><li> avoir honte</li><li> être honteux, déconcerté, déçu (à cause de)</li></ol><li> (Piel) retarder (dans la honte)</li><li>(Hiphil)<ol><li> mettre à la honte</li><li> agir honteusement</li><li> être honteux</li></ol><li> (Hithpolel) être honteux les uns devant les autres</li></li> </ol></li></ol>",
    "pron": "boosh",
    "strongs_def": "proprement, pâlir, c'est-à-dire, implicitement, avoir honte ; également (implicitement) être déçu ou retardé",
    "xlit": "bûwsh"
}