{
    "derivation": "participe féminin passif de H954 (בּוּשׁ) ;",
    "frequency": 4,
    "kjv_def": "la honte.",
    "lemma": "בּוּשָׁה",
    "outline": "<ol><li> honte</li></ol>",
    "pron": "boo-shaw'",
    "strongs_def": "honte",
    "xlit": "bûwshâh"
}