{
    "derivation": "(Araméen) dénominatif apparent de H1005 (בַּיִת) ;",
    "frequency": "",
    "kjv_def": "passer la nuit.",
    "lemma": "בּוּת",
    "outline": "",
    "pron": "booth",
    "strongs_def": "pour y passer la nuit",
    "xlit": "bûwth"
}