{
    "derivation": "une racine primitive ;",
    "frequency": 2,
    "kjv_def": "se disperser.",
    "lemma": "בָּזַר",
    "outline": "<ol><li> éparpiller, disperser<ol><li> (Qal) disperser</li><li> (Piel) se disperser</li></ol></li></ol>",
    "pron": "baw-zar'",
    "strongs_def": "pour se disperser",
    "xlit": "bâzar"
}