{
    "derivation": "à partir d'une racine inutilisée (signifiant recueillir comme l'eau) ;",
    "frequency": 9,
    "kjv_def": "étang, piscine, eau stagnante (eau).",
    "lemma": "אֲגַם",
    "outline": "<ol><li> piscine, étang trouble<ol><li> les mares, les marais troubles ou boueux (lugubres)</li><li> tout bassin, étang</li><li> roseaux des marais, roseaux, jonc(s)</li></ol></li></ol>",
    "pron": "ag-am'",
    "strongs_def": "un marais ; d'où un jonc (poussant dans les marécages) ; d'où une palissade de roseaux",
    "xlit": "ʼăgam"
}