{
    "derivation": "une racine primitive ; proprement, se cacher pour se réfugier (mais pas aussi précipitamment que H2620 (חָסָה)) ;",
    "frequency": 120,
    "kjv_def": "être audacieux (confiant, sûr, certain), insouciant (une, une femme), mettre en confiance, (faire) espérer, (mettre, faire) faire confiance.",
    "lemma": "בָּטַח",
    "outline": "<ol><li> avoir confiance<ol><li> (Qal)<ol><li> faire confiance, avoir confiance en</li><li> avoir confiance, être confiant</li><li> être audacieux</li><li> être en sécurité</li></ol><li>(Hiphil)<ol><li> faire confiance, rendre sûr</li></ol><li> (TWOT) se sentir en sécurité, être insouciant</li></li> </ol>",
    "pron": "baw-takh'",
    "strongs_def": "au sens figuré, faire confiance, être confiant ou sûr",
    "xlit": "bâṭach"
}