{
    "derivation": "féminin de H984 (בֶּטַח) ;",
    "frequency": 1,
    "kjv_def": "confiance.",
    "lemma": "בִּטְחָה",
    "outline": "<ol><li> confiance, confiance, confiance</li></ol>",
    "pron": "bit-khaw'",
    "strongs_def": "confiance",
    "xlit": "biṭchâh"
}