{
    "derivation": "féminin pluriel de H982 (בָּטַח) ;",
    "frequency": "",
    "kjv_def": "sécurisé.",
    "lemma": "בַּטֻּחוֹת",
    "outline": "",
    "pron": "bat-too-khoth'",
    "strongs_def": "sécurité",
    "xlit": "baṭṭuchôwth"
}