{
    "derivation": "(araméen) correspondant à H988 (בָּטֵל) ;",
    "frequency": 6,
    "kjv_def": "(causer, faire en sorte que), cesser, entraver.",
    "lemma": "בְּטֵל",
    "outline": "<ol><li> (P'al) cesser<ol><li> cesser</li><li> faire cesser</li></ol></li></ol>",
    "pron": "bet-ale'",
    "strongs_def": "d'arrêter",
    "xlit": "bᵉṭêl"
}