{
    "derivation": "d'une racine inutilisée signifiant probablement être creux ;",
    "frequency": 72,
    "kjv_def": "ventre, corps, comme ils sont nés, à l'intérieur, utérus.",
    "lemma": "בֶּטֶן",
    "outline": "<ol><li> ventre, utérus, corps<ol><li> ventre, abdomen<ol><li> comme siège de la faim</li><li> comme siège des facultés mentales</li><li> de la profondeur du Sheol (fig.)</li></ol><li> ventre</li></ol></li></ol>",
    "pron": "beh'-ten",
    "strongs_def": "le ventre, en particulier l'utérus ; également le ventre ou le corps de quelque chose",
    "xlit": "beṭen"
}