{
    "derivation": "de H990 (בֶּטֶן) ;",
    "frequency": 1,
    "kjv_def": "noix.",
    "lemma": "בֹּטֶן",
    "outline": "<ol><li> pistaches - délicatesse donnée à Joseph par Jacob à travers ses fils</li></ol>",
    "pron": "bo'-ten",
    "strongs_def": "(seulement au pluriel) une pistache (d'après sa forme)",
    "xlit": "bôṭen"
}