{
    "derivation": "peut-être de H1158 (בָּעָה) (dans le sens de demander) ; proprement, une demande ; utilisé seulement adverbialement (toujours avec 'mon Seigneur') ;",
    "frequency": 12,
    "kjv_def": "hélas, O, oh.",
    "lemma": "בִּי",
    "outline": "<ol><li> s'il vous plaît, priez de m'excuser, excusez-moi s'il vous plaît<ol><li> utilisé pour introduire une supplication ou une demande</li></ol></li></ol>",
    "pron": "bee",
    "strongs_def": "oh que! ; avec la permission, ou si cela vous plaît",
    "xlit": "bîy"
}