Lgg,#,Gloss
H	1	"ab (awb) n-m.[\n] 1. père[\n]{dans une application littérale et immédiate, ou figurative et lointaine}[\n][un mot primitif. Comparer les noms commençant par ""Abi-""'][\n] KJV: chef, (ancêtre) père (sans), X patrimoine, principal."
A	2	"ab (ab) n-m.[\n] 1. père[\n][(Araméen) correspondant à H1][\n]  Racine(s): H1"
H	3	" 'eb (abe) n-m.[\n] 1. une plante verte[\n][du même que H24][\n] KJV: verdure, fruit. [\n] Racine(s): H24"
A	4	"eb (abe) n-m.[\n] 1. fruit[\n][(Araméen) correspondant à H3][\n]  Racine(s): H3"
H	5	"Abagtha' (ab-ag-thaw') n/p.[\n] 1. Abagtha, un eunuque de Xerxès[\n][d'origine étrangère][\n] KJV: Abagtha."
H	6	"abad (aw-bad') v.[\n] 1. (correctement) s'éloigner, c'est-à-dire se perdre[\n] 2. (par implication) périr[\n] 3. (causatif) détruire[\n][une racine primitive][\n] KJV: briser, détruire (- uction), + ne pas échapper, échouer, perdre, (causer à, faire) périr, dépenser, X et sûrement, prendre, être perdu, X complètement, être dépourvu de, n'avoir aucun moyen de fuir. [\n] Racine(s): H6"
A	7	"abad (ab-ad') v.[\n] 1. détruire, périr[\n][(Araméen) correspondant à H6][\n]  Racine(s): H6"
H	8	"obed (o-bade') n-m.[\n] 1. (concrètement) misérable[\n] 2. (abstraitement) destruction[\n][actif du participe de H6][\n] KJV: périr. [\n] Racine(s): H6"
H	9	"abedah (ab-ay-daw') n-f.[\n] 1. (concrètement) quelque chose de perdu[\n] 2. (abstraitement) destruction, c'est-à-dire Hadès[\n][de H6][\n] KJV: perdu. [\n] Racine(s): H6 [\n] Comparer: H10"
H	10	"abaddoh (ab-ad-do') n-f.[\n] 1. un péril[\n][la même chose que H9, mal écrit pour H11][\n] KJV: destruction. [\n] Racine(s): H9, H11"
H	11	"abaddown (ab-ad-done') n/l.[\n] 1. (abstraitement) un péril[\n] 2. (concrètement) Hadès[\n][intensif de H6][\n] KJV: destruction. [\n] Racine(s): H6"
H	12	"abdan (ab-dawn') n-m.[\n] 1. un péril[\n][de H6][\n] KJV: destruction. [\n] Racine(s): H6"
H	13	"obdan (ob-dawn') n-m.[\n] 1. un péril[\n][de H6][\n] KJV: destruction. [\n] Racine(s): H6"
H	14	"abah (aw-baw') v.[\n] 1. aspirer à[\n] 2. (figurativement) être conciliant[\n][une racine primitive][\n] KJV: consentir, se reposer content de, être volontaire."
H	15	"abeh (aw-beh') n-f.[\n] 1. désir[\n][de H14][\n] KJV: désir. [\n] Racine(s): H14"
H	16	"ebeh (ay-beh') n-m.[\n] 1. le papyrus[\n][de H14 (dans le sens de se courber vers)][\n] KJV: rapide. [\n] Racine(s): H14"
H	17	"abowy (ab-o'ee) inj.[\n] 1. besoin[\n][de H14 (dans le sens de désirer)][\n] KJV: chagrin. [\n] Racine(s): H14"
H	18	"ebuwc (ay-booce') n-m.[\n] 1. une mangeoire ou une étable[\n][de H75][\n] KJV: crèche. [\n] Racine(s): H75"
H	19	"ibchah (ib-khaw') n-f.[\n] 1. brandissement d'une épée[\n][d'une racine inutilisée (apparemment signifiant tourner)][\n] KJV: pointe."
H	20	"abattiyach (ab-at-tee'-akh) n-m.[\n] 1. melons (seulement au pluriel)[\n][dérivation incertaine][\n] KJV: melon."
H	21	"Abiy (ab-ee') n/p.[\n] 1. paternel[\n] 2. Abi, mère d'Ézéchias[\n] [de H1][\n] KJV : Abi. [\n] Racine(s) : H1 "
H	22	"Abiy'el (ab-ee-ale') n/p.[\n] 1. père (c'est-à-dire possesseur) d'Elohim[\n] 2. Abiel, le nom de deux Israélites[\n] [de H1 et H410][\n] KJV : Abiel. [\n] Racine(s) : H1, H410 "
H	23	"Abiy'acaph (ab-ee-aw-sawf') n/p.[\n] 1. père de la réunion (c'est-à-dire rassembleur)[\n] 2. Abiasaph, un Israélite[\n] [de H1 et H622][\n] KJV : Abiasaph. [\n] Racine(s) : H1, H622 "
H	24	"abiyb (aw-beeb') n-m.[\n] 1. vert, c'est-à-dire une jeune épi de blé[\n] 2. (d'où) le nom du mois Abib ou Nisan[\n] [d'une racine non utilisée (signifiant être tendre)][\n] KJV : Abib, épi, jeunes épis de blé (pas de maïs). "
H	25	"Abiy Gib`own (ab-ee' ghib-one') n/p.[\n] 1. père (c'est-à-dire fondateur) de Gibéon[\n] 2. Abi-Gibéon, peut-être un Israélite[\n] [de H1 et H1391][\n] KJV : père de Gabaon. [\n] Racine(s) : H1, H1391 "
H	26	"Abiygayil (ab-ee-gah'-yil) (ou plus court Abiygal {ab-ee-gal'}) n/p.[\n] 1. père (c'est-à-dire source) de joie[\n] 2. Abigaïl ou Abigal, le nom de deux Israélites[\n] [de H1 et H1524][\n] KJV : Abigal. [\n] Racine(s) : H1, H1524 "
H	27	"Abiydan (ab-ee-dawn') n/p.[\n] 1. père du jugement (c'est-à-dire juge)[\n] 2. Abidan, un Israélite[\n] [de H1 et H1777][\n] KJV : Abidan. [\n] Racine(s) : H1, H1777 "
H	28	"Abiyda` (ab-ee-daw') n/p.[\n] 1. père de la connaissance (c'est-à-dire sachant)[\n] 2. Abida, un fils d'Abraham par Kétura[\n] [de H1 et H3045][\n] KJV : Abida, Abidah. [\n] Racine(s) : H1, H3045 "
H	29	"Abiyah (ab-ee-yaw') (ou prolongé Abiyahuw {ab-ee-yaw'-hoo}) n/p.[\n] 1. père (c'est-à-dire adorateur) de Jah[\n] 2. Abija, le nom de plusieurs hommes israélites et de deux femmes israélites[\n] [de H1 et H3050][\n] KJV : Abija, Abijah. [\n] Racine(s) : H1, H3050 "
H	30	"Abiyhuw' (ab-ee-hoo') n/p.[\n] 1. père (c'est-à-dire adorateur) de Lui (c'est-à-dire Elohim)[\n] 2. Abihu, un fils d'Aaron[\n] [de H1 et H1931][\n] KJV : Abihu. [\n] Racine(s) : H1, H1931 "
H	31	"Abiyhuwd (ab-ee-hood') n/p.[\n] 1. père (c'est-à-dire possesseur) de renom[\n] 2. Abihud, le nom de deux Israélites[\n] [de H1 et H1935][\n] KJV : Abihud. [\n] Racine(s) : H1, H1935 "
H	32	"Abiyhayil (ab-ee-hah'-yil) (ou (plus correctement) hAbiychayil {ab-ee- khah'-yil}) n/p.[\n] 1. père (c'est-à-dire possesseur) de puissance[\n] 2. Abihail ou Abichail, le nom de trois Israélites et de deux Israélites[\n] [de H1 et H2428][\n] KJV : Abihail. [\n] Racine(s) : H2428 "
H	33	"Abiy ha-`Ezriy (ab-ee'-haw-ez-ree') n/p.[\n] 1. père de l'Ezrite[\n] 2. un Abiezrite ou descendant d'Abiézer[\n] [de H44 avec l'article inséré][\n] KJV : Abiezrite. [\n] Racine(s) : H44 "
H	34	"ebyown (eb-yone') adj.[\n] 1. dépourvu[\n] [de H14, dans le sens de manquer (surtout dans le sentiment)][\n] KJV : mendiant, nécessiteux, pauvre (homme). [\n] Racine(s) : H14"
H	35	"abiyownah (ab-ee-yo-naw') n-f.[\n] 1. provocateur de désir[\n] 2. la câpre (pour son goût stimulant)[\n] [de H14][\n] KJV : désir. [\n] Racine(s) : H14 "
H	36	"Abiytuwb (ab-ee-toob') n/p.[\n] 1. père de bonté (c'est-à-dire bon)[\n] 2. Abitub, un Israélite[\n] [de H1 et H2898][\n] KJV : Abitub. [\n] Racine(s) : H1, H2898 "
H	37	"Abiytal (ab-ee-tal') n/p.[\n] 1. père de la rosée (c'est-à-dire fraîche)[\n] 2. Abital, une femme du roi David[\n] [de H1 et H2919][\n] KJV : Abital. [\n] Racine(s) : H1, H2919 "
H	38	"Abiyam (ab-ee-yawm') n/p.[\n] 1. père de la mer (c'est-à-dire marin)[\n] 2. Abijam (ou Abija), un roi de Juda[\n] [de H1 et H3220][\n] KJV : Abijam. [\n] Racine(s) : H1, H3220 "
H	39	"Abiyma'el (ab-ee-maw-ale') n/p.[\n] 1. père de Mael (apparemment une tribu arabe)[\n] 2. Abimael, un fils de Joktan[\n] [de H1 et un mot ailleurs inutilisé (probablement étranger)][\n] KJV : Abimael. [\n] Racine(s) : H1 "
H	40	"Abiymelek (ab-ee-mel'-ek) n/p.[\n] 1. père du roi (c'est-à-dire roi)[\n] 2. Abimélec, le nom de deux rois philistins et de deux Israélites[\n] [de H1 et H4428][\n] KJV : Abimélec. [\n] Racine(s) : H1, H4428 "
H	41	"Abiynadab (ab-ee-naw-dawb') n/p.[\n] 1. père de générosité (c'est-à-dire libéral)[\n] 2. Abinadab, le nom de quatre Israélites[\n] [de H1 et H5068][\n] KJV : Abinadab. [\n] Racine(s) : H1, H5068 "
H	42	"Abiyno`am (ab-ee-no'-am) n/p.[\n] 1. père de la douceur (c'est-à-dire gracieux)[\n] 2. Abinoam, un Israélite[\n] [de H1 et H5278][\n] KJV : Abinoam. [\n] Racine(s) : H1, H5278 "
H	43	"Ebyacaph (eb-yaw-sawf') n/p.[\n] 1. Ebjasaph, un Israélite[\n] [contracté de H23][\n] KJV : Ebiasaph. [\n] Racine(s) : H23 "
H	44	"Abiy`ezer (ab-ee-ay'-zer) n/p.[\n] 1. père d'aide (c'est-à-dire utile)[\n] 2. Abiezer, le nom de deux Israélites[\n] [de H1 et H5829][\n] KJV : Abiezer. [\n] Racine(s) : H1, H5829 "
H	45	"Abiy-`albown (ab-ee-al-bone') n/p.[\n] 1. probablement, père de la force (c'est-à-dire vaillant)[\n] 2. Abialbon, un Israélite[\n] [de H1 et une racine non utilisée d'origine incertaine][\n] KJV : Abialbon. [\n] Racine(s) : H1 "
H	46	"abiyr (aw-beer') adj.[\n] 1. puissant (à propos d'Elohim)[\n] [de H82][\n] KJV : puissant (un). [\n] Racine(s) : H82 "
H	47	"abbiyr (ab-beer') adj.[\n] 1. puissant (à propos de créatures créées)[\n] [de H46][\n] KJV : ange, taureau, le plus grand, puissant (un), courageux, fort (un), vaillant. [\n] Racine(s) : H46 "
H	48	"Abiyram (ab-ee-rawm') n/p.[\n] 1. père de la hauteur (c'est-à-dire élevé)[\n] 2. Abiram, le nom de deux Israélites[\n] [de H1 et H7311][\n] KJV : Abiram. [\n] Racine(s) : H1, H7311 "
H	49	"Abiyshag (ab-ee-shag') n/p.[\n] 1. père de l'erreur (c'est-à-dire l'erreur)[\n] 2. Abishag, une concubine de David[\n] [de H1 et H7686][\n] KJV : Abishag. [\n] Racine(s) : H1, H7686 "
H	50	"Abiyshuwae (ab-ee-shoo'-ah) n/p.[\n] 1. père de l'abondance (c'est-à-dire prospère)[\n] 2. Abishua, le nom de deux Israélites[\n] [de H1 et H7771][\n] KJV : Abishua. [\n] Racine(s) : H1, H7771 "
H	51	"Abiyshuwr (ab-ee-shoor') n/p.[\n] 1. père du mur (c'est-à-dire peut-être maçon)[\n] 2. Abishur, un Israélite[\n] [de H1 et H7791][\n] KJV : Abishur. [\n] Racine(s) : H1, H7791 "
H	52	"Abiyshay (ab-ee-shah'ee) (ou (plus court) Abshay {ab-shah'ee}) n/p.[\n] 1. père d'un cadeau (c'est-à-dire probablement généreux)[\n] 2. Abishai, un Israélite[\n] [de H1 et H7862][\n] KJV : Abishai. [\n] Racine(s) : H1, H7862 "
H	53	"Abiyshalowm (ab-ee-shaw-lome') (ou (abrégé) bAbshalowm {ab-shaw- lome'}) n/p.[\n] 1. père de la paix (c'est-à-dire amical)[\n] 2. Abshalom, fils de David[\n] 3. (aussi, la forme plus complète) un Israélite ultérieur[\n] [de H1 et H7965][\n] KJV : Abishalom, Absalom. [\n] Racine(s) : H1, H7965 "
H	54	"Ebyathar (ab-yaw-thawr') n/p.[\n] 1. père de l'abondance (c'est-à-dire libéral)[\n] 2. Ebjathar, un Israélite[\n] [contracté de H1 et H3498][\n] KJV : Abiathar. [\n] Racine(s) : H1, H3498 "
H	55	"abak (aw-bak') v.[\n] 1. probablement se courber vers le haut[\n] [une racine primitive][\n] KJV : monter. "
H	56	"abal (aw-bal') v.[\n] 1. pleurer[\n] [une racine primitive][\n] KJV : se lamenter, pleurer. "
H	57	"abel (aw-bale') adj.[\n] 1. en deuil[\n] [de H56][\n] KJV : en deuil. [\n] Racine(s) : H56 "
H	58	"abel (aw-bale') n-f.[\n] 1. une prairie[\n] [d'une racine inutilisée (signifiant être herbeux)][\n] KJV : plaine. [\n] Comparer : aussi, les, noms, propres, commençant, par, Abel- "
H	59	"Abel (aw-bale') n/l.[\n] 1. une prairie[\n] 2. Abel, le nom de deux endroits en Israël[\n] [de H58][\n] KJV : Abel. [\n] Racine(s) : H58 "
H	60	"ebel (ay'-bel) n-m.[\n] 1. lamentation[\n] [de H56][\n] KJV : deuil. [\n] Racine(s) : H56 "
H	61	"abal (ab-awl') adv.[\n] 1. non, c'est-à-dire vraiment ou encore[\n] [apparemment de H56 à travers l'idée de négation][\n] KJV : mais, en effet, néanmoins, vraiment. [\n] Racine(s) : H56 "
H	62	"Abel Beyth-Ma`akah (aw-bale' bayth ma-a-kaw') n/l.[\n] 1. prairie de Beth-Maakah[\n] 2. Abel de Beth-Maakah, un lieu en Israël[\n] [de H58 et H1004 et H4601][\n] KJV : Abel-beth-maachah, Abel of Beth-maachah, [\n] Racine(s) : H58, H1004, H4601 "
H	63	"Abel hash-Shittiym (aw-bale' hash-shit-teem') n/l.[\n] 1. prairie des acacias[\n] 2. Abel hash-Shittim, un lieu en Israël[\n] [de H58 et le pluriel de H7848, avec l'article inséré][\n] KJV : Abel-shittim. [\n] Racine(s) : H58, H7848 "
H	64	"Abel Kramiym (aw-bale' ker-aw-meem') n/l.[\n] 1. prairie des vignobles[\n] 2. Abel-Keramim, un lieu en Israël[\n] [de H58 et le pluriel de H3754][\n] KJV : plain of the vineyards. [\n] Racine(s) : H58, H3754 "
H	65	"Abel Mchowlah (aw-bale' mekh-o-law') n/l.[\n] 1. prairie de danse[\n] 2. Abel-Mecholah, un lieu en Israël[\n] [de H58 et H4246][\n] KJV : Abel-meholah. [\n] Racine(s) : H58, H4246 "
H	66	"Abel Mayim (aw-bale' mah'-yim) n/l.[\n] 1. prairie d'eau[\n] 2. Abel-Majim, un lieu en Israël[\n] [de H58 et H4325][\n] KJV : Abel-maim. [\n] Racine(s) : H58, H4325 "
H	67	"Abel Mitsrayim (aw-bale' mits-rah'-yim) n/l.[\n] 1. prairie de l'Égypte[\n] 2. Abel-Mitsrajim, un lieu en Israël[\n] [de H58 et H4714][\n] KJV : Abel-mizraim. [\n] Racine(s) : H58, H4714 "
H	68	"eben (eh'-ben) n-f.[\n] 1. une pierre[\n] [de la racine de H1129 à travers le sens de construire][\n] KJV : + anthrax, + maçon, + plomb, (craie, grêle, tête, fronde) pierre (pierreux), (plongeurs) poids (-s). [\n] Racine(s) : H1129 "
A	69	"eben (eh'-ben) n-f.[\n] 1. pierre[\n] [(Araméen) correspondant à H68][\n]  Racine(s) : H68 "
H	70	"oben (o'ben) n-m.[\n] 1. une paire de pierres (uniquement en dual)[\n] 2. un tour de potier ou un tabouret de sage-femme (constitué de deux disques horizontaux avec un support entre les deux)[\n] [de la même manière que H68][\n] KJV :roue, tabouret. [\n] Racine(s) : H68 "
H	71	"Abanah (ab-aw-naw') n/l.[\n] 1. pierreuse[\n] 2. Abanah, une rivière près de Damas[\n] [peut-être féminin de H68][\n] KJV: Abana. [\n] Racine(s): H68 [\n] Comparer: H549 "
H	72	"Eben ha-`ezer (eh'-ben haw-e'-zer) n/l.[\n] 1. pierre de l'aide[\n] 2. Eben-ha-Ezer, un lieu en Israël[\n] [de H68 et H5828 avec l'article inséré][\n] KJV: Ebenezer. [\n] Racine(s): H68, H5828 "
H	73	"abnet (ab-nate') n-m.[\n] 1. une ceinture[\n] [d'origine incertaine][\n] KJV: ceinture. "
H	74	"Abner (ab-nare') (ou (complètement) nAbiyner {ab-ee-nare'}) n/p.[\n] 1. père de lumière (c'est-à-dire éclairant)[\n] 2. Abner, un Israélite[\n] [de H1 et H5216][\n] KJV: Abner. [\n] Racine(s): H1, H5216 "
H	75	"abac (aw-bas') v.[\n] 1. donner à manger[\n] [une racine primitive][\n] KJV: engraissé, apprivoisé. "
H	76	"aba`bu`ah (ab-ah-boo-aw') n-f.[\n] 1. une pustule inflammatoire (comme une éruption)[\n] [(par redoublement) à partir d'une racine non utilisée (signifiant éructer)][\n] KJV: ulcères. "
H	77	"Ebets (eh'-bets) n/l.[\n] 1. visible[\n] 2. Ebets, un lieu en Israël[\n] [d'une racine inutilisée signifiant probablement luire][\n] KJV: Abez. "
H	78	"Ibtsan (ib-tsawn') n/p.[\n] 1. splendide[\n] 2. Ibtsan, un Israélite[\n] [du même que H76][\n] KJV: Ibzan. [\n] Racine(s): H76 "
H	79	"abaq (aw-bak') v.[\n] 1. s'envoler en poussière, c'est-à-dire se débattre[\n] [une racine primitive, probablement s'éloigner en tant que vapeur, mais utilisée uniquement comme dérivée de H80][\n] KJV: lutter. [\n] Racine(s): H80 "
H	80	"abaq (aw-bawk') n-m.[\n] 1. particules légères (comme volatiles)[\n] [de la racine de H79][\n] KJV: (petite) poussière, poudre. [\n] Racine(s): H79 "
H	81	"abaqah (ab-aw-kaw') n-f.[\n] 1. poudre[\n] [féminin de H80][\n]  Racine(s): H80 "
H	82	"abar (aw-bar') v.[\n] 1. planer[\n] [une racine primitive][\n] KJV: voler. "
H	83	"eber (ay-ber') n-m.[\n] 1. une aile[\n] [de H82][\n] KJV: (longue) aile. [\n] Racine(s): H82 "
H	84	"ebrah (eb-raw') n-f.[\n] 1. plume, aile[\n] [féminin de H83][\n]  Racine(s): H83 "
H	85	"Abraham (ab-raw-hawm') n/p.[\n] 1. père d'une multitude[\n] 2. Abraham, le nom ultérieur d'Abram[\n] [contracté de H1 et d'une racine inutilisée (probablement signifiant peuplé)][\n] KJV: Abraham. [\n] Racine(s): H1 "
H	86	"abrek (ab-rake') interj.[\n] 1. plier le genou[\n] [probablement un mot égyptien signifiant s'agenouiller]"
H	87	"Abram (ab-rawm') n/p.[\n] 1. père élevé[\n] 2. Abram, le nom original d'Abraham[\n] [contracté de H48][\n] KJV: Abram. [\n] Racine(s): H48"
H	88	"oboth (o-both') n/l.[\n] 1. outres[\n] 2. Oboth, un lieu dans le désert[\n] [pluriel de H178][\n] KJV: Oboth. [\n] Racine(s): H178 "
H	89	"Age' (aw-gay') n/p.[\n] 1. Age, un Israélite[\n] [d'origine incertaine][\n] KJV: Agee. [\n] Comparer: H90 "
H	90	"Agag (ag-ag') (ou uAgag {Ag-awg'}) n/p.[\n] 1. flamme[\n] 2. Agag, un titre des rois amalécites[\n] [d'origine incertaine][\n] KJV: Agag. [\n] Comparer: H89 "
H	91	"Agagiy (ag-aw-ghee') adj.[\n] 1. un Agagite ou descendant (sujet) d'Agag[\n] [patronyme de H90][\n] KJV: Agagite. [\n] Racine(s): H90"
H	92	"aguddah (ag-ood-daw') n-f.[\n] 1. un groupe, un paquet, un nœud, ou une arche[\n] [participe passif féminin d'une racine inutilisée (signifiant lier)][\n] KJV: groupe, fardeau, troupe. "
H	93	"egowz (eg-oze') n-m.[\n] 1. une noix[\n] [probablement d'origine persane][\n] KJV: noix. "
H	94	"Aguwr (aw-goor') n/p.[\n] 1. rassemblé (c'est-à-dire reçu parmi les sages)[\n] 2. Agur, un nom fantaisiste pour Salomon[\n] [participe passif de H103][\n] KJV: Agur. [\n] Racine(s): H103 "
H	95	"agowrah (ag-o-raw') n-f.[\n] 1. (proprement) quelque chose de rassemblé, peut-être un grain ou une baie[\n] 2. utilisé uniquement pour une petite pièce d'argent[\n] [de la même racine que H94][\n] KJV: pièce (d')argent. [\n] Racine(s): H94 "
H	96	"egel (eh'-ghel) n-m.[\n] 1. un réservoir[\n] [d'une racine inutilisée (signifiant couler ou se rassembler en gouttes)][\n] KJV: goutte. "
H	97	"Eglayim (eg-lah'-yim) n/l.[\n] 1. un double étang[\n] 2. Eglajim, un lieu en Moab[\n] [duel de H96][\n] KJV: Eglaim. [\n] Racine(s): H96 "
H	98	"agam (ag-am') n-m.[\n] 1. un marais[\n] 2. donc un jonc (qui pousse dans les marais)[\n] 3. donc une palissade en roseaux[\n] [d'une racine inutilisée (signifiant collecter comme de l'eau)][\n] KJV: étang, piscine, eau stagnante. "
H	99	"agem (aw-game') adj.[\n] 1. figurativement, triste[\n] [probablement de la même racine que H98 (au sens d'eau stagnante)][\n] KJV: étang. [\n] Racine(s): H98 "
H	100	"agmown (ag-mone') n-m.[\n] 1. une mare marécageuse (d'autres d'une racine différente, une chaudière)[\n] 2. (par implication) un jonc (qui y pousse)[\n] 3. (collectivement) une corde de joncs[\n] [de la même racine que H98][\n] KJV: jonc, chaudron, crochet, roseau. [\n] Racine(s): H98 "
H	101	"aggan (ag-gawn') n-m.[\n] 1. un bol (comme creusé en creux)[\n] [probablement de H5059][\n] KJV: bassin, coupe, gobelet. [\n] Racine(s): H5059 "
H	102	"aggaph (ag-gawf') n-m.[\n] 1. un couvercle ou un tas[\n] 2. c'est-à-dire (seulement au pluriel) les ailes d'une armée ou des foules de troupes[\n] [probablement de H5062 (par l'idée de l'imminence)][\n] KJV: bandes. [\n] Racine(s): H5062 "
H	103	"agar (aw-gar') v.[\n] 1. moissonner[\n] [racine primitive][\n] KJV: récolter. "
A	104	"iggra' (ig-er-aw') n-f.[\n] 1. une épître (comme portée par un messager d'État ou un facteur)[\n] [(araméen) d'origine persane][\n] KJV: lettre. "
H	105	"agartal (ag-ar-tawl') n-m.[\n] 1. un bassin[\n] [d'origine incertaine][\n] KJV: plat. "
H	106	"egroph (eg-rofe') n-m.[\n] 1. la main fermée[\n] [de H1640 (dans le sens de saisir)][\n] KJV: poing. [\n] Racine(s): H1640 "
H	107	"iggereth (ig-eh'-reth) n-f.[\n] 1. une épître[\n] [féminin de H104][\n] KJV: lettre. [\n] Racine(s): H104 "
H	108	"ed (ade) n-m.[\n] 1. une brume[\n] [de la même racine que H181 (dans le sens d'envelopper)][\n] KJV: brouillard, vapeur. [\n] Racine(s): H181 "
H	109	"adab (aw-dab') v.[\n] 1. languir[\n] [racine primitive][\n] KJV: attrister."
H	110	"Adb'el (ad-beh-ale') n/p.[\n] 1. discipliné d'Elohim[\n] 2. Adbeel, un fils d'Ismaël[\n] [probablement de H109 (dans le sens de châtiment) et H410][\n] KJV: Adbeel. [\n] Racine(s): H109, H410 "
H	111	"Adad (ad-ad') n/p.[\n] 1. Adad (ou Hadad), un Édomite[\n] [probablement une variation orthographique de H2301][\n] KJV: Hadad. [\n] Racine(s): H2301 "
H	112	"Iddow (id-do) n/p.[\n] 1. Iddo, un Israélite[\n] [d'origine incertaine][\n] KJV: Iddo. "
H	113	"adown (aw-done') (ou (abrégé) adon {aw-done'}) n-m.[\n] 1. souverain, c'est-à-dire contrôleur (humain ou divin)[\n] [d'une racine non utilisée (signifiant gouverner)][\n] KJV: seigneur, maître, propriétaire. [\n] Comparez : aussi, des noms commençant par ""Adoni-"" "
H	114	"Addown (ad-done') adj.[\n] 1. puissant[\n] 2. Addon, apparemment un Israélite[\n] [probablement intensif pour H113][\n] KJV: Addon. [\n] Racine(s): H113 "
H	115	"Adowrayim (ad-o-rah'-yim) n/l.[\n] 1. double monticule[\n] 2. Adorajim, un lieu en Israël[\n] [duel de H142 (dans le sens d'éminence)][\n] KJV: Adoraim. [\n] Racine(s): H142 "
A	116	"edayin (ed-ah'-yin) adv.[\n] 1. alors (dans le temps)[\n] [(araméen) d'origine incertaine][\n] KJV: maintenant, à ce moment-là, alors. "
H	117	"addiyr (ad-deer') adj.[\n] 1. large[\n] 2. (généralement) grand[\n] 3. (figurativement) puissant[\n] [de H142][\n] KJV: excellent, célèbre, vaillant, glorieux, magnifique, seigneur, puissant(- plus puissant), noble, principal, digne. [\n] Racine(s): H142 "
H	118	"Adalya' (ad-al-yaw') n/p.[\n] 1. Adalja, un fils de Haman[\n] [d'origine perse][\n] KJV: Adalia. "
H	119	"adam (aw-dam') v.[\n] 1. devenir rouge (écarlate)[\n] [pour montrer le sang (au visage), c'est-à-dire rougir ou devenir rose]"
H	120	"adam (aw-dawm') n-m.[\n] 1. écarlate, c'est-à-dire un être humain (un individu ou l'espèce, l'humanité, etc.)[\n] [de H119][\n] KJV: X un autre, + hypocrite, + sorte commune, X bas, homme (méprisable, de basse condition), personne. [\n] Racine(s): H119 "
H	121	"Adam (aw-dawm') n/p.[\n] 1. Adam, le nom du premier homme, ainsi que d'un lieu en Israël[\n] [le même que H120][\n] KJV: Adam. [\n] Racine(s): H120 "
H	122	"adom (aw-dome') adj.[\n] 1. rosé[\n] [de H119][\n] KJV: rouge, vermeil. [\n] Racine(s): H119 "
H	123	"Edom (ed-ome') (ou (complètement) oEdowm {ed-ome'}) n/p.[\n] 1. rouge (voir Genèse 25[\n] 2. Édom, le frère jumeau aîné de Jacob[\n] 3. donc la région (Idumée) occupée par lui[\n] [de H122][\n] KJV: Édom, Édomites, Idumée. [\n] Racine(s): H122 "
H	124	"odem (o'-dem) n-f.[\n] 1. rougeur, c'est-à-dire le rubis, la grenat ou une autre pierre précieuse rouge[\n] [de H119][\n] KJV: sardoine. [\n] Racine(s): H119 "
H	125	"adamdam (ad-am-dawm') adj.[\n] 1. rougeâtre[\n] [redoublé de H119][\n] KJV: (un peu) rougeâtre. [\n] Racine(s): H119 "
H	126	"Admah (ad-maw') n/l.[\n] 1. terrestre[\n] 2. Admah, un lieu près de la mer Morte[\n] [contracté pour H127][\n] KJV: Admah. [\n] Racine(s): H127 "
H	127	"adamah (ad-aw-maw') n-f.[\n] 1. sol (en raison de sa couleur rouge)[\n] [de H119][\n] KJV: pays, terre, sol, agriculteur(-ie), terre. [\n] Racine(s): H119 "
H	128	"Adamah (ad-aw-maw') n/l.[\n] 1. Adamah, un lieu en Israël[\n] [le même que H127][\n] KJV: Adamah. [\n] Racine(s): H127 "
H	129	"Adamiy (ad-aw-mee') n/l.[\n] 1. terrestre[\n] 2. Adami, un lieu en Israël[\n] [de H127][\n] KJV: Adami. [\n] Racine(s): H127 "
H	130	"Edomiy (ed-o-mee') (ou (complètement) aEdowmiy {ed-o-mee'}) adj.[\n] 1. un Édomite, ou descendants d'Édom (ou habitants d'Édom)[\n] [patronymique de H123][\n] KJV: Édomite. Voir H0726. [\n] Racine(s): H123 [\n] Voir aussi: H726 "
H	131	"Adummiym (ad-oom-meem') n/l.[\n] 1. taches rouges[\n] 2. Adummim, un col en Israël[\n] [pluriel de H121][\n] KJV: Adummim. [\n] Racine(s): H121 "
H	132	"admoniy (ad-mo-nee') (ou (complètement) admowniy {ad-mo-nee'}) adj.[\n] 1. rougeâtre (des cheveux ou de la complexion)[\n] [de H119][\n] KJV: rouge, vermeil. [\n] Racine(s): H119 "
H	133	"Admatha' (ad-maw-thaw') n/p.[\n] 1. Admatha[\n] [probablement d'origine perse]"
H	134	"eden (eh'-den) n-m.[\n] 1. une base (d'un bâtiment, une colonne, etc.)[\n] [de la même racine que H113 (dans le sens de force)][\n] KJV: fondation, douille. [\n] Racine(s): H113 "
H	135	"Addan (ad-dawn') n/l.[\n] 1. solide[\n] 2. Addan, un Israélite[\n] [intensif de la même racine que H134][\n] KJV: Addan. [\n] Racine(s): H134 "
H	136	"Adonay (ad-o-noy') n-m.[\n] 1. le Seigneur (utilisé comme nom propre d'Elohim seulement)[\n] [forme emphatique de H113][\n] KJV: (mon) Seigneur. [\n] Racine(s): H113 "
H	137	"Adoniy-Bezeq (ad-o''-nee-beh'-zek) n/p.[\n] 1. seigneur de Bezek[\n] 2. Adoni-Bezek[\n] 3. un roi cananéen[\n] [de H113 et H966][\n] KJV: Adoni-bezek. [\n] Racine(s): H113, H966 "
H	138	"Adoniyah (ad-o-nee-yaw') (original (prolongé) dAdoniyahuw {ad-o-nee- yaw'-hoo}) n/p.[\n] 1. seigneur (c'est-à-dire adorateur) de Jah[\n] 2. Adonija, le nom de trois Israélites[\n] [de H113 et H3050][\n] KJV: Adonijah. [\n] Racine(s): H113, H3050 "
H	139	"Adoniy-Tsedeq (ad-o''-nee-tseh'-dek) n/p.[\n] 1. seigneur de la justice[\n] 2. Adoni-Tsedek, un roi cananéen[\n] [de H113 et H6664][\n] KJV: Adonizedec. [\n] Racine(s): H113, H6664 "
H	140	"Adoniyqam (ad-o-nee-kawm') n/p.[\n] 1. seigneur de l'élévation (c'est-à-dire élevé)[\n] 2. Adonikam, le nom d'un ou de deux Israélites[\n] [de H113 et H6965][\n] KJV: Adonikam. [\n] Racine(s): H113, H6965 "
H	141	"Adoniyram (ad-o-nee-rawm') n/p.[\n] 1. seigneur de la hauteur[\n] 2. Adoniram, un Israélite[\n] [de H113 et H7311][\n] KJV: Adoniram. [\n] Racine(s): H113, H7311 "
H	142	"adar (aw-dar') v.[\n] 1. s'étendre, c'est-à-dire être grand[\n] 2. (figurativement) magnifique[\n] [racine primitive][\n] KJV: (devenir) glorieux, honorable. "
H	143	"Adar (ad-awr') n/t.[\n] 1. signifiant peut-être feu[\n] 2. Adar, le 12e mois hébreu[\n] [probablement d'origine étrangère][\n] KJV: Adar. "
A	144	"Adar (ad-awr') n/t.[\n] 1. Adar[\n] [(araméen) correspondant à H143][\n]  Racine(s): H143 "
H	145	"eder (eh'-der) n-m.[\n] 1. amplitude[\n] 2. (concrètement) un manteau[\n] 3. (figurativement) splendeur[\n] [de H142][\n] KJV: magnifique, robe. [\n] Racine(s): H142 "
H	146	"Addar (ad-dawr') n/p.[\n] 1. ample[\n] 2. Addar, un endroit en Israël[\n] 3. (aussi) un Israélite[\n] [intensif de H142][\n] KJV: Addar. [\n] Racine(s): H142 "
A	147	"iddar (id-dar') n-f.[\n] 1. ample, c'est-à-dire une aire de battage[\n] [(araméen) intensif, d'une racine correspondant à H142][\n] KJV: aire de battage. [\n] Racine(s): H142 "
A	148	"adargazer (ad-ar''-gaw-zare') n-m.[\n] 1. un chef devin ou astrologue[\n] [(araméen) de la même racine que H147 et H1505][\n] KJV: juge. [\n] Racine(s): H147, H1505 "
A	149	"adrazda' (ad-raz-daw') adv.[\n] 1. rapidement ou soigneusement[\n] [(araméen) probablement d'origine perse][\n] KJV: diligemment. "
H	150	"adarkon (ad-ar-kone') n-m.[\n] 1. un darique ou une pièce persane[\n] [d'origine perse][\n] KJV: drachme. "
H	151	"Adoram (ad-o-rawm') n/p.[\n] 1. Adoram (ou Adoniram), un Israélite[\n] [contracté de H141][\n] KJV: Adoram. [\n] Racine(s): H141 "
H	152	"Adrammelek (ad-ram-meh'-lek) n/p.[\n] 1. splendeur du roi[\n] 2. Adrammelek, le nom d'une idole assyrienne, aussi d'un fils de Sennachérib[\n] [de H142 et H4428][\n] KJV: Adrammelech. [\n] Racine(s): H142, H4428 "
A	153	"edra` (ed-raw') n-f.[\n] 1. un bras[\n] 2. (figurativement) puissance[\n] [(araméen) une variation orthographique de H1872][\n] KJV: force. [\n] Racine(s): H1872 "
H	154	"edre`iy (ed-reh'-ee) n/l.[\n] 1. puissant[\n] 2. Edréi, le nom de deux endroits en Israël[\n] [de l'équivalent de H153][\n] KJV: Edréi. [\n] Racine(s): H153 "
H	155	"addereth (ad-deh'-reth) n-f.[\n] 1. quelque chose d'ample (comme une grande vigne, une large robe)[\n] 2. (aussi) la même chose que H0145[\n] [féminin de H117][\n] KJV: vêtement, gloire, magnifique, manteau, robe. [\n] Racine(s): H117 [\n] Voir aussi: H145 "
H	156	"adash (aw-dash') v.[\n] 1. fouler (le grain)[\n] [racine primitive][\n] KJV: battre le grain. "
H	157	"ahab (aw-hab') (ou raheb {aw-habe'}) v.[\n] 1. avoir de l'affection pour (sexuellement ou autrement)[\n] [racine primitive][\n] KJV: aimer, ami. "
H	158	"ahab (ah'-hab) n-m.[\n] 1. affection (dans un sens bon ou mauvais)[\n] [de H157][\n] KJV: amour. [\n] Racine(s): H157 "
H	159	"ohab (o'-hab) n-m.[\n] 1. signifiant la même chose que H0158[\n] [de H156][\n] KJV: amour. [\n] Racine(s): H156 [\n] Voir aussi: H158 "
H	160	"ahabah (a-hab-aw) n-f.[\n] 1. amour[\n] [féminin de H158 et signifiant la même chose][\n]  Racine(s): H158 "
H	161	"Ohad (o'-had) n/p.[\n] 1. unité[\n] 2. Ohad, un Israélite[\n] [de racine non utilisée signifiant être uni][\n] KJV: Ohad. "
H	162	"ahahh (a-haw') interj.[\n] 1. Oh![\n] [apparemment un mot primitif exprimant la douleur de manière exclamatoire][\n] KJV: ah, hélas. "
H	163	"Ahava' (a-hav-aw') n/l.[\n] 1. Ahava, un fleuve de Babylone[\n] [probablement d'origine étrangère][\n] KJV: Ahava. "
H	164	"Ehuwd (ay-hood') n/p.[\n] 1. uni[\n] 2. Ehud, le nom de deux ou trois Israélites[\n] [de la même racine que H161][\n] KJV: Ehud. [\n] Racine(s): H161 "
H	165	"ehiy (e-hee') adv.[\n] 1. où[\n] [apparemment une variation orthographique de H346][\n] KJV: Je serai (Osée 13). [\n] Racine(s): H346 [\n] Voir aussi: H1961 "
H	166	"ahal (aw-hal') v.[\n] 1. être clair[\n] [racine primitive][\n] KJV: briller. "
H	167	"ahal (aw-hal') v.[\n] 1. dresser une tente[\n] [un dérivé de H168][\n] KJV: dresser (retirer) une tente. [\n] Racine(s): H168 "
H	168	"ohel (o'-hel) n-m.[\n] 1. une tente (comme clairement visible de loin)[\n] [de H166][\n] KJV: couverture, lieu d'habitation, maison, tabernacle, tente. [\n] Racine(s): H166 "
H	169	"Ohel (o'-hel) n/p.[\n] 1. Ohel, un Israélite[\n] [le même que H168][\n] KJV: Ohel. [\n] Racine(s): H168 "
H	170	"Oholah (o-hol-aw') (en forme un féminin de H168, mais en réalité pour .Oholahh {o-hol-aw'}) n/p.[\n] 1. sa tente (c'est-à-dire sanctuaire idolâtre)[\n] 2. Oholah, un nom symbolique pour Samarie[\n] [de H168][\n] KJV: Aholah. [\n] Racine(s): H168, H168 "
H	171	"Oholiy'ab (o''-hol-e-awb') n/p.[\n] 1. tente de (son) père[\n] 2. Oholiab, un Israélite[\n] [de H168 et H1][\n] KJV: Aholiab. [\n] Racine(s): H168, H1 "
H	172	"Oholiybah (o''-hol-ee-baw') ((de manière similaire à H170) pour hOholiybahh {o''-hol-e-baw'}) n/p.[\n] 1. ma tente (est) en elle[\n] 2. Oholibah, un nom symbolique pour Juda[\n] [de H168][\n] KJV: Aholibah. [\n] Racine(s): H168 [\n] Voir aussi: H170 "
H	173	"Oholiybamah (o''-hol-ee-baw-maw') n/p.[\n] 1. tente de la hauteur[\n] 2. Oholibamah, une femme d'Ésaü[\n] [de H168 et H1116][\n] KJV: Aholibamah. [\n] Racine(s): H168, H1116 "
H	174	"ahaliym (a-haw-leem') (ou (féminin) ahalowth {a-haw-loth'} (uniquement utilisé ainsi au pluriel)) n-m.[\n] 1. bois d'aloès (c'est-à-dire des bâtons)[\n] [d'origine étrangère][\n] KJV: (arbre de lign-) aloès. "
H	175	"Aharown (a-har-one') n/p.[\n] 1. Aharon, le frère de Moïse[\n] [dérivation incertaine][\n] KJV: Aaron. "
H	176	"ow (o) (présumé être la forme ""constructive"" ou génitive de -av {av}) conj.[\n] 1. désir (et donc probablement dans Prov. 31[\n] 2. donc (par voie alternative) ou, aussi si[\n] [abrégé de H185][\n] KJV: aussi, et, ou, si, du moins, X ni, ou, sinon, alors, que, que ce soit. [\n] Racine(s): H185 "
H	177	"Uw'el (oo-ale') n/p.[\n] 1. souhait d'Elohim [\n] 2. Uel, un Israélite[\n] [de H176 et H410][\n] KJV: Uel. [\n] Racine(s): H176, H410 "
H	178	"owb (obe) n-m.[\n] 1. (correctement) un murmure, c'est-à-dire une outre (en raison de son son creux)[\n] 2. un nécromancien (ventriloque, comme venant d'un pot)[\n] [du même que H1 (apparemment à travers l'idée de marmonner le nom d'un père)][\n] KJV: bouteille, esprit familier. [\n] Racine(s): H1 "
H	179	"owbiyl (o-beel') n/p.[\n] 1. douloureux[\n] 2. Obil, un Ismaélite[\n] [probablement de H56][\n] KJV: Obil. [\n] Racine(s): H56 "
H	180	"uwbal (oo-bawl') (ou (abrégé) ubal {oo-bawl'}) n-m.[\n] 1. un cours d'eau[\n] [de H2986 (dans le sens de H2988)][\n] KJV: rivière. [\n] Racine(s): H2986, H2988 "
H	181	"uwd (ood) n-m.[\n] 1. une pince (pour tourner ou rassembler des braises)[\n] [de racine non utilisée signifiant rassembler][\n] KJV: tison. "
H	182	"owdowth (o-doth') (ou (abrégé) rodowth {o-doth'} (uniquement ainsi au pluriel)) n-f.[\n] 1. événements (c'est-à-dire occasions)[\n] 2. (adverbe) à cause de[\n] [de la même racine que H181][\n] KJV: (à) cause, au sujet de, à cause de. [\n] Racine(s): H181 "
H	183	"avah (aw-vaw') v.[\n] 1. désirer[\n] [racine primitive][\n] KJV: convoiter, désirer ardemment, avoir envie, convoitise. "
H	184	"avah (aw-vaw') v.[\n] 1. étendre ou marquer[\n] [racine primitive][\n] KJV: indiquer. "
H	185	"avvah (av-vaw') n-f.[\n] 1. désir[\n] [de H183][\n] KJV: désir, convoitise, plaisir. [\n] Racine(s): H183 "
H	186	"Uwzay (oo-zah'-ee) n/p.[\n] 1. Uzai, un Israélite[\n] [peut-être par permutation de H5813, fort][\n] KJV: Uzai. [\n] Racine(s): H5813 "
H	187	"Uwzal (oo-zawl') n/p.[\n] 1. Uzal, un fils de Joktan[\n] [dérivation incertaine][\n] KJV: Uzal. "
H	188	"owy (o'-ee) inj.[\n] 1. lamentation[\n] 2. (interjectionnellement) Oh![\n] [probablement de H183 (dans le sens de crier après)][\n] KJV: malheur, ouh. [\n] Racine(s): H183 "
H	189	"Eviy (ev-ee') n/p.[\n] 1. désireux[\n] 2. Evi, un chef midianite[\n] [probablement de H183][\n] KJV: Evi. [\n] Racine(s): H183 "
H	190	"owyah (o-yaw') inj.[\n] 1. malheur[\n] [féminin de H188][\n]  Racine(s): H188 "
H	191	"eviyl (ev-eel') adj.[\n] 1. (figurativement) idiot[\n] [de racine non utilisée (signifiant être pervers)][\n] KJV: fou (homme). "
H	192	"Eviyl Mrodak (ev-eel' mer-o-dak') n/p.[\n] 1. Evil-Merodak, un roi babylonien[\n] [dérivation araméenne et probablement signifiant soldat de Merodak][\n] KJV: Evil-merodach. "
H	193	"uwl (ool) n-m.[\n] 1. le corps (comme étant roulé ensemble)[\n] 2. (aussi) puissant[\n] [de racine non utilisée signifiant tordre, par implication, être fort][\n] KJV: puissant, force. "
H	194	"uwlay (oo-lah'ee) (ou (abrégé) rulay {oo-lah'ee}) adv.[\n] 1. si ce n'est pas[\n] 2. donc peut-être[\n] [de H176][\n] KJV: si c'est ainsi, peut-être, à moins que. [\n] Racine(s): H176 "
H	195	"Uwlay (oo-lah'ee) n/l.[\n] 1. l'Ulai (ou Eulaeus), une rivière de Perse[\n] [de dérivation perse][\n] KJV: Ulai. "
H	196	"eviliy (ev-ee-lee') adj.[\n] 1. idiot, fou[\n] 2. donc (morale) impie[\n] [de H191][\n] KJV: fou. [\n] Racine(s): H191 "
H	197	"uwlam (oo-lawm') (ou (abrégé) ,ulam {oo-lawm'}) n-m.[\n] 1. un vestibule (comme attaché au bâtiment)[\n] [de H481 (dans le sens de lier)][\n] KJV: porche. [\n] Racine(s): H481 "
H	198	"Uwlam (oo-lawm') n/p.[\n] 1. solitaire[\n] 2. Ulam, le nom de deux Israélites[\n] [apparemment de H481 (dans le sens de muet)][\n] KJV: Ulam. [\n] Racine(s): H481 "
H	199	"uwlam (oo-lawm') adv.[\n] 1. cependant ou au contraire[\n] [apparemment une variation de H194][\n] KJV: quant à, mais, toutefois, en vérité, vraiment, pourquoi. [\n] Racine(s): H194 "
H	200	"ivveleth (iv-veh'-leth) n-f.[\n] 1. stupidité[\n] [de la même racine que H191][\n] KJV: folie, stupidité. [\n] Racine(s): H191 "
H	201	"Owmar (o-mawr') n/p.[\n] 1. bavard[\n] 2. Omar, un petit-fils d'Ésaü[\n] [de H559][\n] KJV: Omar. [\n] Racine(s): H559 "
H	202	"own (one) n-m.[\n] 1. capacité, pouvoir, (figurativement) richesse[\n] [probablement de la même racine que H205 (dans le sens d'effort, mais réussi)][\n] KJV: force, biens, puissance, substance. [\n] Racine(s): H205 "
H	203	"Own (one) n/p.[\n] 1. On, un Israélite[\n] [le même que H202][\n] KJV: On. [\n] Racine(s): H202 "
H	204	"Own (one) (ou (abrégé) On {one};) n/l.[\n] 1. On, une ville d'Égypte[\n] [de dérivation égyptienne][\n] KJV: On. "
H	205	"aven (aw-ven') n-m.[\n] 1. (strictement) néant[\n] 2. (aussi) problème, vanité, méchanceté[\n] 3. (spécifiquement) une idole[\n] [d'une racine non utilisée signifiant peut-être proprement haleter (donc, s'efforcer, généralement en vain; arriver à néant)][\n] KJV: affliction, mal, faux, idole, iniquité, méfait, pleureurs(-ing), néant, chagrin, injuste, inique, vide, vanité, méchant(-té). [\n] Comparez : H369 "
H	206	"Aven (aw'-ven) n/l.[\n] 1. idolâtrie[\n] 2. Aven, le synonyme méprisant de trois endroits, l'un en Coele-Syrie, l'un en Égypte (On), et l'un en Israël (Béthel)[\n] [le même que H205][\n] KJV: Aven. Voir aussi H0204, H1007. [\n] Racine(s): H205 [\n] Voir aussi: H204, H1007 "
H	207	"Ownow (o-no') (ou (abrégé) Onow {o-no'}) n/l.[\n] 1. fort[\n] 2. Ono, un lieu en Israël[\n] [prolongé de H202][\n] KJV: Ono. [\n] Racine(s): H202 "
H	208	"Ownam (o-nawm') n/p.[\n] 1. fort[\n] 2. Onam, le nom d'un Édomite et d'un Israélite[\n] [une variation de H209][\n] KJV: Onam. [\n] Racine(s): H209 "
H	209	"Ownan (o-nawn') n/p.[\n] 1. fort[\n] 2. Onan, un fils de Juda[\n] [une variation de H207][\n] KJV: Onan. [\n] Racine(s): H207 "
H	210	"Uwphaz (oo-fawz') n/l.[\n] 1. Uphaz, une célèbre région aurifère[\n] [peut-être une corruption de H211][\n] KJV: Uphaz. [\n] Racine(s): H211 "
H	211	"Owphiyr (o-feer') (ou (abrégé) pOphiyr {o-feer'} et fOwphir {o-feer'}) n/p.[\n] 1. Ophir, le nom d'un fils de Joktan, et d'une région aurifère de l'Est[\n] [d'origine incertaine][\n] KJV: Ophir. "
H	212	"owphan (o-fawn') (ou (abrégé) pophan {o-fawn'}) n-m.[\n] 1. une roue[\n] [d'une racine non utilisée signifiant tourner][\n] KJV: roue. "
H	213	"uwts (oots) v.[\n] 1. presser[\n] 2. (par implication) être proche, se dépêcher, se retirer[\n] [une racine primitive][\n] KJV: se hâter, travail, être étroit. "
H	214	"owtsar (o-tsaw') n-m.[\n] 1. un dépôt[\n] [de H686][\n] KJV: arsenal, cave, grenier, entrepôt, trésor. [\n] Racine(s): H686 "
H	215	"owr (ore) v.[\n] 1. être (causatif, rendre) lumineux (au sens propre et métaphorique)[\n] [une racine primitive][\n] KJV: aube, glorieux, allumer, (être, en-, donner, montrer) la lumière (-en, -ened), mettre le feu, briller. "
H	216	"owr (ore) n-f.[\n] 1. illumination[\n] 2. (concrètement) luminaire (au sens large, y compris la foudre, le bonheur, etc.)[\n] [de H215][\n] KJV: brillant, clair, + jour, lumière (-ning), matin, soleil. [\n] Racine(s): H215 "
H	217	"uwr (ore) n-m.[\n] 1. flamme[\n] 2. d'où (au pluriel) l'Est (comme étant la région de la lumière)[\n] [de H215][\n] KJV: feu, lumière. Voir aussi H0224. [\n] Racine(s): H215 [\n] Voir aussi: H224 "
H	218	"Uwr (oor) n/l.[\n] 1. Ur, un endroit en Chaldée[\n] 2. (aussi) un Israélite[\n] [le même que H217][\n] KJV: Ur. [\n] Racine(s): H217 "
H	219	"owrah (o-raw') n-f.[\n] 1. luminosité[\n] 2. (figurativement) prospérité[\n] 3. (aussi) une plante (comme étant lumineuse)[\n] [féminin de H216][\n] KJV: herbe, lumière. [\n] Racine(s): H216 "
H	220	"averah (av-ay-raw') n-f.[\n] 1. une étable[\n] [par transposition pour H723][\n] KJV: bergerie. [\n] Racine(s): H723 "
H	221	"Uwriy (oo-ree') n/p.[\n] 1. enflammé[\n] 2. Uri, le nom de trois Israélites[\n] [de H217][\n] KJV: Uri. [\n] Racine(s): H217 "
H	222	"Uwriy'el (oo-ree-ale') n/p.[\n] 1. flamme d'Elohim [\n] 2. Uriel, le nom de deux Israélites[\n] [de H217 et H410][\n] KJV: Uriel. [\n] Racine(s): H217, H410 "
H	223	"Uwriyah (oo-ree-yaw') (ou (prolongé) Uwriyahuw {oo-ree-yaw'-hoo}) n/p.[\n] 1. flamme de Jah[\n] 2. Urija, le nom d'un Hittite et de cinq Israélites[\n] [de H217 et H3050][\n] KJV: Uriah, Urijah. [\n] Racine(s): H217, H3050 "
H	224	"Uwriym (oo-reem') n-m.[\n] 1. lumières[\n] 2. Urim, l'éclat oraculaire des figures sur le pectoral du grand prêtre[\n] [pluriel de H217][\n] KJV: Urim. [\n] Racine(s): H217 "
H	225	"uwth (ooth) v.[\n] 1. (proprement) venir[\n] 2. (impliqué) consentir[\n] [une racine primitive][\n] KJV: consentir. "
H	226	"owth (oth) n-f.[\n] 1. un signal (au sens propre ou figuré), comme un drapeau, un signal, un monument, un présage, une preuve, etc[\n] [probablement de H225 (au sens d'apparaître)][\n] KJV: signe, miracle, (en-)signe, symbole. [\n] Racine(s): H225 "
H	227	"az (awz) adv.[\n] 1. à ce moment-là ou à cet endroit[\n] 2. (comme conjonction) donc[\n] [un adverbe démonstratif][\n] KJV: commencement, car, depuis, jusqu'à présent, maintenant, d'antan, une fois, depuis, alors, à ce moment-là, encore. "
A	228	"aza' (az-zaw') ((araméen) ou iazah (araméen) {az-aw'}) v.[\n] 1. allumer[\n] 2. (par implication) chauffer[\n] [une racine principale][\n] KJV: chauffer, chaud. "
H	229	"Ezbay (ez-bah'ee) n/p.[\n] 1. semblable à l'hysope[\n] 2. Ezbai, un Israélite[\n] [probablement de H231][\n] KJV: Ezbai. [\n] Racine(s): H231 "
A	230	"azad (az-zawd') v.[\n] 1. ferme[\n] [(araméen) d'origine incertaine][\n] KJV: être parti. "
H	231	"ezowb (ay-zobe') n-m.[\n] 1. hysope[\n] [probablement d'origine étrangère][\n] KJV: hysope. "
H	232	"ezowr (ay-zore') n-m.[\n] 1. quelque chose de ceint[\n] 2. une ceinture, aussi un bandeau[\n] [de H246][\n] KJV: ceinture. [\n] Racine(s): H246 "
H	233	"azay (az-ah'ee) adv.[\n] 1. à ce moment-là[\n] [probablement de H227][\n] KJV: alors. [\n] Racine(s): H227 "
H	234	"azkarah (az-kaw-raw') n-f.[\n] 1. un rappel[\n] 2. spécifiquement une offrande de souvenir[\n] [de H2142][\n] KJV: mémorial. [\n] Racine(s): H2142 "
H	235	"azal (aw-zal') v.[\n] 1. partir[\n] 2. (par conséquent) disparaître[\n] [une racine primitive][\n] KJV: échouer, errer, aller et venir (mais dans Ezéchiel 27 "
A	236	"azal (az-al') v.[\n] 1. partir[\n] [(araméen) la même chose que H235][\n] KJV: aller (en haut). [\n] Racine(s): H235 "
H	237	"ezel (eh'-zel) n/l.[\n] 1. départ[\n] 2. Ezel, une pierre commémorative en Israël[\n] [de H235][\n] KJV: Ezel. [\n] Racine(s): H235 "
H	238	"azan (aw-zan') v.[\n] 1. élargir l'oreille (avec la main)[\n] 2. (par implication) écouter[\n] [une racine primitive, probablement pour s'étendre ; mais utilisée uniquement comme dénominative de H241][\n] KJV: prêter l'oreille (percevoir par) l'oreille, entendre. Voir H0239. [\n] Racine(s): H241 [\n] Voir aussi: H239 "
H	239	"azan (aw-zan') v.[\n] 1. peser[\n] 2. (au sens figuré) méditer[\n] [une racine primitive (plutôt identique à H238 à travers l'idée de balances comme si deux oreilles)][\n] KJV: bien réfléchir. [\n] Racine(s): H238 "
H	240	"azen (aw-zane') n-m.[\n] 1. une bêche ou une pelle (ayant une extrémité large)[\n] [de H238][\n] KJV: arme. [\n] Racine(s): H238 "
H	241	"ozen (o'-zen) n-f.[\n] 1. largeur[\n] 2. (concrètement) l'oreille (de par sa forme chez l'homme)[\n] [de H238][\n] KJV: + annoncer, audience, + déplaire, oreille, ouïe, + montrer. [\n] Racine(s): H238 "
H	242	"Uzzen She'erah (ooz-zane' sheh-er-aw') n/l.[\n] 1. plaine de Sheerah (c'est-à-dire établie par lui)[\n] 2. Uzzen-Sheerah, un lieu en Israël[\n] [de H238 et H7609][\n] KJV: Uzzen-Shéerah. [\n] Racine(s): H238, H7609"
H	243	"Aznowth Tabowr (az-noth' taw-bore') n/l.[\n] 1. plateaux (c'est-à-dire sommets) du Tabor (c'est-à-dire situés dessus)[\n] 2. Aznoth-Tabor, un lieu en Israël[\n] [de H238 et H8396][\n] KJV: Aznoth-Tabor. [\n] Racine(s): H238, H8396 "
H	244	"Ozniy (oz-nee') n/p.[\n] 1. ayant des oreilles (vives)[\n] 2. Ozni, un Israélite[\n] 3. (aussi) un Oznite[\n] 4. (collectivement) ses descendants[\n] [de H241][\n] KJV: Ozni, Oznites. [\n] Racine(s): H241 "
H	245	"Azanyah (az-an-yaw') n/p.[\n] 1. entendu par Jah[\n] 2. Azanjah, un Israélite[\n] [de H238 et H3050][\n] KJV: Azaniah. [\n] Racine(s): H238, H3050 "
H	246	"aziqqiym (az-ik-keem') n-m.[\n] 1. menottes[\n] [une variation de H2131][\n] KJV: chaînes. [\n] Racine(s): H2131 "
H	247	"azar (aw-zar') v.[\n] 1. ceindre[\n] [une racine primitive][\n] KJV: entourer (d'une ceinture), ceindre (avec). "
H	248	"ezrowa` (ez-ro'-a) n-f.[\n] 1. le bras[\n] [une variation de H2220][\n] KJV: bras. [\n] Racine(s): H2220 "
H	249	"ezrach (ez-rawkh') n-m.[\n] 1. une croissance spontanée[\n] 2. autochtone (arbre ou personne)[\n] [de H2224 (dans le sens de surgir)][\n] KJV: arbre de baie, né (dans le pays), du pays (de la nation). [\n] Racine(s): H2224 "
H	250	"Ezrachiy (ez-raw-khee') adj.[\n] 1. un Ezrachite ou descendant de Zérach[\n] [patronymique de H2246][\n] KJV: Ezrahite. [\n] Racine(s): H2246 "
H	251	"ach (awkh) n-m.[\n] 1. un frère (utilisé dans le sens le plus large de relation littérale et d'affinité ou de ressemblance métaphorique (comme H0001))[\n] [un mot primitif][\n] KJV: un autre, fraternel; parent, semblable, autre. [\n] Comparez : aussi, les, noms, propres, commençant par, ""Ah-"", ou, ""Ahi-"" [\n] Voir aussi : H1 "
A	252	"ach (akh) n-m.[\n] 1. frère[\n] [(araméen) correspondant à H251][\n]  Racine(s): H251 "
H	253	"ach (awkh) inj.[\n] 1. Oh ! (exprimant la douleur ou la surprise)[\n] [une variation de H162][\n] KJV: ah, hélas. [\n] Racine(s): H162 "
H	254	"ach (awkh) n-f.[\n] 1. un pot de feu ou un réchaud[\n] [d'origine incertaine][\n] KJV: foyer. "
H	255	"oach (o'-akh) n-m.[\n] 1. un hurleur ou un animal sauvage solitaire[\n] [probablement de H253][\n] KJV: créature lugubre. [\n] Racine(s): H253 "
H	256	"Ach'ab (akh-awb') (une fois (par contraction) oEchab (Jér. 29) n/p.[\n] 1. frère (c'est-à-dire ami) de (son) père[\n] 2. Achab, le nom d'un roi d'Israël et d'un prophète à Babylone[\n] [de H251 et H1][\n] KJV: Achab. [\n] Racine(s): H251, H1 "
H	257	"Achban (akh-bawn') n/p.[\n] 1. frère (c'est-à-dire possesseur) d'intelligence[\n] 2. Achban, un Israélite[\n] [de H251 et H995][\n] KJV: Ahban. [\n] Racine(s): H251, H995 "
H	258	"achad (aw-khad') v.[\n] 1. unifier[\n] 2. (figurativement) rassembler (ses pensées)[\n] [peut-être une racine primitive][\n] KJV: aller d'une manière ou d'une autre. "
H	259	"echad (ekh-awd') adj.[\n] 1. (correctement) uni, c'est-à-dire un[\n] 2. (comme un ordinal) premier[\n] [un nombre de H258][\n] KJV: un, semblable, seul, totalement, et, n'importe quoi, pièce, un certain, (quo-)tidien, chaque (un), + onze, tout, peu, premier, + chemin, un homme, une fois, un, seul, autre, certains, ensemble, [\n] Racine(s): H258"
H	260	"achuw (aw'-khoo) n-m.[\n] 1. un roseau ou une herbe des marais (en particulier le long du Nil)[\n] [d'origine incertaine (peut-être égyptienne)][\n] KJV: jonc, prairie. "
H	261	"Echuwd (ay-khood') n/p.[\n] 1. uni[\n] 2. Echud, le nom de trois Israélites[\n] [de H258][\n] KJV: Ehud. [\n] Racine(s): H258 "
H	262	"achvah (akh-vaw') n-f.[\n] 1. une déclaration[\n] [de H2331 (dans le sens de H2324)][\n] KJV: déclaration. [\n] Racine(s): H2331, H2324 "
A	263	"achavah (akh-av-aw') n-f.[\n] 1. solution (d'énigmes)[\n] [(araméen) correspondant à H262][\n] KJV: révélation. [\n] Racine(s): H262 "
H	264	"achavah (akh-av-aw') n-m.[\n] 1. fraternité[\n] [de H251][\n] KJV: fraternité. [\n] Racine(s): H251 "
H	265	"Achowach (akh-o'-akh) n/p.[\n] 1. fraternel[\n] 2. Achoach, un Israélite[\n] [par redoublement de H251][\n] KJV: Ahoah. [\n] Racine(s): H251 "
H	266	"Achowchiy (akh-o-khee') adj.[\n] 1. un Achochite ou descendant d'Achoach[\n] [patronymique de H264][\n] KJV: Ahohite. [\n] Racine(s): H264 "
H	267	"Achuwmay (akh-oo-mah'-ee) n/p.[\n] 1. frère (c'est-à-dire voisin) de l'eau[\n] 2. Achumai, un Israélite[\n] [peut-être de H251 et H4325][\n] KJV: Ahumai. [\n] Racine(s): H251, H4325 "
H	268	"achowr (aw-khore') (ou (abrégé) achor {aw-khore'}) subv.[\n] 1. la partie arrière[\n] 2. (donc, adverbialement) derrière, en arrière[\n] 3. (aussi, en regardant vers le nord) l'Ouest[\n] [de H299][\n] KJV: après, en arrière, plus tard, (être-)derrière, temps à venir, sans. [\n] Racine(s): H299 "
H	269	"achowth (aw-khoth') n-f.[\n] 1. une sœur (utilisé très largement (comme H0250), littéralement et figurativement)[\n] [féminin irrégulier de H251][\n] KJV: (une) autre, sœur, ensemble. [\n] Racine(s): H251 [\n] Voir aussi: H250 "
H	270	"achaz (aw-khaz') v.[\n] 1. saisir (souvent avec l'idée accessoire de détenir en possession)[\n] [une racine primitive][\n] KJV: être effrayé, barre, (attraper, poser, prendre) tenir (en arrière), venir sur, attacher, manipuler, portion, (obtenir, avoir ou prendre) posséder. "
H	271	"Achaz (aw-khawz') n/p.[\n] 1. possesseur[\n] 2. Achaz, le nom d'un roi juif et d'un Israélite[\n] [de H270][\n] KJV: Ahaz. [\n] Racine(s): H270 "
H	272	"achuzzah (akh-ooz-zaw') n-f.[\n] 1. quelque chose de saisi, c'est-à-dire une possession (surtout de la terre)[\n] [participe passif féminin de H270][\n] KJV: possession. [\n] Racine(s): H270 "
H	273	"Achzay (akh-zah'ee) n/p.[\n] 1. celui qui saisit[\n] 2. Achzai, un Israélite[\n] [de H270][\n] KJV: Ahasai. [\n] Racine(s): H270 "
H	274	"Achazyah (akh-az-yaw') (ou (prolongé) rAchazyahuw {akh-az-yaw'-hoo}) n/p.[\n] 1. Jah a saisi[\n] 2. Achazjah, le nom d'un roi juif et d'un roi israélite[\n] [de H270 et H3050][\n] KJV: Ahaziah. [\n] Racine(s): H270, H3050 "
H	275	"Achuzzam (akh-ooz-zawm') n/p.[\n] 1. saisie[\n] 2. Achuzzam, un Israélite[\n] [de H270][\n] KJV: Ahuzam. [\n] Racine(s): H270"
H	276	"Achuzzath (akh-ooz-zath') n/p.[\n] 1. possession[\n] 2. Achuzzath, un Philistin[\n] [une variation de H272][\n] KJV: Ahuzzath. [\n] Racine(s): H272 "
H	277	"Achiy (akh-ee') n/p.[\n] 1. fraternel[\n] 2. Achi, le nom de deux Israélites[\n] [de H251][\n] KJV: Ahi. [\n] Racine(s): H251 "
H	278	"Echiy (ay-khee') n/p.[\n] 1. Echi, un Israélite[\n] [probablement le même que H277][\n] KJV: Ehi. [\n] Racine(s): H277 "
H	279	"Achiyam (akh-ee-awm') n/p.[\n] 1. frère de la mère (c'est-à-dire oncle)[\n] 2. Achiam, un Israélite[\n] [de H251 et H517][\n] KJV: Ahiam. [\n] Racine(s): H251, H517 "
A	280	"achiydah (akh-ee-daw') n-f.[\n] 1. parole difficile[\n] [(araméen) correspondant à H2420, une énigme][\n]  Racine(s): H2420 "
H	281	"Achiyah (akh-ee-yaw) (or prolongé pAchiyahuw {akh-ee-yaw'-hoo}) n/p.[\n] 1. frère (c'est-à-dire adorateur) de Jah[\n] 2. Achija, le nom de neuf Israélites[\n] [de H251 et H3050][\n] KJV: Ahiah, Ahijah. [\n] Racine(s): H251, H3050 "
H	282	"Achiyhuwd (akh-ee-hood') n/p.[\n] 1. frère (c'est-à-dire possesseur) de renommée[\n] 2. Achihud, un Israélite[\n] [de H251 et H1935][\n] KJV: Ahihud. [\n] Racine(s): H251, H1935 "
H	283	"Achyow (akh-yo') n/p.[\n] 1. fraternel[\n] 2. Achio, le nom de trois Israélites[\n] [prolongé de H251][\n] KJV: Ahio. [\n] Racine(s): H251 "
H	284	"Achiychud (akh-ee-khood') n/p.[\n] 1. frère d'une énigme (c'est-à-dire mystérieuse)[\n] 2. Achichud, un Israélite[\n] [de H251 et H2330][\n] KJV: Ahihud. [\n] Racine(s): H251, H2330"
H	285	"Achiytuwb (akh-ee-toob') n/p.[\n] 1. frère de bonté[\n] 2. Achitub, le nom de plusieurs prêtres[\n] [de H251 et H2898][\n] KJV: Ahitub. [\n] Racine(s): H251, H2898 "
H	286	"Achiyluwd (akh-ee-lood') n/p.[\n] 1. frère d'un né[\n] 2. Achilud, un Israélite[\n] [de H251 et H3205][\n] KJV: Ahilud. [\n] Racine(s): H251, H3205 "
H	287	"Achiymowth (akh-ee-moth') n/p.[\n] 1. frère de la mort[\n] 2. Achimoth, un Israélite[\n] [de H251 et H4191][\n] KJV: Ahimoth. [\n] Racine(s): H251, H4191 "
H	288	"Achiymelek (akh-ee-meh'-lek) n/p.[\n] 1. frère du roi[\n] 2. Achimelek, le nom d'un Israélite et d'un Hittite[\n] [de H251 et H4428][\n] KJV: Ahimelech. [\n] Racine(s): H251, H4428 "
H	289	"Achiyman (akh-ee-man') (or mAchiyman {akh-ee-mawn'}) n/p.[\n] 1. frère d'une portion (c'est-à-dire un don)[\n] 2. Achiman, le nom d'un Anakim et d'un Israélite[\n] [de H251 et H4480][\n] KJV: Ahiman. [\n] Racine(s): H251, H4480 "
H	290	"Achiyma`ats (akh-ee-mah'-ats) n/l.[\n] 1. frère de la colère[\n] 2. Achimaats, le nom de trois Israélites[\n] [de H251 et l'équivalent de H4619][\n] KJV: Ahimaaz. [\n] Racine(s): H251, H4619 "
H	291	"Achyan (akh-yawn') n/p.[\n] 1. fraternel[\n] 2. Achjan, un Israélite[\n] [de H251][\n] KJV: Ahian. [\n] Racine(s): H251 "
H	292	"Achiynadab (akh-ee-naw-dawb') n/p.[\n] 1. frère de libéralité[\n] 2. Achinadab, un Israélite[\n] [de H251 et H5068][\n] KJV: Ahinadab. [\n] Racine(s): H251, H5068 "
H	293	"Achiyno`am (akh-ee-no'-am) n/p.[\n] 1. frère de la douceur[\n] 2. Achinoam, le nom de deux Israélites[\n] [de H251 et H5278][\n] KJV: Ahinoam. [\n] Racine(s): H251, H5278 "
H	294	"Achiycamak (akh-ee-saw-mawk') n/p.[\n] 1. frère du soutien[\n] 2. Achisamak, un Israélite[\n] [de H251 et H5564][\n] KJV: Ahisamach. [\n] Racine(s): H251, H5564 "
H	295	"Achiy`ezer (akh-ee-eh'-zer) n/p.[\n] 1. frère du secours[\n] 2. Achiezer, le nom de deux Israélites[\n] [de H251 et H5828][\n] KJV: Ahiezer. [\n] Racine(s): H251, H5828 "
H	296	"Achiyqam (akh-ee-kawm') n/p.[\n] 1. frère de l'élévation (c'est-à-dire élevé)[\n] 2. Achikam, un Israélite[\n] [de H251 et H6965][\n] KJV: Ahikam. [\n] Racine(s): H251, H6965 "
H	297	"Achiyram (akh-ee-rawm') n/p.[\n] 1. frère de la hauteur (c'est-à-dire élevé)[\n] 2. Achiram, un Israélite[\n] [de H251 et H7311][\n] KJV: Ahiram. [\n] Racine(s): H251, H7311 "
H	298	"Achiyramiy (akh-ee-raw-mee') adj.[\n] 1. un Achiramite ou descendant (collectivement) d'Achiram[\n] [patronymique de H297][\n] KJV: Ahiramites. [\n] Racine(s): H297 "
H	299	"Achiyra` (akh-ee-rah') n/p.[\n] 1. frère de l'injustice[\n] 2. Achira, un Israélite[\n] [de H251 et H7451][\n] KJV: Ahira. [\n] Racine(s): H251, H7451 "
H	300	"Achiyshachar (akh-ee-shakh'-ar) n/p.[\n] 1. frère de l'aube[\n] 2. Achishachar, un Israélite[\n] [de H251 et H7837][\n] KJV: Ahishar. [\n] Racine(s): H251, H7837 "
H	301	"Achiyshar (akh-ee-shawr') n/p.[\n] 1. frère du chanteur[\n] 2. Achishar, un Israélite[\n] [de H251 et H7891][\n] KJV: Ahishar. [\n] Racine(s): H251, H7891"
H	302	"Achiythophel (akh-ee-tho'-fel) n/p.[\n] 1. frère de la folie[\n] 2. Achithophel, un Israélite[\n] [de H251 et H8602][\n] KJV: Ahithophel. [\n] Racine(s): H251, H8602 "
H	303	"Achlab (akh-lawb') n/l.[\n] 1. la graisse (c'est-à-dire fertile)[\n] 2. Achlab, un lieu en Israël[\n] [de la même racine que H2459][\n] KJV: Ahlab. [\n] Racine(s): H2459 "
H	304	"Achlay (akh-lah'ee) n/p.[\n] 1. souhaitable[\n] 2. Achlai, le nom d'une Israélite et d'un Israélite[\n] [le même que H305][\n] KJV: Ahlai. [\n] Racine(s): H305 "
H	305	"achalay (akh-al-ah'ee) (ou achaley {akh-al-ay'}) inj.[\n] 1. pourvu que![\n] [probablement de H253 et une variation de H3863][\n] KJV: Plaise à Dieu, si seulement. [\n] Racine(s): H253, H3863 "
H	306	"achlamah (akh-law'-maw) n-f.[\n] 1. une pierre précieuse, probablement de l'améthyste[\n] [peut-être de H2492 (et donc pierre de rêve)][\n] KJV: améthyste. [\n] Racine(s): H2492 "
H	307	"Achmtha' (akh-me-thaw') n/l.[\n] 1. Achmétha (c'est-à-dire Ecbatane), la capitale d'été de la Perse[\n] [d'origine perse][\n] KJV: Achmetha. "
H	308	"Achacbay (akh-as-bah'ee) n/p.[\n] 1. Achasbaï, un Israélite[\n] [d'origine incertaine][\n] KJV: Ahasbaï. "
H	309	"achar (aw-khar') v.[\n] 1. traîner (c'est-à-dire être en retard)[\n] 2. (par implication) procrastiner[\n] [racine primitive][\n] KJV: continuer, différer, retarder, être en retard, rester (là), tarder (plus longtemps). "
H	310	"achar (akh-ar') adv.[\n] 1. (correctement) la partie postérieure[\n] 2. (généralement, comme adverbe ou conjonction) après (dans divers sens)[\n] [de H309][\n] KJV: après (cela, plus tard), encore, à, loin de, en arrière (de, -side), derrière, à côté de, par, suivre (après, -ing), autant, de, désormais, extrémité arrière, + sortir (au-dessus) vivre, + persécuter, postérité, poursuivre, reste, voir, puis, de là(-bas), quand, avec. [\n] Racine(s): H309 "


